OBJECT Codeunit 1413 Read Data Exch. from Stream
{
  OBJECT-PROPERTIES
  {
    Date=22/11/17;
    Time=12:00:00;
    Version List=NAVW111.00;
  }
  PROPERTIES
  {
    TableNo=1220;
    OnRun=VAR
            TempBlob@1004 : TEMPORARY Record 99008535;
            EventHandled@1000 : Boolean;
          BEGIN
            // Fire the get stream event
            OnGetDataExchFileContentEvent(Rec,TempBlob,EventHandled);

            IF EventHandled THEN BEGIN
              "File Name" := 'Data Stream';
              "File Content" := TempBlob.Blob;
            END;
          END;

  }
  CODE
  {

    [Integration]
    [External]
    LOCAL PROCEDURE OnGetDataExchFileContentEvent@8(DataExchIdentifier@1001 : Record 1220;VAR TempBlobResponse@1002 : TEMPORARY Record 99008535;VAR Handled@1000 : Boolean);
    BEGIN
      // Event that will return the data stream from the identified subscriber
    END;

    BEGIN
    END.
  }
}

