OBJECT Codeunit 1277 Exp. External Data Gen. Jnl.
{
  OBJECT-PROPERTIES
  {
    Date=15/09/15;
    Time=12:00:00;
    Version List=NAVW19.00;
  }
  PROPERTIES
  {
    TableNo=1220;
    Permissions=TableData 1220=rimd;
    OnRun=VAR
            TempBlob@1001 : Record 99008535;
            FileMgt@1000 : Codeunit 419;
          BEGIN
            CALCFIELDS("File Content");
            IF NOT "File Content".HASVALUE THEN
              ERROR(ExternalContentErr,FIELDCAPTION("File Content"));

            TempBlob.Blob := "File Content";
            IF FileMgt.BLOBExport(TempBlob,"Data Exch. Def Code" + ' ' + "Data Exch. Line Def Code" + TxtExtTok,TRUE) = '' THEN
              ERROR(DownloadFromStreamErr);
          END;

  }
  CODE
  {
    VAR
      ExternalContentErr@1000 : TextConst 'ENU=%1 is empty.;ENG=%1 is empty.';
      DownloadFromStreamErr@1001 : TextConst 'ENU=The file has not been saved.;ENG=The file has not been saved.';
      TxtExtTok@1002 : TextConst '@@@={Locked};ENU=.txt;ENG=.txt';

    BEGIN
    END.
  }
}

