OBJECT Codeunit 1707 Exp. Mapping Foot Pos. Pay
{
  OBJECT-PROPERTIES
  {
    Date=15/09/15;
    Time=12:00:00;
    Version List=NAVW19.00;
  }
  PROPERTIES
  {
    TableNo=1220;
    OnRun=VAR
            PositivePayFooter@1010 : Record 1242;
            DataExch@1009 : Record 1220;
            DataExchLineDef@1006 : Record 1227;
            PositivePayExportMgt@1000 : Codeunit 1711;
            RecordRef@1004 : RecordRef;
            Window@1001 : Dialog;
            LineNo@1003 : Integer;
          BEGIN
            Window.OPEN(ProgressMsg);

            // Range through the Footer record
            LineNo := 1;
            DataExchLineDef.INIT;
            DataExchLineDef.SETRANGE("Data Exch. Def Code","Data Exch. Def Code");
            DataExchLineDef.SETRANGE("Line Type",DataExchLineDef."Line Type"::Footer);
            IF DataExchLineDef.FINDFIRST THEN BEGIN
              DataExch.SETRANGE("Entry No.","Entry No.");
              IF DataExch.FINDFIRST THEN BEGIN
                PositivePayFooter.INIT;
                PositivePayFooter.SETRANGE("Data Exch. Entry No.","Entry No.");
                IF PositivePayFooter.FINDFIRST THEN BEGIN
                  Window.UPDATE(1,LineNo);
                  RecordRef.GETTABLE(PositivePayFooter);
                  PositivePayExportMgt.InsertDataExchLineForFlatFile(
                    DataExch,
                    LineNo,
                    RecordRef);
                END;
              END;
            END;
            Window.CLOSE;
          END;

  }
  CODE
  {
    VAR
      ProgressMsg@1000 : TextConst 'ENU=Processing line no. #1######.;ENG=Processing line no. #1######.';

    BEGIN
    END.
  }
}

