OBJECT Codeunit 1609 Exp. Service Cr.M. - PEPPOL2.0
{
  OBJECT-PROPERTIES
  {
    Date=22/11/17;
    Time=12:00:00;
    Version List=NAVW111.00;
  }
  PROPERTIES
  {
    TableNo=62;
    OnRun=VAR
            ServiceCrMemoHeader@1000 : Record 5994;
            RecordRef@1002 : RecordRef;
          BEGIN
            RecordRef.GET(RecordID);
            RecordRef.SETTABLE(ServiceCrMemoHeader);

            ServerFilePath := GenerateXMLFile(ServiceCrMemoHeader);

            MODIFY;
          END;

  }
  CODE
  {
    VAR
      ExportPathGreaterThan250Err@1000 : TextConst 'ENU=The export path is longer than 250 characters.;ENG=The export path is longer than 250 characters.';

    [Internal]
    PROCEDURE GenerateXMLFile@19(VariantRec@1000 : Variant) : Text[250];
    VAR
      FileManagement@1002 : Codeunit 419;
      SalesCreditMemoPEPPOL20@1005 : XMLport 1603;
      OutFile@1003 : File;
      OutStream@1004 : OutStream;
      XmlServerPath@1001 : Text;
    BEGIN
      XmlServerPath := FileManagement.ServerTempFileName('xml');

      IF STRLEN(XmlServerPath) > 250 THEN
        ERROR(ExportPathGreaterThan250Err);

      IF NOT EXISTS(XmlServerPath) THEN
        OutFile.CREATE(XmlServerPath)
      ELSE
        OutFile.OPEN(XmlServerPath);

      // Generate XML
      OutFile.CREATEOUTSTREAM(OutStream);
      SalesCreditMemoPEPPOL20.Initialize(VariantRec);
      SalesCreditMemoPEPPOL20.SETDESTINATION(OutStream);
      SalesCreditMemoPEPPOL20.EXPORT;
      OutFile.CLOSE;

      EXIT(COPYSTR(XmlServerPath,1,250));
    END;

    BEGIN
    END.
  }
}

