OBJECT Codeunit 1799 Import Config. Package File
{
  OBJECT-PROPERTIES
  {
    Date=22/11/17;
    Time=12:00:00;
    Version List=NAVW111.00;
  }
  PROPERTIES
  {
    TableNo=2000000170;
    OnRun=BEGIN
            SETRECFILTER;
            CODEUNIT.RUN(CODEUNIT::"Import Config. Package Files",Rec);
          END;

  }
  CODE
  {

    BEGIN
    END.
  }
}

