OBJECT Codeunit 1283 Exp. Bank Conv.-Pre-Mapping
{
  OBJECT-PROPERTIES
  {
    Date=22/11/17;
    Time=12:00:00;
    Version List=NAVW111.00;
  }
  PROPERTIES
  {
    TableNo=1220;
    Permissions=TableData 1226=rimd;
    OnRun=BEGIN
            FillExportBuffer("Entry No.");
          END;

  }
  CODE
  {
    VAR
      ProgressMsg@1000 : TextConst 'ENU=Pre-processing line no. #1######.;ENG=Pre-processing line no. #1######.';
      Window@1001 : Dialog;

    LOCAL PROCEDURE FillExportBuffer@3(DataExchEntryNo@1003 : Integer);
    VAR
      GenJnlLine@1000 : Record 81;
      CustLedgerEntry@1014 : Record 21;
      VendorLedgerEntry@1015 : Record 25;
      PaymentMethod@1013 : Record 289;
      PaymentExportData@1001 : Record 1226;
      GeneralLedgerSetup@1012 : Record 98;
      CompanyInformation@1011 : Record 79;
      BankAccount@1010 : Record 270;
      Customer@1009 : Record 18;
      Vendor@1008 : Record 23;
      VendorBankAccount@1007 : Record 288;
      CustomerBankAccount@1006 : Record 287;
      BankExportImportSetup@1004 : Record 1200;
      Employee@1016 : Record 5200;
      MessageID@1005 : Text[20];
      LineNo@1002 : Integer;
    BEGIN
      GeneralLedgerSetup.GET;
      CompanyInformation.GET;

      GenJnlLine.SETRANGE("Data Exch. Entry No.",DataExchEntryNo);
      WITH PaymentExportData DO BEGIN
        GenJnlLine.FINDSET;
        GenJnlLine.TESTFIELD("Bal. Account Type",GenJnlLine."Bal. Account Type"::"Bank Account");
        BankAccount.GET(GenJnlLine."Bal. Account No.");
        BankAccount.TESTFIELD("Bank Name - Data Conversion");
        BankAccount.GetBankExportImportSetup(BankExportImportSetup);
        MessageID := BankAccount.GetCreditTransferMessageNo;
        Window.OPEN(ProgressMsg);

        REPEAT
          CLEAR(PaymentExportData);
          INIT;
          SetPreserveNonLatinCharacters(BankExportImportSetup."Preserve Non-Latin Characters");
          LineNo += 1;
          "Line No." := LineNo;
          "Data Exch Entry No." := DataExchEntryNo;
          "Creditor No." := BankAccount."Creditor No.";
          "Transit No." := BankAccount."Transit No.";
          "General Journal Template" := GenJnlLine."Journal Template Name";
          "General Journal Batch Name" := GenJnlLine."Journal Batch Name";
          "General Journal Line No." := GenJnlLine."Line No.";
          "Recipient ID" := GenJnlLine."Account No.";
          "Message ID" := MessageID;
          "Document No." := GenJnlLine."Document No.";
          "End-to-End ID" := "Message ID" + '/' + FORMAT("Line No.");
          "Payment Information ID" := FORMAT(CREATEGUID);
          "Applies-to Ext. Doc. No." := GenJnlLine."Applies-to Ext. Doc. No.";
          "Short Advice" := GenJnlLine."Document No.";
          "Recipient Creditor No." := GenJnlLine."Creditor No.";

          CASE GenJnlLine."Account Type" OF
            GenJnlLine."Account Type"::Customer:
              BEGIN
                Customer.GET(GenJnlLine."Account No.");
                IF CustomerBankAccount.GET(Customer."No.",GenJnlLine."Recipient Bank Account") THEN
                  SetCustomerAsRecipient(Customer,CustomerBankAccount);
                IF CustLedgerEntry.GET(GenJnlLine.GetAppliesToDocEntryNo) THEN BEGIN
                  CustLedgerEntry.CALCFIELDS("Original Amount");
                  "Invoice Amount" := ABS(CustLedgerEntry."Original Amount");
                  "Invoice Date" := CustLedgerEntry."Document Date";
                END;
              END;
            GenJnlLine."Account Type"::Vendor:
              BEGIN
                Vendor.GET(GenJnlLine."Account No.");
                IF VendorBankAccount.GET(Vendor."No.",GenJnlLine."Recipient Bank Account") THEN
                  SetVendorAsRecipient(Vendor,VendorBankAccount);
                IF VendorLedgerEntry.GET(GenJnlLine.GetAppliesToDocEntryNo) THEN BEGIN
                  VendorLedgerEntry.CALCFIELDS("Original Amount");
                  "Invoice Amount" := ABS(VendorLedgerEntry."Original Amount");
                  "Invoice Date" := VendorLedgerEntry."Document Date";
                END;
              END;
            GenJnlLine."Account Type"::Employee:
              BEGIN
                Employee.GET(GenJnlLine."Account No.");
                SetEmployeeAsRecipient(Employee);
              END;
          END;

          GenJnlLine.TESTFIELD("Payment Method Code");
          PaymentMethod.GET(GenJnlLine."Payment Method Code");
          "Data Exch. Line Def Code" := PaymentMethod."Pmt. Export Line Definition";
          "Payment Type" := PaymentMethod."Bank Data Conversion Pmt. Type";
          "Payment Reference" := GenJnlLine."Payment Reference";
          "Message to Recipient 1" := COPYSTR(GenJnlLine."Message to Recipient",1,35);
          "Message to Recipient 2" := COPYSTR(GenJnlLine."Message to Recipient",36,70);
          Amount := GenJnlLine.Amount;
          "Currency Code" := GeneralLedgerSetup.GetCurrencyCode(GenJnlLine."Currency Code");
          "Transfer Date" := GenJnlLine."Posting Date";
          "Costs Distribution" := 'Shared';
          "Message Structure" := 'manual';
          "Own Address Info." := 'frombank';
          SetBankAsSenderBank(BankAccount);
          "Sender Bank Country/Region" := CompanyInformation.GetCountryRegionCode(BankAccount."Country/Region Code");
          "Sender Bank Account Currency" := GeneralLedgerSetup.GetCurrencyCode(BankAccount."Currency Code");

          INSERT(TRUE);
          Window.UPDATE(1,LineNo);
        UNTIL GenJnlLine.NEXT = 0;
      END;

      Window.CLOSE;
    END;

    BEGIN
    END.
  }
}

