OBJECT Codeunit 351 Intrastat Document Completion
{
  OBJECT-PROPERTIES
  {
    Date=22/11/17;
    Time=12:00:00;
    Version List=NAVW111.00;
  }
  PROPERTIES
  {
    OnRun=BEGIN
          END;

  }
  CODE
  {
    VAR
      IntrastatSetup@1000 : Record 247;

    [EventSubscriber(Table,36,OnBeforeInsertEvent)]
    PROCEDURE DefaultSalesDocuments@3(VAR Rec@1000 : Record 36;RunTrigger@1001 : Boolean);
    BEGIN
      IF (Rec."Transaction Type" <> '') OR
         Rec.ISTEMPORARY
      THEN
        EXIT;

      IF NOT IntrastatSetup.READPERMISSION THEN
        EXIT;

      IF NOT IntrastatSetup.GET THEN
        EXIT;

      IF (Rec."Document Type" = Rec."Document Type"::"Credit Memo") OR
         (Rec."Document Type" = Rec."Document Type"::"Return Order")
      THEN
        Rec.VALIDATE("Transaction Type",IntrastatSetup."Default Trans. - Return");

      IF (Rec."Document Type" = Rec."Document Type"::Invoice) OR
         (Rec."Document Type" = Rec."Document Type"::Order)
      THEN
        Rec.VALIDATE("Transaction Type",IntrastatSetup."Default Trans. - Purchase");
    END;

    [EventSubscriber(Table,38,OnBeforeInsertEvent)]
    PROCEDURE DefaultPurchaseDcouments@6(VAR Rec@1000 : Record 38;RunTrigger@1001 : Boolean);
    BEGIN
      IF (Rec."Transaction Type" <> '') OR
         Rec.ISTEMPORARY
      THEN
        EXIT;

      IF NOT IntrastatSetup.READPERMISSION THEN
        EXIT;

      IF NOT IntrastatSetup.GET THEN
        EXIT;

      IF (Rec."Document Type" = Rec."Document Type"::"Credit Memo") OR
         (Rec."Document Type" = Rec."Document Type"::"Return Order")
      THEN
        Rec.VALIDATE("Transaction Type",IntrastatSetup."Default Trans. - Return");

      IF (Rec."Document Type" = Rec."Document Type"::Invoice) OR
         (Rec."Document Type" = Rec."Document Type"::Order)
      THEN
        Rec.VALIDATE("Transaction Type",IntrastatSetup."Default Trans. - Purchase");
    END;

    BEGIN
    END.
  }
}

