OBJECT Codeunit 5201 Employee/Salesperson Update
{
  OBJECT-PROPERTIES
  {
    Date=22/11/17;
    Time=12:00:00;
    Version List=NAVW111.00;
  }
  PROPERTIES
  {
    Permissions=TableData 13=rimd;
    OnRun=BEGIN
          END;

  }
  CODE
  {
    VAR
      SalespersonPurchaser@1000 : Record 13;

    [External]
    PROCEDURE HumanResToSalesPerson@1(OldEmployee@1000 : Record 5200;Employee@1001 : Record 5200);
    BEGIN
      IF (Employee."Salespers./Purch. Code" <> '') AND
         ((OldEmployee."Salespers./Purch. Code" <> Employee."Salespers./Purch. Code") OR
          (OldEmployee."First Name" <> Employee."First Name") OR
          (OldEmployee."Middle Name" <> Employee."Middle Name") OR
          (OldEmployee."Last Name" <> Employee."Last Name"))
      THEN
        SalesPersonUpdate(Employee)
      ELSE
        EXIT;
    END;

    LOCAL PROCEDURE SalesPersonUpdate@4(Employee@1000 : Record 5200);
    BEGIN
      SalespersonPurchaser.GET(Employee."Salespers./Purch. Code");
      SalespersonPurchaser.Name := COPYSTR(Employee.FullName,1,50);
      SalespersonPurchaser.MODIFY
    END;

    BEGIN
    END.
  }
}

