OBJECT Codeunit 5670 FA. Jnl.-Post+Print
{
  OBJECT-PROPERTIES
  {
    Date=25/10/16;
    Time=12:00:00;
    Version List=NAVW110.00;
  }
  PROPERTIES
  {
    TableNo=5621;
    OnRun=BEGIN
            FAJnlLine.COPY(Rec);
            Code;
            COPY(FAJnlLine);
          END;

  }
  CODE
  {
    VAR
      Text000@1000 : TextConst 'ENU=cannot be filtered when posting recurring journals;ENG=cannot be filtered when posting recurring journals';
      Text001@1001 : TextConst 'ENU=Do you want to post the journal lines and print the posting report?;ENG=Do you want to post the journal lines and print the posting report?';
      Text002@1002 : TextConst 'ENU=There is nothing to post.;ENG=There is nothing to post.';
      Text003@1003 : TextConst 'ENU=The journal lines were successfully posted.;ENG=The journal lines were successfully posted.';
      Text004@1004 : TextConst 'ENU=The journal lines were successfully posted. You are now in the %1 journal.;ENG=The journal lines were successfully posted. You are now in the %1 journal.';
      FAJnlTemplate@1005 : Record 5619;
      FAJnlLine@1006 : Record 5621;
      FAReg@1007 : Record 5617;
      TempJnlBatchName@1009 : Code[10];

    LOCAL PROCEDURE Code@1();
    BEGIN
      WITH FAJnlLine DO BEGIN
        FAJnlTemplate.GET("Journal Template Name");
        FAJnlTemplate.TESTFIELD("Posting Report ID");
        FAJnlTemplate.TESTFIELD("Maint. Posting Report ID");
        IF FAJnlTemplate.Recurring AND (GETFILTER("FA Posting Date") <> '') THEN
          FIELDERROR("FA Posting Date",Text000);

        IF NOT CONFIRM(Text001,FALSE) THEN
          EXIT;

        TempJnlBatchName := "Journal Batch Name";

        CODEUNIT.RUN(CODEUNIT::"FA Jnl.-Post Batch",FAJnlLine);

        IF FAReg.GET("Line No.") THEN BEGIN
          FAReg.SETRECFILTER;
          IF FAReg."From Entry No." > 0 THEN
            REPORT.RUN(FAJnlTemplate."Posting Report ID",FALSE,FALSE,FAReg);
          IF FAReg."From Maintenance Entry No." > 0 THEN
            REPORT.RUN(FAJnlTemplate."Maint. Posting Report ID",FALSE,FALSE,FAReg);
        END;

        IF "Line No." = 0 THEN
          MESSAGE(Text002)
        ELSE
          IF TempJnlBatchName = "Journal Batch Name" THEN
            MESSAGE(Text003)
          ELSE
            MESSAGE(
              Text004,
              "Journal Batch Name");

        IF NOT FIND('=><') OR (TempJnlBatchName <> "Journal Batch Name") THEN BEGIN
          RESET;
          FILTERGROUP := 2;
          SETRANGE("Journal Template Name","Journal Template Name");
          SETRANGE("Journal Batch Name","Journal Batch Name");
          FILTERGROUP := 0;
          "Line No." := 1;
        END;
      END;
    END;

    BEGIN
    END.
  }
}

