OBJECT Codeunit 5932 Service-Get Shipment
{
  OBJECT-PROPERTIES
  {
    Date=22/11/17;
    Time=12:00:00;
    Version List=NAVW111.00;
  }
  PROPERTIES
  {
    TableNo=5902;
    OnRun=BEGIN
            ServiceHeader.GET("Document Type","Document No.");
            ServiceHeader.TESTFIELD("Document Type",ServiceHeader."Document Type"::Invoice);

            CLEAR(ServiceShptLine);
            ServiceShptLine.SETCURRENTKEY("Bill-to Customer No.");
            ServiceShptLine.SETRANGE("Bill-to Customer No.",ServiceHeader."Bill-to Customer No.");
            ServiceShptLine.SETFILTER("Qty. Shipped Not Invoiced",'<>0');
            ServiceShptLine.SETRANGE("Currency Code",ServiceHeader."Currency Code");
            ServiceShptLine.FILTERGROUP(2);

            GetServiceShipments.SETTABLEVIEW(ServiceShptLine);
            GetServiceShipments.SetServiceHeader(ServiceHeader);
            GetServiceShipments.LOOKUPMODE(TRUE);
            GetServiceShipments.RUNMODAL;
          END;

  }
  CODE
  {
    VAR
      Text001@1000 : TextConst 'ENU=The %1 on the %2 %3 and the %4 %5 must be the same.;ENG=The %1 on the %2 %3 and the %4 %5 must be the same.';
      ServiceHeader@1001 : Record 5900;
      ServiceLine@1002 : Record 5902;
      ServiceShptHeader@1003 : Record 5990;
      ServiceShptLine@1004 : Record 5991;
      GetServiceShipments@1005 : Page 5994;

    [External]
    PROCEDURE CreateInvLines@1(VAR ServiceShptLine2@1000 : Record 5991);
    VAR
      TransferLine@1001 : Boolean;
    BEGIN
      WITH ServiceShptLine2 DO BEGIN
        SETFILTER("Qty. Shipped Not Invoiced",'<>0');
        IF FIND('-') THEN BEGIN
          ServiceLine.LOCKTABLE;
          ServiceLine.SETRANGE("Document Type",ServiceHeader."Document Type");
          ServiceLine.SETRANGE("Document No.",ServiceHeader."No.");
          ServiceLine."Document Type" := ServiceHeader."Document Type";
          ServiceLine."Document No." := ServiceHeader."No.";

          REPEAT
            IF ServiceShptHeader."No." <> "Document No." THEN BEGIN
              ServiceShptHeader.GET("Document No.");
              TransferLine := TRUE;
              IF ServiceShptHeader."Currency Code" <> ServiceHeader."Currency Code" THEN BEGIN
                MESSAGE(
                  Text001,
                  ServiceHeader.FIELDCAPTION("Currency Code"),
                  ServiceHeader.TABLECAPTION,ServiceHeader."No.",
                  ServiceShptHeader.TABLECAPTION,ServiceShptHeader."No.");
                TransferLine := FALSE;
              END;
              IF ServiceShptHeader."Bill-to Customer No." <> ServiceHeader."Bill-to Customer No." THEN BEGIN
                MESSAGE(
                  Text001,
                  ServiceHeader.FIELDCAPTION("Bill-to Customer No."),
                  ServiceHeader.TABLECAPTION,ServiceHeader."No.",
                  ServiceShptHeader.TABLECAPTION,ServiceShptHeader."No.");
                TransferLine := FALSE;
              END;
            END;
            IF TransferLine THEN BEGIN
              ServiceShptLine := ServiceShptLine2;

              ServiceShptLine.InsertInvLineFromShptLine(ServiceLine);
            END;
          UNTIL NEXT = 0;
        END;
      END;
    END;

    [External]
    PROCEDURE SetServiceHeader@2(VAR ServiceHeader2@1000 : Record 5900);
    BEGIN
      ServiceHeader.GET(ServiceHeader2."Document Type",ServiceHeader2."No.");
      ServiceHeader.TESTFIELD("Document Type",ServiceHeader."Document Type"::Invoice);
    END;

    BEGIN
    END.
  }
}

