OBJECT Codeunit 5371 CRM Synch. Job Management
{
  OBJECT-PROPERTIES
  {
    Date=22/11/17;
    Time=12:00:00;
    Version List=NAVW111.00;
  }
  PROPERTIES
  {
    OnRun=BEGIN
          END;

  }
  CODE
  {

    [External]
    PROCEDURE SetInitialState@5(VAR CRMSynchJobStatusCue@1001 : Record 5370);
    BEGIN
      WITH CRMSynchJobStatusCue DO BEGIN
        RESET;
        IF NOT FINDFIRST THEN BEGIN
          INIT;
          Code := GetDefaultPkValue;
          INSERT;
        END;
        SetFilters(CRMSynchJobStatusCue);
      END;
    END;

    [External]
    PROCEDURE OnReset@6(VAR CRMSynchJobStatusCue@1000 : Record 5370);
    BEGIN
      WITH CRMSynchJobStatusCue DO BEGIN
        RESET;
        FINDFIRST;
        "Reset Date" := GetLastFailedDate(GetDefaultJobRunner);
        MODIFY;
        SetFilters(CRMSynchJobStatusCue);
      END;
    END;

    LOCAL PROCEDURE FindLastJobQueue@4(VAR JobQueueEntry@1000 : Record 472;JobToRun@1001 : Integer) : Boolean;
    BEGIN
      WITH JobQueueEntry DO BEGIN
        SETRANGE(Status,Status::Error);
        SETRANGE("Object ID to Run",JobToRun);
        EXIT(FINDLAST);
      END;
    END;

    LOCAL PROCEDURE GetLastFailedDate@1(JobToRun@1001 : Integer) : DateTime;
    VAR
      JobQueueEntry@1000 : Record 472;
    BEGIN
      IF FindLastJobQueue(JobQueueEntry,JobToRun) THEN
        EXIT(JobQueueEntry."Last Ready State");
      EXIT(CREATEDATETIME(TODAY,TIME));
    END;

    LOCAL PROCEDURE GetDefaultPkValue@7() : Code[10];
    BEGIN
      EXIT('0');
    END;

    LOCAL PROCEDURE SetFilters@3(VAR CRMSynchJobStatusCue@1000 : Record 5370);
    BEGIN
      WITH CRMSynchJobStatusCue DO BEGIN
        SETRANGE("Object ID to Run",GetDefaultJobRunner);
        SETFILTER("Date Filter",'>%1',"Reset Date");
      END;
    END;

    [External]
    PROCEDURE GetDefaultJobRunner@8() : Integer;
    BEGIN
      EXIT(CODEUNIT::"Integration Synch. Job Runner");
    END;

    BEGIN
    END.
  }
}

