OBJECT Codeunit 5900 ServOrderManagement
{
  OBJECT-PROPERTIES
  {
    Date=26/04/18;
    Time=12:00:00;
    Version List=NAVW111.00.00.21836;
  }
  PROPERTIES
  {
    OnRun=BEGIN
          END;

  }
  CODE
  {
    VAR
      Text000@1000 : TextConst 'ENU=You cannot create a %1, because the %2 field is not empty.;ENG=You cannot create a %1, because the %2 field is not empty.';
      Text001@1001 : TextConst 'ENU=You must specify %1, %2 and %3 in %4 %5, before you create new %6.;ENG=You must specify %1, %2 and %3 in %4 %5, before you create new %6.';
      Text002@1002 : TextConst 'ENU=This customer already exists.\\;ENG=This customer already exists.\\';
      Text003@1003 : TextConst 'ENU=Do you want create a new %1 instead of using the existing one?;ENG=Do you want create a new %1 instead of using the existing one?';
      Text004@1004 : TextConst 'ENU=There are no Customer Templates.;ENG=There are no Customer Templates.';
      Text005@1005 : TextConst 'ENU=Posting cannot be completed successfully. The %1 field on the service invoice lines should contain 1 because %2 %3 was replaced.;ENG=Posting cannot be completed successfully. The %1 field on the service invoice lines should contain 1 because %2 %3 was replaced.';
      Text006@1006 : TextConst 'ENU=The %1 %2 is already assigned to %3 %4.;ENG=The %1 %2 is already assigned to %3 %4.';
      Text007@1007 : TextConst 'ENU=%1 %2 was created.;ENG=%1 %2 was created.';
      Text008@1008 : TextConst 'ENU=There is not enough space to insert %1.;ENG=There is not enough space to insert %1.';
      Text009@1009 : TextConst 'ENU=Travel fee in the %1 table with %2 %3 cannot be found.;ENG=Travel fee in the %1 table with %2 %3 cannot be found.';
      Text011@1011 : TextConst 'ENU=There is no %1 for %2 %3.;ENG=There is no %1 for %2 %3.';
      Text012@1012 : TextConst 'ENU=You can not post %1 %2.\\%3 %4 in %5 line %6 is preventing it.;ENG=You can not post %1 %2.\\%3 %4 in %5 line %6 is preventing it.';

    [External]
    PROCEDURE ServHeaderLookup@5(DocumentType@1003 : Integer;VAR DocumentNo@1000 : Code[20]) : Boolean;
    VAR
      ServHeader@1001 : Record 5900;
    BEGIN
      IF ServHeader.GET(DocumentType,DocumentNo) THEN BEGIN
        ServHeader.SETRANGE("Document Type",DocumentType);
        IF PAGE.RUNMODAL(0,ServHeader) = ACTION::LookupOK THEN BEGIN
          DocumentNo := ServHeader."No.";
          EXIT(TRUE);
        END;
      END;
      EXIT(FALSE);
    END;

    [External]
    PROCEDURE UpdateResponseDateTime@7(VAR ServItemLine@1000 : Record 5901;Deleting@1005 : Boolean);
    VAR
      ServItemLine2@1006 : Record 5901;
      ServHeader@1007 : Record 5900;
      NewResponseDate@1001 : Date;
      NewResponseTime@1002 : Time;
    BEGIN
      IF NOT ServHeader.GET(ServItemLine."Document Type",ServItemLine."Document No.") THEN
        EXIT;

      IF NOT Deleting THEN BEGIN
        NewResponseDate := ServItemLine."Response Date";
        NewResponseTime := ServItemLine."Response Time";
      END;

      ServItemLine2.RESET;
      ServItemLine2.SETRANGE("Document Type",ServItemLine."Document Type");
      ServItemLine2.SETRANGE("Document No.",ServItemLine."Document No.");
      ServItemLine2.SETFILTER("Line No.",'<>%1',ServItemLine."Line No.");
      IF ServItemLine2.FIND('-') THEN BEGIN
        IF Deleting THEN BEGIN
          NewResponseDate := ServItemLine2."Response Date";
          NewResponseTime := ServItemLine2."Response Time";
        END;
        REPEAT
          IF ServItemLine2."Response Date" < NewResponseDate THEN BEGIN
            NewResponseDate := ServItemLine2."Response Date";
            NewResponseTime := ServItemLine2."Response Time"
          END ELSE
            IF (ServItemLine2."Response Date" = NewResponseDate) AND
               (ServItemLine2."Response Time" < NewResponseTime)
            THEN
              NewResponseTime := ServItemLine2."Response Time";
        UNTIL ServItemLine2.NEXT = 0;
      END;

      IF (ServHeader."Response Date" <> NewResponseDate) OR
         (ServHeader."Response Time" <> NewResponseTime)
      THEN BEGIN
        ServHeader."Response Date" := NewResponseDate;
        ServHeader."Response Time" := NewResponseTime;
        ServHeader.MODIFY;
      END;
    END;

    [Internal]
    PROCEDURE CreateNewCustomer@2(VAR ServHeader@1000 : Record 5900);
    VAR
      Cust@1001 : Record 18;
      DefaultDim@1002 : Record 352;
      DefaultDim2@1003 : Record 352;
      CustTempl@1005 : Record 5105;
      FromCustInvDisc@1004 : Record 19;
      ToCustInvDisc@1006 : Record 19;
      CustContUpdate@1007 : Codeunit 5056;
    BEGIN
      WITH ServHeader DO BEGIN
        IF "Customer No." <> '' THEN
          ERROR(
            Text000,
            Cust.TABLECAPTION,FIELDCAPTION("Customer No."));
        IF (Name = '') OR (Address = '') OR (City = '') THEN
          ERROR(
            Text001,
            FIELDCAPTION(Name),FIELDCAPTION(Address),FIELDCAPTION(City),TABLECAPTION,"No.",Cust.TABLECAPTION);

        Cust.RESET;
        Cust.SETCURRENTKEY(Name,Address,City);
        Cust.SETRANGE(Name,Name);
        Cust.SETRANGE(Address,Address);
        Cust.SETRANGE(City,City);
        IF Cust.FINDFIRST THEN
          IF NOT
             CONFIRM(
               Text002 + Text003,
               FALSE,Cust.TABLECAPTION)
          THEN BEGIN
            VALIDATE("Customer No.",Cust."No.");
            EXIT;
          END;
        CustTempl.RESET;
        IF NOT CustTempl.FINDFIRST THEN
          ERROR(Text004);
        IF PAGE.RUNMODAL(PAGE::"Customer Template List",CustTempl) = ACTION::LookupOK THEN BEGIN
          Cust."No." := '';
          Cust.VALIDATE(Name,Name);
          Cust."Name 2" := "Name 2";
          Cust.Address := Address;
          Cust."Address 2" := "Address 2";
          Cust.City := City;
          Cust."Post Code" := "Post Code";
          Cust.Contact := "Contact Name";
          Cust."Phone No." := "Phone No.";
          Cust."E-Mail" := "E-Mail";
          Cust.Blocked := Cust.Blocked::" ";
          Cust."Territory Code" := CustTempl."Territory Code";
          Cust."Global Dimension 1 Code" := CustTempl."Global Dimension 1 Code";
          Cust."Global Dimension 2 Code" := CustTempl."Global Dimension 2 Code";
          Cust."Customer Posting Group" := CustTempl."Customer Posting Group";
          Cust."Currency Code" := CustTempl."Currency Code";
          Cust."Invoice Disc. Code" := CustTempl."Invoice Disc. Code";
          Cust."Customer Price Group" := CustTempl."Customer Price Group";
          Cust."Customer Disc. Group" := CustTempl."Customer Disc. Group";
          Cust."Country/Region Code" := CustTempl."Country/Region Code";
          Cust."Allow Line Disc." := CustTempl."Allow Line Disc.";
          Cust."Gen. Bus. Posting Group" := CustTempl."Gen. Bus. Posting Group";
          Cust."VAT Bus. Posting Group" := CustTempl."VAT Bus. Posting Group";
          Cust.VALIDATE("Payment Terms Code",CustTempl."Payment Terms Code");
          Cust.VALIDATE("Payment Method Code",CustTempl."Payment Method Code");
          Cust."Prices Including VAT" := CustTempl."Prices Including VAT";
          Cust."Shipment Method Code" := CustTempl."Shipment Method Code";
          Cust.INSERT(TRUE);

          IF "Contact Name" <> '' THEN BEGIN
            CustContUpdate.InsertNewContactPerson(Cust,FALSE);
            Cust.MODIFY;
          END;

          DefaultDim.RESET;
          DefaultDim.SETRANGE("Table ID",DATABASE::"Customer Template");
          DefaultDim.SETRANGE("No.",CustTempl.Code);
          IF DefaultDim.FIND('-') THEN
            REPEAT
              DefaultDim2 := DefaultDim;
              DefaultDim2."Table ID" := DATABASE::Customer;
              DefaultDim2."No." := Cust."No.";
              DefaultDim2.INSERT(TRUE);
            UNTIL DefaultDim.NEXT = 0;

          IF CustTempl."Invoice Disc. Code" <> '' THEN BEGIN
            FromCustInvDisc.RESET;
            FromCustInvDisc.SETRANGE(Code,CustTempl."Invoice Disc. Code");
            IF FromCustInvDisc.FIND('-') THEN
              REPEAT
                ToCustInvDisc.INIT;
                ToCustInvDisc.Code := Cust."No.";
                ToCustInvDisc."Currency Code" := FromCustInvDisc."Currency Code";
                ToCustInvDisc."Minimum Amount" := FromCustInvDisc."Minimum Amount";
                ToCustInvDisc."Discount %" := FromCustInvDisc."Discount %";
                ToCustInvDisc."Service Charge" := FromCustInvDisc."Service Charge";
                ToCustInvDisc.INSERT;
              UNTIL FromCustInvDisc.NEXT = 0;
          END;
          VALIDATE("Customer No.",Cust."No.");
        END;
      END;
    END;

    [External]
    PROCEDURE ReplacementCreateServItem@1(FromServItem@1000 : Record 5940;ServiceLine@1001 : Record 5902;ServShptDocNo@1011 : Code[20];ServShptLineNo@1012 : Integer;VAR TempTrackingSpecification@1008 : TEMPORARY Record 336);
    VAR
      ServMgtSetup@1006 : Record 5911;
      NewServItem@1003 : Record 5940;
      ResSkill@1010 : Record 5956;
      ServLogMgt@1004 : Codeunit 5906;
      NoSeriesMgt@1005 : Codeunit 396;
      ResSkillMgt@1009 : Codeunit 5931;
      SerialNo@1007 : Code[20];
    BEGIN
      IF ServiceLine.Quantity <> 1 THEN
        ERROR(Text005,ServiceLine.FIELDCAPTION(Quantity),FromServItem.TABLECAPTION,FromServItem."No.");

      SerialNo := '';
      TempTrackingSpecification.RESET;
      TempTrackingSpecification.SETCURRENTKEY(
        "Source ID","Source Type","Source Subtype","Source Batch Name",
        "Source Prod. Order Line","Source Ref. No.");
      TempTrackingSpecification.SETRANGE("Source Type",DATABASE::"Service Line");
      TempTrackingSpecification.SETRANGE("Source Subtype",ServiceLine."Document Type");
      TempTrackingSpecification.SETRANGE("Source ID",ServiceLine."Document No.");
      TempTrackingSpecification.SETRANGE("Source Ref. No.",ServiceLine."Line No.");
      IF TempTrackingSpecification.FIND('-') THEN
        SerialNo := TempTrackingSpecification."Serial No.";

      IF SerialNo <> '' THEN BEGIN
        NewServItem.RESET;
        NewServItem.SETCURRENTKEY("Item No.","Serial No.");
        NewServItem.SETRANGE("Item No.",ServiceLine."No.");
        NewServItem.SETRANGE("Variant Code",ServiceLine."Variant Code");
        NewServItem.SETRANGE("Serial No.",SerialNo);
        IF NewServItem.FINDFIRST THEN
          ERROR(
            Text006,
            NewServItem.TABLECAPTION,NewServItem."No.",NewServItem.FIELDCAPTION("Serial No."),NewServItem."Serial No.");
      END;

      NewServItem.RESET;
      ServMgtSetup.GET;
      NewServItem := FromServItem;
      NewServItem."No." := '';
      NoSeriesMgt.InitSeries(
        ServMgtSetup."Service Item Nos.",NewServItem."No. Series",0D,NewServItem."No.",NewServItem."No. Series");
      NewServItem."Serial No." := SerialNo;
      NewServItem."Variant Code" := ServiceLine."Variant Code";
      NewServItem."Shipment Type" := NewServItem."Shipment Type"::Service;
      NewServItem."Sales/Serv. Shpt. Document No." := ServShptDocNo;
      NewServItem."Sales/Serv. Shpt. Line No." := ServShptLineNo;
      CASE ServiceLine."Spare Part Action" OF
        ServiceLine."Spare Part Action"::"Temporary":
          NewServItem.Status := NewServItem.Status::"Temporarily Installed";
        ServiceLine."Spare Part Action"::Permanent:
          NewServItem.Status := NewServItem.Status::Installed;
      END;

      NewServItem.INSERT;
      ResSkillMgt.CloneObjectResourceSkills(ResSkill.Type::"Service Item",FromServItem."No.",NewServItem."No.");

      CLEAR(ServLogMgt);
      ServLogMgt.ServItemAutoCreated(NewServItem);

      CLEAR(ServLogMgt);
      ServLogMgt.ServItemReplaced(FromServItem,NewServItem);
      FromServItem.Status := FromServItem.Status::Defective;
      FromServItem.MODIFY;
      CASE ServiceLine."Copy Components From" OF
        ServiceLine."Copy Components From"::"Item BOM":
          CopyComponentsFromBOM(NewServItem);
        ServiceLine."Copy Components From"::"Old Service Item":
          CopyComponentsFromSI(FromServItem,NewServItem,TRUE);
        ServiceLine."Copy Components From"::"Old Serv.Item w/o Serial No.":
          CopyComponentsFromSI(FromServItem,NewServItem,FALSE);
      END;

      MESSAGE(
        Text007,
        NewServItem.TABLECAPTION,NewServItem."No.");
    END;

    [External]
    PROCEDURE InsertServCost@4(ServInvLine@1000 : Record 5902;CostType@1001 : Integer;LinktoServItemLine@1007 : Boolean) : Boolean;
    VAR
      ServMgtSetup@1002 : Record 5911;
      ServHeader@1003 : Record 5900;
      ServInvLine2@1004 : Record 5902;
      ServCost@1005 : Record 5905;
      NextLine@1006 : Integer;
    BEGIN
      ServHeader.GET(ServInvLine."Document Type",ServInvLine."Document No.");

      ServInvLine2.RESET;
      ServInvLine2.SETRANGE("Document Type",ServInvLine."Document Type");
      ServInvLine2.SETRANGE("Document No.",ServInvLine."Document No.");
      ServInvLine2 := ServInvLine;

      NextLine := ServInvLine.GetNextLineNo(ServInvLine,FALSE);
      IF NextLine = 0 THEN
        ERROR(Text008,ServInvLine.TABLECAPTION);

      CASE CostType OF
        0: // Travel Fee
          BEGIN
            ServHeader.TESTFIELD("Service Zone Code");
            ServCost.RESET;
            ServCost.SETCURRENTKEY("Service Zone Code");
            ServCost.SETRANGE("Service Zone Code",ServHeader."Service Zone Code");
            ServCost.SETRANGE("Cost Type",ServCost."Cost Type"::Travel);
            IF NOT ServCost.FINDFIRST THEN
              ERROR(
                Text009,
                ServCost.TABLECAPTION,ServCost.FIELDCAPTION("Service Zone Code"),ServHeader."Service Zone Code");

            ServInvLine2.INIT;
            IF LinktoServItemLine THEN BEGIN
              ServInvLine2."Service Item Line No." := ServInvLine."Service Item Line No.";
              ServInvLine2."Service Item No." := ServInvLine."Service Item No.";
              ServInvLine2."Service Item Serial No." := ServInvLine."Service Item Serial No.";
            END;
            ServInvLine2."Document Type" := ServHeader."Document Type";
            ServInvLine2."Document No." := ServHeader."No.";
            ServInvLine2."Line No." := NextLine;
            ServInvLine2.Type := ServInvLine2.Type::Cost;
            ServInvLine2.VALIDATE("No.",ServCost.Code);
            ServInvLine2.VALIDATE("Unit of Measure Code",ServCost."Unit of Measure Code");
            ServInvLine2.INSERT(TRUE);
            EXIT(TRUE);
          END;
        1: // Starting Fee
          BEGIN
            ServMgtSetup.GET;
            ServMgtSetup.TESTFIELD("Service Order Starting Fee");
            ServCost.GET(ServMgtSetup."Service Order Starting Fee");
            ServInvLine2.INIT;
            IF LinktoServItemLine THEN BEGIN
              ServInvLine2."Service Item Line No." := ServInvLine."Service Item Line No.";
              ServInvLine2."Service Item No." := ServInvLine."Service Item No.";
              ServInvLine2."Service Item Serial No." := ServInvLine."Service Item Serial No.";
            END;
            ServInvLine2."Document Type" := ServHeader."Document Type";
            ServInvLine2."Document No." := ServHeader."No.";
            ServInvLine2."Line No." := NextLine;
            ServInvLine2.Type := ServInvLine2.Type::Cost;
            ServInvLine2.VALIDATE("No.",ServCost.Code);
            ServInvLine2.VALIDATE("Unit of Measure Code",ServCost."Unit of Measure Code");
            ServInvLine2.INSERT(TRUE);
            EXIT(TRUE);
          END;
        ELSE
          EXIT(FALSE);
      END;
    END;

    [External]
    PROCEDURE FindContactInformation@3(CustNo@1000 : Code[20]) : Code[20];
    VAR
      ServMgtSetup@1006 : Record 5911;
      Cust@1007 : Record 18;
      ContBusRel@1008 : Record 5054;
      ContJobResp@1009 : Record 5067;
      Cont@1010 : Record 5050;
      ContactFound@1012 : Boolean;
    BEGIN
      IF Cust.GET(CustNo) THEN BEGIN
        ServMgtSetup.GET;
        ContactFound := FALSE;
        ContBusRel.RESET;
        ContBusRel.SETCURRENTKEY("Link to Table","No.");
        ContBusRel.SETRANGE("Link to Table",ContBusRel."Link to Table"::Customer);
        ContBusRel.SETRANGE("No.",Cust."No.");
        Cont.RESET;
        Cont.SETCURRENTKEY("Company No.");
        Cont.SETRANGE(Type,Cont.Type::Person);
        IF ContBusRel.FINDFIRST THEN BEGIN
          Cont.SETRANGE("Company No.",ContBusRel."Contact No.");
          IF Cont.FIND('-') THEN
            REPEAT
              ContJobResp.RESET;
              ContJobResp.SETRANGE("Contact No.",Cont."No.");
              ContJobResp.SETRANGE("Job Responsibility Code",ServMgtSetup."Serv. Job Responsibility Code");
              ContactFound := ContJobResp.FINDFIRST;
            UNTIL (Cont.NEXT = 0) OR ContactFound;
        END;
        IF ContactFound THEN BEGIN
          Cont.GET(ContJobResp."Contact No.");
          EXIT(Cont."No.");
        END;
      END;
    END;

    [External]
    PROCEDURE FindResLocationCode@8(ResourceNo@1000 : Code[20];StartDate@1001 : Date) : Code[10];
    VAR
      ResLocation@1002 : Record 5952;
    BEGIN
      ResLocation.RESET;
      ResLocation.SETCURRENTKEY("Resource No.","Starting Date");
      ResLocation.SETRANGE("Resource No.",ResourceNo);
      ResLocation.SETRANGE("Starting Date",0D,StartDate);
      IF ResLocation.FINDLAST THEN
        EXIT(ResLocation."Location Code");
    END;

    [External]
    PROCEDURE CalcServTime@6(StartingDate@1000 : Date;StartingTime@1001 : Time;FinishingDate@1002 : Date;FinishingTime@1003 : Time;ContractNo@1004 : Code[20];ContractCalendarExists@1005 : Boolean) : Decimal;
    VAR
      CalChange@1015 : Record 7602;
      ServHour@1006 : Record 5910;
      ServMgtSetup@1013 : Record 5911;
      CalendarMgmt@1012 : Codeunit 7600;
      TotTime@1011 : Decimal;
      TempDay@1010 : Integer;
      TempDate@1009 : Date;
      Holiday@1008 : Boolean;
      CalendarCustomized@1014 : Boolean;
      NewDescription@1007 : Text[50];
      MiliSecPerDay@1016 : Decimal;
    BEGIN
      MiliSecPerDay := 86400000;
      IF (StartingDate = 0D) OR (StartingTime = 0T) OR (FinishingDate = 0D) OR (FinishingTime = 0T) THEN
        EXIT(0);

      ServHour.RESET;
      IF (ContractNo <> '') AND ContractCalendarExists THEN BEGIN
        ServHour.SETRANGE("Service Contract Type",ServHour."Service Contract Type"::Contract);
        ServHour.SETRANGE("Service Contract No.",ContractNo)
      END ELSE BEGIN
        ServHour.SETRANGE("Service Contract Type",ServHour."Service Contract Type"::" ");
        ServHour.SETRANGE("Service Contract No.",'');
      END;

      IF ServHour.ISEMPTY THEN
        EXIT(
          ROUND(
            ((FinishingDate - StartingDate) * MiliSecPerDay +
             CalendarMgmt.CalcTimeDelta(FinishingTime,StartingTime)) / 3600000,0.01));

      TotTime := 0;
      TempDate := StartingDate;

      ServMgtSetup.GET;
      ServMgtSetup.TESTFIELD("Base Calendar Code");
      CalendarCustomized :=
        CalendarMgmt.CustomizedChangesExist(CalChange."Source Type"::Service,'','',ServMgtSetup."Base Calendar Code");

      REPEAT
        TempDay := DATE2DWY(TempDate,1) - 1;
        ServHour.SETFILTER("Starting Date",'<=%1',TempDate);
        ServHour.SETRANGE(Day,TempDay);
        IF ServHour.FINDLAST THEN BEGIN
          IF CalendarCustomized THEN
            Holiday :=
              CalendarMgmt.CheckCustomizedDateStatus(
                CalChange."Source Type"::Service,'','',ServMgtSetup."Base Calendar Code",TempDate,NewDescription)
          ELSE
            Holiday := CalendarMgmt.CheckDateStatus(ServMgtSetup."Base Calendar Code",TempDate,NewDescription);

          IF NOT Holiday OR ServHour."Valid on Holidays" THEN BEGIN
            IF StartingDate > FinishingDate THEN
              EXIT(0);

            IF StartingDate = FinishingDate THEN
              TotTime := CalendarMgmt.CalcTimeDelta(FinishingTime,StartingTime)
            ELSE
              CASE TempDate OF
                StartingDate:
                  IF ServHour."Ending Time" > StartingTime THEN
                    TotTime := TotTime + CalendarMgmt.CalcTimeDelta(ServHour."Ending Time",StartingTime);
                FinishingDate:
                  IF FinishingTime > ServHour."Starting Time" THEN
                    TotTime := TotTime + CalendarMgmt.CalcTimeDelta(FinishingTime,ServHour."Starting Time");
                ELSE
                  TotTime := TotTime + CalendarMgmt.CalcTimeDelta(ServHour."Ending Time",ServHour."Starting Time");
              END;
          END;
        END;
        TempDate := TempDate + 1;
      UNTIL TempDate > FinishingDate;

      EXIT(ROUND(TotTime / 3600000,0.01));
    END;

    [External]
    PROCEDURE LookupServItemNo@9(VAR ServItemLine@1005 : Record 5901);
    VAR
      ServHeader@1004 : Record 5900;
      ServItem@1003 : Record 5940;
      ServContractLine@1002 : Record 5964;
      ServItemList@1001 : Page 5981;
      ServContractLineList@1000 : Page 6076;
    BEGIN
      ServHeader.GET(ServItemLine."Document Type",ServItemLine."Document No.");

      IF ServHeader."Contract No." = '' THEN BEGIN
        IF ServItem.GET(ServItemLine."Service Item No.") THEN
          ServItemList.SETRECORD(ServItem);
        ServItem.RESET;
        ServItem.SETCURRENTKEY("Customer No.","Ship-to Code");
        ServItem.SETRANGE("Customer No.",ServHeader."Customer No.");
        ServItem.SETRANGE("Ship-to Code",ServHeader."Ship-to Code");
        ServItemList.SETTABLEVIEW(ServItem);
        ServItemList.LOOKUPMODE(TRUE);
        IF ServItemList.RUNMODAL = ACTION::LookupOK THEN BEGIN
          ServItemList.GETRECORD(ServItem);
          ServItemLine.VALIDATE("Service Item No.",ServItem."No.");
        END;
      END ELSE BEGIN
        IF ServItemLine."Service Item No." <> '' THEN
          IF ServContractLine.GET(
               ServContractLine."Contract Type"::Contract,
               ServItemLine."Contract No.",ServItemLine."Contract Line No.")
          THEN
            ServContractLineList.SETRECORD(ServContractLine);
        ServContractLine.RESET;
        ServContractLine.FILTERGROUP(2);
        ServContractLine.SETRANGE("Contract Type",ServContractLine."Contract Type"::Contract);
        ServContractLine.SETRANGE("Contract No.",ServHeader."Contract No.");
        ServContractLine.SETRANGE("Contract Status",ServContractLine."Contract Status"::Signed);
        ServContractLine.SETRANGE("Customer No.",ServHeader."Customer No.");
        ServContractLine.SETFILTER("Starting Date",'<=%1',ServHeader."Order Date");
        ServContractLine.SETFILTER("Contract Expiration Date",'>%1 | =%2',ServHeader."Order Date",0D);
        ServContractLine.FILTERGROUP(0);
        ServContractLine.SETRANGE("Ship-to Code",ServHeader."Ship-to Code");
        ServContractLineList.SETTABLEVIEW(ServContractLine);
        ServContractLineList.LOOKUPMODE(TRUE);
        IF ServContractLineList.RUNMODAL = ACTION::LookupOK THEN BEGIN
          ServContractLineList.GETRECORD(ServContractLine);
          ServItemLine.VALIDATE("Service Item No.",ServContractLine."Service Item No.");
        END;
      END;
    END;

    [External]
    PROCEDURE UpdatePriority@10(VAR ServItemLine@1000 : Record 5901;Deleting@1001 : Boolean);
    VAR
      ServItemLine2@1006 : Record 5901;
      ServHeader@1007 : Record 5900;
      NewPriority@1002 : Integer;
    BEGIN
      IF NOT ServHeader.GET(ServItemLine."Document Type",ServItemLine."Document No.") THEN
        EXIT;

      IF NOT Deleting THEN
        NewPriority := ServItemLine.Priority;

      ServItemLine2.RESET;
      ServItemLine2.SETRANGE("Document Type",ServItemLine."Document Type");
      ServItemLine2.SETRANGE("Document No.",ServItemLine."Document No.");
      ServItemLine2.SETFILTER("Line No.",'<>%1',ServItemLine."Line No.");
      IF ServItemLine2.FIND('-') THEN
        REPEAT
          IF ServItemLine2.Priority > NewPriority THEN
            NewPriority := ServItemLine2.Priority;
        UNTIL ServItemLine2.NEXT = 0;

      IF ServHeader.Priority <> NewPriority THEN BEGIN
        ServHeader.Priority := NewPriority;
        ServHeader.MODIFY;
      END;
    END;

    LOCAL PROCEDURE CopyComponentsFromSI@11(OldServItem@1000 : Record 5940;NewServItem@1001 : Record 5940;CopySerialNo@1002 : Boolean);
    VAR
      ServItemComponent@1003 : Record 5941;
      OldSIComponent@1006 : Record 5941;
    BEGIN
      OldSIComponent.RESET;
      OldSIComponent.SETRANGE(Active,TRUE);
      OldSIComponent.SETRANGE("Parent Service Item No.",OldServItem."No.");
      IF OldSIComponent.FIND('-') THEN BEGIN
        REPEAT
          CLEAR(ServItemComponent);
          ServItemComponent.INIT;
          ServItemComponent := OldSIComponent;
          ServItemComponent."Parent Service Item No." := NewServItem."No.";
          IF NOT CopySerialNo THEN
            ServItemComponent."Serial No." := '';
          ServItemComponent.INSERT;
        UNTIL OldSIComponent.NEXT = 0;
      END ELSE
        ERROR(
          Text011,
          ServItemComponent.TABLECAPTION,OldServItem.FIELDCAPTION("No."),OldServItem."No.");
    END;

    LOCAL PROCEDURE CopyComponentsFromBOM@12(VAR NewServItem@1000 : Record 5940);
    BEGIN
      CODEUNIT.RUN(CODEUNIT::"ServComponent-Copy from BOM",NewServItem);
    END;

    [External]
    PROCEDURE InServiceContract@13(VAR ServInvLine@1000 : Record 5902) : Boolean;
    BEGIN
      EXIT(ServInvLine."Contract No." <> '');
    END;

    [External]
    PROCEDURE CheckServItemRepairStatus@59(ServHeader@1000 : Record 5900;VAR ServItemLine@1003 : TEMPORARY Record 5901;VAR ServLine@1002 : Record 5902);
    VAR
      RepairStatus@1001 : Record 5927;
    BEGIN
      IF ServItemLine.GET(ServHeader."Document Type",ServHeader."No.",ServLine."Service Item Line No.") THEN
        IF ServItemLine."Repair Status Code" <> '' THEN BEGIN
          RepairStatus.GET(ServItemLine."Repair Status Code");
          IF NOT RepairStatus."Posting Allowed" THEN
            ERROR(
              Text012,
              ServHeader.TABLECAPTION,ServHeader."No.",ServItemLine.FIELDCAPTION("Repair Status Code"),
              ServItemLine."Repair Status Code",ServItemLine.TABLECAPTION,ServItemLine."Line No.")
        END;
    END;

    [External]
    PROCEDURE CopyCommentLines@22(FromDocumentType@1000 : Integer;ToDocumentType@1001 : Integer;FromNo@1002 : Code[20];ToNo@1003 : Code[20]);
    VAR
      ServCommentLine@1005 : Record 5906;
      ServiceHeader@1004 : Record 5900;
      TableSubType@1006 : Integer;
    BEGIN
      CASE ToDocumentType OF
        ServCommentLine."Table Name"::"Service Shipment Header":
          TableSubType := ServiceHeader."Document Type"::Order;
        ServCommentLine."Table Name"::"Service Cr.Memo Header":
          TableSubType := ServiceHeader."Document Type"::"Credit Memo"
      END;

      CopyCommentLinesWithSubType(FromDocumentType,ToDocumentType,FromNo,ToNo,TableSubType);
    END;

    [External]
    PROCEDURE CopyCommentLinesWithSubType@25(FromDocumentType@1000 : Integer;ToDocumentType@1001 : Integer;FromNo@1002 : Code[20];ToNo@1003 : Code[20];FromTableSubType@1007 : Integer);
    VAR
      ServCommentLine@1005 : Record 5906;
      ServCommentLine2@1004 : Record 5906;
    BEGIN
      ServCommentLine.RESET;
      ServCommentLine.SETRANGE("Table Name",FromDocumentType);
      ServCommentLine.SETRANGE("Table Subtype",FromTableSubType);
      ServCommentLine.SETRANGE("No.",FromNo);
      IF ServCommentLine.FIND('-') THEN
        REPEAT
          ServCommentLine2 := ServCommentLine;
          ServCommentLine2."Table Name" := ToDocumentType;
          ServCommentLine2."Table Subtype" := 0;
          ServCommentLine2."No." := ToNo;
          ServCommentLine2.INSERT;
        UNTIL ServCommentLine.NEXT = 0;
    END;

    [External]
    PROCEDURE CalcContractDates@56(VAR ServHeader@1000 : Record 5900;VAR ServItemLine@1002 : Record 5901);
    VAR
      ServContractLine@1001 : Record 5964;
    BEGIN
      IF ServContractLine.GET(
           ServContractLine."Contract Type"::Contract,
           ServItemLine."Contract No.",
           ServItemLine."Contract Line No.")
      THEN BEGIN
        ServContractLine.SuspendStatusCheck(TRUE);
        IF ServHeader."Finishing Date" <> 0D THEN
          ServContractLine."Last Service Date" := ServHeader."Finishing Date"
        ELSE
          ServContractLine."Last Service Date" := ServHeader."Posting Date";
        ServContractLine."Last Planned Service Date" :=
          ServContractLine."Next Planned Service Date";
        ServContractLine.CalculateNextServiceVisit;
        ServContractLine."Last Preventive Maint. Date" := ServContractLine."Last Service Date";
      END;
      ServContractLine.MODIFY;
    END;

    [External]
    PROCEDURE CalcServItemDates@14(VAR ServHeader@1000 : Record 5900;ServItemNo@1002 : Code[20]);
    VAR
      ServItem@1001 : Record 5940;
    BEGIN
      IF ServItem.GET(ServItemNo) THEN BEGIN
        IF ServHeader."Finishing Date" <> 0D THEN
          ServItem."Last Service Date" := ServHeader."Finishing Date"
        ELSE
          ServItem."Last Service Date" := ServHeader."Posting Date";
        ServItem.MODIFY;
      END;
    END;

    BEGIN
    END.
  }
}

