OBJECT Codeunit 8815 Custom Layout - Purchase Order
{
  OBJECT-PROPERTIES
  {
    Date=25/10/16;
    Time=12:00:00;
    Version List=NAVW110.00;
  }
  PROPERTIES
  {
    OnRun=VAR
            ReportSelections@1000 : Record 77;
          BEGIN
            ReportSelections.PrintForUsage(ReportSelections.Usage::"P.Order");
          END;

  }
  CODE
  {

    BEGIN
    END.
  }
}

