OBJECT Page 1233 Positive Pay Export
{
  OBJECT-PROPERTIES
  {
    Date=22/11/17;
    Time=12:00:00;
    Version List=NAVW111.00;
  }
  PROPERTIES
  {
    CaptionML=[ENU=Positive Pay Export;
               ENG=Positive Pay Export];
    InsertAllowed=No;
    DeleteAllowed=No;
    LinksAllowed=No;
    SourceTable=Table270;
    PageType=ListPlus;
    ShowFilter=No;
    OnOpenPage=BEGIN
                 PositivePayEntry.SETRANGE("Bank Account No.","No.");
                 IF PositivePayEntry.FINDLAST THEN BEGIN
                   LastUploadDateEntered := DT2DATE(PositivePayEntry."Upload Date-Time");
                   LastUploadTime := DT2TIME(PositivePayEntry."Upload Date-Time");
                 END;
                 CutoffUploadDate := WORKDATE;
                 UpdateSubForm;
               END;

    OnAfterGetRecord=BEGIN
                       UpdateSubForm;
                     END;

    ActionList=ACTIONS
    {
      { 7       ;    ;ActionContainer;
                      ActionContainerType=ActionItems }
      { 8       ;1   ;Action    ;
                      Name=Export;
                      CaptionML=[ENU=Export;
                                 ENG=Export];
                      ToolTipML=[ENU=Export Positive Pay data to a file that you can send to the bank when processing payments to make sure that the bank only clears validated checks and amounts.;
                                 ENG=Export Positive Pay data to a file that you can send to the bank when processing payments to make sure that the bank only clears validated cheques and amounts.];
                      ApplicationArea=#Suite;
                      Promoted=Yes;
                      PromotedIsBig=Yes;
                      Image=Export;
                      PromotedCategory=Process;
                      OnAction=VAR
                                 CheckLedgerEntry@1000 : Record 272;
                               BEGIN
                                 CheckLedgerEntry.SETCURRENTKEY("Bank Account No.","Check Date");
                                 CheckLedgerEntry.SETRANGE("Bank Account No.","No.");
                                 CheckLedgerEntry.SETRANGE("Check Date",LastUploadDateEntered,CutoffUploadDate);
                                 CheckLedgerEntry.ExportCheckFile;
                                 UpdateSubForm;
                               END;
                                }
    }
  }
  CONTROLS
  {
    { 1   ;0   ;Container ;
                ContainerType=ContentArea }

    { 2   ;1   ;Group     ;
                Name=Options;
                CaptionML=[ENU=Options;
                           ENG=Options];
                GroupType=Group }

    { 3   ;2   ;Field     ;
                Name=LastUploadDateEntered;
                CaptionML=[ENU=Last Upload Date;
                           ENG=Last Upload Date];
                ToolTipML=[ENU=Specifies the day when a positive pay file was last exported.;
                           ENG=Specifies the day when a positive pay file was last exported.];
                ApplicationArea=#Suite;
                SourceExpr=LastUploadDateEntered;
                OnValidate=BEGIN
                             UpdateSubForm;
                           END;
                            }

    { 4   ;2   ;Field     ;
                Name=LastUploadTime;
                CaptionML=[ENU=Last Upload Time;
                           ENG=Last Upload Time];
                ToolTipML=[ENU=Specifies the time when a positive pay file was last exported.;
                           ENG=Specifies the time when a positive pay file was last exported.];
                ApplicationArea=#Suite;
                SourceExpr=LastUploadTime;
                Editable=FALSE }

    { 5   ;2   ;Field     ;
                Name=CutoffUploadDate;
                CaptionML=[ENU=Cutoff Upload Date;
                           ENG=Cutoff Upload Date];
                ToolTipML=[ENU=Specifies a date before which payments are not included in the exported file.;
                           ENG=Specifies a date before which payments are not included in the exported file.];
                ApplicationArea=#Suite;
                SourceExpr=CutoffUploadDate;
                OnValidate=BEGIN
                             UpdateSubForm;
                           END;
                            }

    { 6   ;1   ;Part      ;
                Name=PosPayExportDetail;
                CaptionML=[ENU=Positive Pay Export Detail;
                           ENG=Positive Pay Export Detail];
                ApplicationArea=#Suite;
                SubPageLink=Bank Account No.=FIELD(No.);
                PagePartID=Page1234;
                PartType=Page }

  }
  CODE
  {
    VAR
      PositivePayEntry@1003 : Record 1231;
      LastUploadDateEntered@1000 : Date;
      LastUploadTime@1001 : Time;
      CutoffUploadDate@1002 : Date;

    [Internal]
    PROCEDURE UpdateSubForm@1();
    BEGIN
      CurrPage.PosPayExportDetail.PAGE.Set(LastUploadDateEntered,CutoffUploadDate,"No.");
    END;

    BEGIN
    END.
  }
}

