OBJECT Page 18 G/L Account List
{
  OBJECT-PROPERTIES
  {
    Date=21/12/17;
    Time=12:00:00;
    Version List=NAVW111.00.00.19846;
  }
  PROPERTIES
  {
    Editable=No;
    CaptionML=[ENU=G/L Account List;
               ENG=G/L Account List];
    SourceTable=Table15;
    DataCaptionFields=Search Name;
    PageType=List;
    CardPageID=G/L Account Card;
    RefreshOnActivate=Yes;
    OnAfterGetRecord=BEGIN
                       NameIndent := 0;
                       FormatLine;
                     END;

    ActionList=ACTIONS
    {
      { 1900000003;0 ;ActionContainer;
                      ActionContainerType=RelatedInformation }
      { 18      ;1   ;ActionGroup;
                      CaptionML=[ENU=A&ccount;
                                 ENG=A&ccount];
                      Image=ChartOfAccounts }
      { 23      ;2   ;Action    ;
                      ShortCutKey=Ctrl+F7;
                      CaptionML=[ENU=Ledger E&ntries;
                                 ENG=Ledger E&ntries];
                      ToolTipML=[ENU=View the history of transactions that have been posted for the selected record.;
                                 ENG=View the history of transactions that have been posted for the selected record.];
                      ApplicationArea=#Basic,#Suite;
                      RunObject=Page 20;
                      RunPageView=SORTING(G/L Account No.)
                                  ORDER(Descending);
                      RunPageLink=G/L Account No.=FIELD(No.);
                      Image=CustomerLedger }
      { 20      ;2   ;Action    ;
                      CaptionML=[ENU=Co&mments;
                                 ENG=Co&mments];
                      ToolTipML=[ENU=View or add comments for the record.;
                                 ENG=View or add comments for the record.];
                      ApplicationArea=#Advanced;
                      RunObject=Page 124;
                      RunPageLink=Table Name=CONST(G/L Account),
                                  No.=FIELD(No.);
                      Image=ViewComments }
      { 84      ;2   ;Action    ;
                      ShortCutKey=Shift+Ctrl+D;
                      CaptionML=[ENU=Dimensions;
                                 ENG=Dimensions];
                      ToolTipML=[ENU=View or edit dimensions, such as area, project, or department, that you can assign to sales and purchase documents to distribute costs and analyze transaction history.;
                                 ENG=View or edit dimensions, such as area, project, or department, that you can assign to sales and purchase documents to distribute costs and analyse transaction history.];
                      ApplicationArea=#Suite;
                      RunObject=Page 540;
                      RunPageLink=Table ID=CONST(15),
                                  No.=FIELD(No.);
                      Image=Dimensions }
      { 132     ;2   ;Action    ;
                      CaptionML=[ENU=E&xtended Texts;
                                 ENG=E&xtended Texts];
                      ToolTipML=[ENU=View additional information about a general ledger account, this supplements the Description field.;
                                 ENG=View additional information about a general ledger account, this supplements the Description field.];
                      ApplicationArea=#Suite;
                      RunObject=Page 391;
                      RunPageView=SORTING(Table Name,No.,Language Code,All Language Codes,Starting Date,Ending Date);
                      RunPageLink=Table Name=CONST(G/L Account),
                                  No.=FIELD(No.);
                      Image=Text }
      { 22      ;2   ;Action    ;
                      CaptionML=[ENU=Receivables-Payables;
                                 ENG=Receivables-Payables];
                      ToolTipML=[ENU=View a summary of the receivables and payables for the account, including customer and vendor balance due amounts.;
                                 ENG=View a summary of the receivables and payables for the account, including customer and vendor balance due amounts.];
                      ApplicationArea=#Suite;
                      RunObject=Page 159;
                      Image=ReceivablesPayables }
      { 33      ;2   ;Action    ;
                      CaptionML=[ENU=Where-Used List;
                                 ENG=Where-Used List];
                      ToolTipML=[ENU=View setup tables where a general ledger account is used.;
                                 ENG=View setup tables where a general ledger account is used.];
                      ApplicationArea=#Basic,#Suite;
                      Image=Track;
                      OnAction=VAR
                                 CalcGLAccWhereUsed@1000 : Codeunit 100;
                               BEGIN
                                 CalcGLAccWhereUsed.CheckGLAcc("No.");
                               END;
                                }
      { 118     ;1   ;ActionGroup;
                      CaptionML=[ENU=&Balance;
                                 ENG=&Balance];
                      Image=Balance }
      { 32      ;2   ;Action    ;
                      CaptionML=[ENU=G/L &Account Balance;
                                 ENG=G/L &Account Balance];
                      ToolTipML=[ENU=View a summary of the debit and credit balances for different time periods, for the account that you select in the chart of accounts.;
                                 ENG=View a summary of the debit and credit balances for different time periods, for the account that you select in the chart of accounts.];
                      ApplicationArea=#Basic,#Suite;
                      RunObject=Page 415;
                      RunPageLink=No.=FIELD(No.),
                                  Global Dimension 1 Filter=FIELD(Global Dimension 1 Filter),
                                  Global Dimension 2 Filter=FIELD(Global Dimension 2 Filter),
                                  Business Unit Filter=FIELD(Business Unit Filter);
                      Promoted=Yes;
                      Image=GLAccountBalance;
                      PromotedCategory=Process }
      { 126     ;2   ;Action    ;
                      CaptionML=[ENU=G/L &Balance;
                                 ENG=G/L &Balance];
                      ToolTipML=[ENU=View a summary of the debit and credit balances for all the accounts in the chart of accounts, for the time period that you select.;
                                 ENG=View a summary of the debit and credit balances for all the accounts in the chart of accounts, for the time period that you select.];
                      ApplicationArea=#Basic,#Suite;
                      RunObject=Page 414;
                      RunPageOnRec=Yes;
                      Promoted=Yes;
                      Image=GLBalance;
                      PromotedCategory=Process }
      { 120     ;2   ;Action    ;
                      CaptionML=[ENU=G/L Balance by &Dimension;
                                 ENG=G/L Balance by &Dimension];
                      ToolTipML=[ENU=View a summary of the debit and credit balances by dimensions for the current account.;
                                 ENG=View a summary of the debit and credit balances by dimensions for the current account.];
                      ApplicationArea=#Suite;
                      RunObject=Page 408;
                      Promoted=Yes;
                      Image=GLBalanceDimension;
                      PromotedCategory=Process }
      { 1900000006;0 ;ActionContainer;
                      ActionContainerType=Reports }
      { 1904082706;1 ;Action    ;
                      CaptionML=[ENU=Trial Balance;
                                 ENG=Trial Balance];
                      ToolTipML=[ENU=View general ledger account balances and activities for all the selected accounts, one transaction per line.;
                                 ENG=View general ledger account balances and activities for all the selected accounts, one transaction per line.];
                      ApplicationArea=#Suite;
                      RunObject=Report 6;
                      Promoted=Yes;
                      Image=Report;
                      PromotedCategory=Report }
      { 1902174606;1 ;Action    ;
                      CaptionML=[ENU=Trial Balance by Period;
                                 ENG=Trial Balance by Period];
                      ToolTipML=[ENU=View general ledger account balances and activities for all the selected accounts, one transaction per line for a selected period.;
                                 ENG=View general ledger account balances and activities for all the selected accounts, one transaction per line for a selected period.];
                      ApplicationArea=#Basic,#Suite;
                      RunObject=Report 38;
                      Promoted=Yes;
                      Image=Report;
                      PromotedCategory=Report }
      { 1900670506;1 ;Action    ;
                      CaptionML=[ENU=Detail Trial Balance;
                                 ENG=Detail Trial Balance];
                      ToolTipML=[ENU=View detail general ledger account balances and activities for all the selected accounts, one transaction per line.;
                                 ENG=View detail general ledger account balances and activities for all the selected accounts, one transaction per line.];
                      ApplicationArea=#Basic,#Suite;
                      RunObject=Report 4;
                      Promoted=Yes;
                      Image=Report;
                      PromotedCategory=Report }
    }
  }
  CONTROLS
  {
    { 1900000001;0;Container;
                ContainerType=ContentArea }

    { 1   ;1   ;Group     ;
                IndentationColumnName=NameIndent;
                IndentationControls=Name;
                GroupType=Repeater }

    { 2   ;2   ;Field     ;
                ToolTipML=[ENU=Specifies the number of the involved entry or record, according to the specified number series.;
                           ENG=Specifies the number of the involved entry or record, according to the specified number series.];
                ApplicationArea=#Basic,#Suite;
                SourceExpr="No.";
                Style=Strong;
                StyleExpr=Emphasize }

    { 4   ;2   ;Field     ;
                ToolTipML=[ENU=Specifies the name of the general ledger account.;
                           ENG=Specifies the name of the general ledger account.];
                ApplicationArea=#Basic,#Suite;
                SourceExpr=Name;
                Style=Strong;
                StyleExpr=Emphasize }

    { 6   ;2   ;Field     ;
                ToolTipML=[ENU=Specifies whether a general ledger account is an income statement account or a balance sheet account.;
                           ENG=Specifies whether a general ledger account is an income statement account or a balance sheet account.];
                ApplicationArea=#Basic,#Suite;
                SourceExpr="Income/Balance" }

    { 5   ;2   ;Field     ;
                ToolTipML=[ENU=Specifies the category of the G/L account.;
                           ENG=Specifies the category of the G/L account.];
                ApplicationArea=#Basic,#Suite;
                SourceExpr="Account Category" }

    { 8   ;2   ;Field     ;
                ToolTipML=[ENU=Specifies the purpose of the account. Total: Used to total a series of balances on accounts from many different account groupings. To use Total, leave this field blank. Begin-Total: A marker for the beginning of a series of accounts to be totaled that ends with an End-Total account. End-Total: A total of a series of accounts that starts with the preceding Begin-Total account. The total is defined in the Totaling field.;
                           ENG=Specifies the purpose of the account. Total: Used to total a series of balances on accounts from many different account groupings. To use Total, leave this field blank. Begin-Total: A marker for the beginning of a series of accounts to be totalled that ends with an End-Total account. End-Total: A total of a series of accounts that starts with the preceding Begin-Total account. The total is defined in the Totalling field.];
                ApplicationArea=#Basic,#Suite;
                SourceExpr="Account Type" }

    { 10  ;2   ;Field     ;
                ToolTipML=[ENU=Specifies the general posting type to use when posting to this account.;
                           ENG=Specifies the general posting type to use when posting to this account.];
                ApplicationArea=#Basic,#Suite;
                SourceExpr="Gen. Posting Type" }

    { 25  ;2   ;Field     ;
                ToolTipML=[ENU=Specifies the vendor's or customer's trade type to link transactions made for this business partner with the appropriate general ledger account according to the general posting setup.;
                           ENG=Specifies the vendor's or customer's trade type to link transactions made for this business partner with the appropriate general ledger account according to the general posting setup.];
                ApplicationArea=#Basic,#Suite;
                SourceExpr="Gen. Bus. Posting Group" }

    { 12  ;2   ;Field     ;
                ToolTipML=[ENU=Specifies the item's product type to link transactions made for this item with the appropriate general ledger account according to the general posting setup.;
                           ENG=Specifies the item's product type to link transactions made for this item with the appropriate general ledger account according to the general posting setup.];
                ApplicationArea=#Basic,#Suite;
                SourceExpr="Gen. Prod. Posting Group" }

    { 21  ;2   ;Field     ;
                ToolTipML=[ENU=Specifies the VAT specification of the involved customer or vendor to link transactions made for this record with the appropriate general ledger account according to the VAT posting setup.;
                           ENG=Specifies the VAT specification of the involved customer or vendor to link transactions made for this record with the appropriate general ledger account according to the VAT posting setup.];
                ApplicationArea=#Advanced;
                SourceExpr="VAT Bus. Posting Group";
                Visible=FALSE }

    { 26  ;2   ;Field     ;
                ToolTipML=[ENU=Specifies the VAT specification of the involved item or resource to link transactions made for this record with the appropriate general ledger account according to the VAT posting setup.;
                           ENG=Specifies the VAT specification of the involved item or resource to link transactions made for this record with the appropriate general ledger account according to the VAT posting setup.];
                ApplicationArea=#Advanced;
                SourceExpr="VAT Prod. Posting Group";
                Visible=FALSE }

    { 30  ;2   ;Field     ;
                ToolTipML=[ENU=Specifies whether you will be able to post directly or only indirectly to this general ledger account. To allow Direct Posting to the G/L account, place a check mark in the check box.;
                           ENG=Specifies whether you will be able to post directly or only indirectly to this general ledger account. To allow Direct Posting to the G/L account, place a check mark in the check box.];
                ApplicationArea=#Basic,#Suite;
                SourceExpr="Direct Posting" }

    { 14  ;2   ;Field     ;
                ToolTipML=[ENU=Specifies whether this general ledger account will be included in the Reconciliation window in the general journal. To have the G/L account included in the window, place a check mark in the check box. You can find the Reconciliation window by clicking Actions, Posting in the General Journal window.;
                           ENG=Specifies whether this general ledger account will be included in the Reconciliation window in the general journal. To have the G/L account included in the window, place a check mark in the check box. You can find the Reconciliation window by clicking Actions, Posting in the General Journal window.];
                ApplicationArea=#Basic,#Suite;
                SourceExpr="Reconciliation Account" }

    { 3   ;2   ;Field     ;
                CaptionML=[ENU=Default Deferral Template;
                           ENG=Default Deferral Template];
                ToolTipML=[ENU=Specifies the default deferral template that governs how to defer revenues and expenses to the periods when they occurred.;
                           ENG=Specifies the default deferral template that governs how to defer revenues and expenses to the periods when they occurred.];
                ApplicationArea=#Suite;
                SourceExpr="Default Deferral Template Code" }

    { 1900000007;0;Container;
                ContainerType=FactBoxArea }

    { 1905532107;1;Part   ;
                ApplicationArea=#Dimensions;
                SubPageLink=Table ID=CONST(15),
                            No.=FIELD(No.);
                PagePartID=Page9083;
                Visible=FALSE;
                PartType=Page }

    { 1900383207;1;Part   ;
                Visible=FALSE;
                PartType=System;
                SystemPartID=RecordLinks }

    { 1905767507;1;Part   ;
                Visible=FALSE;
                PartType=System;
                SystemPartID=Notes }

  }
  CODE
  {
    VAR
      Emphasize@19018670 : Boolean INDATASET;
      NameIndent@19079073 : Integer INDATASET;

    [External]
    PROCEDURE SetSelection@1(VAR GLAcc@1000 : Record 15);
    BEGIN
      CurrPage.SETSELECTIONFILTER(GLAcc);
    END;

    [External]
    PROCEDURE GetSelectionFilter@3() : Text;
    VAR
      GLAcc@1001 : Record 15;
      SelectionFilterManagement@1002 : Codeunit 46;
    BEGIN
      CurrPage.SETSELECTIONFILTER(GLAcc);
      EXIT(SelectionFilterManagement.GetSelectionFilterForGLAccount(GLAcc));
    END;

    LOCAL PROCEDURE FormatLine@19039177();
    BEGIN
      NameIndent := Indentation;
      Emphasize := "Account Type" <> "Account Type"::Posting;
    END;

    BEGIN
    END.
  }
}

