OBJECT Page 1207 Direct Debit Collections
{
  OBJECT-PROPERTIES
  {
    Date=21/12/17;
    Time=12:00:00;
    Version List=NAVW111.00.00.19846;
  }
  PROPERTIES
  {
    Editable=No;
    CaptionML=[ENU=Direct Debit Collections;
               ENG=Direct Debit Collections];
    SourceTable=Table1207;
    DataCaptionFields=No.,Identifier,Created Date-Time;
    PageType=List;
    ActionList=ACTIONS
    {
      { 14      ;    ;ActionContainer;
                      CaptionML=[ENU=New;
                                 ENG=New];
                      ActionContainerType=NewDocumentItems }
      { 15      ;1   ;Action    ;
                      Name=NewCollection;
                      CaptionML=[ENU=Create Direct Debit Collection;
                                 ENG=Create Direct Debit Collection];
                      ToolTipML=[ENU=Create a direct-debit collection to collect invoice payments directly from a customer's bank account based on direct-debit mandates.;
                                 ENG=Create a direct-debit collection to collect invoice payments directly from a customer's bank account based on direct-debit mandates.];
                      ApplicationArea=#Suite;
                      RunObject=Report 1200;
                      Promoted=Yes;
                      Image=NewInvoice }
      { 20      ;    ;ActionContainer;
                      ActionContainerType=ActionItems }
      { 21      ;1   ;Action    ;
                      Name=Export;
                      CaptionML=[ENU=Export Direct Debit File;
                                 ENG=Export Direct Debit File];
                      ToolTipML=[ENU=Save the entries for the direct-debit collection to a file that you send or upload to your electronic bank for processing.;
                                 ENG=Save the entries for the direct-debit collection to a file that you send or upload to your electronic bank for processing.];
                      ApplicationArea=#Suite;
                      Promoted=Yes;
                      Image=ExportFile;
                      PromotedCategory=Process;
                      OnAction=BEGIN
                                 Export;
                               END;
                                }
      { 19      ;1   ;Action    ;
                      Name=Close;
                      CaptionML=[ENU=Close Collection;
                                 ENG=Close Collection];
                      ToolTipML=[ENU=Close a direct-debit collection so you begin to post payment receipts for related sales invoices. Once closed, you cannot register payments for the collection.;
                                 ENG=Close a direct-debit collection so you begin to post payment receipts for related sales invoices. Once closed, you cannot register payments for the collection.];
                      ApplicationArea=#Suite;
                      Promoted=Yes;
                      Image=Close;
                      PromotedCategory=Process;
                      OnAction=BEGIN
                                 CloseCollection;
                               END;
                                }
      { 18      ;1   ;Action    ;
                      Name=Post;
                      Ellipsis=Yes;
                      CaptionML=[ENU=Post Payment Receipts;
                                 ENG=Post Payment Receipts];
                      ToolTipML=[ENU=Post receipts of a payment for sales invoices. You can do this after the direct-debit collection is successfully processed by the bank.;
                                 ENG=Post receipts of a payment for sales invoices. You can do this after the direct-debit collection is successfully processed by the bank.];
                      ApplicationArea=#Suite;
                      Promoted=Yes;
                      Image=ReceivablesPayables;
                      PromotedCategory=Process;
                      OnAction=VAR
                                 PostDirectDebitCollection@1000 : Report 1201;
                               BEGIN
                                 TESTFIELD(Status,Status::"File Created");
                                 PostDirectDebitCollection.SetCollectionEntry("No.");
                                 PostDirectDebitCollection.RUN;
                               END;
                                }
      { 16      ;    ;ActionContainer;
                      ActionContainerType=RelatedInformation }
      { 17      ;1   ;Action    ;
                      Name=Entries;
                      ShortCutKey=Return;
                      CaptionML=[ENU=Direct Debit Collect. Entries;
                                 ENG=Direct Debit Collect. Entries];
                      ToolTipML=[ENU=View and edit entries that are generated for the direct-debit collection.;
                                 ENG=View and edit entries that are generated for the direct-debit collection.];
                      ApplicationArea=#Suite;
                      RunObject=Page 1208;
                      RunPageLink=Direct Debit Collection No.=FIELD(No.);
                      Promoted=Yes;
                      Image=EditLines;
                      PromotedCategory=Process }
    }
  }
  CONTROLS
  {
    { 1   ;0   ;Container ;
                ContainerType=ContentArea }

    { 2   ;1   ;Group     ;
                Name=Group;
                GroupType=Repeater }

    { 3   ;2   ;Field     ;
                ToolTipML=[ENU=Specifies the number of the involved entry or record, according to the specified number series.;
                           ENG=Specifies the number of the involved entry or record, according to the specified number series.];
                ApplicationArea=#Suite;
                SourceExpr="No." }

    { 4   ;2   ;Field     ;
                ToolTipML=[ENU=Specifies, together with the number series, which direct debit collection a direct-debit collection entry is related to.;
                           ENG=Specifies, together with the number series, which direct debit collection a direct-debit collection entry is related to.];
                ApplicationArea=#Suite;
                SourceExpr=Identifier }

    { 5   ;2   ;Field     ;
                CaptionML=[ENU=Created Date-Time;
                           ENG=Created Date-Time];
                ToolTipML=[ENU=Specifies when the direct debit collection was created.;
                           ENG=Specifies when the direct debit collection was created.];
                ApplicationArea=#Suite;
                SourceExpr=FORMAT("Created Date-Time") }

    { 6   ;2   ;Field     ;
                ToolTipML=[ENU=Specifies which user created the direct debit collection.;
                           ENG=Specifies which user created the direct debit collection.];
                ApplicationArea=#Suite;
                SourceExpr="Created by User" }

    { 7   ;2   ;Field     ;
                ToolTipML=[ENU=Specifies the status of the direct debit collection. The following options exist.;
                           ENG=Specifies the status of the direct debit collection. The following options exist.];
                ApplicationArea=#Suite;
                SourceExpr=Status }

    { 8   ;2   ;Field     ;
                ToolTipML=[ENU=Specifies how many direct debit transactions have been performed for the direct debit collection.;
                           ENG=Specifies how many direct debit transactions have been performed for the direct debit collection.];
                ApplicationArea=#Suite;
                SourceExpr="No. of Transfers" }

    { 9   ;2   ;Field     ;
                ToolTipML=[ENU=Specifies the number of the bank account that the direct debit collection will be transferred to.;
                           ENG=Specifies the number of the bank account that the direct debit collection will be transferred to.];
                ApplicationArea=#Suite;
                SourceExpr="To Bank Account No." }

    { 10  ;2   ;Field     ;
                ToolTipML=[ENU=Specifies the name of the bank account that the direct debit collection will be transferred to.;
                           ENG=Specifies the name of the bank account that the direct debit collection will be transferred to.];
                ApplicationArea=#Suite;
                SourceExpr="To Bank Account Name" }

    { 11  ;0   ;Container ;
                ContainerType=FactBoxArea }

    { 12  ;1   ;Part      ;
                PartType=System;
                SystemPartID=Notes }

    { 13  ;1   ;Part      ;
                PartType=System;
                SystemPartID=RecordLinks }

  }
  CODE
  {

    BEGIN
    END.
  }
}

