OBJECT Page 1296 Pstd. Pmt. Recon. Subform
{
  OBJECT-PROPERTIES
  {
    Date=22/11/17;
    Time=12:00:00;
    Version List=NAVW111.00;
  }
  PROPERTIES
  {
    Editable=No;
    CaptionML=[ENU=Posted Payment Reconciliation Lines;
               ENG=Posted Payment Reconciliation Lines];
    LinksAllowed=No;
    SourceTable=Table1296;
    DelayedInsert=Yes;
    PageType=ListPart;
    AutoSplitKey=Yes;
  }
  CONTROLS
  {
    { 1900000001;0;Container;
                ContainerType=ContentArea }

    { 1   ;1   ;Group     ;
                GroupType=Repeater;
                FreezeColumnID=Difference }

    { 2   ;2   ;Field     ;
                ToolTipML=[ENU=Specifies the date when the payment represented by the journal line was recorded in the bank account.;
                           ENG=Specifies the date when the payment represented by the journal line was recorded in the bank account.];
                ApplicationArea=#Basic,#Suite;
                SourceExpr="Transaction Date" }

    { 9   ;2   ;Field     ;
                ToolTipML=[ENU="Specifies the ID of the posted payment reconciliation. ";
                           ENG="Specifies the ID of the posted payment reconciliation. "];
                ApplicationArea=#Advanced;
                SourceExpr="Transaction ID";
                Visible=FALSE }

    { 6   ;2   ;Field     ;
                ToolTipML=[ENU=Specifies the description of the posted payment.;
                           ENG=Specifies the description of the posted payment.];
                ApplicationArea=#Basic,#Suite;
                SourceExpr=Description }

    { 8   ;2   ;Field     ;
                ToolTipML=[ENU=Specifies the amount on the bank transaction that represents the posted payment.;
                           ENG=Specifies the amount on the bank transaction that represents the posted payment.];
                ApplicationArea=#Basic,#Suite;
                SourceExpr="Statement Amount" }

    { 10  ;2   ;Field     ;
                ToolTipML=[ENU=Specifies the amount that was applied to the related invoice or credit memo before this payment was posted.;
                           ENG=Specifies the amount that was applied to the related invoice or credit memo before this payment was posted.];
                ApplicationArea=#Basic,#Suite;
                SourceExpr="Applied Amount" }

    { 12  ;2   ;Field     ;
                ToolTipML=[ENU=Specifies the difference between the amount in the Statement Amount field and the Applied Amount field.;
                           ENG=Specifies the difference between the amount in the Statement Amount field and the Applied Amount field.];
                ApplicationArea=#Basic,#Suite;
                SourceExpr=Difference }

    { 4   ;2   ;Field     ;
                ToolTipML=[ENU=Specifies the type of the account that the payment was posted to.;
                           ENG=Specifies the type of the account that the payment was posted to.];
                ApplicationArea=#Basic,#Suite;
                SourceExpr="Account Type" }

    { 13  ;2   ;Field     ;
                ToolTipML=[ENU=Specifies the account number that the payment was posted to.;
                           ENG=Specifies the account number that the payment was posted to.];
                ApplicationArea=#Basic,#Suite;
                SourceExpr="Account No." }

    { 14  ;2   ;Field     ;
                ToolTipML=[ENU=Specifies which customer or vendor ledger entries were applied in relation to posting the payment.;
                           ENG=Specifies which customer or vendor ledger entries were applied in relation to posting the payment.];
                ApplicationArea=#Advanced;
                SourceExpr="Applied Entries";
                Visible=FALSE }

    { 3   ;2   ;Field     ;
                ToolTipML=[ENU=Specifies information about the customer or vendor that the posted payment was for.;
                           ENG=Specifies information about the customer or vendor that the posted payment was for.];
                ApplicationArea=#Advanced;
                SourceExpr="Related-Party Name";
                Visible=FALSE }

    { 5   ;2   ;Field     ;
                ToolTipML=[ENU=Specifies information about the transaction as recorded on the bank statement line.;
                           ENG=Specifies information about the transaction as recorded on the bank statement line.];
                ApplicationArea=#Advanced;
                SourceExpr="Additional Transaction Info";
                Visible=FALSE }

    { 7   ;2   ;Field     ;
                ToolTipML=[ENU=Specifies the number of the document that the payment is applied to.;
                           ENG=Specifies the number of the document that the payment is applied to.];
                ApplicationArea=#Basic,#Suite;
                SourceExpr="Applied Document No.";
                Editable=FALSE;
                OnDrillDown=VAR
                              CustLedgerEntry@1001 : Record 21;
                              VendorLedgerEntry@1000 : Record 25;
                              FilterValue@1002 : Text;
                            BEGIN
                              IF "Applied Document No." <> '' THEN BEGIN
                                FilterValue := CONVERTSTR("Applied Document No.",',','|');
                                CASE "Account Type" OF
                                  "Account Type"::Customer:
                                    BEGIN
                                      CustLedgerEntry.SETFILTER("Document No.",FilterValue);
                                      PAGE.RUNMODAL(PAGE::"Customer Ledger Entries",CustLedgerEntry);
                                    END;
                                  "Account Type"::Vendor:
                                    BEGIN
                                      VendorLedgerEntry.SETFILTER("Document No.",FilterValue);
                                      PAGE.RUNMODAL(PAGE::"Vendor Ledger Entries",VendorLedgerEntry);
                                    END;
                                END;
                              END;
                            END;
                             }

  }
  CODE
  {

    BEGIN
    END.
  }
}

