OBJECT Page 1505 Workflow Templates
{
  OBJECT-PROPERTIES
  {
    Date=22/11/17;
    Time=12:00:00;
    Version List=NAVW111.00;
  }
  PROPERTIES
  {
    Editable=No;
    CaptionML=[ENU=Workflow Templates;
               ENG=Workflow Templates];
    InsertAllowed=No;
    DeleteAllowed=No;
    ModifyAllowed=No;
    SourceTable=Table1500;
    PageType=List;
    SourceTableTemporary=Yes;
    PromotedActionCategoriesML=[ENU=New,Process,Report,Manage;
                                ENG=New,Process,Report,Manage];
    OnOpenPage=BEGIN
                 WorkflowSetup.InitWorkflow;
                 InitBufferForTemplates(Rec);
                 IsLookupMode := CurrPage.LOOKUPMODE;
                 IF FINDFIRST THEN;
               END;

    OnAfterGetRecord=BEGIN
                       IF "Workflow Code" = '' THEN
                         DescriptionStyle := 'Strong'
                       ELSE
                         DescriptionStyle := 'Standard';
                     END;

    OnQueryClosePage=BEGIN
                       IF CurrPage.LOOKUPMODE AND (CloseAction = ACTION::LookupOK) AND ("Workflow Code" = '') THEN
                         ERROR(QueryClosePageLookupErr);
                     END;

    ActionList=ACTIONS
    {
      { 5       ;    ;ActionContainer;
                      ActionContainerType=ActionItems }
      { 9       ;1   ;Action    ;
                      Name=ViewAction;
                      ShortCutKey=Return;
                      CaptionML=[ENU=View;
                                 ENG=View];
                      ToolTipML=[ENU=View an existing workflow template.;
                                 ENG=View an existing workflow template.];
                      ApplicationArea=#Suite;
                      Promoted=Yes;
                      PromotedIsBig=Yes;
                      Image=View;
                      PromotedCategory=Category4;
                      RunPageMode=View;
                      OnAction=VAR
                                 Workflow@1000 : Record 1501;
                               BEGIN
                                 Workflow.GET("Workflow Code");
                                 PAGE.RUN(PAGE::Workflow,Workflow);
                               END;
                                }
      { 10      ;1   ;Action    ;
                      Name=New Workflow from Template;
                      CaptionML=[ENU=New Workflow from Template;
                                 ENG=New Workflow from Template];
                      ToolTipML=[ENU=Create a new workflow template using an existing workflow template.;
                                 ENG=Create a new workflow template using an existing workflow template.];
                      ApplicationArea=#Suite;
                      Promoted=Yes;
                      Enabled=NOT IsLookupMode;
                      PromotedIsBig=Yes;
                      Image=NewDocument;
                      PromotedCategory=New;
                      OnAction=BEGIN
                                 CopyWorkflow(Rec)
                               END;
                                }
    }
  }
  CONTROLS
  {
    { 1   ;0   ;Container ;
                ContainerType=ContentArea }

    { 2   ;1   ;Group     ;
                Name=Group;
                IndentationColumnName=Indentation;
                IndentationControls=Description;
                ShowAsTree=Yes;
                GroupType=Repeater }

    { 3   ;2   ;Field     ;
                ToolTipML=[ENU=Specifies a description of the workflow template.;
                           ENG=Specifies a description of the workflow template.];
                ApplicationArea=#Suite;
                SourceExpr=Description;
                StyleExpr=DescriptionStyle }

    { 6   ;    ;Container ;
                ContainerType=FactBoxArea }

    { 7   ;1   ;Part      ;
                Visible=FALSE;
                PartType=System;
                SystemPartID=Notes }

    { 8   ;1   ;Part      ;
                Visible=FALSE;
                PartType=System;
                SystemPartID=RecordLinks }

  }
  CODE
  {
    VAR
      WorkflowSetup@1000 : Codeunit 1502;
      QueryClosePageLookupErr@1001 : TextConst 'ENU=Select a workflow template to continue, or choose Cancel to close the page.;ENG=Select a workflow template to continue, or choose Cancel to close the page.';
      DescriptionStyle@1003 : Text;
      IsLookupMode@1002 : Boolean;

    BEGIN
    END.
  }
}

