OBJECT Page 1107 Cost Journal Templates
{
  OBJECT-PROPERTIES
  {
    Date=21/12/17;
    Time=12:00:00;
    Version List=NAVW111.00.00.19846;
  }
  PROPERTIES
  {
    CaptionML=[ENU=Cost Journal Templates;
               ENG=Cost Journal Templates];
    SourceTable=Table1100;
    PageType=List;
    ActionList=ACTIONS
    {
      { 1       ;    ;ActionContainer;
                      ActionContainerType=RelatedInformation }
      { 2       ;1   ;ActionGroup;
                      CaptionML=[ENU=Te&mplates;
                                 ENG=Te&mplates];
                      ActionContainerType=NewDocumentItems;
                      Image=Template }
      { 7       ;2   ;Action    ;
                      CaptionML=[ENU=Batches;
                                 ENG=Batches];
                      ToolTipML=[ENU="Open the list of journal batches for the journal template. ";
                                 ENG="Open the list of journal batches for the journal template. "];
                      ApplicationArea=#CostAccounting;
                      RunObject=Page 1135;
                      RunPageLink=Journal Template Name=FIELD(Name);
                      Promoted=No;
                      Image=Description }
    }
  }
  CONTROLS
  {
    { 3   ;0   ;Container ;
                ContainerType=ContentArea }

    { 4   ;1   ;Group     ;
                GroupType=Repeater }

    { 5   ;2   ;Field     ;
                ToolTipML=[ENU=Specifies the name of the cost journal entry.;
                           ENG=Specifies the name of the cost journal entry.];
                ApplicationArea=#CostAccounting;
                SourceExpr=Name }

    { 6   ;2   ;Field     ;
                ToolTipML=[ENU=Specifies a description of the cost journal entry.;
                           ENG=Specifies a description of the cost journal entry.];
                ApplicationArea=#CostAccounting;
                SourceExpr=Description }

    { 8   ;2   ;Field     ;
                ToolTipML=[ENU=Specifies the reason code, a supplementary source code that enables you to trace the entry.;
                           ENG=Specifies the reason code, a supplementary source code that enables you to trace the entry.];
                ApplicationArea=#CostAccounting;
                SourceExpr="Reason Code" }

    { 9   ;2   ;Field     ;
                ToolTipML=[ENU=Specifies the source code that specifies where the entry was created.;
                           ENG=Specifies the source code that specifies where the entry was created.];
                ApplicationArea=#CostAccounting;
                SourceExpr="Source Code" }

  }
  CODE
  {

    BEGIN
    END.
  }
}

