OBJECT Page 1214 Data Exch Mapping Card
{
  OBJECT-PROPERTIES
  {
    Date=22/11/17;
    Time=12:00:00;
    Version List=NAVW111.00;
  }
  PROPERTIES
  {
    CaptionML=[ENU=Field Mapping;
               ENG=Field Mapping];
    SourceTable=Table1224;
    DelayedInsert=Yes;
    PageType=Document;
  }
  CONTROLS
  {
    { 1   ;0   ;Container ;
                ContainerType=ContentArea }

    { 2   ;1   ;Group     ;
                Name=General;
                CaptionML=[ENU=General;
                           ENG=General];
                GroupType=Group }

    { 3   ;2   ;Field     ;
                CaptionML=[ENU=Table ID;
                           ENG=Table ID];
                ToolTipML=[ENU=Specifies the table that holds the fields to or from which data is exchanged according to the mapping.;
                           ENG=Specifies the table that holds the fields to or from which data is exchanged according to the mapping.];
                ApplicationArea=#Basic,#Suite;
                SourceExpr="Table ID";
                OnValidate=BEGIN
                             PositivePayUpdateCodeunits;
                             CurrPage.UPDATE;
                           END;
                            }

    { 11  ;2   ;Field     ;
                ToolTipML=[ENU=Specifies that the table that you select in the Table ID field is an intermediate table where the imported data is stored before it is mapped to the target table.;
                           ENG=Specifies that the table that you select in the Table ID field is an intermediate table where the imported data is stored before it is mapped to the target table.];
                ApplicationArea=#Basic,#Suite;
                SourceExpr="Use as Intermediate Table";
                OnValidate=BEGIN
                             CurrPage.UPDATE(TRUE);
                           END;
                            }

    { 4   ;2   ;Field     ;
                ToolTipML=[ENU=Specifies the name of the data exchange mapping setup.;
                           ENG=Specifies the name of the data exchange mapping setup.];
                ApplicationArea=#Basic,#Suite;
                SourceExpr=Name }

    { 6   ;2   ;Field     ;
                ToolTipML=[ENU=Specifies the codeunit that prepares the mapping between fields in Dynamics NAV and external data.;
                           ENG=Specifies the codeunit that prepares the mapping between fields in Dynamics NAV and external data.];
                ApplicationArea=#Basic,#Suite;
                SourceExpr="Pre-Mapping Codeunit" }

    { 5   ;2   ;Field     ;
                ToolTipML=[ENU=Specifies the codeunit that is used to map the specified columns or XML data elements to fields in Microsoft Dynamics NAV.;
                           ENG=Specifies the codeunit that is used to map the specified columns or XML data elements to fields in Microsoft Dynamics NAV.];
                ApplicationArea=#Basic,#Suite;
                SourceExpr="Mapping Codeunit";
                ShowMandatory=TRUE }

    { 9   ;2   ;Field     ;
                ToolTipML=[ENU=Specifies the codeunit that completes the mapping between fields in Dynamics NAV and the external data file or service.;
                           ENG=Specifies the codeunit that completes the mapping between fields in Dynamics NAV and the external data file or service.];
                ApplicationArea=#Basic,#Suite;
                SourceExpr="Post-Mapping Codeunit" }

    { 7   ;2   ;Field     ;
                ToolTipML=[ENU=Specifies the ID. This field is intended only for internal use.;
                           ENG=Specifies the ID. This field is intended only for internal use.];
                ApplicationArea=#Advanced;
                SourceExpr="Data Exch. No. Field ID";
                Visible=false }

    { 8   ;2   ;Field     ;
                ToolTipML=[ENU=Specifies the ID. This field is intended only for internal use.;
                           ENG=Specifies the ID. This field is intended only for internal use.];
                ApplicationArea=#Advanced;
                SourceExpr="Data Exch. Line Field ID";
                Visible=false }

    { 10  ;1   ;Part      ;
                CaptionML=[ENU=Field Mapping;
                           ENG=Field Mapping];
                ApplicationArea=#All;
                SubPageLink=Data Exch. Def Code=FIELD(Data Exch. Def Code),
                            Data Exch. Line Def Code=FIELD(Data Exch. Line Def Code),
                            Table ID=FIELD(Table ID);
                PagePartID=Page1217;
                Visible=NOT "Use as Intermediate Table";
                PartType=Page }

    { 12  ;1   ;Part      ;
                CaptionML=[ENU=Field Mapping;
                           ENG=Field Mapping];
                ApplicationArea=#All;
                SubPageLink=Data Exch. Def Code=FIELD(Data Exch. Def Code),
                            Data Exch. Line Def Code=FIELD(Data Exch. Line Def Code),
                            Table ID=FIELD(Table ID);
                PagePartID=Page1218;
                Visible="Use as Intermediate Table";
                PartType=Page }

  }
  CODE
  {

    BEGIN
    END.
  }
}

