OBJECT Page 1162 Purchase Invoice Due Next Week
{
  OBJECT-PROPERTIES
  {
    Date=22/11/17;
    Time=12:00:00;
    Version List=NAVW111.00;
  }
  PROPERTIES
  {
    CaptionML=[ENU=<Purchase Invoices Due Next Week>;
               ENG=<Purchase Invoices Due Next Week>];
    InsertAllowed=No;
    DeleteAllowed=No;
    ModifyAllowed=No;
    SourceTable=Table25;
    SourceTableView=SORTING(Entry No.)
                    ORDER(Descending);
    PageType=CardPart;
    ShowFilter=No;
    OnOpenPage=BEGIN
                 SETRANGE(Open,TRUE);
                 SETFILTER("Document Type",'Invoice|Credit Memo');
                 SETFILTER("Due Date",'%1..%2',CALCDATE('<1D>',WORKDATE),CALCDATE('<1W>',WORKDATE));
                 ASCENDING := FALSE;
               END;

    OnAfterGetRecord=VAR
                       Vendor@1000 : Record 23;
                     BEGIN
                       Vendor.GET("Vendor No.");
                       VendorName := Vendor.Name;
                       StyleTxt := SetStyle;
                     END;

  }
  CONTROLS
  {
    { 1   ;0   ;Container ;
                ContainerType=ContentArea }

    { 8   ;1   ;Group     ;
                GroupType=Repeater }

    { 2   ;2   ;Field     ;
                ToolTipML=[ENU=Specifies which purchase invoices are due next week.;
                           ENG=Specifies which purchase invoices are due next week.];
                ApplicationArea=#All;
                SourceExpr="Posting Date" }

    { 3   ;2   ;Field     ;
                ToolTipML=[ENU=Specifies the type of document.;
                           ENG=Specifies the type of document.];
                ApplicationArea=#All;
                SourceExpr="Document Type";
                StyleExpr=StyleTxt }

    { 4   ;2   ;Field     ;
                ToolTipML=[ENU=Specifies the purchase invoice number.;
                           ENG=Specifies the purchase invoice number.];
                ApplicationArea=#All;
                SourceExpr="Document No.";
                StyleExpr=StyleTxt }

    { 5   ;2   ;Field     ;
                Name=Vendor Name;
                CaptionML=[ENU=Vendor Name;
                           ENG=Vendor Name];
                ToolTipML=[ENU=Specifies name of the Vendor.;
                           ENG=Specifies name of the Vendor.];
                ApplicationArea=#All;
                SourceExpr=VendorName }

    { 6   ;2   ;Field     ;
                ToolTipML=[ENU=Specifies the amount that remains to be paid on the purchase invoice that is due next week.;
                           ENG=Specifies the amount that remains to be paid on the purchase invoice that is due next week.];
                ApplicationArea=#All;
                SourceExpr="Remaining Amount";
                OnDrillDown=VAR
                              HyperLinkUrl@1000 : Text[250];
                            BEGIN
                              HyperLinkUrl := GETURL(CLIENTTYPE::Web,COMPANYNAME,OBJECTTYPE::Page,574) + STRSUBSTNO(FilterForRemAmtDrillDwnTxt,"Entry No.");
                              HYPERLINK(HyperLinkUrl);
                            END;
                             }

    { 7   ;2   ;Field     ;
                ToolTipML=[ENU=Specifies when the purchase invoice must be paid.;
                           ENG=Specifies when the purchase invoice must be paid.];
                ApplicationArea=#All;
                SourceExpr="Due Date";
                StyleExpr=StyleTxt }

  }
  CODE
  {
    VAR
      VendorName@1001 : Text[250];
      StyleTxt@1000 : Text;
      FilterForRemAmtDrillDwnTxt@1002 : TextConst '@@@="%1 - Entry No. for Vendor ledger entry. ";ENU="&filter=''Detailed Vendor Ledg. Entry''.''Vendor Ledger Entry No.'' IS ''%1''";ENG="&filter=''Detailed Vendor Ledg. Entry''.''Vendor Ledger Entry No.'' IS ''%1''"';

    BEGIN
    END.
  }
}

