OBJECT Page 1028 Job WIP Totals
{
  OBJECT-PROPERTIES
  {
    Date=25/10/16;
    Time=12:00:00;
    Version List=NAVW110.00;
  }
  PROPERTIES
  {
    Editable=No;
    CaptionML=[ENU=Job WIP Totals;
               ENG=Job WIP Totals];
    InsertAllowed=No;
    DeleteAllowed=No;
    ModifyAllowed=No;
    SourceTable=Table1021;
    PageType=ListPart;
  }
  CONTROLS
  {
    { 1   ;0   ;Container ;
                ContainerType=ContentArea }

    { 2   ;1   ;Group     ;
                Name=Group;
                GroupType=Repeater }

    { 3   ;2   ;Field     ;
                ToolTipML=[ENU=Specifies the number of the job task that is associated with the job WIP total. The job task number is generally the final task in a group of tasks that is set to Total or the last job task line.;
                           ENG=Specifies the number of the job task that is associated with the job WIP total. The job task number is generally the final task in a group of tasks that is set to Total or the last job task line.];
                ApplicationArea=#Jobs;
                SourceExpr="Job Task No." }

    { 4   ;2   ;Field     ;
                ToolTipML=[ENU=Specifies the name of the work in process (WIP) calculation method that is associated with a job. The value in the field comes from the WIP method specified on the job card.;
                           ENG=Specifies the name of the work in process (WIP) calculation method that is associated with a job. The value in the field comes from the WIP method specified on the job card.];
                ApplicationArea=#Jobs;
                SourceExpr="WIP Method" }

    { 5   ;2   ;Field     ;
                ToolTipML=[ENU=Specifies the date when work in process (WIP) was last calculated and entered in the Job WIP Entries window.;
                           ENG=Specifies the date when work in process (WIP) was last calculated and entered in the Job WIP Entries window.];
                ApplicationArea=#Jobs;
                SourceExpr="WIP Posting Date" }

    { 8   ;2   ;Field     ;
                ToolTipML=[ENU=Specifies if there are WIP warnings associated with a job for which you have calculated WIP.;
                           ENG=Specifies if there are WIP warnings associated with a job for which you have calculated WIP.];
                ApplicationArea=#Jobs;
                SourceExpr="WIP Warnings" }

    { 9   ;2   ;Field     ;
                ToolTipML=[ENU=Specifies the total of the budgeted costs for the job.;
                           ENG=Specifies the total of the budgeted costs for the job.];
                ApplicationArea=#Jobs;
                SourceExpr="Schedule (Total Cost)" }

    { 10  ;2   ;Field     ;
                ToolTipML=[ENU=Specifies the total of the budgeted prices for the job.;
                           ENG=Specifies the total of the budgeted prices for the job.];
                ApplicationArea=#Jobs;
                SourceExpr="Schedule (Total Price)" }

    { 11  ;2   ;Field     ;
                ToolTipML=[ENU=Specifies job usage in relation to total cost up to the date of the last job WIP calculation.;
                           ENG=Specifies job usage in relation to total cost up to the date of the last job WIP calculation.];
                ApplicationArea=#Jobs;
                SourceExpr="Usage (Total Cost)" }

    { 12  ;2   ;Field     ;
                ToolTipML=[ENU=Specifies job usage in relation to total price up to the date of the last job WIP calculation.;
                           ENG=Specifies job usage in relation to total price up to the date of the last job WIP calculation.];
                ApplicationArea=#Jobs;
                SourceExpr="Usage (Total Price)" }

    { 13  ;2   ;Field     ;
                ToolTipML=[ENU=Specifies the value of the billable in relation to total cost up to the date of the last job WIP calculation.;
                           ENG=Specifies the value of the billable in relation to total cost up to the date of the last job WIP calculation.];
                ApplicationArea=#Jobs;
                SourceExpr="Contract (Total Cost)" }

    { 14  ;2   ;Field     ;
                ToolTipML=[ENU=Specifies the value of the billable in relation to the total price up to the date of the last job WIP calculation.;
                           ENG=Specifies the value of the billable in relation to the total price up to the date of the last job WIP calculation.];
                ApplicationArea=#Jobs;
                SourceExpr="Contract (Total Price)" }

    { 15  ;2   ;Field     ;
                ToolTipML=[ENU=Specifies the price amount that has been invoiced and posted in relation to the billable for the current WIP calculation.;
                           ENG=Specifies the price amount that has been invoiced and posted in relation to the billable for the current WIP calculation.];
                ApplicationArea=#Jobs;
                SourceExpr="Contract (Invoiced Price)" }

    { 16  ;2   ;Field     ;
                ToolTipML=[ENU=Specifies the cost amount that has been invoiced and posted in relation to the billable for the current WIP calculation.;
                           ENG=Specifies the cost amount that has been invoiced and posted in relation to the billable for the current WIP calculation.];
                ApplicationArea=#Jobs;
                SourceExpr="Contract (Invoiced Cost)" }

    { 17  ;2   ;Field     ;
                ToolTipML=[ENU=Specifies the calculated sum of recognized sales amounts in the current WIP calculation.;
                           ENG=Specifies the calculated sum of recognised sales amounts in the current WIP calculation.];
                ApplicationArea=#Jobs;
                SourceExpr="Calc. Recog. Sales Amount" }

    { 18  ;2   ;Field     ;
                ToolTipML=[ENU=Specifies the calculated sum of recognized costs amounts in the current WIP calculation.;
                           ENG=Specifies the calculated sum of recognised costs amounts in the current WIP calculation.];
                ApplicationArea=#Jobs;
                SourceExpr="Calc. Recog. Costs Amount" }

    { 19  ;2   ;Field     ;
                ToolTipML=[ENU=Specifies the cost completion percentage for job tasks that have been budgeted in the current WIP calculation.;
                           ENG=Specifies the cost completion percentage for job tasks that have been budgeted in the current WIP calculation.];
                ApplicationArea=#Jobs;
                SourceExpr="Cost Completion %" }

    { 20  ;2   ;Field     ;
                ToolTipML=[ENU=Specifies the percentage of contracted job tasks that have been invoiced in the current WIP calculation.;
                           ENG=Specifies the percentage of contracted job tasks that have been invoiced in the current WIP calculation.];
                ApplicationArea=#Jobs;
                SourceExpr="Invoiced %" }

  }
  CODE
  {

    BEGIN
    END.
  }
}

