OBJECT Page 2506 Extension Logo Part
{
  OBJECT-PROPERTIES
  {
    Date=25/10/16;
    Time=12:00:00;
    Version List=NAVW110.00;
  }
  PROPERTIES
  {
    Editable=No;
    CaptionML=[ENU=Extension Logo Part;
               ENG=Extension Logo Part];
    InsertAllowed=No;
    DeleteAllowed=No;
    ModifyAllowed=No;
    LinksAllowed=No;
    SourceTable=Table2000000160;
    PopulateAllFields=Yes;
    PageType=CardPart;
    RefreshOnActivate=Yes;
    ShowFilter=No;
  }
  CONTROLS
  {
    { 1   ;0   ;Container ;
                ContainerType=ContentArea }

    { 4   ;1   ;Group     ;
                GroupType=Group }

    { 3   ;2   ;Group     ;
                GroupType=Group }

    { 2   ;3   ;Field     ;
                ToolTipML=[ENU=Specifies the logo of the extension, such as the logo of the service provider.;
                           ENG=Specifies the logo of the extension, such as the logo of the service provider.];
                ApplicationArea=#Basic,#Suite;
                SourceExpr=Logo }

  }
  CODE
  {

    BEGIN
    END.
  }
}

