OBJECT Page 2127 O365 Email BCC Listpart
{
  OBJECT-PROPERTIES
  {
    Date=22/11/17;
    Time=12:00:00;
    Version List=NAVW111.00;
  }
  PROPERTIES
  {
    Editable=No;
    CaptionML=[ENU=BCC;
               ENG=BCC];
    InsertAllowed=No;
    DeleteAllowed=No;
    SourceTable=Table2118;
    SourceTableView=WHERE(RecipientType=CONST(BCC));
    PageType=ListPart;
    CardPageID=O365 Email CC/BCC Card;
    OnNewRecord=BEGIN
                  RecipientType := RecipientType::BCC;
                END;

    ActionList=ACTIONS
    {
      { 4       ;    ;ActionContainer;
                      ActionContainerType=ActionItems }
      { 5       ;1   ;Action    ;
                      Name=DeleteLine;
                      CaptionML=[ENU=Delete Line;
                                 ENG=Delete Line];
                      ToolTipML=[ENU=Delete the selected line.;
                                 ENG=Delete the selected line.];
                      ApplicationArea=#Basic,#Suite,#Invoicing;
                      Promoted=Yes;
                      Image=Delete;
                      Scope=Repeater;
                      OnAction=BEGIN
                                 IF NOT CONFIRM(DeleteQst,TRUE) THEN
                                   EXIT;
                                 DELETE(TRUE);
                                 CurrPage.UPDATE;
                               END;

                      Gesture=RightSwipe }
      { 6       ;1   ;Action    ;
                      ShortCutKey=Return;
                      CaptionML=[ENU=Open;
                                 ENG=Open];
                      ToolTipML=[ENU=Open the card for the selected record.;
                                 ENG=Open the card for the selected record.];
                      ApplicationArea=#Basic,#Suite,#Invoicing;
                      RunObject=Page 2149;
                      RunPageOnRec=Yes;
                      Visible=FALSE;
                      Image=DocumentEdit;
                      Scope=Repeater }
    }
  }
  CONTROLS
  {
    { 1   ;0   ;Container ;
                ContainerType=ContentArea }

    { 2   ;1   ;Group     ;
                Name=Group;
                GroupType=Repeater }

    { 3   ;2   ;Field     ;
                ExtendedDatatype=E-Mail;
                ToolTipML=[ENU=Specifies the BCC recipient address on all new invoices;
                           ENG=Specifies the BCC recipient address on all new invoices];
                ApplicationArea=#Basic,#Suite,#Invoicing;
                SourceExpr=Email }

  }
  CODE
  {
    VAR
      DeleteQst@1000 : TextConst 'ENU=Are you sure?;ENG=Are you sure?';

    BEGIN
    END.
  }
}

