OBJECT Page 230 Res. Gr. Statistics
{
  OBJECT-PROPERTIES
  {
    Date=22/11/17;
    Time=12:00:00;
    Version List=NAVW111.00;
  }
  PROPERTIES
  {
    Editable=No;
    CaptionML=[ENU=Res. Gr. Statistics;
               ENG=Res. Gr. Statistics];
    LinksAllowed=No;
    SourceTable=Table152;
    PageType=Card;
    OnAfterGetRecord=BEGIN
                       IF CurrentDate <> WORKDATE THEN BEGIN
                         CurrentDate := WORKDATE;
                         DateFilterCalc.CreateAccountingPeriodFilter(ResGrDateFilter[1],ResGrDateName[1],CurrentDate,0);
                         DateFilterCalc.CreateFiscalYearFilter(ResGrDateFilter[2],ResGrDateName[2],CurrentDate,0);
                         DateFilterCalc.CreateFiscalYearFilter(ResGrDateFilter[3],ResGrDateName[3],CurrentDate,-1);
                       END;

                       CLEAR(TotalUsageUnits);

                       FOR i := 1 TO 4 DO BEGIN
                         SETFILTER("Date Filter",ResGrDateFilter[i]);
                         SETRANGE("Chargeable Filter");
                         CALCFIELDS(Capacity,"Usage (Cost)","Sales (Price)");

                         ResGrCapacity[i] := Capacity;
                         ResGrUsageCost[i] := "Usage (Cost)";
                         UnitPrice[i] := "Sales (Price)";

                         FOR j := 1 TO 2 DO BEGIN
                           IF j = 1 THEN
                             Chargeable := FALSE
                           ELSE
                             Chargeable := TRUE;
                           SETRANGE("Chargeable Filter",Chargeable);
                           CALCFIELDS("Usage (Qty.)","Usage (Price)");
                           ResGrUsageUnits[i][j] := "Usage (Qty.)";
                           ResGrUsagePrice[i][j] := "Usage (Price)";
                           TotalUsageUnits[i] := TotalUsageUnits[i] + "Usage (Qty.)";
                         END;

                         UnusedCapacity[i] := ResGrCapacity[i] - TotalUsageUnits[i];
                         ChargeablePct[i] := CalcPercentage(ResGrUsageUnits[i][2],TotalUsageUnits[i]);
                         InvoicedPct[i] := CalcPercentage(UnitPrice[i],ResGrUsagePrice[i][2]);
                         Profit[i] := UnitPrice[i] - ResGrUsageCost[i];
                         ResGrProfitPct[i] := CalcPercentage(Profit[i],UnitPrice[i]);
                       END;

                       SETRANGE("Date Filter");
                       SETRANGE("Chargeable Filter");
                     END;

  }
  CONTROLS
  {
    { 1900000001;0;Container;
                ContainerType=ContentArea }

    { 2   ;1   ;Group     ;
                CaptionML=[ENU=Usage;
                           ENG=Usage] }

    { 1903895201;2;Group  ;
                GroupType=FixedLayout }

    { 1900724701;3;Group  ;
                CaptionML=[ENU=This Period;
                           ENG=This Period] }

    { 8   ;4   ;Field     ;
                ApplicationArea=#Jobs;
                SourceExpr=ResGrDateName[1];
                ShowCaption=No }

    { 13  ;4   ;Field     ;
                CaptionML=[ENU=Capacity;
                           ENG=Capacity];
                ToolTipML=[ENU=Specifies the scheduled capacity of the resource group. The amount is the sum of values in the Quantity field on job planning lines for the resource group.;
                           ENG=Specifies the scheduled capacity of the resource group. The amount is the sum of values in the Quantity field on job planning lines for the resource group.];
                ApplicationArea=#Jobs;
                DecimalPlaces=0:5;
                SourceExpr=ResGrCapacity[1] }

    { 18  ;4   ;Field     ;
                CaptionML=[ENU=Unused Capacity;
                           ENG=Unused Capacity];
                ToolTipML=[ENU="Specifies the difference between the capacity and the capacity used. It is calculated as follows: Unused Capacity = Capacity - Charg. Usage + Not Charg. Usage.";
                           ENG="Specifies the difference between the capacity and the capacity used. It is calculated as follows: Unused Capacity = Capacity - Charg. Usage + Not Charg. Usage."];
                ApplicationArea=#Jobs;
                DecimalPlaces=0:5;
                SourceExpr=UnusedCapacity[1] }

    { 77  ;4   ;Field     ;
                CaptionML=[ENU=Not Chargeable Usage;
                           ENG=Not Chargeable Usage];
                ToolTipML=[ENU=Specifies resource group usage that is not chargeable, displayed in units of measure or unit prices. Nonchargeable usage can be posted in the resource group journal and the job journal.;
                           ENG=Specifies resource group usage that is not chargeable, displayed in units of measure or unit prices. Non-chargeable usage can be posted in the resource group journal and the job journal.];
                ApplicationArea=#Jobs;
                SourceExpr=Text000;
                Visible=FALSE }

    { 24  ;4   ;Field     ;
                CaptionML=[ENU=Units;
                           ENG=Units];
                ToolTipML=[ENU=Specifies the usage, displayed in the specified unit of measure.;
                           ENG=Specifies the usage, displayed in the specified unit of measure.];
                ApplicationArea=#Jobs;
                DecimalPlaces=0:5;
                SourceExpr=ResGrUsageUnits[1][1] }

    { 29  ;4   ;Field     ;
                CaptionML=[ENU=Price;
                           ENG=Price];
                ToolTipML=[ENU=Specifies the price amounts.;
                           ENG=Specifies the price amounts.];
                ApplicationArea=#Jobs;
                SourceExpr=ResGrUsagePrice[1][1];
                AutoFormatType=1 }

    { 81  ;4   ;Field     ;
                CaptionML=[ENU=Chargeable Usage;
                           ENG=Chargeable Usage];
                ToolTipML=[ENU=Specifies the chargeable usage. Chargeable usage can be posted in the resource group journal and the job journal.;
                           ENG=Specifies the chargeable usage. Chargeable usage can be posted in the resource group journal and the job journal.];
                ApplicationArea=#Jobs;
                SourceExpr=Text000;
                Visible=FALSE }

    { 35  ;4   ;Field     ;
                CaptionML=[ENU=Units;
                           ENG=Units];
                ToolTipML=[ENU=Specifies the usage, displayed in the specified unit of measure.;
                           ENG=Specifies the usage, displayed in the specified unit of measure.];
                ApplicationArea=#Jobs;
                DecimalPlaces=0:5;
                SourceExpr=ResGrUsageUnits[1][2] }

    { 40  ;4   ;Field     ;
                CaptionML=[ENU=Price;
                           ENG=Price];
                ToolTipML=[ENU=Specifies the price amounts.;
                           ENG=Specifies the price amounts.];
                ApplicationArea=#Jobs;
                SourceExpr=ResGrUsagePrice[1][2];
                AutoFormatType=1 }

    { 45  ;4   ;Field     ;
                CaptionML=[ENU=Chargeable % (Units);
                           ENG=Chargeable % (Units)];
                ToolTipML=[ENU="Specifies the percentage of usage that applies to chargeable units. It is calculated as follows: Chargeable % = (Chargeable Units + Nonchargeable Units) x 100.";
                           ENG="Specifies the percentage of usage that applies to chargeable units. It is calculated as follows: Chargeable % = (Chargeable Units + Non-chargeable Units) x 100."];
                ApplicationArea=#Jobs;
                DecimalPlaces=1:1;
                SourceExpr=ChargeablePct[1] }

    { 1900725501;3;Group  ;
                CaptionML=[ENU=This Year;
                           ENG=This Year] }

    { 7   ;4   ;Field     ;
                ApplicationArea=#Jobs;
                SourceExpr=Text000;
                Visible=FALSE }

    { 14  ;4   ;Field     ;
                CaptionML=[ENU=Capacity;
                           ENG=Capacity];
                ToolTipML=[ENU=Specifies the scheduled capacity of the resource group. The amount is the sum of values in the Quantity field on job planning lines for the resource group.;
                           ENG=Specifies the scheduled capacity of the resource group. The amount is the sum of values in the Quantity field on job planning lines for the resource group.];
                ApplicationArea=#Jobs;
                DecimalPlaces=0:5;
                SourceExpr=ResGrCapacity[2] }

    { 19  ;4   ;Field     ;
                CaptionML=[ENU=Unused Capacity;
                           ENG=Unused Capacity];
                ToolTipML=[ENU="Specifies the difference between the capacity and the capacity used. It is calculated as follows: Unused Capacity = Capacity - Charg. Usage + Not Charg. Usage.";
                           ENG="Specifies the difference between the capacity and the capacity used. It is calculated as follows: Unused Capacity = Capacity - Charg. Usage + Not Charg. Usage."];
                ApplicationArea=#Jobs;
                DecimalPlaces=0:5;
                SourceExpr=UnusedCapacity[2] }

    { 78  ;4   ;Field     ;
                ApplicationArea=#Jobs;
                SourceExpr=Text000;
                Visible=FALSE }

    { 25  ;4   ;Field     ;
                CaptionML=[ENU=Units;
                           ENG=Units];
                ToolTipML=[ENU=Specifies the usage, displayed in the specified unit of measure.;
                           ENG=Specifies the usage, displayed in the specified unit of measure.];
                ApplicationArea=#Jobs;
                DecimalPlaces=0:5;
                SourceExpr=ResGrUsageUnits[2][1] }

    { 30  ;4   ;Field     ;
                CaptionML=[ENU=Price;
                           ENG=Price];
                ToolTipML=[ENU=Specifies the price amounts.;
                           ENG=Specifies the price amounts.];
                ApplicationArea=#Jobs;
                SourceExpr=ResGrUsagePrice[2][1];
                AutoFormatType=1 }

    { 82  ;4   ;Field     ;
                ApplicationArea=#Jobs;
                SourceExpr=Text000;
                Visible=FALSE }

    { 36  ;4   ;Field     ;
                CaptionML=[ENU=Units;
                           ENG=Units];
                ToolTipML=[ENU=Specifies the usage, displayed in the specified unit of measure.;
                           ENG=Specifies the usage, displayed in the specified unit of measure.];
                ApplicationArea=#Jobs;
                DecimalPlaces=0:5;
                SourceExpr=ResGrUsageUnits[2][2] }

    { 41  ;4   ;Field     ;
                CaptionML=[ENU=Price;
                           ENG=Price];
                ToolTipML=[ENU=Specifies the price amounts.;
                           ENG=Specifies the price amounts.];
                ApplicationArea=#Jobs;
                SourceExpr=ResGrUsagePrice[2][2];
                AutoFormatType=1 }

    { 46  ;4   ;Field     ;
                CaptionML=[ENU=Chargeable % (Units);
                           ENG=Chargeable % (Units)];
                ToolTipML=[ENU="Specifies the percentage of usage that applies to chargeable units. It is calculated as follows: Chargeable % = (Chargeable Units + Nonchargeable Units) x 100.";
                           ENG="Specifies the percentage of usage that applies to chargeable units. It is calculated as follows: Chargeable % = (Chargeable Units + Non-chargeable Units) x 100."];
                ApplicationArea=#Jobs;
                DecimalPlaces=1:1;
                SourceExpr=ChargeablePct[2] }

    { 1903867101;3;Group  ;
                CaptionML=[ENU=Last Year;
                           ENG=Last Year] }

    { 12  ;4   ;Field     ;
                ApplicationArea=#Jobs;
                SourceExpr=Text000;
                Visible=FALSE }

    { 15  ;4   ;Field     ;
                CaptionML=[ENU=Capacity;
                           ENG=Capacity];
                ToolTipML=[ENU=Specifies the scheduled capacity of the resource group. The amount is the sum of values in the Quantity field on job planning lines for the resource group.;
                           ENG=Specifies the scheduled capacity of the resource group. The amount is the sum of values in the Quantity field on job planning lines for the resource group.];
                ApplicationArea=#Jobs;
                DecimalPlaces=0:5;
                SourceExpr=ResGrCapacity[3] }

    { 20  ;4   ;Field     ;
                CaptionML=[ENU=Unused Capacity;
                           ENG=Unused Capacity];
                ToolTipML=[ENU="Specifies the difference between the capacity and the capacity used. It is calculated as follows: Unused Capacity = Capacity - Charg. Usage + Not Charg. Usage.";
                           ENG="Specifies the difference between the capacity and the capacity used. It is calculated as follows: Unused Capacity = Capacity - Charg. Usage + Not Charg. Usage."];
                ApplicationArea=#Jobs;
                DecimalPlaces=0:5;
                SourceExpr=UnusedCapacity[3] }

    { 79  ;4   ;Field     ;
                ApplicationArea=#Jobs;
                SourceExpr=Text000;
                Visible=FALSE }

    { 26  ;4   ;Field     ;
                CaptionML=[ENU=Units;
                           ENG=Units];
                ToolTipML=[ENU=Specifies the usage, displayed in the specified unit of measure.;
                           ENG=Specifies the usage, displayed in the specified unit of measure.];
                ApplicationArea=#Jobs;
                DecimalPlaces=0:5;
                SourceExpr=ResGrUsageUnits[3][1] }

    { 31  ;4   ;Field     ;
                CaptionML=[ENU=Price;
                           ENG=Price];
                ToolTipML=[ENU=Specifies the price amounts.;
                           ENG=Specifies the price amounts.];
                ApplicationArea=#Jobs;
                SourceExpr=ResGrUsagePrice[3][1];
                AutoFormatType=1 }

    { 83  ;4   ;Field     ;
                ApplicationArea=#Jobs;
                SourceExpr=Text000;
                Visible=FALSE }

    { 37  ;4   ;Field     ;
                CaptionML=[ENU=Units;
                           ENG=Units];
                ToolTipML=[ENU=Specifies the usage, displayed in the specified unit of measure.;
                           ENG=Specifies the usage, displayed in the specified unit of measure.];
                ApplicationArea=#Jobs;
                DecimalPlaces=0:5;
                SourceExpr=ResGrUsageUnits[3][2] }

    { 42  ;4   ;Field     ;
                CaptionML=[ENU=Price;
                           ENG=Price];
                ToolTipML=[ENU=Specifies the price amounts.;
                           ENG=Specifies the price amounts.];
                ApplicationArea=#Jobs;
                SourceExpr=ResGrUsagePrice[3][2];
                AutoFormatType=1 }

    { 47  ;4   ;Field     ;
                CaptionML=[ENU=Chargeable % (Units);
                           ENG=Chargeable % (Units)];
                ToolTipML=[ENU="Specifies the percentage of usage that applies to chargeable units. It is calculated as follows: Chargeable % = (Chargeable Units + Nonchargeable Units) x 100.";
                           ENG="Specifies the percentage of usage that applies to chargeable units. It is calculated as follows: Chargeable % = (Chargeable Units + Non-chargeable Units) x 100."];
                ApplicationArea=#Jobs;
                DecimalPlaces=1:1;
                SourceExpr=ChargeablePct[3] }

    { 1901313501;3;Group  ;
                CaptionML=[ENU=Total;
                           ENG=Total] }

    { 76  ;4   ;Field     ;
                ApplicationArea=#Jobs;
                SourceExpr=Text000;
                Visible=FALSE }

    { 16  ;4   ;Field     ;
                CaptionML=[ENU=Capacity;
                           ENG=Capacity];
                ToolTipML=[ENU=Specifies the scheduled capacity of the resource group. The amount is the sum of values in the Quantity field on job planning lines for the resource group.;
                           ENG=Specifies the scheduled capacity of the resource group. The amount is the sum of values in the Quantity field on job planning lines for the resource group.];
                ApplicationArea=#Jobs;
                DecimalPlaces=0:5;
                SourceExpr=ResGrCapacity[4] }

    { 21  ;4   ;Field     ;
                CaptionML=[ENU=Unused Capacity;
                           ENG=Unused Capacity];
                ToolTipML=[ENU="Specifies the difference between the capacity and the capacity used. It is calculated as follows: Unused Capacity = Capacity - Charg. Usage + Not Charg. Usage.";
                           ENG="Specifies the difference between the capacity and the capacity used. It is calculated as follows: Unused Capacity = Capacity - Charg. Usage + Not Charg. Usage."];
                ApplicationArea=#Jobs;
                DecimalPlaces=0:5;
                SourceExpr=UnusedCapacity[4] }

    { 80  ;4   ;Field     ;
                ApplicationArea=#Jobs;
                SourceExpr=Text000;
                Visible=FALSE }

    { 27  ;4   ;Field     ;
                CaptionML=[ENU=Units;
                           ENG=Units];
                ToolTipML=[ENU=Specifies the usage, displayed in the specified unit of measure.;
                           ENG=Specifies the usage, displayed in the specified unit of measure.];
                ApplicationArea=#Jobs;
                DecimalPlaces=0:5;
                SourceExpr=ResGrUsageUnits[4][1] }

    { 32  ;4   ;Field     ;
                CaptionML=[ENU=Price;
                           ENG=Price];
                ToolTipML=[ENU=Specifies the price amounts.;
                           ENG=Specifies the price amounts.];
                ApplicationArea=#Jobs;
                SourceExpr=ResGrUsagePrice[4][1];
                AutoFormatType=1 }

    { 84  ;4   ;Field     ;
                ApplicationArea=#Jobs;
                SourceExpr=Text000;
                Visible=FALSE }

    { 38  ;4   ;Field     ;
                CaptionML=[ENU=Units;
                           ENG=Units];
                ToolTipML=[ENU=Specifies the usage, displayed in the specified unit of measure.;
                           ENG=Specifies the usage, displayed in the specified unit of measure.];
                ApplicationArea=#Jobs;
                DecimalPlaces=0:5;
                SourceExpr=ResGrUsageUnits[4][2] }

    { 43  ;4   ;Field     ;
                CaptionML=[ENU=Price;
                           ENG=Price];
                ToolTipML=[ENU=Specifies the price amounts.;
                           ENG=Specifies the price amounts.];
                ApplicationArea=#Jobs;
                SourceExpr=ResGrUsagePrice[4][2];
                AutoFormatType=1 }

    { 48  ;4   ;Field     ;
                CaptionML=[ENU=Chargeable % (Units);
                           ENG=Chargeable % (Units)];
                ToolTipML=[ENU="Specifies the percentage of usage that applies to chargeable units. It is calculated as follows: Chargeable % = (Chargeable Units + Nonchargeable Units) x 100.";
                           ENG="Specifies the percentage of usage that applies to chargeable units. It is calculated as follows: Chargeable % = (Chargeable Units + Non-chargeable Units) x 100."];
                ApplicationArea=#Jobs;
                DecimalPlaces=1:1;
                SourceExpr=ChargeablePct[4] }

    { 1904922701;1;Group  ;
                CaptionML=[ENU=Sale;
                           ENG=Sale] }

    { 1904230701;2;Group  ;
                GroupType=FixedLayout }

    { 1903100001;3;Group  ;
                CaptionML=[ENU=This Period;
                           ENG=This Period] }

    { 3   ;4   ;Field     ;
                ApplicationArea=#Jobs;
                SourceExpr=ResGrDateName[1];
                ShowCaption=No }

    { 50  ;4   ;Field     ;
                CaptionML=[ENU=Invoiced;
                           ENG=Invoiced];
                ToolTipML=[ENU=Specifies the unit prices of postings of the type sale. Sales can be posted in the resource group journal and the sales lines.;
                           ENG=Specifies the unit prices of postings of the type sale. Sales can be posted in the resource group journal and the sales lines.];
                ApplicationArea=#Jobs;
                SourceExpr=UnitPrice[1];
                AutoFormatType=1 }

    { 55  ;4   ;Field     ;
                CaptionML=[ENU=Invoiced %;
                           ENG=Invoiced %];
                ToolTipML=[ENU="Specifies the percentage of invoiced amounts in unit prices. It is calculated as follows: Invoiced % = (Invoiced (LCY) / Usage(Unit Price)) x 100.";
                           ENG="Specifies the percentage of invoiced amounts in unit prices. It is calculated as follows: Invoiced % = (Invoiced (LCY) / Usage(Unit Price)) x 100."];
                ApplicationArea=#Jobs;
                DecimalPlaces=1:1;
                SourceExpr=InvoicedPct[1] }

    { 60  ;4   ;Field     ;
                CaptionML=[ENU=Usage (Cost);
                           ENG=Usage (Cost)];
                ToolTipML=[ENU=Specifies values for job usage based on cost. Specifies, based on cost, how many of the resources in the group have been used.;
                           ENG=Specifies values for job usage based on cost. Specifies, based on cost, how many of the resources in the group have been used.];
                ApplicationArea=#Jobs;
                SourceExpr=ResGrUsageCost[1];
                AutoFormatType=1 }

    { 65  ;4   ;Field     ;
                CaptionML=[ENU=Profit;
                           ENG=Profit];
                ToolTipML=[ENU=Specifies the profit amounts.;
                           ENG=Specifies the profit amounts.];
                ApplicationArea=#Jobs;
                SourceExpr=Profit[1];
                AutoFormatType=1 }

    { 70  ;4   ;Field     ;
                CaptionML=[ENU=Profit %;
                           ENG=Profit %];
                ToolTipML=[ENU=Specifies the profit percentages.;
                           ENG=Specifies the profit percentages.];
                ApplicationArea=#Jobs;
                DecimalPlaces=1:1;
                SourceExpr=ResGrProfitPct[1] }

    { 1900724401;3;Group  ;
                CaptionML=[ENU=This Year;
                           ENG=This Year] }

    { 86  ;4   ;Field     ;
                ApplicationArea=#Jobs;
                SourceExpr=Text000;
                Visible=FALSE }

    { 51  ;4   ;Field     ;
                CaptionML=[ENU=Invoiced;
                           ENG=Invoiced];
                ToolTipML=[ENU=Specifies the unit prices of postings of the type sale. Sales can be posted in the resource group journal and the sales lines.;
                           ENG=Specifies the unit prices of postings of the type sale. Sales can be posted in the resource group journal and the sales lines.];
                ApplicationArea=#Jobs;
                SourceExpr=UnitPrice[2];
                AutoFormatType=1 }

    { 56  ;4   ;Field     ;
                CaptionML=[ENU=Invoiced %;
                           ENG=Invoiced %];
                ToolTipML=[ENU="Specifies the percentage of invoiced amounts in unit prices. It is calculated as follows: Invoiced % = (Invoiced (LCY) / Usage(Unit Price)) x 100.";
                           ENG="Specifies the percentage of invoiced amounts in unit prices. It is calculated as follows: Invoiced % = (Invoiced (LCY) / Usage(Unit Price)) x 100."];
                ApplicationArea=#Jobs;
                DecimalPlaces=1:1;
                SourceExpr=InvoicedPct[2] }

    { 61  ;4   ;Field     ;
                CaptionML=[ENU=Usage (Cost);
                           ENG=Usage (Cost)];
                ToolTipML=[ENU=Specifies values for job usage based on cost. Specifies, based on cost, how many of the resources in the group have been used.;
                           ENG=Specifies values for job usage based on cost. Specifies, based on cost, how many of the resources in the group have been used.];
                ApplicationArea=#Jobs;
                SourceExpr=ResGrUsageCost[2];
                AutoFormatType=1 }

    { 66  ;4   ;Field     ;
                CaptionML=[ENU=Profit;
                           ENG=Profit];
                ToolTipML=[ENU=Specifies the profit amounts.;
                           ENG=Specifies the profit amounts.];
                ApplicationArea=#Jobs;
                SourceExpr=Profit[2];
                AutoFormatType=1 }

    { 71  ;4   ;Field     ;
                CaptionML=[ENU=Profit %;
                           ENG=Profit %];
                ToolTipML=[ENU=Specifies the profit percentages.;
                           ENG=Specifies the profit percentages.];
                ApplicationArea=#Jobs;
                DecimalPlaces=1:1;
                SourceExpr=ResGrProfitPct[2] }

    { 1900724301;3;Group  ;
                CaptionML=[ENU=Last Year;
                           ENG=Last Year] }

    { 87  ;4   ;Field     ;
                ApplicationArea=#Jobs;
                SourceExpr=Text000;
                Visible=FALSE }

    { 52  ;4   ;Field     ;
                CaptionML=[ENU=Invoiced;
                           ENG=Invoiced];
                ToolTipML=[ENU=Specifies the unit prices of postings of the type sale. Sales can be posted in the resource group journal and the sales lines.;
                           ENG=Specifies the unit prices of postings of the type sale. Sales can be posted in the resource group journal and the sales lines.];
                ApplicationArea=#Jobs;
                SourceExpr=UnitPrice[3];
                AutoFormatType=1 }

    { 57  ;4   ;Field     ;
                CaptionML=[ENU=Invoiced %;
                           ENG=Invoiced %];
                ToolTipML=[ENU="Specifies the percentage of invoiced amounts in unit prices. It is calculated as follows: Invoiced % = (Invoiced (LCY) / Usage(Unit Price)) x 100.";
                           ENG="Specifies the percentage of invoiced amounts in unit prices. It is calculated as follows: Invoiced % = (Invoiced (LCY) / Usage(Unit Price)) x 100."];
                ApplicationArea=#Jobs;
                DecimalPlaces=1:1;
                SourceExpr=InvoicedPct[3] }

    { 62  ;4   ;Field     ;
                CaptionML=[ENU=Usage (Cost);
                           ENG=Usage (Cost)];
                ToolTipML=[ENU=Specifies values for job usage based on cost. Specifies, based on cost, how many of the resources in the group have been used.;
                           ENG=Specifies values for job usage based on cost. Specifies, based on cost, how many of the resources in the group have been used.];
                ApplicationArea=#Jobs;
                SourceExpr=ResGrUsageCost[3];
                AutoFormatType=1 }

    { 67  ;4   ;Field     ;
                CaptionML=[ENU=Profit;
                           ENG=Profit];
                ToolTipML=[ENU=Specifies the profit amounts.;
                           ENG=Specifies the profit amounts.];
                ApplicationArea=#Jobs;
                SourceExpr=Profit[3];
                AutoFormatType=1 }

    { 72  ;4   ;Field     ;
                CaptionML=[ENU=Profit %;
                           ENG=Profit %];
                ToolTipML=[ENU=Specifies the profit percentages.;
                           ENG=Specifies the profit percentages.];
                ApplicationArea=#Jobs;
                DecimalPlaces=1:1;
                SourceExpr=ResGrProfitPct[3] }

    { 1900724201;3;Group  ;
                CaptionML=[ENU=Total;
                           ENG=Total] }

    { 88  ;4   ;Field     ;
                ApplicationArea=#Jobs;
                SourceExpr=Text000;
                Visible=FALSE }

    { 53  ;4   ;Field     ;
                CaptionML=[ENU=Invoiced;
                           ENG=Invoiced];
                ToolTipML=[ENU=Specifies the unit prices of postings of the type sale. Sales can be posted in the resource group journal and the sales lines.;
                           ENG=Specifies the unit prices of postings of the type sale. Sales can be posted in the resource group journal and the sales lines.];
                ApplicationArea=#Jobs;
                SourceExpr=UnitPrice[4];
                AutoFormatType=1 }

    { 58  ;4   ;Field     ;
                CaptionML=[ENU=Invoiced %;
                           ENG=Invoiced %];
                ToolTipML=[ENU="Specifies the percentage of invoiced amounts in unit prices. It is calculated as follows: Invoiced % = (Invoiced (LCY) / Usage(Unit Price)) x 100.";
                           ENG="Specifies the percentage of invoiced amounts in unit prices. It is calculated as follows: Invoiced % = (Invoiced (LCY) / Usage(Unit Price)) x 100."];
                ApplicationArea=#Jobs;
                DecimalPlaces=1:1;
                SourceExpr=InvoicedPct[4] }

    { 63  ;4   ;Field     ;
                CaptionML=[ENU=Usage (Cost);
                           ENG=Usage (Cost)];
                ToolTipML=[ENU=Specifies values for job usage based on cost. Specifies, based on cost, how many of the resources in the group have been used.;
                           ENG=Specifies values for job usage based on cost. Specifies, based on cost, how many of the resources in the group have been used.];
                ApplicationArea=#Jobs;
                SourceExpr=ResGrUsageCost[4];
                AutoFormatType=1 }

    { 68  ;4   ;Field     ;
                CaptionML=[ENU=Profit;
                           ENG=Profit];
                ToolTipML=[ENU=Specifies the profit amounts.;
                           ENG=Specifies the profit amounts.];
                ApplicationArea=#Jobs;
                SourceExpr=Profit[4];
                AutoFormatType=1 }

    { 73  ;4   ;Field     ;
                CaptionML=[ENU=Profit %;
                           ENG=Profit %];
                ToolTipML=[ENU=Specifies the profit percentages.;
                           ENG=Specifies the profit percentages.];
                ApplicationArea=#Jobs;
                DecimalPlaces=1:1;
                SourceExpr=ResGrProfitPct[4] }

  }
  CODE
  {
    VAR
      DateFilterCalc@1000 : Codeunit 358;
      ResGrDateFilter@1001 : ARRAY [4] OF Text[30];
      ResGrDateName@1002 : ARRAY [4] OF Text[30];
      i@1003 : Integer;
      j@1004 : Integer;
      Chargeable@1005 : Boolean;
      CurrentDate@1006 : Date;
      ResGrCapacity@1007 : ARRAY [4] OF Decimal;
      ResGrUsageCost@1008 : ARRAY [4] OF Decimal;
      UnitPrice@1009 : ARRAY [4] OF Decimal;
      TotalUsageUnits@1010 : ARRAY [4] OF Decimal;
      UnusedCapacity@1011 : ARRAY [4] OF Decimal;
      ResGrUsageUnits@1012 : ARRAY [4,2] OF Decimal;
      ResGrUsagePrice@1013 : ARRAY [4,2] OF Decimal;
      ChargeablePct@1014 : ARRAY [4] OF Decimal;
      InvoicedPct@1015 : ARRAY [4] OF Decimal;
      Profit@1016 : ARRAY [4] OF Decimal;
      ResGrProfitPct@1017 : ARRAY [4] OF Decimal;
      Text000@1018 : TextConst 'ENU=Placeholder;ENG=Placeholder';

    LOCAL PROCEDURE CalcPercentage@1(PartAmount@1000 : Decimal;Base@1001 : Decimal) : Decimal;
    BEGIN
      IF Base <> 0 THEN
        EXIT(100 * PartAmount / Base);

      EXIT(0);
    END;

    BEGIN
    END.
  }
}

