OBJECT Page 2166 O365 Coupon List
{
  OBJECT-PROPERTIES
  {
    Date=22/11/17;
    Time=12:00:00;
    Version List=NAVW111.00;
  }
  PROPERTIES
  {
    Editable=No;
    CaptionML=[ENU=Coupons;
               ENG=Coupons];
    SourceTable=Table2115;
    PageType=List;
    OnAfterGetRecord=BEGIN
                       UpdateStatusText;
                       IF "Is applied" THEN BEGIN
                         StatusTextStyleExpr := 'Favorable';
                         CodeStyleExpr := 'Subordinate';
                       END ELSE BEGIN
                         CLEAR(StatusTextStyleExpr);
                         CLEAR(CodeStyleExpr);
                       END;
                     END;

    ActionList=ACTIONS
    {
      { 16      ;    ;ActionContainer;
                      ActionContainerType=ActionItems }
      { 14      ;1   ;Action    ;
                      Name=ViewCoupon;
                      ShortCutKey=Return;
                      CaptionML=[ENU=View;
                                 ENG=View];
                      ToolTipML=[ENU=Open the card for the selected record.;
                                 ENG=Open the card for the selected record.];
                      ApplicationArea=#Basic,#Suite,#Invoicing;
                      Visible=False;
                      Image=ViewDetails;
                      OnAction=VAR
                                 IsAppliedBeforeOpening@1000 : Boolean;
                               BEGIN
                                 IsAppliedBeforeOpening := "Is applied";
                                 PAGE.RUNMODAL(PAGE::"O365 Coupon",Rec);
                                 CALCFIELDS("Is applied");
                                 IF (NOT IsAppliedBeforeOpening) AND "Is applied" THEN
                                   CurrPage.CLOSE;
                               END;
                                }
      { 8       ;1   ;Action    ;
                      Name=UseCoupon;
                      CaptionML=[ENU=Use coupon;
                                 ENG=Use coupon];
                      ToolTipML=[ENU=Use this coupon.;
                                 ENG=Use this coupon.];
                      ApplicationArea=#Basic,#Suite,#Invoicing;
                      Promoted=Yes;
                      PromotedIsBig=Yes;
                      Scope=Repeater;
                      OnAction=BEGIN
                                 Apply;
                               END;

                      Gesture=LeftSwipe }
      { 7       ;1   ;Action    ;
                      Name=DoNotUseCoupon;
                      CaptionML=[ENU=Do not use coupon;
                                 ENG=Do not use coupon];
                      ToolTipML=[ENU=Do not use this coupon.;
                                 ENG=Do not use this coupon.];
                      ApplicationArea=#Basic,#Suite,#Invoicing;
                      Promoted=Yes;
                      PromotedIsBig=Yes;
                      Scope=Repeater;
                      OnAction=BEGIN
                                 Unapply;
                               END;

                      Gesture=RightSwipe }
    }
  }
  CONTROLS
  {
    { 1   ;0   ;Container ;
                ContainerType=ContentArea }

    { 2   ;1   ;Group     ;
                Name=Group;
                GroupType=Repeater }

    { 3   ;2   ;Field     ;
                ApplicationArea=#Basic,#Suite,#Invoicing;
                SourceExpr=Code;
                StyleExpr=CodeStyleExpr }

    { 4   ;2   ;Field     ;
                ApplicationArea=#Basic,#Suite,#Invoicing;
                SourceExpr="Status Text";
                StyleExpr=StatusTextStyleExpr }

    { 5   ;2   ;Field     ;
                ToolTipML=[ENU=Specifies the coupon amount in letters.;
                           ENG=Specifies the coupon amount in letters.];
                ApplicationArea=#Basic,#Suite,#Invoicing;
                SourceExpr="Amount Text" }

    { 6   ;2   ;Field     ;
                ApplicationArea=#Basic,#Suite,#Invoicing;
                SourceExpr=Offer }

  }
  CODE
  {
    VAR
      StatusTextStyleExpr@1001 : Text;
      CodeStyleExpr@1002 : Text;

    BEGIN
    END.
  }
}

