OBJECT Page 23 Cust. Invoice Discounts
{
  OBJECT-PROPERTIES
  {
    Date=22/11/17;
    Time=12:00:00;
    Version List=NAVW111.00;
  }
  PROPERTIES
  {
    CaptionML=[ENU=Cust. Invoice Discounts;
               ENG=Cust. Invoice Discounts];
    SourceTable=Table19;
    DataCaptionFields=Code;
    PageType=List;
  }
  CONTROLS
  {
    { 1900000001;0;Container;
                ContainerType=ContentArea }

    { 1   ;1   ;Group     ;
                GroupType=Repeater }

    { 11  ;2   ;Field     ;
                ToolTipML=[ENU=Specifies the contents of the Invoice Disc. Code field on the customer card.;
                           ENG=Specifies the contents of the Invoice Disc. Code field on the customer card.];
                ApplicationArea=#Advanced;
                SourceExpr=Code;
                Visible=FALSE }

    { 13  ;2   ;Field     ;
                ToolTipML=[ENU=Specifies the currency code for invoice discount terms.;
                           ENG=Specifies the currency code for invoice discount terms.];
                ApplicationArea=#Suite;
                SourceExpr="Currency Code" }

    { 2   ;2   ;Field     ;
                ToolTipML=[ENU=Specifies the minimum amount that the invoice must total for the discount to be granted or the service charge levied.;
                           ENG=Specifies the minimum amount that the invoice must total for the discount to be granted or the service charge levied.];
                ApplicationArea=#Basic,#Suite;
                SourceExpr="Minimum Amount" }

    { 4   ;2   ;Field     ;
                ToolTipML=[ENU=Specifies the discount percentage that the customer can receive by buying for at least the minimum amount.;
                           ENG=Specifies the discount percentage that the customer can receive by buying for at least the minimum amount.];
                ApplicationArea=#Basic,#Suite;
                SourceExpr="Discount %" }

    { 6   ;2   ;Field     ;
                ToolTipML=[ENU=Specifies the amount of the service charge that the customer will have to pay on a purchase of at least the amount in the Minimum Amount field.;
                           ENG=Specifies the amount of the service charge that the customer will have to pay on a purchase of at least the amount in the Minimum Amount field.];
                ApplicationArea=#Basic,#Suite;
                SourceExpr="Service Charge" }

    { 1900000007;0;Container;
                ContainerType=FactBoxArea }

    { 1900383207;1;Part   ;
                Visible=FALSE;
                PartType=System;
                SystemPartID=RecordLinks }

    { 1905767507;1;Part   ;
                Visible=FALSE;
                PartType=System;
                SystemPartID=Notes }

  }
  CODE
  {

    BEGIN
    END.
  }
}

