OBJECT Page 2852 Native - Tax Group Entity
{
  OBJECT-PROPERTIES
  {
    Date=22/11/17;
    Time=12:00:00;
    Version List=NAVW111.00;
  }
  PROPERTIES
  {
    CaptionML=[@@@={Locked};
               ENU=taxGroups;
               ENG=taxGroups];
    InsertAllowed=No;
    DeleteAllowed=No;
    SourceTable=Table5480;
    DelayedInsert=Yes;
    PageType=List;
    SourceTableTemporary=Yes;
    OnOpenPage=BEGIN
                 BINDSUBSCRIPTION(NativeAPILanguageHandler);
                 LoadRecords;
               END;

    OnInsertRecord=BEGIN
                     PropagateInsert;
                   END;

    OnModifyRecord=BEGIN
                     PropagateModify;
                   END;

    OnDeleteRecord=BEGIN
                     PropagateDelete;
                   END;

  }
  CONTROLS
  {
    { 1   ;0   ;Container ;
                ContainerType=ContentArea }

    { 2   ;1   ;Group     ;
                Name=Group;
                GroupType=Repeater }

    { 4   ;2   ;Field     ;
                Name=id;
                CaptionML=[@@@={Locked};
                           ENU=Id;
                           ENG=Id];
                ApplicationArea=#All;
                SourceExpr=Id }

    { 3   ;2   ;Field     ;
                Name=code;
                CaptionML=[@@@={Locked};
                           ENU=code;
                           ENG=code];
                ApplicationArea=#All;
                SourceExpr=Code }

    { 5   ;2   ;Field     ;
                Name=displayName;
                CaptionML=[@@@={Locked};
                           ENU=DisplayName;
                           ENG=DisplayName];
                ApplicationArea=#All;
                SourceExpr=Description }

    { 7   ;2   ;Field     ;
                Name=taxType;
                CaptionML=[@@@={Locked};
                           ENU=taxType;
                           ENG=taxType];
                ApplicationArea=#All;
                SourceExpr=Type;
                Editable=FALSE }

    { 6   ;2   ;Field     ;
                Name=lastModifiedDateTime;
                CaptionML=[@@@={Locked};
                           ENU=LastModifiedDateTime;
                           ENG=LastModifiedDateTime];
                ApplicationArea=#All;
                SourceExpr="Last Modified DateTime" }

  }
  CODE
  {
    VAR
      NativeAPILanguageHandler@1000 : Codeunit 2850;

    BEGIN
    END.
  }
}

