OBJECT Page 36 Assembly BOM
{
  OBJECT-PROPERTIES
  {
    Date=21/12/17;
    Time=12:00:00;
    Version List=NAVW111.00.00.19846;
  }
  PROPERTIES
  {
    CaptionML=[ENU=Assembly BOM;
               ENG=Assembly BOM];
    SourceTable=Table90;
    DataCaptionFields=Parent Item No.;
    PageType=List;
    AutoSplitKey=Yes;
    RefreshOnActivate=Yes;
    PromotedActionCategoriesML=[ENU=New,Process,Report,Item,BOM;
                                ENG=New,Process,Report,Item,BOM];
    OnAfterGetRecord=BEGIN
                       IsEmptyOrItem := Type IN [Type::" ",Type::Item];
                     END;

    OnInsertRecord=BEGIN
                     IsEmptyOrItem := Type IN [Type::" ",Type::Item];
                   END;

    OnAfterGetCurrRecord=BEGIN
                           IsEmptyOrItem := Type IN [Type::" ",Type::Item];
                         END;

    ActionList=ACTIONS
    {
      { 1900000004;0 ;ActionContainer;
                      ActionContainerType=ActionItems }
      { 20      ;1   ;Action    ;
                      Name=Show BOM;
                      CaptionML=[ENU=Show BOM;
                                 ENG=Show BOM];
                      ToolTipML=[ENU=View the BOM structure.;
                                 ENG=View the BOM structure.];
                      ApplicationArea=#Assembly;
                      Promoted=Yes;
                      PromotedIsBig=Yes;
                      Image=Hierarchy;
                      PromotedCategory=Category5;
                      PromotedOnly=Yes;
                      OnAction=VAR
                                 Item@1001 : Record 27;
                                 BOMStructure@1000 : Page 5870;
                               BEGIN
                                 Item.GET("Parent Item No.");
                                 BOMStructure.InitItem(Item);
                                 BOMStructure.RUN;
                               END;
                                }
      { 19      ;1   ;Action    ;
                      CaptionML=[ENU=E&xplode BOM;
                                 ENG=E&xplode BOM];
                      ToolTipML=[ENU=Insert new lines for the components on the bill of materials, for example to sell the parent item as a kit. CAUTION: The line for the parent item will be deleted and represented by a description only. To undo, you must delete the component lines and add a line the parent item again.;
                                 ENG=Insert new lines for the components on the bill of materials, for example to sell the parent item as a kit. CAUTION: The line for the parent item will be deleted and represented by a description only. To undo, you must delete the component lines and add a line the parent item again.];
                      ApplicationArea=#Assembly;
                      RunObject=Codeunit 51;
                      Promoted=Yes;
                      Enabled="Assembly BOM";
                      Image=ExplodeBOM;
                      PromotedCategory=Category5;
                      PromotedOnly=Yes }
      { 5       ;1   ;Action    ;
                      Name=CalcStandardCost;
                      CaptionML=[ENU=Calc. Standard Cost;
                                 ENG=Calc. Standard Cost];
                      ToolTipML=[ENU=Update the standard cost of the item based on the calculated costs of its underlying components.;
                                 ENG=Update the standard cost of the item based on the calculated costs of its underlying components.];
                      ApplicationArea=#Advanced;
                      Promoted=Yes;
                      Image=CalculateCost;
                      PromotedCategory=Category5;
                      PromotedOnly=Yes;
                      OnAction=VAR
                                 CalcStdCost@1000 : Codeunit 5812;
                               BEGIN
                                 CalcStdCost.CalcItem("Parent Item No.",TRUE)
                               END;
                                }
      { 15      ;1   ;Action    ;
                      Name=CalcUnitPrice;
                      CaptionML=[ENU=Calc. Unit Price;
                                 ENG=Calc. Unit Price];
                      ToolTipML=[ENU=Calculate the unit price based on the unit cost and the profit percentage.;
                                 ENG=Calculate the unit price based on the unit cost and the profit percentage.];
                      ApplicationArea=#Assembly;
                      Promoted=Yes;
                      Image=SuggestItemPrice;
                      PromotedCategory=Category5;
                      PromotedOnly=Yes;
                      OnAction=VAR
                                 CalcStdCost@1000 : Codeunit 5812;
                               BEGIN
                                 CalcStdCost.CalcAssemblyItemPrice("Parent Item No.")
                               END;
                                }
      { 7       ;1   ;Action    ;
                      Name=Cost Shares;
                      CaptionML=[ENU=Cost Shares;
                                 ENG=Cost Shares];
                      ToolTipML=[ENU=View how the costs of underlying items in the BOM roll up to the parent item. The information is organized according to the BOM structure to reflect at which levels the individual costs apply. Each item level can be collapsed or expanded to obtain an overview or detailed view.;
                                 ENG=View how the costs of underlying items in the BOM roll up to the parent item. The information is organised according to the BOM structure to reflect at which levels the individual costs apply. Each item level can be collapsed or expanded to obtain an overview or detailed view.];
                      ApplicationArea=#Assembly;
                      Promoted=Yes;
                      Image=CostBudget;
                      PromotedCategory=Category5;
                      PromotedOnly=Yes;
                      OnAction=VAR
                                 Item@1001 : Record 27;
                                 BOMCostShares@1000 : Page 5872;
                               BEGIN
                                 Item.GET("Parent Item No.");
                                 BOMCostShares.InitItem(Item);
                                 BOMCostShares.RUN;
                               END;
                                }
      { 21      ;1   ;Action    ;
                      CaptionML=[ENU=Where-Used;
                                 ENG=Where-Used];
                      ToolTipML=[ENU=View a list of BOMs in which the item is used.;
                                 ENG=View a list of BOMs in which the item is used.];
                      ApplicationArea=#Assembly;
                      RunObject=Page 37;
                      RunPageView=SORTING(Type,No.);
                      RunPageLink=No.=FIELD(No.);
                      Promoted=Yes;
                      Image=Track;
                      PromotedCategory=Category4;
                      PromotedOnly=Yes }
      { 23      ;1   ;Action    ;
                      Name=View;
                      CaptionML=[ENU=View;
                                 ENG=View];
                      ToolTipML=[ENU=View and modify the selected component.;
                                 ENG=View and modify the selected component.];
                      ApplicationArea=#Assembly;
                      Promoted=Yes;
                      Image=Item;
                      PromotedCategory=Category4;
                      PromotedOnly=Yes;
                      OnAction=VAR
                                 Item@1000 : Record 27;
                                 Resource@1001 : Record 156;
                               BEGIN
                                 IF Type = Type::Item THEN BEGIN
                                   Item.GET("No.");
                                   PAGE.RUN(PAGE::"Item Card",Item)
                                 END ELSE
                                   IF Type = Type::Resource THEN BEGIN
                                     Resource.GET("No.");
                                     PAGE.RUN(PAGE::"Resource Card",Resource);
                                   END
                               END;
                                }
      { 25      ;1   ;Action    ;
                      Name=AssemblyBOM;
                      CaptionML=[ENU=Assembly BOM;
                                 ENG=Assembly BOM];
                      ToolTipML=[ENU=View or edit the bill of material that specifies which items and resources are required to assemble the assembly item.;
                                 ENG=View or edit the bill of material that specifies which items and resources are required to assemble the assembly item.];
                      ApplicationArea=#Assembly;
                      Promoted=Yes;
                      Visible=FALSE;
                      Enabled=FALSE;
                      Image=BOM;
                      PromotedCategory=Category4;
                      PromotedOnly=Yes;
                      RunPageMode=View;
                      OnAction=VAR
                                 BOMComponent@1000 : Record 90;
                               BEGIN
                                 IF NOT "Assembly BOM" THEN
                                   EXIT;

                                 COMMIT;
                                 BOMComponent.SETRANGE("Parent Item No.","No.");
                                 PAGE.RUN(PAGE::"Assembly BOM",BOMComponent);
                                 CurrPage.UPDATE;
                               END;
                                }
    }
  }
  CONTROLS
  {
    { 1900000001;0;Container;
                ContainerType=ContentArea }

    { 1   ;1   ;Group     ;
                GroupType=Repeater }

    { 2   ;2   ;Field     ;
                ToolTipML=[ENU=Specifies if the assembly BOM component is an item or a resource.;
                           ENG=Specifies if the assembly BOM component is an item or a resource.];
                ApplicationArea=#Assembly;
                SourceExpr=Type;
                OnValidate=BEGIN
                             IsEmptyOrItem := Type IN [Type::" ",Type::Item];
                           END;
                            }

    { 4   ;2   ;Field     ;
                ToolTipML=[ENU=Specifies the number of the involved entry or record, according to the specified number series.;
                           ENG=Specifies the number of the involved entry or record, according to the specified number series.];
                ApplicationArea=#Assembly;
                SourceExpr="No." }

    { 28  ;2   ;Field     ;
                ToolTipML=[ENU=Specifies the variant of the item on the line.;
                           ENG=Specifies the variant of the item on the line.];
                ApplicationArea=#Advanced;
                SourceExpr="Variant Code";
                Visible=FALSE }

    { 6   ;2   ;Field     ;
                ToolTipML=[ENU=Specifies a description of the assembly BOM component.;
                           ENG=Specifies a description of the assembly BOM component.];
                ApplicationArea=#Assembly;
                SourceExpr=Description }

    { 8   ;2   ;Field     ;
                ToolTipML=[ENU=Specifies if the assembly BOM component is an assembly BOM.;
                           ENG=Specifies if the assembly BOM component is an assembly BOM.];
                ApplicationArea=#Assembly;
                SourceExpr="Assembly BOM" }

    { 10  ;2   ;Field     ;
                ToolTipML=[ENU=Specifies how many units of the component are required to produce or assemble the parent item.;
                           ENG=Specifies how many units of the component are required to produce or assemble the parent item.];
                ApplicationArea=#Assembly;
                SourceExpr="Quantity per" }

    { 12  ;2   ;Field     ;
                ToolTipML=[ENU=Specifies how each unit of the item or resource is measured, such as in pieces or hours. By default, the value in the Base Unit of Measure field on the item or resource card is inserted.;
                           ENG=Specifies how each unit of the item or resource is measured, such as in pieces or hours. By default, the value in the Base Unit of Measure field on the item or resource card is inserted.];
                ApplicationArea=#Assembly;
                SourceExpr="Unit of Measure Code" }

    { 32  ;2   ;Field     ;
                ToolTipML=[ENU=Specifies which service item the component on the line is used in.;
                           ENG=Specifies which service item the component on the line is used in.];
                ApplicationArea=#Advanced;
                SourceExpr="Installed in Item No." }

    { 14  ;2   ;Field     ;
                ToolTipML=[ENU=Specifies the position of the component on the bill of material.;
                           ENG=Specifies the position of the component on the bill of material.];
                ApplicationArea=#Assembly;
                SourceExpr=Position }

    { 16  ;2   ;Field     ;
                ToolTipML=[ENU=Specifies the component's position in the assembly BOM structure.;
                           ENG=Specifies the component's position in the assembly BOM structure.];
                ApplicationArea=#Assembly;
                SourceExpr="Position 2";
                Visible=FALSE }

    { 22  ;2   ;Field     ;
                ToolTipML=[ENU=Specifies the third reference number for the component position on a bill of material, such as the alternate position number of a component on a print card.;
                           ENG=Specifies the third reference number for the component position on a bill of material, such as the alternate position number of a component on a print card.];
                ApplicationArea=#Advanced;
                SourceExpr="Position 3";
                Visible=FALSE }

    { 24  ;2   ;Field     ;
                ToolTipML=[ENU=Specifies a machine that should be used when processing the component on this line of the assembly BOM.;
                           ENG=Specifies a machine that should be used when processing the component on this line of the assembly BOM.];
                ApplicationArea=#Manufacturing;
                SourceExpr="Machine No.";
                Visible=FALSE }

    { 26  ;2   ;Field     ;
                ToolTipML=[ENU=Specifies the total number of days required to assemble the item on the assembly BOM line.;
                           ENG=Specifies the total number of days required to assemble the item on the assembly BOM line.];
                ApplicationArea=#Assembly;
                SourceExpr="Lead-Time Offset";
                Visible=FALSE }

    { 3   ;2   ;Field     ;
                ToolTipML=[ENU=Specifies how the cost of the resource on the assembly BOM is allocated during assembly.;
                           ENG=Specifies how the cost of the resource on the assembly BOM is allocated during assembly.];
                ApplicationArea=#Assembly;
                SourceExpr="Resource Usage Type";
                Visible=FALSE;
                Editable=NOT IsEmptyOrItem;
                HideValue=IsEmptyOrItem }

    { 1900000007;0;Container;
                ContainerType=FactBoxArea }

    { 18  ;1   ;Part      ;
                ApplicationArea=#Assembly;
                SubPageLink=No.=FIELD(Parent Item No.);
                PagePartID=Page910;
                PartType=Page }

    { 17  ;1   ;Part      ;
                Visible=FALSE;
                PartType=System;
                SystemPartID=RecordLinks }

    { 11  ;1   ;Part      ;
                Visible=FALSE;
                PartType=System;
                SystemPartID=Notes }

    { 13  ;1   ;Part      ;
                ApplicationArea=#Assembly;
                SubPageLink=No.=FIELD(No.);
                PagePartID=Page911;
                Visible=Type = Type::Item;
                PartType=Page }

    { 9   ;1   ;Part      ;
                ApplicationArea=#Assembly;
                SubPageLink=No.=FIELD(No.);
                PagePartID=Page912;
                Visible=Type = Type::Resource;
                PartType=Page }

  }
  CODE
  {
    VAR
      IsEmptyOrItem@1000 : Boolean INDATASET;

    BEGIN
    END.
  }
}

