OBJECT Page 319 VAT Statement Template List
{
  OBJECT-PROPERTIES
  {
    Date=25/10/16;
    Time=12:00:00;
    Version List=NAVW110.00;
  }
  PROPERTIES
  {
    Editable=No;
    CaptionML=[ENU=VAT Statement Template List;
               ENG=VAT Statement Template List];
    SourceTable=Table255;
    PageType=List;
    RefreshOnActivate=Yes;
  }
  CONTROLS
  {
    { 1900000001;0;Container;
                ContainerType=ContentArea }

    { 1   ;1   ;Group     ;
                GroupType=Repeater }

    { 2   ;2   ;Field     ;
                ToolTipML=[ENU=Specifies the name of the VAT statement template you are about to create.;
                           ENG=Specifies the name of the VAT statement template you are about to create.];
                ApplicationArea=#Basic,#Suite;
                SourceExpr=Name }

    { 4   ;2   ;Field     ;
                ToolTipML=[ENU=Specifies a description of the VAT statement template.;
                           ENG=Specifies a description of the VAT statement template.];
                ApplicationArea=#Basic,#Suite;
                SourceExpr=Description }

    { 1900000007;0;Container;
                ContainerType=FactBoxArea }

    { 1900383207;1;Part   ;
                Visible=FALSE;
                PartType=System;
                SystemPartID=RecordLinks }

    { 1905767507;1;Part   ;
                Visible=FALSE;
                PartType=System;
                SystemPartID=Notes }

  }
  CODE
  {

    BEGIN
    END.
  }
}

