OBJECT Page 345 Reconciliation
{
  OBJECT-PROPERTIES
  {
    Date=22/11/17;
    Time=12:00:00;
    Version List=NAVW111.00;
  }
  PROPERTIES
  {
    Editable=No;
    CaptionML=[ENU=Reconciliation;
               ENG=Reconciliation];
    SourceTable=Table269;
    DataCaptionExpr=Heading;
    PageType=List;
    SourceTableTemporary=Yes;
  }
  CONTROLS
  {
    { 1900000001;0;Container;
                ContainerType=ContentArea }

    { 6   ;1   ;Group     ;
                GroupType=Repeater }

    { 8   ;2   ;Field     ;
                CaptionML=[ENU=Account;
                           ENG=Account];
                ToolTipML=[ENU=Specifies the bank account that is being reconciled.;
                           ENG=Specifies the bank account that is being reconciled.];
                ApplicationArea=#Basic,#Suite;
                SourceExpr="No." }

    { 9   ;2   ;Field     ;
                ToolTipML=[ENU=Specifies the name of the record.;
                           ENG=Specifies the name of the record.];
                ApplicationArea=#Basic,#Suite;
                SourceExpr=Name }

    { 10  ;2   ;Field     ;
                ToolTipML=[ENU=Specifies the net change that will occur on the bank when you post the journal.;
                           ENG=Specifies the net change that will occur on the bank when you post the journal.];
                ApplicationArea=#Basic,#Suite;
                SourceExpr="Net Change in Jnl." }

    { 11  ;2   ;Field     ;
                CaptionML=[ENU=Balance after Posting;
                           ENG=Balance after Posting];
                ToolTipML=[ENU=Specifies the current balance on the bank account.;
                           ENG=Specifies the current balance on the bank account.];
                ApplicationArea=#Basic,#Suite;
                SourceExpr="Balance after Posting" }

  }
  CODE
  {
    VAR
      GenJnlLine@1000 : Record 81;
      GLAcc@1001 : Record 15;
      BankAccPostingGr@1002 : Record 277;
      BankAcc@1003 : Record 270;
      Heading@1005 : Code[10];

    [External]
    PROCEDURE SetGenJnlLine@1(VAR NewGenJnlLine@1000 : Record 81);
    BEGIN
      GenJnlLine.COPY(NewGenJnlLine);
      Heading := GenJnlLine."Journal Batch Name";
      DELETEALL;
      GLAcc.SETCURRENTKEY("Reconciliation Account");
      GLAcc.SETRANGE("Reconciliation Account",TRUE);
      IF GLAcc.FIND('-') THEN
        REPEAT
          InsertGLAccNetChange;
        UNTIL GLAcc.NEXT = 0;

      IF GenJnlLine.FIND('-') THEN
        REPEAT
          SaveNetChange(
            GenJnlLine."Account Type",GenJnlLine."Account No.",
            ROUND(GenJnlLine."Amount (LCY)" / (1 + GenJnlLine."VAT %" / 100)));
          SaveNetChange(
            GenJnlLine."Bal. Account Type",GenJnlLine."Bal. Account No.",
            -ROUND(GenJnlLine."Amount (LCY)" / (1 + GenJnlLine."Bal. VAT %" / 100)));
        UNTIL GenJnlLine.NEXT = 0;
      IF FIND('-') THEN;
    END;

    LOCAL PROCEDURE SaveNetChange@2(AccType@1000 : Integer;AccNo@1001 : Code[20];NetChange@1002 : Decimal);
    BEGIN
      IF AccNo = '' THEN
        EXIT;
      CASE  AccType OF
        GenJnlLine."Account Type"::"G/L Account":
          IF NOT GET(AccNo) THEN
            EXIT;
        GenJnlLine."Account Type"::"Bank Account":
          BEGIN
            IF AccNo <> BankAcc."No." THEN BEGIN
              BankAcc.GET(AccNo);
              BankAcc.TESTFIELD("Bank Acc. Posting Group");
              BankAccPostingGr.GET(BankAcc."Bank Acc. Posting Group");
              BankAccPostingGr.TESTFIELD("G/L Bank Account No.");
            END;
            AccNo := BankAccPostingGr."G/L Bank Account No.";
            IF NOT GET(AccNo) THEN BEGIN
              GLAcc.GET(AccNo);
              InsertGLAccNetChange;
            END;
          END;
        ELSE
          EXIT;
      END;

      "Net Change in Jnl." := "Net Change in Jnl." + NetChange;
      "Balance after Posting" := "Balance after Posting" + NetChange;
      MODIFY;
    END;

    LOCAL PROCEDURE InsertGLAccNetChange@6();
    BEGIN
      GLAcc.CALCFIELDS("Balance at Date");
      INIT;
      "No." := GLAcc."No.";
      Name := GLAcc.Name;
      "Balance after Posting" := GLAcc."Balance at Date";
      INSERT;
    END;

    [External]
    PROCEDURE ReturnGLAccountNetChange@25(VAR GLAccountNetChange@1000 : Record 269);
    VAR
      OldGLAccountNetChange@1001 : Record 269;
    BEGIN
      OldGLAccountNetChange := Rec;
      FINDSET;
      REPEAT
        GLAccountNetChange.INIT;
        GLAccountNetChange := Rec;
        GLAccountNetChange.INSERT;
      UNTIL NEXT = 0;

      Rec := OldGLAccountNetChange;
    END;

    BEGIN
    END.
  }
}

