OBJECT Page 476 Copy Tax Setup
{
  OBJECT-PROPERTIES
  {
    Date=22/11/17;
    Time=12:00:00;
    Version List=NAVW111.00;
  }
  PROPERTIES
  {
    CaptionML=[ENU=Copy Tax Setup;
               ENG=Copy VAT Setup];
    PageType=StandardDialog;
    OnInit=BEGIN
             TaxDetailEnable := TRUE;
             TaxAreasEnable := TRUE;
             TaxJurisdictionsEnable := TRUE;
             TaxGroupsEnable := TRUE;
           END;

    OnOpenPage=BEGIN
                 FOR i := 1 TO ARRAYLEN(CopyTable) DO
                   CopyTable[i] := TRUE;
               END;

    OnQueryClosePage=BEGIN
                       IF CloseAction IN [ACTION::OK,ACTION::LookupOK] THEN
                         OKOnPush;
                     END;

  }
  CONTROLS
  {
    { 1900000001;0;Container;
                ContainerType=ContentArea }

    { 1   ;1   ;Group      }

    { 2   ;2   ;Field     ;
                Lookup=Yes;
                CaptionML=[ENU=From Company;
                           ENG=From Company];
                ApplicationArea=#Advanced;
                SourceExpr=SourceCompany.Name;
                LookupPageID=Companies;
                OnLookup=BEGIN
                           SourceCompany.SETFILTER(Name,'<>%1',COMPANYNAME);
                           IF PAGE.RUNMODAL(PAGE::Companies,SourceCompany) = ACTION::LookupOK THEN
                             IF SourceCompany.Name = COMPANYNAME THEN BEGIN
                               SourceCompany.Name := '';
                               ERROR(Text000);
                             END;
                         END;
                          }

    { 12  ;2   ;Field     ;
                OptionCaptionML=[ENU=Copy All Setup Information,Copy Selected Information:;
                                 ENG=Copy All Setup Information,Copy Selected Information:];
                ApplicationArea=#Advanced;
                SourceExpr=CopyMode;
                OnValidate=BEGIN
                             IF CopyMode = CopyMode::Custom THEN
                               CustomCopyModeOnValidate;
                             IF CopyMode = CopyMode::All THEN
                               AllCopyModeOnValidate;
                           END;
                            }

    { 3   ;2   ;Field     ;
                Name=TaxGroups;
                CaptionML=[ENU=Tax Groups;
                           ENG=VAT Groups];
                ApplicationArea=#Advanced;
                SourceExpr=CopyTable[1];
                Enabled=TaxGroupsEnable;
                OnValidate=BEGIN
                             CopyTable1OnPush;
                           END;
                            }

    { 4   ;2   ;Field     ;
                Name=TaxJurisdictions;
                CaptionML=[ENU=Tax Jurisdictions;
                           ENG=VAT Jurisdictions];
                ApplicationArea=#Advanced;
                SourceExpr=CopyTable[2];
                Enabled=TaxJurisdictionsEnable;
                OnValidate=BEGIN
                             CopyTable2OnPush;
                           END;
                            }

    { 5   ;2   ;Field     ;
                Name=TaxAreas;
                CaptionML=[ENU=Tax Areas;
                           ENG=VAT Areas];
                ApplicationArea=#Advanced;
                SourceExpr=CopyTable[3];
                Enabled=TaxAreasEnable;
                OnValidate=BEGIN
                             CopyTable3OnPush;
                           END;
                            }

    { 6   ;2   ;Field     ;
                Name=TaxDetail;
                CaptionML=[ENU=Tax Detail;
                           ENG=VAT Detail];
                ApplicationArea=#Advanced;
                SourceExpr=CopyTable[4];
                Enabled=TaxDetailEnable;
                OnValidate=BEGIN
                             CopyTable4OnPush;
                           END;
                            }

  }
  CODE
  {
    VAR
      Text000@1000 : TextConst 'ENU=You must select a company other than the current company.;ENG=You must select a company other than the current company.';
      Text001@1001 : TextConst 'ENU=You must select a company from which to copy.;ENG=You must select a company from which to copy.';
      Text002@1002 : TextConst 'ENU=Nothing was selected to copy.\You must select one or more tables to copy.;ENG=Nothing was selected to copy.\You must select one or more tables to copy.';
      SourceCompany@1006 : Record 2000000006;
      CopyTaxSetup@1007 : Codeunit 399;
      CopyTable@1004 : ARRAY [4] OF Boolean;
      i@1003 : Integer;
      CopyMode@1008 : 'All,Custom';
      TaxGroupsEnable@19040763 : Boolean INDATASET;
      TaxJurisdictionsEnable@19054480 : Boolean INDATASET;
      TaxAreasEnable@19074729 : Boolean INDATASET;
      TaxDetailEnable@19034010 : Boolean INDATASET;

    LOCAL PROCEDURE CopyTable1OnPush@19020602();
    BEGIN
      CopyMode := CopyMode::Custom;
    END;

    LOCAL PROCEDURE CopyTable2OnPush@19035130();
    BEGIN
      CopyMode := CopyMode::Custom;
    END;

    LOCAL PROCEDURE CopyTable3OnPush@19014586();
    BEGIN
      CopyMode := CopyMode::Custom;
    END;

    LOCAL PROCEDURE CopyTable4OnPush@19007546();
    BEGIN
      CopyMode := CopyMode::Custom;
    END;

    LOCAL PROCEDURE AllCopyModeOnPush@19066460();
    BEGIN
      FOR i := 1 TO ARRAYLEN(CopyTable) DO
        CopyTable[i] := TRUE;
    END;

    LOCAL PROCEDURE CustomCopyModeOnPush@19062062();
    BEGIN
      TaxGroupsEnable := TRUE;
      TaxJurisdictionsEnable := TRUE;
      TaxAreasEnable := TRUE;
      TaxDetailEnable := TRUE;
    END;

    LOCAL PROCEDURE OKOnPush@19066895();
    BEGIN
      IF SourceCompany.Name = '' THEN
        ERROR(Text001);

      IF NOT CopyTable[1] AND NOT CopyTable[2] AND NOT CopyTable[3] AND NOT CopyTable[4] THEN
        ERROR(Text002);

      CopyTaxSetup.CopyTaxInfo(SourceCompany,CopyTable);
    END;

    LOCAL PROCEDURE AllCopyModeOnValidate@19017293();
    BEGIN
      AllCopyModeOnPush;
    END;

    LOCAL PROCEDURE CustomCopyModeOnValidate@19068249();
    BEGIN
      CustomCopyModeOnPush;
    END;

    BEGIN
    END.
  }
}

