OBJECT Page 467 Tax Groups
{
  OBJECT-PROPERTIES
  {
    Date=25/10/16;
    Time=12:00:00;
    Version List=NAVW110.00;
  }
  PROPERTIES
  {
    CaptionML=[ENU=Tax Groups;
               ENG=VAT Groups];
    SourceTable=Table321;
    PageType=List;
    ActionList=ACTIONS
    {
      { 1900000003;0 ;ActionContainer;
                      ActionContainerType=RelatedInformation }
      { 9       ;1   ;ActionGroup;
                      CaptionML=[ENU=&Group;
                                 ENG=&Group];
                      Image=Group }
      { 10      ;2   ;Action    ;
                      CaptionML=[ENU=Details;
                                 ENG=Details];
                      ToolTipML=[ENU=View tax-detail entries. A tax-detail entry includes all of the information that is used to calculate the amount of tax to be charged.;
                                 ENG=View VAT-detail entries. A VAT-detail entry includes all of the information that is used to calculate the amount of VAT to be charged.];
                      ApplicationArea=#Basic,#Suite;
                      RunObject=Page 468;
                      RunPageLink=Tax Group Code=FIELD(Code);
                      Image=View }
    }
  }
  CONTROLS
  {
    { 1900000001;0;Container;
                ContainerType=ContentArea }

    { 1   ;1   ;Group     ;
                GroupType=Repeater }

    { 2   ;2   ;Field     ;
                ToolTipML=[ENU=Specifies the code you want to assign to this tax group.;
                           ENG=Specifies the code you want to assign to this VAT group.];
                ApplicationArea=#Basic,#Suite;
                SourceExpr=Code }

    { 4   ;2   ;Field     ;
                ToolTipML=[ENU=Specifies the description of the tax group. For example, if the tax group code is ALCOHOL, you could enter the description Alcoholic beverages.;
                           ENG=Specifies the description of the VAT group. For example, if the VAT group code is ALCOHOL, you could enter the description Alcoholic beverages.];
                ApplicationArea=#Basic,#Suite;
                SourceExpr=Description }

    { 1900000007;0;Container;
                ContainerType=FactBoxArea }

    { 1900383207;1;Part   ;
                Visible=FALSE;
                PartType=System;
                SystemPartID=RecordLinks }

    { 1905767507;1;Part   ;
                Visible=FALSE;
                PartType=System;
                SystemPartID=Notes }

  }
  CODE
  {

    BEGIN
    END.
  }
}

