OBJECT Page 493 Resource Price Changes
{
  OBJECT-PROPERTIES
  {
    Date=25/10/16;
    Time=12:00:00;
    Version List=NAVW110.00;
  }
  PROPERTIES
  {
    CaptionML=[ENU=Resource Price Changes;
               ENG=Resource Price Changes];
    SourceTable=Table335;
    PageType=List;
    ActionList=ACTIONS
    {
      { 1900000004;0 ;ActionContainer;
                      ActionContainerType=ActionItems }
      { 19      ;1   ;ActionGroup;
                      CaptionML=[ENU=F&unctions;
                                 ENG=F&unctions];
                      Image=Action }
      { 20      ;2   ;Action    ;
                      Ellipsis=Yes;
                      CaptionML=[ENU=Suggest &Res. Price Chg. (Res.);
                                 ENG=Suggest &Res. Price Chg. (Res.)];
                      ToolTipML=[ENU=Determine if the unit price for a resource differs from the unit price on its resource card. If the two prices are different, you can use the suggestion to change the alternative unit price for the resource in the Resource Prices window to the price on the resource card. When the batch job has been completed, you can see the result in the Resource Price Changes window.;
                                 ENG=Determine if the unit price for a resource differs from the unit price on its resource card. If the two prices are different, you can use the suggestion to change the alternative unit price for the resource in the Resource Prices window to the price on the resource card. When the batch job has been completed, you can see the result in the Resource Price Changes window.];
                      ApplicationArea=#Jobs;
                      Image=Report;
                      OnAction=BEGIN
                                 REPORT.RUNMODAL(REPORT::"Suggest Res. Price Chg. (Res.)",TRUE,TRUE);
                               END;
                                }
      { 21      ;2   ;Action    ;
                      Ellipsis=Yes;
                      CaptionML=[ENU=Suggest Res. &Price Chg.(Price);
                                 ENG=Suggest Res. &Price Chg.(Price)];
                      ToolTipML=[ENU=Determine if the unit price for a resource differs from the unit price on its resource card. If the two prices are different, you can use the suggestion to change the alternative unit price for the resource in the Resource Prices window to the price on the resource card. When the batch job has been completed, you can see the result in the Resource Price Changes window.;
                                 ENG=Determine if the unit price for a resource differs from the unit price on its resource card. If the two prices are different, you can use the suggestion to change the alternative unit price for the resource in the Resource Prices window to the price on the resource card. When the batch job has been completed, you can see the result in the Resource Price Changes window.];
                      ApplicationArea=#Jobs;
                      Image=Report;
                      OnAction=BEGIN
                                 REPORT.RUNMODAL(REPORT::"Suggest Res. Price Chg.(Price)",TRUE,TRUE);
                               END;
                                }
      { 22      ;2   ;Action    ;
                      Ellipsis=Yes;
                      CaptionML=[ENU=I&mplement Res. Price Change;
                                 ENG=I&mplement Res. Price Change];
                      ToolTipML=[ENU=Update the alternate prices in the Resource Prices window with the ones in the Resource Price Changes window. Price change suggestions can be created with the Suggest Res. Price Chg.(Price) or the Suggest Res. Price Chg. (Res.) batch job. You can also modify the price change suggestions in the Resource Price Changes window before you implement them.;
                                 ENG=Update the alternate prices in the Resource Prices window with the ones in the Resource Price Changes window. Price change suggestions can be created with the Suggest Res. Price Chg.(Price) or the Suggest Res. Price Chg. (Res.) batch job. You can also modify the price change suggestions in the Resource Price Changes window before you implement them.];
                      ApplicationArea=#Jobs;
                      Image=Approve;
                      OnAction=BEGIN
                                 REPORT.RUNMODAL(REPORT::"Implement Res. Price Change",TRUE,TRUE,Rec);
                               END;
                                }
    }
  }
  CONTROLS
  {
    { 1900000001;0;Container;
                ContainerType=ContentArea }

    { 1   ;1   ;Group     ;
                GroupType=Repeater }

    { 4   ;2   ;Field     ;
                ToolTipML=[ENU=Specifies the type of resource for which the alternate unit price is valid.;
                           ENG=Specifies the type of resource for which the alternate unit price is valid.];
                ApplicationArea=#Jobs;
                SourceExpr=Type }

    { 6   ;2   ;Field     ;
                ToolTipML=[ENU=Specifies the resource code for which the alternate unit price is valid.;
                           ENG=Specifies the resource code for which the alternate unit price is valid.];
                ApplicationArea=#Jobs;
                SourceExpr=Code }

    { 8   ;2   ;Field     ;
                ToolTipML=[ENU=Specifies which work type the resource applies to. Prices are updated based on this entry.;
                           ENG=Specifies which work type the resource applies to. Prices are updated based on this entry.];
                ApplicationArea=#Jobs;
                SourceExpr="Work Type Code" }

    { 10  ;2   ;Field     ;
                ToolTipML=[ENU=Specifies the currency code that the alternate unit price is in.;
                           ENG=Specifies the currency code that the alternate unit price is in.];
                ApplicationArea=#Jobs;
                SourceExpr="Currency Code" }

    { 12  ;2   ;Field     ;
                ToolTipML=[ENU=Specifies the alternate unit price of the resource.;
                           ENG=Specifies the alternate unit price of the resource.];
                ApplicationArea=#Jobs;
                SourceExpr="Current Unit Price" }

    { 14  ;2   ;Field     ;
                ToolTipML=[ENU=Specifies the new unit price that is valid for the selected combination of resource type, resource code, job number, or work type.;
                           ENG=Specifies the new unit price that is valid for the selected combination of resource type, resource code, job number, or work type.];
                ApplicationArea=#Jobs;
                SourceExpr="New Unit Price" }

    { 1900000007;0;Container;
                ContainerType=FactBoxArea }

    { 1900383207;1;Part   ;
                Visible=FALSE;
                PartType=System;
                SystemPartID=RecordLinks }

    { 1905767507;1;Part   ;
                Visible=FALSE;
                PartType=System;
                SystemPartID=Notes }

  }
  CODE
  {

    BEGIN
    END.
  }
}

