OBJECT Page 431 Reminder Terms
{
  OBJECT-PROPERTIES
  {
    Date=22/11/17;
    Time=12:00:00;
    Version List=NAVW111.00;
  }
  PROPERTIES
  {
    CaptionML=[ENU=Reminder Terms;
               ENG=Reminder Terms];
    SourceTable=Table292;
    PageType=List;
    ActionList=ACTIONS
    {
      { 1900000004;0 ;ActionContainer;
                      ActionContainerType=ActionItems }
      { 5       ;1   ;Action    ;
                      CaptionML=[ENU=&Levels;
                                 ENG=&Levels];
                      ToolTipML=[ENU=View the reminder levels that are used to define when reminders can be created and what charges and texts they must include.;
                                 ENG=View the reminder levels that are used to define when reminders can be created and what charges and texts they must include.];
                      ApplicationArea=#Basic,#Suite;
                      RunObject=Page 432;
                      RunPageLink=Reminder Terms Code=FIELD(Code);
                      Promoted=Yes;
                      Image=ReminderTerms;
                      PromotedCategory=Process }
      { 1000    ;1   ;Action    ;
                      Name=Translation;
                      CaptionML=[ENU=Translation;
                                 ENG=Translation];
                      ToolTipML=[ENU=View the reminder text in any other languages that are set up for reminders.;
                                 ENG=View the reminder text in any other languages that are set up for reminders.];
                      ApplicationArea=#Basic,#Suite;
                      RunObject=Page 1052;
                      RunPageLink=Reminder Terms Code=FIELD(Code);
                      Image=Translation }
    }
  }
  CONTROLS
  {
    { 1900000001;0;Container;
                ContainerType=ContentArea }

    { 1   ;1   ;Group     ;
                GroupType=Repeater }

    { 6   ;2   ;Field     ;
                ToolTipML=[ENU=Specifies a code to identify this set of reminder terms.;
                           ENG=Specifies a code to identify this set of reminder terms.];
                ApplicationArea=#Basic,#Suite;
                SourceExpr=Code }

    { 8   ;2   ;Field     ;
                ToolTipML=[ENU=Specifies a description of the reminder terms.;
                           ENG=Specifies a description of the reminder terms.];
                ApplicationArea=#Basic,#Suite;
                SourceExpr=Description }

    { 14  ;2   ;Field     ;
                ToolTipML=[ENU=Specifies the maximum number of reminders that can be created for an invoice.;
                           ENG=Specifies the maximum number of reminders that can be created for an invoice.];
                ApplicationArea=#Basic,#Suite;
                SourceExpr="Max. No. of Reminders" }

    { 10  ;2   ;Field     ;
                ToolTipML=[ENU=Specifies whether or not any interest listed on the reminder should be posted to the general ledger and customer accounts.;
                           ENG=Specifies whether or not any interest listed on the reminder should be posted to the general ledger and customer accounts.];
                ApplicationArea=#Basic,#Suite;
                SourceExpr="Post Interest" }

    { 12  ;2   ;Field     ;
                ToolTipML=[ENU=Specifies whether or not any additional fee listed on the reminder should be posted to the general ledger and customer accounts.;
                           ENG=Specifies whether or not any additional fee listed on the reminder should be posted to the general ledger and customer accounts.];
                ApplicationArea=#Basic,#Suite;
                SourceExpr="Post Additional Fee" }

    { 18  ;2   ;Field     ;
                ToolTipML=[ENU=Specifies whether or not any additional fee listed on the finance charge memo should be posted to the general ledger and customer accounts when the memo is issued.;
                           ENG=Specifies whether or not any additional fee listed on the finance charge memo should be posted to the general ledger and customer accounts when the memo is issued.];
                ApplicationArea=#Basic,#Suite;
                SourceExpr="Post Add. Fee per Line" }

    { 16  ;2   ;Field     ;
                ToolTipML=[ENU=Specifies the minimum amount for which a reminder will be created.;
                           ENG=Specifies the minimum amount for which a reminder will be created.];
                ApplicationArea=#Basic,#Suite;
                SourceExpr="Minimum Amount (LCY)" }

    { 22  ;2   ;Field     ;
                ToolTipML=[ENU=Specifies that any notes about line fees will be added to the reminder.;
                           ENG=Specifies that any notes about line fees will be added to the reminder.];
                ApplicationArea=#Basic,#Suite;
                SourceExpr="Note About Line Fee on Report" }

    { 1900000007;0;Container;
                ContainerType=FactBoxArea }

    { 1900383207;1;Part   ;
                ApplicationArea=#Basic,#Suite;
                Visible=FALSE;
                PartType=System;
                SystemPartID=RecordLinks }

    { 1905767507;1;Part   ;
                ApplicationArea=#Basic,#Suite;
                Visible=FALSE;
                PartType=System;
                SystemPartID=Notes }

  }
  CODE
  {

    BEGIN
    END.
  }
}

