OBJECT Page 466 Tax Jurisdictions
{
  OBJECT-PROPERTIES
  {
    Date=22/11/17;
    Time=12:00:00;
    Version List=NAVW111.00;
  }
  PROPERTIES
  {
    CaptionML=[ENU=Tax Jurisdictions;
               ENG=VAT Jurisdictions];
    SourceTable=Table320;
    PageType=List;
    OnAfterGetRecord=BEGIN
                       DefaultTax := GetDefaultTax;
                     END;

    OnInsertRecord=VAR
                     TaxSetup@1000 : Record 326;
                   BEGIN
                     TaxSetup.GET;
                     DefaultTax := 0;
                     DefaultTaxIsEnabled := TaxSetup."Auto. Create Tax Details";
                   END;

    OnAfterGetCurrRecord=BEGIN
                           DefaultTax := GetDefaultTax;
                         END;

    ActionList=ACTIONS
    {
      { 1900000003;0 ;ActionContainer;
                      ActionContainerType=RelatedInformation }
      { 16      ;1   ;ActionGroup;
                      CaptionML=[ENU=&Jurisdiction;
                                 ENG=&Jurisdiction];
                      Image=ViewDetails }
      { 15      ;2   ;Action    ;
                      ShortCutKey=Ctrl+F7;
                      CaptionML=[ENU=Ledger &Entries;
                                 ENG=Ledger &Entries];
                      ToolTipML=[ENU=View Tax entries, which result from posting transactions in journals and sales and purchase documents, and from the Calc. and Post Tax Settlement batch job.;
                                 ENG=View VAT entries, which result from posting transactions in journals and sales and purchase documents, and from the Calc. and Post VAT Settlement batch job.];
                      ApplicationArea=#Basic,#Suite;
                      RunObject=Page 315;
                      RunPageView=SORTING(Tax Jurisdiction Code);
                      RunPageLink=Tax Jurisdiction Code=FIELD(Code);
                      Image=CustomerLedger;
                      PromotedCategory=Process }
      { 17      ;2   ;Action    ;
                      CaptionML=[ENU=Details;
                                 ENG=Details];
                      ToolTipML=[ENU=View tax-detail entries. A tax-detail entry includes all of the information that is used to calculate the amount of tax to be charged.;
                                 ENG=View VAT-detail entries. A VAT-detail entry includes all of the information that is used to calculate the amount of VAT to be charged.];
                      ApplicationArea=#Basic,#Suite;
                      RunObject=Page 468;
                      RunPageLink=Tax Jurisdiction Code=FIELD(Code);
                      Promoted=Yes;
                      PromotedIsBig=Yes;
                      Image=View;
                      PromotedCategory=Process }
    }
  }
  CONTROLS
  {
    { 1900000001;0;Container;
                ContainerType=ContentArea }

    { 1   ;1   ;Group     ;
                GroupType=Repeater }

    { 2   ;2   ;Field     ;
                ToolTipML=[ENU=Specifies the code you want to assign to this tax jurisdiction. You can enter up to 10 characters, both numbers and letters. It is a good idea to enter a code that is easy to remember.;
                           ENG=Specifies the code you want to assign to this VAT jurisdiction. You can enter up to 10 characters, both numbers and letters. It is a good idea to enter a code that is easy to remember.];
                ApplicationArea=#All;
                SourceExpr=Code }

    { 4   ;2   ;Field     ;
                ToolTipML=[ENU=Specifies a description of the tax jurisdiction. For example, if the tax jurisdiction code is ATLANTA GA, enter the description as Atlanta, Georgia.;
                           ENG=Specifies a description of the VAT jurisdiction. For example, if the VAT jurisdiction code is ATLANTA GA, enter the description as Atlanta, Georgia.];
                ApplicationArea=#Basic,#Suite;
                SourceExpr=Description }

    { 5   ;2   ;Field     ;
                Name=Default Sales and Use Tax;
                CaptionML=[ENU=Default Sales and Use Tax;
                           ENG=Default Sales and Use Tax];
                ToolTipML=[ENU=Specifies the default tax in locations where the sales tax and use tax are identical.;
                           ENG=Specifies the default tax in locations where the sales tax and use tax are identical.];
                ApplicationArea=#Basic,#Suite;
                SourceExpr=DefaultTax;
                Enabled=DefaultTaxIsEnabled;
                Style=Subordinate;
                StyleExpr=NOT DefaultTaxIsEnabled;
                OnValidate=BEGIN
                             SetDefaultTax(DefaultTax);
                           END;

                OnLookup=VAR
                           TaxDetail@1000 : Record 322;
                         BEGIN
                           GetDefaultTaxDetail(TaxDetail);
                           PAGE.RUNMODAL(PAGE::"Tax Details",TaxDetail);
                           DefaultTax := GetDefaultTax;
                         END;
                          }

    { 27  ;2   ;Field     ;
                ToolTipML=[ENU=Specifies whether to calculate the sales tax amount with the tax on tax principle.;
                           ENG=Specifies whether to calculate the VAT amount with the tax on tax principle.];
                ApplicationArea=#Advanced;
                SourceExpr="Calculate Tax on Tax";
                Visible=FALSE }

    { 29  ;2   ;Field     ;
                ToolTipML=[ENU=Specifies how to handle unrealized tax, which is tax that is calculated but not due until the invoice is paid.;
                           ENG=Specifies how to handle unrealised VAT, which is VAT that is calculated but not due until the invoice is paid.];
                ApplicationArea=#Advanced;
                SourceExpr="Unrealized VAT Type";
                Visible=FALSE }

    { 31  ;2   ;Field     ;
                ToolTipML=[ENU=Specifies whether to recalculate tax amounts when you post payments that trigger payment discounts.;
                           ENG=Specifies whether to recalculate VAT amounts when you post payments that trigger payment discounts.];
                ApplicationArea=#Advanced;
                SourceExpr="Adjust for Payment Discount";
                Visible=FALSE }

    { 6   ;2   ;Field     ;
                ToolTipML=[ENU=Specifies the general ledger account you want to use for posting calculated tax on sales transactions.;
                           ENG=Specifies the general ledger account you want to use for posting calculated VAT on sales transactions.];
                ApplicationArea=#Basic,#Suite;
                SourceExpr="Tax Account (Sales)" }

    { 19  ;2   ;Field     ;
                ToolTipML=[ENU=Specifies the general ledger account you want to use for posting calculated unrealized tax on sales transactions.;
                           ENG=Specifies the general ledger account you want to use for posting calculated unrealised VAT on sales transactions.];
                ApplicationArea=#Advanced;
                SourceExpr="Unreal. Tax Acc. (Sales)";
                Visible=FALSE }

    { 8   ;2   ;Field     ;
                ToolTipML=[ENU=Specifies the general ledger account you want to use for posting calculated tax on purchase transactions.;
                           ENG=Specifies the general ledger account you want to use for posting calculated VAT on purchase transactions.];
                ApplicationArea=#Basic,#Suite;
                SourceExpr="Tax Account (Purchases)" }

    { 23  ;2   ;Field     ;
                ToolTipML=[ENU=Specifies the general ledger account you want to use for posting calculated reverse-charge tax on purchase transactions.;
                           ENG=Specifies the general ledger account you want to use for posting calculated reverse-charge VAT on purchase transactions.];
                ApplicationArea=#Basic,#Suite;
                SourceExpr="Reverse Charge (Purchases)" }

    { 21  ;2   ;Field     ;
                ToolTipML=[ENU=Specifies the general ledger account you want to use for posting calculated unrealized tax on purchase transactions.;
                           ENG=Specifies the general ledger account you want to use for posting calculated unrealised VAT on purchase transactions.];
                ApplicationArea=#Advanced;
                SourceExpr="Unreal. Tax Acc. (Purchases)";
                Visible=FALSE }

    { 25  ;2   ;Field     ;
                ToolTipML=[ENU=Specifies the general ledger account you want to use for posting calculated unrealized reverse-charge tax on purchase transactions.;
                           ENG=Specifies the general ledger account you want to use for posting calculated unrealised reverse-charge VAT on purchase transactions.];
                ApplicationArea=#Advanced;
                SourceExpr="Unreal. Rev. Charge (Purch.)";
                Visible=FALSE }

    { 10  ;2   ;Field     ;
                ToolTipML=[ENU=Specifies the tax jurisdiction you want to associate with the jurisdiction you are setting up. For example, if you are setting up a jurisdiction for Atlanta, Georgia, the report-to jurisdiction is Georgia because Georgia is the tax authority to which you report Atlanta sales tax.;
                           ENG=Specifies the VAT jurisdiction you want to associate with the jurisdiction you are setting up. For example, if you are setting up a jurisdiction for Atlanta, Georgia, the report-to jurisdiction is Georgia because Georgia is the VAT authority to which you report Atlanta VAT.];
                ApplicationArea=#Basic,#Suite;
                SourceExpr="Report-to Jurisdiction" }

    { 1900000007;0;Container;
                ContainerType=FactBoxArea }

    { 1900383207;1;Part   ;
                Visible=FALSE;
                PartType=System;
                SystemPartID=RecordLinks }

    { 1905767507;1;Part   ;
                Visible=FALSE;
                PartType=System;
                SystemPartID=Notes }

  }
  CODE
  {
    VAR
      DefaultTax@1000 : Decimal;
      DefaultTaxIsEnabled@1001 : Boolean;

    LOCAL PROCEDURE GetDefaultTax@1() : Decimal;
    VAR
      TaxDetail@1000 : Record 322;
    BEGIN
      GetDefaultTaxDetail(TaxDetail);
      EXIT(TaxDetail."Tax Below Maximum");
    END;

    LOCAL PROCEDURE SetDefaultTax@2(NewTaxBelowMaximum@1000 : Decimal);
    VAR
      TaxDetail@1001 : Record 322;
    BEGIN
      GetDefaultTaxDetail(TaxDetail);
      TaxDetail."Tax Below Maximum" := NewTaxBelowMaximum;
      TaxDetail.MODIFY;
    END;

    LOCAL PROCEDURE GetDefaultTaxDetail@3(VAR TaxDetail@1000 : Record 322);
    BEGIN
      TaxDetail.SETRANGE("Tax Jurisdiction Code",Code);
      TaxDetail.SETRANGE("Tax Group Code",'');
      TaxDetail.SETRANGE("Tax Type",TaxDetail."Tax Type"::"Sales Tax");
      IF TaxDetail.FINDLAST THEN BEGIN
        DefaultTaxIsEnabled := TRUE;
        TaxDetail.SETRANGE("Effective Date",TaxDetail."Effective Date");
        TaxDetail.FINDLAST;
      END ELSE BEGIN
        DefaultTaxIsEnabled := FALSE;
        TaxDetail.SETRANGE("Effective Date");
      END;
    END;

    BEGIN
    END.
  }
}

