OBJECT Page 437 Reminder Statistics
{
  OBJECT-PROPERTIES
  {
    Date=22/11/17;
    Time=12:00:00;
    Version List=NAVW111.00;
  }
  PROPERTIES
  {
    Editable=No;
    CaptionML=[ENU=Reminder Statistics;
               ENG=Reminder Statistics];
    LinksAllowed=No;
    SourceTable=Table295;
    PageType=Card;
    OnAfterGetRecord=VAR
                       CustPostingGr@1003 : Record 92;
                       GLAcc@1002 : Record 15;
                       VATPostingSetup@1001 : Record 325;
                       ReminderLevel@1004 : Record 293;
                       VATInterest@1000 : Decimal;
                     BEGIN
                       CALCFIELDS("Interest Amount","VAT Amount","Add. Fee per Line");
                       ReminderTotal := "Remaining Amount" + "Additional Fee" + "Interest Amount" + "VAT Amount" + "Add. Fee per Line";
                       VatAmount := "VAT Amount";
                       CustPostingGr.GET("Customer Posting Group");
                       VATInterest := 0;
                       IF ReminderLevel.GET("Reminder Terms Code","Reminder Level") THEN
                         IF ReminderLevel."Calculate Interest" AND ("VAT Amount" <> 0) THEN BEGIN
                           GLAcc.GET(CustPostingGr."Interest Account");
                           VATPostingSetup.GET("VAT Bus. Posting Group",GLAcc."VAT Prod. Posting Group");
                           VATInterest := VATPostingSetup."VAT %";
                           IF GLAcc.GET(CustPostingGr."Additional Fee Account") THEN
                             VATPostingSetup.GET("VAT Bus. Posting Group",GLAcc."VAT Prod. Posting Group");
                           Interest :=
                             (ReminderTotal -
                              "Remaining Amount" - ("Additional Fee" + "Add. Fee per Line") * (VATPostingSetup."VAT %" / 100 + 1)) /
                             (VATInterest / 100 + 1);
                           VatAmount := Interest * VATInterest / 100 + "Additional Fee" * VATPostingSetup."VAT %" / 100 + CalculateLineFeeVATAmount;
                         END ELSE
                           Interest := "Interest Amount";

                       IF Cust.GET("Customer No.") THEN
                         Cust.CALCFIELDS("Balance (LCY)")
                       ELSE
                         CLEAR(Cust);
                       IF Cust."Credit Limit (LCY)" = 0 THEN
                         CreditLimitLCYExpendedPct := 0
                       ELSE
                         CreditLimitLCYExpendedPct := ROUND(Cust."Balance (LCY)" / Cust."Credit Limit (LCY)" * 10000,1);
                     END;

  }
  CONTROLS
  {
    { 1900000001;0;Container;
                ContainerType=ContentArea }

    { 3   ;1   ;Group     ;
                CaptionML=[ENU=General;
                           ENG=General] }

    { 45  ;2   ;Field     ;
                DrillDown=No;
                ToolTipML=[ENU=Specifies the total of the remaining amounts on the reminder lines.;
                           ENG=Specifies the total of the remaining amounts on the reminder lines.];
                ApplicationArea=#Basic,#Suite;
                SourceExpr="Remaining Amount" }

    { 13  ;2   ;Field     ;
                DrillDown=No;
                CaptionML=[ENU=Interest Amount;
                           ENG=Interest Amount];
                ToolTipML=[ENU=Specifies the amount of interest due on the amount remaining.;
                           ENG=Specifies the amount of interest due on the amount remaining.];
                ApplicationArea=#Basic,#Suite;
                SourceExpr=Interest }

    { 1   ;2   ;Field     ;
                DrillDown=No;
                ToolTipML=[ENU=Specifies the total of the additional fee amounts on the reminder lines.;
                           ENG=Specifies the total of the additional fee amounts on the reminder lines.];
                ApplicationArea=#Basic,#Suite;
                SourceExpr="Additional Fee" }

    { 4   ;2   ;Field     ;
                DrillDown=No;
                CaptionML=[ENU=VAT Amount;
                           ENG=VAT Amount];
                ToolTipML=[ENU=Specifies the VAT amount that has been calculated, on the reminder amount.;
                           ENG=Specifies the VAT amount that has been calculated, on the reminder amount.];
                ApplicationArea=#Basic,#Suite;
                SourceExpr=VatAmount }

    { 5   ;2   ;Field     ;
                DrillDown=No;
                ToolTipML=[ENU=Specifies that the fee is distributed on individual reminder lines.;
                           ENG=Specifies that the fee is distributed on individual reminder lines.];
                ApplicationArea=#Basic,#Suite;
                SourceExpr="Add. Fee per Line" }

    { 6   ;2   ;Field     ;
                CaptionML=[ENU=Total;
                           ENG=Total];
                ToolTipML=[ENU=Specifies the total amount due on the reminder, including interest, VAT, and additional fee.;
                           ENG=Specifies the total amount due on the reminder, including interest, VAT, and additional fee.];
                ApplicationArea=#Basic,#Suite;
                SourceExpr=ReminderTotal;
                AutoFormatType=1;
                AutoFormatExpr="Currency Code" }

    { 1903289601;1;Group  ;
                CaptionML=[ENU=Customer;
                           ENG=Customer] }

    { 11  ;2   ;Field     ;
                CaptionML=[ENU=Balance (LCY);
                           ENG=Balance (LCY)];
                ToolTipML=[ENU=Specifies the balance in LCY on the customer's account.;
                           ENG=Specifies the balance in LCY on the customer's account.];
                ApplicationArea=#Basic,#Suite;
                SourceExpr=Cust."Balance (LCY)";
                AutoFormatType=1 }

    { 8   ;2   ;Field     ;
                CaptionML=[ENU=Credit Limit (LCY);
                           ENG=Credit Limit (LCY)];
                ToolTipML=[ENU="Specifies the maximum credit in LCY that can be extended to the customer for whom you created and posted this service credit memo. ";
                           ENG="Specifies the maximum credit in LCY that can be extended to the customer for whom you created and posted this service credit memo. "];
                ApplicationArea=#Basic,#Suite;
                SourceExpr=Cust."Credit Limit (LCY)";
                AutoFormatType=1 }

    { 10  ;2   ;Field     ;
                ExtendedDatatype=Ratio;
                CaptionML=[ENU=Expended % of Credit Limit (LCY);
                           ENG=Expended % of Credit Limit (LCY)];
                ToolTipML=[ENU=Specifies the expended percentage of the credit limit in (LCY).;
                           ENG=Specifies the expended percentage of the credit limit in (LCY).];
                ApplicationArea=#Basic,#Suite;
                SourceExpr=CreditLimitLCYExpendedPct }

  }
  CODE
  {
    VAR
      Cust@1000 : Record 18;
      ReminderTotal@1001 : Decimal;
      CreditLimitLCYExpendedPct@1002 : Decimal;
      Interest@1004 : Decimal;
      VatAmount@1003 : Decimal;

    BEGIN
    END.
  }
}

