OBJECT Page 454 Fin. Charge Comment Sheet
{
  OBJECT-PROPERTIES
  {
    Date=22/11/17;
    Time=12:00:00;
    Version List=NAVW111.00;
  }
  PROPERTIES
  {
    CaptionML=[ENU=Comment Sheet;
               ENG=Comment Sheet];
    MultipleNewLines=Yes;
    LinksAllowed=No;
    SourceTable=Table306;
    DataCaptionExpr=Caption(Rec);
    DelayedInsert=Yes;
    PageType=List;
    AutoSplitKey=Yes;
    OnNewRecord=BEGIN
                  SetUpNewLine;
                END;

  }
  CONTROLS
  {
    { 1900000001;0;Container;
                ContainerType=ContentArea }

    { 1   ;1   ;Group     ;
                GroupType=Repeater }

    { 2   ;2   ;Field     ;
                ToolTipML=[ENU=Specifies the date the comment was created.;
                           ENG=Specifies the date the comment was created.];
                ApplicationArea=#Basic,#Suite;
                SourceExpr=Date }

    { 4   ;2   ;Field     ;
                ToolTipML=[ENU=Specifies the comment itself.;
                           ENG=Specifies the comment itself.];
                ApplicationArea=#Basic,#Suite;
                SourceExpr=Comment }

    { 6   ;2   ;Field     ;
                ToolTipML=[ENU=Specifies a code for the comment.;
                           ENG=Specifies a code for the comment.];
                ApplicationArea=#Basic,#Suite;
                SourceExpr=Code;
                Visible=FALSE }

  }
  CODE
  {
    VAR
      Text000@1000 : TextConst 'ENU=untitled;ENG=untitled';
      Text001@1001 : TextConst 'ENU=Fin. Charge Memo;ENG=Fin. Charge Memo';

    LOCAL PROCEDURE Caption@1(FinChrgCommentLine@1000 : Record 306) : Text[110];
    BEGIN
      IF FinChrgCommentLine."No." = '' THEN
        EXIT(Text000);
      EXIT(Text001 + ' ' + FinChrgCommentLine."No." + ' ');
    END;

    BEGIN
    END.
  }
}

