OBJECT Page 469 Tax Area List
{
  OBJECT-PROPERTIES
  {
    Date=25/10/16;
    Time=12:00:00;
    Version List=NAVW110.00;
  }
  PROPERTIES
  {
    CaptionML=[ENU=Tax Area List;
               ENG=VAT Area List];
    InsertAllowed=No;
    SourceTable=Table318;
    PageType=List;
    CardPageID=Tax Area;
  }
  CONTROLS
  {
    { 1900000001;0;Container;
                ContainerType=ContentArea }

    { 1   ;1   ;Group     ;
                GroupType=Repeater }

    { 2   ;2   ;Field     ;
                ToolTipML=[ENU=Specifies the code you want to assign to this tax area. You can enter up to 20 characters, both numbers and letters. It is a good idea to enter a code that is easy to remember.;
                           ENG=Specifies the code you want to assign to this VAT area. You can enter up to 20 characters, both numbers and letters. It is a good idea to enter a code that is easy to remember.];
                ApplicationArea=#All;
                SourceExpr=Code }

    { 4   ;2   ;Field     ;
                ToolTipML=[ENU=Specifies a description of the tax area. If you use a number as the tax code, you might want to describe the tax area in this field.;
                           ENG=Specifies a description of the VAT area. If you use a number as the VAT code, you might want to describe the VAT area in this field.];
                ApplicationArea=#Basic,#Suite;
                SourceExpr=Description }

    { 1900000007;0;Container;
                ContainerType=FactBoxArea }

    { 1900383207;1;Part   ;
                Visible=FALSE;
                PartType=System;
                SystemPartID=RecordLinks }

    { 1905767507;1;Part   ;
                Visible=FALSE;
                PartType=System;
                SystemPartID=Notes }

  }
  CODE
  {

    BEGIN
    END.
  }
}

