OBJECT Page 5142 Save Segment Criteria
{
  OBJECT-PROPERTIES
  {
    Date=22/11/17;
    Time=12:00:00;
    Version List=NAVW111.00;
  }
  PROPERTIES
  {
    CaptionML=[ENU=Save Segment Criteria;
               ENG=Save Segment Criteria];
    PageType=StandardDialog;
    OnQueryClosePage=BEGIN
                       IF CloseAction IN [ACTION::OK,ACTION::LookupOK] THEN
                         OKOnPush;
                     END;

  }
  CONTROLS
  {
    { 1900000001;0;Container;
                ContainerType=ContentArea }

    { 1   ;1   ;Group      }

    { 2   ;2   ;Field     ;
                Name=Code;
                CaptionML=[ENU=Code;
                           ENG=Code];
                ToolTipML=[ENU=Specifies the code for the segment criteria that you want to save.;
                           ENG=Specifies the code for the segment criteria that you want to save.];
                ApplicationArea=#All;
                SourceExpr=Code;
                OnValidate=VAR
                             SavedSegCriteria@1001 : Record 5098;
                           BEGIN
                             IF Code <> '' THEN BEGIN
                               SavedSegCriteria.Code := Code;
                               SavedSegCriteria.INSERT;
                               SavedSegCriteria.DELETE;
                             END;
                           END;
                            }

    { 4   ;2   ;Field     ;
                CaptionML=[ENU=Description;
                           ENG=Description];
                ToolTipML=[ENU=Specifies a description of the segment.;
                           ENG=Specifies a description of the segment.];
                ApplicationArea=#All;
                SourceExpr=Description }

  }
  CODE
  {
    VAR
      ExitAction@1000 : Action;
      Code@1001 : Code[10];
      Description@1002 : Text[50];

    [External]
    PROCEDURE GetValues@1(VAR GetFormAction@1000 : Action;VAR GetCode@1001 : Code[10];VAR GetDescription@1002 : Text[50]);
    BEGIN
      GetFormAction := ExitAction;
      GetCode := Code;
      GetDescription := Description;
    END;

    [External]
    PROCEDURE SetValues@2(SetFormAction@1000 : Action;SetCode@1001 : Code[10];SetDescription@1002 : Text[50]);
    BEGIN
      ExitAction := SetFormAction;
      Code := SetCode;
      Description := SetDescription;
    END;

    LOCAL PROCEDURE OKOnPush@19066895();
    VAR
      SavedSegCriteria@1001 : Record 5098;
    BEGIN
      SavedSegCriteria.Code := Code;
      SavedSegCriteria.TESTFIELD(Code);
      ExitAction := ACTION::OK;
      CurrPage.CLOSE;
    END;

    BEGIN
    END.
  }
}

