OBJECT Page 5348 CRM Product List
{
  OBJECT-PROPERTIES
  {
    Date=22/11/17;
    Time=12:00:00;
    Version List=NAVW111.00;
  }
  PROPERTIES
  {
    Editable=No;
    CaptionML=[ENU=Products - Microsoft Dynamics 365 for Sales;
               ENG=Products - Microsoft Dynamics 365 for Sales];
    SourceTable=Table5348;
    SourceTableView=SORTING(ProductNumber);
    PageType=List;
    OnInit=BEGIN
             CODEUNIT.RUN(CODEUNIT::"CRM Integration Management");
           END;

    OnAfterGetRecord=VAR
                       CRMIntegrationRecord@1000 : Record 5331;
                       RecordID@1001 : RecordID;
                     BEGIN
                       IF CRMIntegrationRecord.FindRecordIDFromID(ProductId,DATABASE::Item,RecordID) OR
                          CRMIntegrationRecord.FindRecordIDFromID(ProductId,DATABASE::Resource,RecordID)
                       THEN
                         IF CurrentlyCoupledCRMProduct.ProductId = ProductId THEN BEGIN
                           Coupled := 'Current';
                           FirstColumnStyle := 'Strong';
                         END ELSE BEGIN
                           Coupled := 'Yes';
                           FirstColumnStyle := 'Subordinate';
                         END
                       ELSE BEGIN
                         Coupled := 'No';
                         FirstColumnStyle := 'None';
                       END;
                     END;

  }
  CONTROLS
  {
    { 1   ;0   ;Container ;
                ContainerType=ContentArea }

    { 2   ;1   ;Group     ;
                GroupType=Repeater }

    { 4   ;2   ;Field     ;
                CaptionML=[ENU=Product Number;
                           ENG=Product Number];
                ToolTipML=[ENU="Specifies information related to the Dynamics 365 for Sales connection. ";
                           ENG="Specifies information related to the Dynamics 365 for Sales connection. "];
                ApplicationArea=#Suite;
                SourceExpr=ProductNumber;
                StyleExpr=FirstColumnStyle }

    { 5   ;2   ;Field     ;
                CaptionML=[ENU=Name;
                           ENG=Name];
                ToolTipML=[ENU=Specifies the name of the record.;
                           ENG=Specifies the name of the record.];
                ApplicationArea=#Suite;
                SourceExpr=Name }

    { 6   ;2   ;Field     ;
                CaptionML=[ENU=Price;
                           ENG=Price];
                ToolTipML=[ENU="Specifies information related to the Dynamics 365 for Sales connection. ";
                           ENG="Specifies information related to the Dynamics 365 for Sales connection. "];
                ApplicationArea=#Suite;
                SourceExpr=Price }

    { 7   ;2   ;Field     ;
                CaptionML=[ENU=Standard Cost;
                           ENG=Standard Cost];
                ToolTipML=[ENU="Specifies information related to the Dynamics 365 for Sales connection. ";
                           ENG="Specifies information related to the Dynamics 365 for Sales connection. "];
                ApplicationArea=#Suite;
                SourceExpr=StandardCost }

    { 8   ;2   ;Field     ;
                CaptionML=[ENU=Current Cost;
                           ENG=Current Cost];
                ToolTipML=[ENU=Specifies the item's unit cost.;
                           ENG=Specifies the item's unit cost.];
                ApplicationArea=#Suite;
                SourceExpr=CurrentCost }

    { 3   ;2   ;Field     ;
                Name=Coupled;
                CaptionML=[ENU=Coupled;
                           ENG=Coupled];
                ToolTipML=[ENU=Specifies if the Dynamics 365 for Sales record is coupled to Dynamics NAV.;
                           ENG=Specifies if the Dynamics 365 for Sales record is coupled to Dynamics NAV.];
                ApplicationArea=#Suite;
                SourceExpr=Coupled }

  }
  CODE
  {
    VAR
      CurrentlyCoupledCRMProduct@1003 : Record 5348;
      Coupled@1001 : Text;
      FirstColumnStyle@1004 : Text;

    [External]
    PROCEDURE SetCurrentlyCoupledCRMProduct@2(CRMProduct@1000 : Record 5348);
    BEGIN
      CurrentlyCoupledCRMProduct := CRMProduct;
    END;

    BEGIN
    END.
  }
}

