OBJECT Page 5149 Profile Questn. Line List
{
  OBJECT-PROPERTIES
  {
    Date=22/11/17;
    Time=12:00:00;
    Version List=NAVW111.00;
  }
  PROPERTIES
  {
    Editable=No;
    CaptionML=[ENU=Profile Questn. Line List;
               ENG=Profile Questn. Line List];
    SaveValues=Yes;
    SourceTable=Table5088;
    DelayedInsert=Yes;
    PageType=List;
    AutoSplitKey=Yes;
  }
  CONTROLS
  {
    { 1900000001;0;Container;
                ContainerType=ContentArea }

    { 1   ;1   ;Group     ;
                GroupType=Repeater }

    { 21  ;2   ;Field     ;
                ToolTipML=[ENU=Specifies the number of the profile questionnaire line. This field is used internally by the program.;
                           ENG=Specifies the number of the profile questionnaire line. This field is used internally by the program.];
                ApplicationArea=#All;
                SourceExpr="Line No." }

    { 23  ;2   ;Field     ;
                CaptionML=[ENU=Question;
                           ENG=Question];
                ToolTipML=[ENU=Specifies the question in the profile questionnaire.;
                           ENG=Specifies the question in the profile questionnaire.];
                ApplicationArea=#RelationshipMgmt;
                SourceExpr=Question }

    { 4   ;2   ;Field     ;
                CaptionML=[ENU=Answer;
                           ENG=Answer];
                ToolTipML=[ENU=Specifies the profile question or answer.;
                           ENG=Specifies the profile question or answer.];
                ApplicationArea=#RelationshipMgmt;
                SourceExpr=Description }

    { 10  ;2   ;Field     ;
                ToolTipML=[ENU=Specifies the value from which the automatic classification of your contacts starts.;
                           ENG=Specifies the value from which the automatic classification of your contacts starts.];
                ApplicationArea=#Advanced;
                SourceExpr="From Value";
                Visible=FALSE }

    { 12  ;2   ;Field     ;
                ToolTipML=[ENU=Specifies the value that the automatic classification of your contacts stops at.;
                           ENG=Specifies the value that the automatic classification of your contacts stops at.];
                ApplicationArea=#Advanced;
                SourceExpr="To Value";
                Visible=FALSE }

    { 14  ;2   ;Field     ;
                ToolTipML=[ENU=Specifies the number of contacts that have given this answer.;
                           ENG=Specifies the number of contacts that have given this answer.];
                ApplicationArea=#RelationshipMgmt;
                SourceExpr="No. of Contacts" }

    { 1900000007;0;Container;
                ContainerType=FactBoxArea }

    { 1900383207;1;Part   ;
                Visible=FALSE;
                PartType=System;
                SystemPartID=RecordLinks }

    { 1905767507;1;Part   ;
                Visible=FALSE;
                PartType=System;
                SystemPartID=Notes }

  }
  CODE
  {

    BEGIN
    END.
  }
}

