OBJECT Page 5079 Interaction Tmpl. Statistics
{
  OBJECT-PROPERTIES
  {
    Date=25/10/16;
    Time=12:00:00;
    Version List=NAVW110.00;
  }
  PROPERTIES
  {
    CaptionML=[ENU=Interaction Tmpl. Statistics;
               ENG=Interaction Tmpl. Statistics];
    InsertAllowed=No;
    DeleteAllowed=No;
    LinksAllowed=No;
    SourceTable=Table5064;
    PageType=Card;
  }
  CONTROLS
  {
    { 1900000001;0;Container;
                ContainerType=ContentArea }

    { 1   ;1   ;Group     ;
                CaptionML=[ENU=General;
                           ENG=General] }

    { 2   ;2   ;Field     ;
                ToolTipML=[ENU=Specifies the number of interactions that have been created using this interaction template.;
                           ENG=Specifies the number of interactions that have been created using this interaction template.];
                ApplicationArea=#RelationshipMgmt;
                SourceExpr="No. of Interactions" }

    { 4   ;2   ;Field     ;
                ToolTipML=[ENU=Specifies the total cost of the interactions created using the interaction template. This field is not editable.;
                           ENG=Specifies the total cost of the interactions created using the interaction template. This field is not editable.];
                ApplicationArea=#RelationshipMgmt;
                SourceExpr="Cost (LCY)" }

    { 7   ;2   ;Field     ;
                ToolTipML=[ENU=Specifies the total duration of the interactions created using this interaction template. The field is not editable.;
                           ENG=Specifies the total duration of the interactions created using this interaction template. The field is not editable.];
                ApplicationArea=#RelationshipMgmt;
                SourceExpr="Duration (Min.)" }

  }
  CODE
  {

    BEGIN
    END.
  }
}

