OBJECT Page 5795 Registered Put-away
{
  OBJECT-PROPERTIES
  {
    Date=21/12/17;
    Time=12:00:00;
    Version List=NAVW111.00.00.19846;
  }
  PROPERTIES
  {
    CaptionML=[ENU=Registered Put-away;
               ENG=Registered Put-away];
    InsertAllowed=No;
    SourceTable=Table5772;
    SourceTableView=WHERE(Type=CONST(Put-away));
    PageType=Document;
    RefreshOnActivate=Yes;
    OnOpenPage=BEGIN
                 SetWhseLocationFilter;
               END;

    ActionList=ACTIONS
    {
      { 1900000003;0 ;ActionContainer;
                      ActionContainerType=RelatedInformation }
      { 100     ;1   ;ActionGroup;
                      CaptionML=[ENU=&Put-away;
                                 ENG=&Put-away];
                      Image=CreatePutAway }
      { 101     ;2   ;Action    ;
                      ShortCutKey=Shift+Ctrl+L;
                      CaptionML=[ENU=List;
                                 ENG=List];
                      ToolTipML=[ENU=View all warehouse documents of this type that exist.;
                                 ENG=View all warehouse documents of this type that exist.];
                      ApplicationArea=#Warehouse;
                      Image=OpportunitiesList;
                      OnAction=BEGIN
                                 LookupRegisteredActivityHeader("Location Code",Rec);
                               END;
                                }
      { 11      ;2   ;Action    ;
                      CaptionML=[ENU=Co&mments;
                                 ENG=Co&mments];
                      ToolTipML=[ENU=View or add comments for the record.;
                                 ENG=View or add comments for the record.];
                      ApplicationArea=#Warehouse;
                      RunObject=Page 5776;
                      RunPageLink=Table Name=CONST(Rgstrd. Whse. Activity Header),
                                  Type=FIELD(Type),
                                  No.=FIELD(No.);
                      Image=ViewComments }
    }
  }
  CONTROLS
  {
    { 1900000001;0;Container;
                ContainerType=ContentArea }

    { 1   ;1   ;Group     ;
                CaptionML=[ENU=General;
                           ENG=General] }

    { 4   ;2   ;Field     ;
                ToolTipML=[ENU=Specifies the number of the involved entry or record, according to the specified number series.;
                           ENG=Specifies the number of the involved entry or record, according to the specified number series.];
                ApplicationArea=#Warehouse;
                SourceExpr="No.";
                Editable=FALSE }

    { 7   ;2   ;Field     ;
                ToolTipML=[ENU=Specifies the warehouse activity number from which the activity was registered.;
                           ENG=Specifies the warehouse activity number from which the activity was registered.];
                ApplicationArea=#Warehouse;
                SourceExpr="Whse. Activity No.";
                Editable=FALSE }

    { 28  ;2   ;Field     ;
                ToolTipML=[ENU=Specifies the code of the location in which the registered warehouse activity occurred.;
                           ENG=Specifies the code of the location in which the registered warehouse activity occurred.];
                ApplicationArea=#Warehouse;
                SourceExpr="Location Code";
                Editable=FALSE }

    { 10  ;2   ;Field     ;
                ToolTipML=[ENU=Specifies the date the line is registered.;
                           ENG=Specifies the date the line is registered.];
                ApplicationArea=#Warehouse;
                SourceExpr="Registering Date";
                Editable=FALSE }

    { 8   ;2   ;Field     ;
                ToolTipML=[ENU=Specifies the ID of the user who is responsible for the document.;
                           ENG=Specifies the ID of the user who is responsible for the document.];
                ApplicationArea=#Warehouse;
                SourceExpr="Assigned User ID";
                Editable=FALSE }

    { 15  ;2   ;Field     ;
                ToolTipML=[ENU=Specifies the date when the user was assigned the activity.;
                           ENG=Specifies the date when the user was assigned the activity.];
                ApplicationArea=#Warehouse;
                SourceExpr="Assignment Date";
                Editable=FALSE }

    { 23  ;2   ;Field     ;
                ToolTipML=[ENU=Specifies the time when the user was assigned the activity.;
                           ENG=Specifies the time when the user was assigned the activity.];
                ApplicationArea=#Warehouse;
                SourceExpr="Assignment Time";
                Editable=FALSE }

    { 12  ;2   ;Field     ;
                ToolTipML=[ENU=Specifies the method by which the lines were sorted on the warehouse header, such as by item, or bin code.;
                           ENG=Specifies the method by which the lines were sorted on the warehouse header, such as by item, or bin code.];
                OptionCaptionML=[ENU=" ,Item,Document,Shelf or Bin,Due Date,,Bin Ranking,Action Type";
                                 ENG=" ,Item,Document,Shelf or Bin,Due Date,,Bin Ranking,Action Type"];
                ApplicationArea=#Warehouse;
                SourceExpr="Sorting Method";
                Editable=FALSE }

    { 2   ;2   ;Field     ;
                ToolTipML=[ENU=Specifies how many times the document has been printed.;
                           ENG=Specifies how many times the document has been printed.];
                ApplicationArea=#Warehouse;
                SourceExpr="No. Printed";
                Editable=FALSE }

    { 97  ;1   ;Part      ;
                Name=WhseActivityLines;
                ApplicationArea=#Warehouse;
                SubPageView=SORTING(Activity Type,No.,Sorting Sequence No.);
                SubPageLink=Activity Type=FIELD(Type),
                            No.=FIELD(No.);
                PagePartID=Page5796;
                PartType=Page }

    { 1900000007;0;Container;
                ContainerType=FactBoxArea }

    { 1900383207;1;Part   ;
                Visible=FALSE;
                PartType=System;
                SystemPartID=RecordLinks }

    { 1905767507;1;Part   ;
                Visible=TRUE;
                PartType=System;
                SystemPartID=Notes }

  }
  CODE
  {

    BEGIN
    END.
  }
}

