OBJECT Page 5602 Fixed Asset Statistics
{
  OBJECT-PROPERTIES
  {
    Date=21/12/17;
    Time=12:00:00;
    Version List=NAVW111.00.00.19846;
  }
  PROPERTIES
  {
    Editable=No;
    CaptionML=[ENU=Fixed Asset Statistics;
               ENG=Fixed Asset Statistics];
    LinksAllowed=No;
    SourceTable=Table5612;
    DataCaptionExpr=Caption;
    PageType=Card;
    RefreshOnActivate=Yes;
    OnInit=BEGIN
             DisposalDateVisible := TRUE;
             GainLossVisible := TRUE;
             ProceedsOnDisposalVisible := TRUE;
             DisposalValueVisible := TRUE;
           END;

    OnAfterGetRecord=BEGIN
                       Disposed := "Disposal Date" > 0D;
                       DisposalValueVisible := Disposed;
                       ProceedsOnDisposalVisible := Disposed;
                       GainLossVisible := Disposed;
                       DisposalDateVisible := Disposed;
                       CalcBookValue;
                     END;

  }
  CONTROLS
  {
    { 1900000001;0;Container;
                ContainerType=ContentArea }

    { 1   ;1   ;Group     ;
                CaptionML=[ENU=General;
                           ENG=General] }

    { 59  ;2   ;Field     ;
                CaptionML=[ENU=Acquisition Date;
                           ENG=Acquisition Date];
                ToolTipML=[ENU=Specifies the FA posting date of the first posted acquisition cost.;
                           ENG=Specifies the FA posting date of the first posted acquisition cost.];
                ApplicationArea=#FixedAssets;
                SourceExpr="Acquisition Date" }

    { 60  ;2   ;Field     ;
                CaptionML=[ENU=G/L Acquisition Date;
                           ENG=G/L Acquisition Date];
                ToolTipML=[ENU=Specifies the G/L posting date of the first posted acquisition cost.;
                           ENG=Specifies the G/L posting date of the first posted acquisition cost.];
                ApplicationArea=#FixedAssets;
                SourceExpr="G/L Acquisition Date" }

    { 62  ;2   ;Field     ;
                CaptionML=[ENU=Disposed Of;
                           ENG=Disposed Of];
                ToolTipML=[ENU=Specifies whether the fixed asset has been disposed of.;
                           ENG=Specifies whether the fixed asset has been disposed of.];
                ApplicationArea=#FixedAssets;
                SourceExpr=Disposed }

    { 61  ;2   ;Field     ;
                ToolTipML=[ENU=Specifies the FA posting date of the first posted disposal amount.;
                           ENG=Specifies the FA posting date of the first posted disposal amount.];
                ApplicationArea=#All;
                SourceExpr="Disposal Date";
                Visible=DisposalDateVisible }

    { 57  ;2   ;Field     ;
                ToolTipML=[ENU=Specifies the total proceeds on disposal for the fixed asset.;
                           ENG=Specifies the total proceeds on disposal for the fixed asset.];
                ApplicationArea=#All;
                SourceExpr="Proceeds on Disposal";
                Visible=ProceedsOnDisposalVisible }

    { 58  ;2   ;Field     ;
                ToolTipML=[ENU=Specifies the total gain (credit) or loss (debit) for the fixed asset.;
                           ENG=Specifies the total gain (credit) or loss (debit) for the fixed asset.];
                ApplicationArea=#All;
                SourceExpr="Gain/Loss";
                Visible=GainLossVisible }

    { 4   ;2   ;Field     ;
                Name=DisposalValue;
                CaptionML=[ENU=Book Value after Disposal;
                           ENG=Book Value after Disposal];
                ToolTipML=[ENU=Specifies the total LCY amount of entries posted with the Book Value on Disposal posting type. Entries of this kind are created when you post disposal of a fixed asset to a depreciation book where the Gross method has been selected in the Disposal Calculation Method field.;
                           ENG=Specifies the total LCY amount of entries posted with the Book Value on Disposal posting type. Entries of this kind are created when you post disposal of a fixed asset to a depreciation book where the Gross method has been selected in the Disposal Calculation Method field.];
                ApplicationArea=#All;
                SourceExpr=BookValueAfterDisposal;
                AutoFormatType=1;
                Visible=DisposalValueVisible;
                Editable=FALSE;
                OnDrillDown=BEGIN
                              ShowBookValueAfterDisposal;
                            END;
                             }

    { 1903895301;2;Group  ;
                GroupType=FixedLayout }

    { 1900206201;3;Group  ;
                CaptionML=[ENU=Last FA Posting Date;
                           ENG=Last FA Posting Date] }

    { 17  ;4   ;Field     ;
                CaptionML=[ENU=Acquisition Cost;
                           ENG=Acquisition Cost];
                ToolTipML=[ENU=Specifies the total percentage of acquisition cost that can be allocated when acquisition cost is posted.;
                           ENG=Specifies the total percentage of acquisition cost that can be allocated when acquisition cost is posted.];
                ApplicationArea=#FixedAssets;
                SourceExpr="Last Acquisition Cost Date" }

    { 19  ;4   ;Field     ;
                CaptionML=[ENU=Depreciation;
                           ENG=Depreciation];
                ToolTipML=[ENU=Specifies the FA posting date of the last posted depreciation.;
                           ENG=Specifies the FA posting date of the last posted depreciation.];
                ApplicationArea=#FixedAssets;
                SourceExpr="Last Depreciation Date" }

    { 20  ;4   ;Field     ;
                CaptionML=[ENU=Write-Down;
                           ENG=Write-Down];
                ToolTipML=[ENU=Specifies the FA posting date of the last posted write-down.;
                           ENG=Specifies the FA posting date of the last posted write-down.];
                ApplicationArea=#FixedAssets;
                SourceExpr="Last Write-Down Date" }

    { 21  ;4   ;Field     ;
                CaptionML=[ENU=Appreciation;
                           ENG=Appreciation];
                ToolTipML=[ENU=Specifies the sum that applies to appreciations.;
                           ENG=Specifies the sum that applies to appreciations.];
                ApplicationArea=#FixedAssets;
                SourceExpr="Last Appreciation Date" }

    { 22  ;4   ;Field     ;
                CaptionML=[ENU=Custom 1;
                           ENG=Custom 1];
                ToolTipML=[ENU=Specifies the FA posting date of the last posted custom 1 entry.;
                           ENG=Specifies the FA posting date of the last posted custom 1 entry.];
                ApplicationArea=#FixedAssets;
                SourceExpr="Last Custom 1 Date" }

    { 40  ;4   ;Field     ;
                CaptionML=[ENU=Salvage Value;
                           ENG=Salvage Value];
                ToolTipML=[ENU=Specifies if related salvage value entries are included in the batch job .;
                           ENG=Specifies if related salvage value entries are included in the batch job .];
                ApplicationArea=#FixedAssets;
                SourceExpr="Last Salvage Value Date" }

    { 45  ;4   ;Field     ;
                CaptionML=[ENU=Custom 2;
                           ENG=Custom 2];
                ToolTipML=[ENU=Specifies the FA posting date of the last posted custom 2 entry.;
                           ENG=Specifies the FA posting date of the last posted custom 2 entry.];
                ApplicationArea=#FixedAssets;
                SourceExpr="Last Custom 2 Date" }

    { 1900295901;3;Group  ;
                CaptionML=[ENU=Amount;
                           ENG=Amount] }

    { 24  ;4   ;Field     ;
                ToolTipML=[ENU=Specifies the total acquisition cost for the fixed asset.;
                           ENG=Specifies the total acquisition cost for the fixed asset.];
                ApplicationArea=#FixedAssets;
                SourceExpr="Acquisition Cost" }

    { 26  ;4   ;Field     ;
                ToolTipML=[ENU=Specifies the total depreciation for the fixed asset.;
                           ENG=Specifies the total depreciation for the fixed asset.];
                ApplicationArea=#FixedAssets;
                SourceExpr=Depreciation }

    { 28  ;4   ;Field     ;
                ToolTipML=[ENU=Specifies the total LCY amount of write-down entries for the fixed asset.;
                           ENG=Specifies the total LCY amount of write-down entries for the fixed asset.];
                ApplicationArea=#FixedAssets;
                SourceExpr="Write-Down" }

    { 30  ;4   ;Field     ;
                ToolTipML=[ENU=Specifies the total appreciation for the fixed asset.;
                           ENG=Specifies the total appreciation for the fixed asset.];
                ApplicationArea=#FixedAssets;
                SourceExpr=Appreciation }

    { 32  ;4   ;Field     ;
                ToolTipML=[ENU=Specifies the total LCY amount for custom 1 entries for the fixed asset.;
                           ENG=Specifies the total LCY amount for custom 1 entries for the fixed asset.];
                ApplicationArea=#FixedAssets;
                SourceExpr="Custom 1" }

    { 34  ;4   ;Field     ;
                ToolTipML=[ENU=Specifies the book value for the fixed asset.;
                           ENG=Specifies the book value for the fixed asset.];
                ApplicationArea=#FixedAssets;
                SourceExpr="Book Value" }

    { 36  ;4   ;Field     ;
                ToolTipML=[ENU=Specifies the estimated residual value of a fixed asset when it can no longer be used.;
                           ENG=Specifies the estimated residual value of a fixed asset when it can no longer be used.];
                ApplicationArea=#FixedAssets;
                SourceExpr="Salvage Value" }

    { 38  ;4   ;Field     ;
                ToolTipML=[ENU=Specifies the depreciable basis amount for the fixed asset.;
                           ENG=Specifies the depreciable basis amount for the fixed asset.];
                ApplicationArea=#FixedAssets;
                SourceExpr="Depreciable Basis" }

    { 41  ;4   ;Field     ;
                ToolTipML=[ENU=Specifies the total LCY amount for custom 2 entries for the fixed asset.;
                           ENG=Specifies the total LCY amount for custom 2 entries for the fixed asset.];
                ApplicationArea=#FixedAssets;
                SourceExpr="Custom 2" }

    { 43  ;4   ;Field     ;
                ToolTipML=[ENU=Specifies the total maintenance cost for the fixed asset.;
                           ENG=Specifies the total maintenance cost for the fixed asset.];
                ApplicationArea=#FixedAssets;
                SourceExpr=Maintenance }

  }
  CODE
  {
    VAR
      Disposed@1000 : Boolean;
      BookValueAfterDisposal@1001 : Decimal;
      DisposalValueVisible@19039552 : Boolean INDATASET;
      ProceedsOnDisposalVisible@19043726 : Boolean INDATASET;
      GainLossVisible@19008122 : Boolean INDATASET;
      DisposalDateVisible@19073611 : Boolean INDATASET;

    BEGIN
    END.
  }
}

