OBJECT Page 5174 Opportunity Statistics FactBox
{
  OBJECT-PROPERTIES
  {
    Date=22/11/17;
    Time=12:00:00;
    Version List=NAVW111.00;
  }
  PROPERTIES
  {
    CaptionML=[ENU=Opportunity Statistics;
               ENG=Opportunity Statistics];
    InsertAllowed=No;
    DeleteAllowed=No;
    LinksAllowed=No;
    SourceTable=Table5092;
    PageType=CardPart;
  }
  CONTROLS
  {
    { 1900000001;0;Container;
                ContainerType=ContentArea }

    { 16  ;1   ;Field     ;
                ToolTipML=[ENU=Specifies the number of interactions linked to this opportunity.;
                           ENG=Specifies the number of interactions linked to this opportunity.];
                ApplicationArea=#RelationshipMgmt;
                SourceExpr="No. of Interactions" }

    { 2   ;1   ;Field     ;
                ToolTipML=[ENU=Specifies the current sales cycle stage of the opportunity.;
                           ENG=Specifies the current sales cycle stage of the opportunity.];
                ApplicationArea=#RelationshipMgmt;
                SourceExpr="Current Sales Cycle Stage" }

    { 4   ;1   ;Field     ;
                ToolTipML=[ENU=Specifies the estimated value of the opportunity.;
                           ENG=Specifies the estimated value of the opportunity.];
                ApplicationArea=#RelationshipMgmt;
                SourceExpr="Estimated Value (LCY)" }

    { 6   ;1   ;Field     ;
                ToolTipML=[ENU=Specifies the chances of success of the opportunity.;
                           ENG=Specifies the chances of success of the opportunity.];
                ApplicationArea=#RelationshipMgmt;
                SourceExpr="Chances of Success %" }

    { 8   ;1   ;Field     ;
                ToolTipML=[ENU=Specifies the percentage of the sales cycle that has been completed for this opportunity.;
                           ENG=Specifies the percentage of the sales cycle that has been completed for this opportunity.];
                ApplicationArea=#RelationshipMgmt;
                SourceExpr="Completed %" }

    { 10  ;1   ;Field     ;
                ToolTipML=[ENU=Specifies the probability of the opportunity resulting in a sale.;
                           ENG=Specifies the probability of the opportunity resulting in a sale.];
                ApplicationArea=#RelationshipMgmt;
                SourceExpr="Probability %" }

    { 12  ;1   ;Field     ;
                ToolTipML=[ENU=Specifies the current calculated value of the opportunity.;
                           ENG=Specifies the current calculated value of the opportunity.];
                ApplicationArea=#RelationshipMgmt;
                SourceExpr="Calcd. Current Value (LCY)" }

  }
  CODE
  {

    BEGIN
    END.
  }
}

