OBJECT Page 5936 Service Credit Memo Subform
{
  OBJECT-PROPERTIES
  {
    Date=21/12/17;
    Time=12:00:00;
    Version List=NAVW111.00.00.19846;
  }
  PROPERTIES
  {
    CaptionML=[ENU=Lines;
               ENG=Lines];
    MultipleNewLines=Yes;
    LinksAllowed=No;
    SourceTable=Table5902;
    DelayedInsert=Yes;
    SourceTableView=WHERE(Document Type=FILTER(Credit Memo));
    PageType=ListPart;
    AutoSplitKey=Yes;
    OnAfterGetRecord=BEGIN
                       ShowShortcutDimCode(ShortcutDimCode);
                     END;

    OnNewRecord=BEGIN
                  Type := xRec.Type;
                  CLEAR(ShortcutDimCode);
                END;

    OnDeleteRecord=VAR
                     ReserveServLine@1000 : Codeunit 99000842;
                   BEGIN
                     IF (Quantity <> 0) AND ItemExists("No.") THEN BEGIN
                       COMMIT;
                       IF NOT ReserveServLine.DeleteLineConfirm(Rec) THEN
                         EXIT(FALSE);
                       ReserveServLine.DeleteLine(Rec);
                     END;
                   END;

    ActionList=ACTIONS
    {
      { 1900000004;0 ;ActionContainer;
                      ActionContainerType=ActionItems }
      { 1906587504;1 ;ActionGroup;
                      CaptionML=[ENU=F&unctions;
                                 ENG=F&unctions];
                      Image=Action }
      { 1902056104;2 ;Action    ;
                      AccessByPermission=TableData 279=R;
                      CaptionML=[ENU=Insert &Ext. Texts;
                                 ENG=Insert &Ext. Texts];
                      ToolTipML=[ENU=Insert the extended item description that is set up for the item that is being processed on the line.;
                                 ENG=Insert the extended item description that is set up for the item that is being processed on the line.];
                      ApplicationArea=#Advanced;
                      Image=Text;
                      OnAction=BEGIN
                                 InsertExtendedText(TRUE);
                               END;
                                }
      { 1907935204;1 ;ActionGroup;
                      CaptionML=[ENU=&Line;
                                 ENG=&Line];
                      Image=Line }
      { 1907981204;2 ;ActionGroup;
                      CaptionML=[ENU=Item Availability by;
                                 ENG=Item Availability by];
                      Image=ItemAvailability }
      { 3       ;3   ;Action    ;
                      CaptionML=[ENU=Event;
                                 ENG=Event];
                      ToolTipML=[ENU=View how the actual and the projected available balance of an item will develop over time according to supply and demand events.;
                                 ENG=View how the actual and the projected available balance of an item will develop over time according to supply and demand events.];
                      ApplicationArea=#Advanced;
                      Image=Event;
                      OnAction=BEGIN
                                 ItemAvailFormsMgt.ShowItemAvailFromServLine(Rec,ItemAvailFormsMgt.ByEvent);
                               END;
                                }
      { 1903587104;3 ;Action    ;
                      CaptionML=[ENU=Period;
                                 ENG=Period];
                      ToolTipML=[ENU=View the projected quantity of the item over time according to time periods, such as day, week, or month.;
                                 ENG=View the projected quantity of the item over time according to time periods, such as day, week, or month.];
                      ApplicationArea=#Advanced;
                      Image=Period;
                      OnAction=BEGIN
                                 ItemAvailFormsMgt.ShowItemAvailFromServLine(Rec,ItemAvailFormsMgt.ByPeriod);
                               END;
                                }
      { 1903193004;3 ;Action    ;
                      CaptionML=[ENU=Variant;
                                 ENG=Variant];
                      ToolTipML=[ENU=View or edit the item's variants. Instead of setting up each color of an item as a separate item, you can set up the various colors as variants of the item.;
                                 ENG=View or edit the item's variants. Instead of setting up each colour of an item as a separate item, you can set up the various colours as variants of the item.];
                      ApplicationArea=#Advanced;
                      Image=ItemVariant;
                      OnAction=BEGIN
                                 ItemAvailFormsMgt.ShowItemAvailFromServLine(Rec,ItemAvailFormsMgt.ByVariant);
                               END;
                                }
      { 1901743104;3 ;Action    ;
                      AccessByPermission=TableData 14=R;
                      CaptionML=[ENU=Location;
                                 ENG=Location];
                      ToolTipML=[ENU=View the actual and projected quantity of the item per location.;
                                 ENG=View the actual and projected quantity of the item per location.];
                      ApplicationArea=#Advanced;
                      Image=Warehouse;
                      OnAction=BEGIN
                                 ItemAvailFormsMgt.ShowItemAvailFromServLine(Rec,ItemAvailFormsMgt.ByLocation);
                               END;
                                }
      { 5       ;3   ;Action    ;
                      CaptionML=[ENU=BOM Level;
                                 ENG=BOM Level];
                      ToolTipML=[ENU=View availability figures for items on bills of materials that show how many units of a parent item you can make based on the availability of child items.;
                                 ENG=View availability figures for items on bills of materials that show how many units of a parent item you can make based on the availability of child items.];
                      ApplicationArea=#Advanced;
                      Image=BOMLevel;
                      OnAction=BEGIN
                                 ItemAvailFormsMgt.ShowItemAvailFromServLine(Rec,ItemAvailFormsMgt.ByBOM);
                               END;
                                }
      { 1902740304;2 ;Action    ;
                      AccessByPermission=TableData 348=R;
                      ShortCutKey=Shift+Ctrl+D;
                      CaptionML=[ENU=Dimensions;
                                 ENG=Dimensions];
                      ToolTipML=[ENU=View or edit dimensions, such as area, project, or department, that you can assign to sales and purchase documents to distribute costs and analyze transaction history.;
                                 ENG=View or edit dimensions, such as area, project, or department, that you can assign to sales and purchase documents to distribute costs and analyse transaction history.];
                      ApplicationArea=#Dimensions;
                      Image=Dimensions;
                      OnAction=BEGIN
                                 ShowDimensions;
                               END;
                                }
      { 1905987604;2 ;Action    ;
                      Name=ItemTrackingLines;
                      ShortCutKey=Shift+Ctrl+I;
                      CaptionML=[ENU=Item &Tracking Lines;
                                 ENG=Item &Tracking Lines];
                      ToolTipML=[ENU=View or edit serial numbers and lot numbers that are assigned to the item on the document or journal line.;
                                 ENG=View or edit serial numbers and lot numbers that are assigned to the item on the document or journal line.];
                      ApplicationArea=#ItemTracking;
                      Image=ItemTrackingLines;
                      OnAction=BEGIN
                                 OpenItemTrackingLines;
                               END;
                                }
    }
  }
  CONTROLS
  {
    { 1900000001;0;Container;
                ContainerType=ContentArea }

    { 1   ;1   ;Group     ;
                GroupType=Repeater }

    { 2   ;2   ;Field     ;
                ToolTipML=[ENU=Specifies the type of the service line.;
                           ENG=Specifies the type of the service line.];
                ApplicationArea=#Service;
                SourceExpr=Type;
                OnValidate=BEGIN
                             NoOnAfterValidate;
                           END;
                            }

    { 4   ;2   ;Field     ;
                ToolTipML=[ENU=Specifies the number of the involved entry or record, according to the specified number series.;
                           ENG=Specifies the number of the involved entry or record, according to the specified number series.];
                ApplicationArea=#Service;
                SourceExpr="No.";
                OnValidate=BEGIN
                             ShowShortcutDimCode(ShortcutDimCode);
                             NoOnAfterValidate;
                           END;
                            }

    { 18  ;2   ;Field     ;
                ToolTipML=[ENU=Specifies the variant of the item on the line.;
                           ENG=Specifies the variant of the item on the line.];
                ApplicationArea=#Advanced;
                SourceExpr="Variant Code";
                Visible=FALSE }

    { 38  ;2   ;Field     ;
                ToolTipML=[ENU=Specifies that the item is a nonstock item.;
                           ENG=Specifies that the item is a nonstock item.];
                ApplicationArea=#Service;
                SourceExpr=Nonstock;
                Visible=FALSE }

    { 58  ;2   ;Field     ;
                ToolTipML=[ENU=Specifies the VAT specification of the involved item or resource to link transactions made for this record with the appropriate general ledger account according to the VAT posting setup.;
                           ENG=Specifies the VAT specification of the involved item or resource to link transactions made for this record with the appropriate general ledger account according to the VAT posting setup.];
                ApplicationArea=#Service;
                SourceExpr="VAT Prod. Posting Group";
                Visible=FALSE }

    { 6   ;2   ;Field     ;
                ToolTipML=[ENU=Specifies the description of an item, resource, cost, or a standard text on the line.;
                           ENG=Specifies the description of an item, resource, cost, or a standard text on the line.];
                ApplicationArea=#Service;
                SourceExpr=Description }

    { 24  ;2   ;Field     ;
                ToolTipML=[ENU=Specifies the code explaining why the item was returned.;
                           ENG=Specifies the code explaining why the item was returned.];
                ApplicationArea=#Service;
                SourceExpr="Return Reason Code";
                Visible=FALSE }

    { 72  ;2   ;Field     ;
                ToolTipML=[ENU=Specifies the inventory location from where the items on the line should be taken and where they should be registered.;
                           ENG=Specifies the inventory location from where the items on the line should be taken and where they should be registered.];
                ApplicationArea=#Location;
                SourceExpr="Location Code";
                Visible=TRUE }

    { 50  ;2   ;Field     ;
                ToolTipML=[ENU=Specifies the bin where the items are picked or put away.;
                           ENG=Specifies the bin where the items are picked or put away.];
                ApplicationArea=#Warehouse;
                SourceExpr="Bin Code";
                Visible=FALSE }

    { 28  ;2   ;Field     ;
                ToolTipML=[ENU=Specifies whether a reservation can be made for items on this line.;
                           ENG=Specifies whether a reservation can be made for items on this line.];
                ApplicationArea=#Advanced;
                SourceExpr=Reserve;
                Visible=FALSE;
                OnValidate=BEGIN
                             ReserveOnAfterValidate;
                           END;
                            }

    { 8   ;2   ;Field     ;
                ToolTipML=[ENU=Specifies the number of item units, resource hours, cost on the service line.;
                           ENG=Specifies the number of item units, resource hours, cost on the service line.];
                ApplicationArea=#Service;
                BlankZero=Yes;
                SourceExpr=Quantity;
                OnValidate=BEGIN
                             QuantityOnAfterValidate;
                           END;
                            }

    { 26  ;2   ;Field     ;
                ToolTipML=[ENU=Specifies how many item units on this line have been reserved.;
                           ENG=Specifies how many item units on this line have been reserved.];
                ApplicationArea=#Advanced;
                BlankZero=Yes;
                SourceExpr="Reserved Quantity";
                Visible=FALSE;
                OnDrillDown=BEGIN
                              CurrPage.SAVERECORD;
                              COMMIT;
                              ShowReservationEntries(TRUE);
                              UpdateForm(TRUE);
                            END;
                             }

    { 22  ;2   ;Field     ;
                ToolTipML=[ENU=Specifies how each unit of the item or resource is measured, such as in pieces or hours. By default, the value in the Base Unit of Measure field on the item or resource card is inserted.;
                           ENG=Specifies how each unit of the item or resource is measured, such as in pieces or hours. By default, the value in the Base Unit of Measure field on the item or resource card is inserted.];
                ApplicationArea=#Service;
                SourceExpr="Unit of Measure Code";
                OnValidate=BEGIN
                             UnitofMeasureCodeOnAfterValida;
                           END;
                            }

    { 10  ;2   ;Field     ;
                ToolTipML=[ENU=Specifies the name of the item or resource's unit of measure, such as piece or hour.;
                           ENG=Specifies the name of the item or resource's unit of measure, such as piece or hour.];
                ApplicationArea=#Service;
                SourceExpr="Unit of Measure";
                Visible=FALSE }

    { 70  ;2   ;Field     ;
                ToolTipML=[ENU=Specifies the cost, in LCY, of one unit of the item or resource on the line.;
                           ENG=Specifies the cost, in LCY, of one unit of the item or resource on the line.];
                ApplicationArea=#Service;
                SourceExpr="Unit Cost (LCY)";
                Visible=FALSE }

    { 12  ;2   ;Field     ;
                ToolTipML=[ENU=Specifies the price of one unit of the item or resource. You can enter a price manually or have it entered according to the Price/Profit Calculation field on the related card.;
                           ENG=Specifies the price of one unit of the item or resource. You can enter a price manually or have it entered according to the Price/Profit Calculation field on the related card.];
                ApplicationArea=#Service;
                BlankZero=Yes;
                SourceExpr="Unit Price" }

    { 92  ;2   ;Field     ;
                ToolTipML=[ENU=Specifies the net amount, excluding any invoice discount amount, that must be paid for products on the line.;
                           ENG=Specifies the net amount, excluding any invoice discount amount, that must be paid for products on the line.];
                ApplicationArea=#Service;
                SourceExpr="Line Amount" }

    { 16  ;2   ;Field     ;
                ToolTipML=[ENU=Specifies the discount percentage that is granted for the item on the line.;
                           ENG=Specifies the discount percentage that is granted for the item on the line.];
                ApplicationArea=#Service;
                BlankZero=Yes;
                SourceExpr="Line Discount %" }

    { 56  ;2   ;Field     ;
                ToolTipML=[ENU=Specifies the discount amount that is granted for the item on the line.;
                           ENG=Specifies the discount amount that is granted for the item on the line.];
                ApplicationArea=#Service;
                SourceExpr="Line Discount Amount";
                Visible=FALSE }

    { 54  ;2   ;Field     ;
                ToolTipML=[ENU=Specifies if the invoice line is included when the invoice discount is calculated.;
                           ENG=Specifies if the invoice line is included when the invoice discount is calculated.];
                ApplicationArea=#Service;
                SourceExpr="Allow Invoice Disc.";
                Visible=FALSE }

    { 20  ;2   ;Field     ;
                ToolTipML=[ENU=Specifies the total calculated invoice discount amount for the line.;
                           ENG=Specifies the total calculated invoice discount amount for the line.];
                ApplicationArea=#Service;
                SourceExpr="Inv. Discount Amount";
                Visible=FALSE }

    { 86  ;2   ;Field     ;
                ToolTipML=[ENU=Specifies the service price adjustment group code that applies to this line.;
                           ENG=Specifies the service price adjustment group code that applies to this line.];
                ApplicationArea=#Service;
                SourceExpr="Serv. Price Adjmt. Gr. Code";
                Visible=FALSE }

    { 62  ;2   ;Field     ;
                ToolTipML=[ENU=Specifies a code for the type of work performed by the resource registered on this line.;
                           ENG=Specifies a code for the type of work performed by the resource registered on this line.];
                ApplicationArea=#Service;
                SourceExpr="Work Type Code";
                Visible=FALSE }

    { 40  ;2   ;Field     ;
                ToolTipML=[ENU=Specifies the number of the contract, if the service order originated from a service contract.;
                           ENG=Specifies the number of the contract, if the service order originated from a service contract.];
                ApplicationArea=#Service;
                SourceExpr="Contract No.";
                Visible=FALSE }

    { 46  ;2   ;Field     ;
                ToolTipML=[ENU=Specifies the service item number linked to this service line.;
                           ENG=Specifies the service item number linked to this service line.];
                ApplicationArea=#Service;
                SourceExpr="Service Item No.";
                Visible=FALSE }

    { 5810;2   ;Field     ;
                ToolTipML=[ENU=Specifies the number of the item ledger entry that the document or journal line is applied from.;
                           ENG=Specifies the number of the item ledger entry that the document or journal line is applied from.];
                ApplicationArea=#Service;
                SourceExpr="Appl.-from Item Entry";
                Visible=FALSE }

    { 76  ;2   ;Field     ;
                ToolTipML=[ENU=Specifies the code for Shortcut Dimension 1, which is one of two global dimension codes that you set up in the General Ledger Setup window.;
                           ENG=Specifies the code for Shortcut Dimension 1, which is one of two global dimension codes that you set up in the General Ledger Setup window.];
                ApplicationArea=#Dimensions;
                SourceExpr="Shortcut Dimension 1 Code";
                Visible=FALSE }

    { 74  ;2   ;Field     ;
                ToolTipML=[ENU=Specifies the code for Shortcut Dimension 2, which is one of two global dimension codes that you set up in the General Ledger Setup window.;
                           ENG=Specifies the code for Shortcut Dimension 2, which is one of two global dimension codes that you set up in the General Ledger Setup window.];
                ApplicationArea=#Dimensions;
                SourceExpr="Shortcut Dimension 2 Code";
                Visible=FALSE }

    { 300 ;2   ;Field     ;
                ApplicationArea=#Dimensions;
                SourceExpr=ShortcutDimCode[3];
                CaptionClass='1,2,3';
                TableRelation="Dimension Value".Code WHERE (Global Dimension No.=CONST(3),
                                                            Dimension Value Type=CONST(Standard),
                                                            Blocked=CONST(No));
                Visible=FALSE;
                OnValidate=BEGIN
                             ValidateShortcutDimCode(3,ShortcutDimCode[3]);
                           END;
                            }

    { 302 ;2   ;Field     ;
                ApplicationArea=#Dimensions;
                SourceExpr=ShortcutDimCode[4];
                CaptionClass='1,2,4';
                TableRelation="Dimension Value".Code WHERE (Global Dimension No.=CONST(4),
                                                            Dimension Value Type=CONST(Standard),
                                                            Blocked=CONST(No));
                Visible=FALSE;
                OnValidate=BEGIN
                             ValidateShortcutDimCode(4,ShortcutDimCode[4]);
                           END;
                            }

    { 304 ;2   ;Field     ;
                ApplicationArea=#Dimensions;
                SourceExpr=ShortcutDimCode[5];
                CaptionClass='1,2,5';
                TableRelation="Dimension Value".Code WHERE (Global Dimension No.=CONST(5),
                                                            Dimension Value Type=CONST(Standard),
                                                            Blocked=CONST(No));
                Visible=FALSE;
                OnValidate=BEGIN
                             ValidateShortcutDimCode(5,ShortcutDimCode[5]);
                           END;
                            }

    { 306 ;2   ;Field     ;
                ApplicationArea=#Dimensions;
                SourceExpr=ShortcutDimCode[6];
                CaptionClass='1,2,6';
                TableRelation="Dimension Value".Code WHERE (Global Dimension No.=CONST(6),
                                                            Dimension Value Type=CONST(Standard),
                                                            Blocked=CONST(No));
                Visible=FALSE;
                OnValidate=BEGIN
                             ValidateShortcutDimCode(6,ShortcutDimCode[6]);
                           END;
                            }

    { 308 ;2   ;Field     ;
                ApplicationArea=#Dimensions;
                SourceExpr=ShortcutDimCode[7];
                CaptionClass='1,2,7';
                TableRelation="Dimension Value".Code WHERE (Global Dimension No.=CONST(7),
                                                            Dimension Value Type=CONST(Standard),
                                                            Blocked=CONST(No));
                Visible=FALSE;
                OnValidate=BEGIN
                             ValidateShortcutDimCode(7,ShortcutDimCode[7]);
                           END;
                            }

    { 310 ;2   ;Field     ;
                ApplicationArea=#Dimensions;
                SourceExpr=ShortcutDimCode[8];
                CaptionClass='1,2,8';
                TableRelation="Dimension Value".Code WHERE (Global Dimension No.=CONST(8),
                                                            Dimension Value Type=CONST(Standard),
                                                            Blocked=CONST(No));
                Visible=FALSE;
                OnValidate=BEGIN
                             ValidateShortcutDimCode(8,ShortcutDimCode[8]);
                           END;
                            }

  }
  CODE
  {
    VAR
      TransferExtendedText@1000 : Codeunit 378;
      ItemAvailFormsMgt@1002 : Codeunit 353;
      ShortcutDimCode@1001 : ARRAY [8] OF Code[20];

    [External]
    PROCEDURE ApproveCalcInvDisc@1();
    BEGIN
      CODEUNIT.RUN(CODEUNIT::"Service-Disc. (Yes/No)",Rec);
    END;

    LOCAL PROCEDURE InsertExtendedText@5(Unconditionally@1000 : Boolean);
    BEGIN
      IF TransferExtendedText.ServCheckIfAnyExtText(Rec,Unconditionally) THEN BEGIN
        CurrPage.SAVERECORD;
        TransferExtendedText.InsertServExtText(Rec);
      END;
      IF TransferExtendedText.MakeUpdate THEN
        UpdateForm(TRUE);
    END;

    [External]
    PROCEDURE UpdateForm@12(SetSaveRecord@1000 : Boolean);
    BEGIN
      CurrPage.UPDATE(SetSaveRecord);
    END;

    LOCAL PROCEDURE NoOnAfterValidate@19066594();
    BEGIN
      InsertExtendedText(FALSE);
    END;

    LOCAL PROCEDURE ReserveOnAfterValidate@19004502();
    BEGIN
      IF (Reserve = Reserve::Always) AND ("Outstanding Qty. (Base)" <> 0) THEN BEGIN
        CurrPage.SAVERECORD;
        AutoReserve;
      END;
    END;

    LOCAL PROCEDURE QuantityOnAfterValidate@19032465();
    BEGIN
      IF Reserve = Reserve::Always THEN BEGIN
        CurrPage.SAVERECORD;
        AutoReserve;
      END;
    END;

    LOCAL PROCEDURE UnitofMeasureCodeOnAfterValida@19057939();
    BEGIN
      IF Reserve = Reserve::Always THEN BEGIN
        CurrPage.SAVERECORD;
        AutoReserve;
      END;
    END;

    BEGIN
    END.
  }
}

