OBJECT Page 589 XBRL Linkbases
{
  OBJECT-PROPERTIES
  {
    Date=22/11/17;
    Time=12:00:00;
    Version List=NAVW111.00;
  }
  PROPERTIES
  {
    CaptionML=[ENU=XBRL Linkbases;
               ENG=XBRL Linkbases];
    SourceTable=Table400;
    DataCaptionFields=XBRL Taxonomy Name,XBRL Schema Line No.;
    PageType=List;
    AutoSplitKey=Yes;
    ActionList=ACTIONS
    {
      { 1900000003;0 ;ActionContainer;
                      ActionContainerType=RelatedInformation }
      { 11      ;1   ;ActionGroup;
                      CaptionML=[ENU=&Linkbase;
                                 ENG=&Linkbase];
                      Image=Links }
      { 15      ;2   ;Action    ;
                      Ellipsis=Yes;
                      CaptionML=[ENU=Import;
                                 ENG=Import];
                      ToolTipML=[ENU=Import an XBRL taxonomy into your company database by first importing one or more linkbases in .xml format. After you have completed the import of both schemas and linkbases and have applied the linkbases to the schema, you can set up the lines and map the general ledger accounts in the chart of accounts to the appropriate taxonomy lines.;
                                 ENG=Import an XBRL taxonomy into your company database by first importing one or more linkbases in .xml format. After you have completed the import of both schemas and linkbases and have applied the linkbases to the schema, you can set up the lines and map the general ledger accounts in the chart of accounts to the appropriate taxonomy lines.];
                      ApplicationArea=#XBRL;
                      Promoted=Yes;
                      PromotedIsBig=Yes;
                      Image=Import;
                      PromotedCategory=Process;
                      OnAction=VAR
                                 XBRLImport@1002 : Codeunit 422;
                                 XMLExists@1000 : Boolean;
                               BEGIN
                                 CALCFIELDS(XML);
                                 XMLExists := XML.HASVALUE;
                                 "File Name" := COPYSTR(FileMgt.BLOBImport(TempBlob,'*.xml'),1,MAXSTRLEN("File Name"));
                                 IF "File Name" = '' THEN
                                   EXIT;
                                 XML := TempBlob.Blob;
                                 IF XMLExists THEN
                                   IF NOT CONFIRM(Text001,FALSE) THEN
                                     EXIT;
                                 CurrPage.SAVERECORD;
                                 COMMIT;
                                 IF CONFIRM(Text002,FALSE) THEN
                                   CASE Type OF
                                     Type::Label:
                                       XBRLImport.ImportLabels(Rec);
                                     Type::Presentation:
                                       XBRLImport.ImportPresentation(Rec);
                                     Type::Calculation:
                                       XBRLImport.ImportCalculation(Rec);
                                     Type::Reference:
                                       XBRLImport.ImportReference(Rec);
                                   END;
                               END;
                                }
      { 16      ;2   ;Action    ;
                      Ellipsis=Yes;
                      CaptionML=[ENU=E&xport;
                                 ENG=E&xport];
                      ToolTipML=[ENU=Export the XBRL linkbase to an .xml file for reuse in another database.;
                                 ENG=Export the XBRL linkbase to an .xml file for reuse in another database.];
                      ApplicationArea=#XBRL;
                      Image=Export;
                      OnAction=BEGIN
                                 CALCFIELDS(XML);
                                 IF XML.HASVALUE THEN BEGIN
                                   TempBlob.Blob := XML;
                                   FileMgt.BLOBExport(TempBlob,'*.xml',TRUE);
                                 END;
                               END;
                                }
      { 1900000004;0 ;ActionContainer;
                      ActionContainerType=ActionItems }
      { 14      ;1   ;ActionGroup;
                      CaptionML=[ENU=F&unctions;
                                 ENG=F&unctions];
                      Image=Action }
      { 20      ;2   ;Action    ;
                      CaptionML=[ENU=Apply to Taxonomy;
                                 ENG=Apply to Taxonomy];
                      ToolTipML=[ENU=Apply the linkbase to a schema.;
                                 ENG=Apply the linkbase to a schema.];
                      ApplicationArea=#XBRL;
                      Image=ApplyTemplate;
                      OnAction=VAR
                                 XBRLLinkbase@1002 : Record 400;
                                 XBRLImportTaxonomySpec2@1000 : Codeunit 422;
                               BEGIN
                                 IF CONFIRM(STRSUBSTNO(Text003,"XBRL Taxonomy Name"),FALSE) THEN BEGIN
                                   XBRLLinkbase := Rec;
                                   CurrPage.SETSELECTIONFILTER(XBRLLinkbase);
                                   WITH XBRLLinkbase DO
                                     IF FIND('-') THEN
                                       REPEAT
                                         CASE Type OF
                                           Type::Label:
                                             XBRLImportTaxonomySpec2.ImportLabels(XBRLLinkbase);
                                           Type::Calculation:
                                             XBRLImportTaxonomySpec2.ImportCalculation(XBRLLinkbase);
                                           Type::Presentation:
                                             XBRLImportTaxonomySpec2.ImportPresentation(XBRLLinkbase);
                                           Type::Reference:
                                             XBRLImportTaxonomySpec2.ImportReference(XBRLLinkbase);
                                         END;
                                       UNTIL NEXT = 0;
                                 END;
                               END;
                                }
    }
  }
  CONTROLS
  {
    { 1900000001;0;Container;
                ContainerType=ContentArea }

    { 1   ;1   ;Group     ;
                GroupType=Repeater }

    { 4   ;2   ;Field     ;
                ToolTipML=[ENU=Specifies which information the linkbase contains. Label: Info about the elements of the taxonomy. Presentation: Info about the structure of the elements. Calculation: Info about which elements roll up to which elements. Reference: Info about what data to enter on each line in the taxonomy.;
                           ENG=Specifies which information the linkbase contains. Label: Info about the elements of the taxonomy. Presentation: Info about the structure of the elements. Calculation: Info about which elements roll up to which elements. Reference: Info about what data to enter on each line in the taxonomy.];
                ApplicationArea=#XBRL;
                SourceExpr=Type }

    { 2   ;2   ;Field     ;
                ToolTipML=[ENU=Specifies a description of the XBRL linkbase schema.;
                           ENG=Specifies a description of the XBRL linkbase schema.];
                ApplicationArea=#XBRL;
                SourceExpr=Description }

    { 12  ;2   ;Field     ;
                CaptionML=[ENU=XML File Imported;
                           ENG=XML File Imported];
                ToolTipML=[ENU=Specifies if an XBRL linkbase has been imported.;
                           ENG=Specifies if an XBRL linkbase has been imported.];
                ApplicationArea=#XBRL;
                SourceExpr=XML.HASVALUE;
                Editable=FALSE }

    { 1900000007;0;Container;
                ContainerType=FactBoxArea }

    { 1900383207;1;Part   ;
                Visible=FALSE;
                PartType=System;
                SystemPartID=RecordLinks }

    { 1905767507;1;Part   ;
                Visible=FALSE;
                PartType=System;
                SystemPartID=Notes }

  }
  CODE
  {
    VAR
      Text001@1000 : TextConst 'ENU=Do you want to replace the existing linkbase?;ENG=Do you want to replace the existing linkbase?';
      Text002@1001 : TextConst 'ENU=Do you want to apply the linkbase to the taxonomy now?;ENG=Do you want to apply the linkbase to the taxonomy now?';
      Text003@1002 : TextConst 'ENU=Do you want to apply the selected linkbases to taxonomy %1?;ENG=Do you want to apply the selected linkbases to taxonomy %1?';
      TempBlob@1004 : Record 99008535;
      FileMgt@1003 : Codeunit 419;

    BEGIN
    END.
  }
}

