OBJECT Page 5786 Source Document Filter Card
{
  OBJECT-PROPERTIES
  {
    Date=22/11/17;
    Time=12:00:00;
    Version List=NAVW111.00;
  }
  PROPERTIES
  {
    CaptionML=[ENU=Source Document Filter Card;
               ENG=Source Document Filter Card];
    LinksAllowed=No;
    SourceTable=Table5771;
    PageType=Card;
    OnInit=BEGIN
             ShippingAgentServiceFilterEnab := TRUE;
             ShippingAgentCodeFilterEnable := TRUE;
             InboundTransfersEnable := TRUE;
             SalesReturnOrdersEnable := TRUE;
             PurchaseOrdersEnable := TRUE;
             OutboundTransfersEnable := TRUE;
             PurchaseReturnOrdersEnable := TRUE;
             SalesOrdersEnable := TRUE;
           END;

    OnOpenPage=BEGIN
                 DataCaption := CurrPage.CAPTION;
                 FILTERGROUP := 2;
                 IF GETFILTER(Type) <> '' THEN
                   DataCaption := DataCaption + ' - ' + GETFILTER(Type);
                 FILTERGROUP := 0;
                 CurrPage.CAPTION(DataCaption);

                 EnableControls;
               END;

    ActionList=ACTIONS
    {
      { 1900000004;0 ;ActionContainer;
                      ActionContainerType=ActionItems }
      { 17      ;1   ;Action    ;
                      Name=Run;
                      CaptionML=[ENU=&Run;
                                 ENG=&Run];
                      ToolTipML=[ENU=Get the specified source documents.;
                                 ENG=Get the specified source documents.];
                      ApplicationArea=#Warehouse;
                      Promoted=Yes;
                      Image=Start;
                      PromotedCategory=Process;
                      OnAction=VAR
                                 GetSourceBatch@1001 : Report 5753;
                               BEGIN
                                 "Planned Delivery Date" := COPYSTR(GETFILTER("Planned Delivery Date Filter"),1,MAXSTRLEN("Planned Delivery Date"));
                                 "Planned Shipment Date" := COPYSTR(GETFILTER("Planned Shipment Date Filter"),1,MAXSTRLEN("Planned Shipment Date"));
                                 "Sales Shipment Date" := COPYSTR(GETFILTER("Sales Shipment Date Filter"),1,MAXSTRLEN("Sales Shipment Date"));
                                 "Planned Receipt Date" := COPYSTR(GETFILTER("Planned Receipt Date Filter"),1,MAXSTRLEN("Planned Receipt Date"));
                                 "Expected Receipt Date" := COPYSTR(GETFILTER("Expected Receipt Date Filter"),1,MAXSTRLEN("Expected Receipt Date"));
                                 "Shipment Date" := COPYSTR(GETFILTER("Shipment Date Filter"),1,MAXSTRLEN("Shipment Date"));
                                 "Receipt Date" := COPYSTR(GETFILTER("Receipt Date Filter"),1,MAXSTRLEN("Receipt Date"));

                                 CASE RequestType OF
                                   RequestType::Receive:
                                     BEGIN
                                       GetSourceBatch.SetOneCreatedReceiptHeader(WhseReceiptHeader);
                                       SetFilters(GetSourceBatch,WhseReceiptHeader."Location Code");
                                     END;
                                   RequestType::Ship:
                                     BEGIN
                                       GetSourceBatch.SetOneCreatedShptHeader(WhseShptHeader);
                                       SetFilters(GetSourceBatch,WhseShptHeader."Location Code");
                                     END;
                                 END;

                                 GetSourceBatch.USEREQUESTPAGE("Show Filter Request");
                                 GetSourceBatch.RUNMODAL;
                                 IF GetSourceBatch.NotCancelled THEN
                                   CurrPage.CLOSE;
                               END;
                                }
    }
  }
  CONTROLS
  {
    { 1900000001;0;Container;
                ContainerType=ContentArea }

    { 1   ;1   ;Group     ;
                CaptionML=[ENU=General;
                           ENG=General] }

    { 2   ;2   ;Field     ;
                ToolTipML=[ENU=Specifies the code that identifies the filter record.;
                           ENG=Specifies the code that identifies the filter record.];
                ApplicationArea=#Warehouse;
                SourceExpr=Code }

    { 4   ;2   ;Field     ;
                ToolTipML=[ENU=Specifies the description of filter combinations in the Source Document Filter Card window to retrieve lines from source documents.;
                           ENG=Specifies the description of filter combinations in the Source Document Filter Card window to retrieve lines from source documents.];
                ApplicationArea=#Warehouse;
                SourceExpr=Description }

    { 70  ;2   ;Field     ;
                ToolTipML=[ENU=Specifies the number, or number range, that is used to filter the source documents to get.;
                           ENG=Specifies the number, or number range, that is used to filter the source documents to get.];
                ApplicationArea=#Warehouse;
                SourceExpr="Source No. Filter" }

    { 6   ;2   ;Field     ;
                ToolTipML=[ENU=Specifies the item number used to filter the source documents to get.;
                           ENG=Specifies the item number used to filter the source documents to get.];
                ApplicationArea=#Warehouse;
                SourceExpr="Item No. Filter" }

    { 8   ;2   ;Field     ;
                ToolTipML=[ENU=Specifies the item variant used to filter the source documents to get.;
                           ENG=Specifies the item variant used to filter the source documents to get.];
                ApplicationArea=#Advanced;
                SourceExpr="Variant Code Filter" }

    { 10  ;2   ;Field     ;
                ToolTipML=[ENU=Specifies the unit of measure used to filter the source documents to get.;
                           ENG=Specifies the unit of measure used to filter the source documents to get.];
                ApplicationArea=#Warehouse;
                SourceExpr="Unit of Measure Filter" }

    { 32  ;2   ;Field     ;
                ToolTipML=[ENU=Specifies the shipment method code used to filter the source documents to get.;
                           ENG=Specifies the shipment method code used to filter the source documents to get.];
                ApplicationArea=#Warehouse;
                SourceExpr="Shipment Method Code Filter" }

    { 18  ;2   ;Field     ;
                ToolTipML=[ENU=Specifies if the Filters to Get Source Docs. window appears when you choose Use Filters to Get Source Docs on a warehouse shipment or receipt.;
                           ENG=Specifies if the Filters to Get Source Docs. window appears when you choose Use Filters to Get Source Docs on a warehouse shipment or receipt.];
                ApplicationArea=#Warehouse;
                SourceExpr="Show Filter Request" }

    { 26  ;2   ;Field     ;
                ToolTipML=[ENU=Specifies that sales return orders are retrieved when you choose Use Filters to Get Src. Docs in the Warehouse Shipment window.;
                           ENG=Specifies that sales return orders are retrieved when you choose Use Filters to Get Src. Docs in the Warehouse Shipment window.];
                ApplicationArea=#Warehouse;
                SourceExpr="Sales Return Orders";
                Enabled=SalesReturnOrdersEnable }

    { 28  ;2   ;Field     ;
                ToolTipML=[ENU=Specifies that purchase orders are retrieved when you choose Use Filters to Get Src. Docs in the Warehouse Receipt window.;
                           ENG=Specifies that purchase orders are retrieved when you choose Use Filters to Get Src. Docs in the Warehouse Receipt window.];
                ApplicationArea=#Warehouse;
                SourceExpr="Purchase Orders";
                Enabled=PurchaseOrdersEnable }

    { 54  ;2   ;Field     ;
                ToolTipML=[ENU=Specifies that inbound transfer orders are retrieved when you choose Use Filters to Get Src. Docs in the Warehouse Receipt.;
                           ENG=Specifies that inbound transfer orders are retrieved when you choose Use Filters to Get Src. Docs in the Warehouse Receipt.];
                ApplicationArea=#Warehouse;
                SourceExpr="Inbound Transfers";
                Enabled=InboundTransfersEnable;
                OnValidate=BEGIN
                             InboundTransfersOnAfterValidat;
                           END;
                            }

    { 34  ;2   ;Field     ;
                ToolTipML=[ENU=Specifies the shipping agent code used to filter the source documents.;
                           ENG=Specifies the shipping agent code used to filter the source documents.];
                ApplicationArea=#Warehouse;
                SourceExpr="Shipping Agent Code Filter";
                Enabled=ShippingAgentCodeFilterEnable }

    { 40  ;2   ;Field     ;
                ToolTipML=[ENU=Specifies the shipping agent service used to filter the source documents.;
                           ENG=Specifies the shipping agent service used to filter the source documents.];
                ApplicationArea=#Warehouse;
                SourceExpr="Shipping Agent Service Filter";
                Enabled=ShippingAgentServiceFilterEnab }

    { 22  ;2   ;Field     ;
                ToolTipML=[ENU=Specifies that inventory quantities are assigned when you get outbound source document lines for shipment.;
                           ENG=Specifies that inventory quantities are assigned when you get outbound source document lines for shipment.];
                ApplicationArea=#Warehouse;
                SourceExpr="Do Not Fill Qty. to Handle" }

    { 52  ;2   ;Group     ;
                CaptionML=[ENU=Source Document:;
                           ENG=Source Document:] }

    { 15  ;3   ;Field     ;
                ToolTipML=[ENU=Specifies that sales orders are retrieved when you choose Use Filters to Get Src. Docs in the Warehouse Shipment window.;
                           ENG=Specifies that sales orders are retrieved when you choose Use Filters to Get Src. Docs in the Warehouse Shipment window.];
                ApplicationArea=#Warehouse;
                SourceExpr="Sales Orders";
                Enabled=SalesOrdersEnable;
                OnValidate=BEGIN
                             SalesOrdersOnAfterValidate;
                           END;
                            }

    { 3   ;3   ;Field     ;
                ToolTipML=[ENU=Specifies that service lines with a Released to Ship status are retrieved by the function that gets source documents for warehouse shipment.;
                           ENG=Specifies that service lines with a Released to Ship status are retrieved by the function that gets source documents for warehouse shipment.];
                ApplicationArea=#Warehouse;
                SourceExpr="Service Orders" }

    { 38  ;3   ;Field     ;
                ToolTipML=[ENU=Specifies that purchase return orders are retrieved when you choose Use Filters to Get Src. Docs in the Warehouse Shipment window.;
                           ENG=Specifies that purchase return orders are retrieved when you choose Use Filters to Get Src. Docs in the Warehouse Shipment window.];
                ApplicationArea=#Warehouse;
                SourceExpr="Purchase Return Orders";
                Enabled=PurchaseReturnOrdersEnable }

    { 56  ;3   ;Field     ;
                ToolTipML=[ENU=Specifies that outbound transfer orders are retrieved when you choose Use Filters to Get Src. Docs in the Warehouse Shipment window.;
                           ENG=Specifies that outbound transfer orders are retrieved when you choose Use Filters to Get Src. Docs in the Warehouse Shipment window.];
                ApplicationArea=#Warehouse;
                SourceExpr="Outbound Transfers";
                Enabled=OutboundTransfersEnable;
                OnValidate=BEGIN
                             OutboundTransfersOnAfterValida;
                           END;
                            }

    { 36  ;2   ;Group     ;
                CaptionML=[ENU=Shipping Advice Filter:;
                           ENG=Shipping Advice Filter:] }

    { 37  ;3   ;Field     ;
                ToolTipML=[ENU=Specifies the Shipping Advice field on sales orders must contain Partial when you choose Use Filters to Get Src. Docs.;
                           ENG=Specifies the Shipping Advice field on sales orders must contain Partial when you choose Use Filters to Get Src. Docs.];
                ApplicationArea=#Warehouse;
                SourceExpr=Partial }

    { 60  ;3   ;Field     ;
                ToolTipML=[ENU=Specifies the Shipping Advice field on sales orders must contain Complete when you choose Use Filters to Get Src. Docs.;
                           ENG=Specifies the Shipping Advice field on sales orders must contain Complete when you choose Use Filters to Get Src. Docs.];
                ApplicationArea=#Warehouse;
                SourceExpr=Complete }

    { 1904305601;1;Group  ;
                CaptionML=[ENU=Sales;
                           ENG=Sales] }

    { 12  ;2   ;Field     ;
                ToolTipML=[ENU=Specifies the sell-to customer number used to filter the source documents to get.;
                           ENG=Specifies the sell-to customer number used to filter the source documents to get.];
                ApplicationArea=#Warehouse;
                SourceExpr="Sell-to Customer No. Filter" }

    { 1904412501;1;Group  ;
                CaptionML=[ENU=Purchase;
                           ENG=Purchase] }

    { 20  ;2   ;Field     ;
                ToolTipML=[ENU=Specifies the buy-from vendor number used to filter the source documents to get.;
                           ENG=Specifies the buy-from vendor number used to filter the source documents to get.];
                ApplicationArea=#Warehouse;
                SourceExpr="Buy-from Vendor No. Filter" }

    { 1905090301;1;Group  ;
                CaptionML=[ENU=Transfer;
                           ENG=Transfer] }

    { 42  ;2   ;Field     ;
                ToolTipML=[ENU=Specifies the in-transit code used to filter the source documents.;
                           ENG=Specifies the in-transit code used to filter the source documents.];
                ApplicationArea=#Warehouse;
                SourceExpr="In-Transit Code Filter" }

    { 44  ;2   ;Field     ;
                ToolTipML=[ENU=Specifies the transfer-from code used to filter the source documents.;
                           ENG=Specifies the transfer-from code used to filter the source documents.];
                ApplicationArea=#Warehouse;
                SourceExpr="Transfer-from Code Filter" }

    { 46  ;2   ;Field     ;
                ToolTipML=[ENU=Specifies the transfer-to code used to filter the source documents to get.;
                           ENG=Specifies the transfer-to code used to filter the source documents to get.];
                ApplicationArea=#Warehouse;
                SourceExpr="Transfer-to Code Filter" }

    { 5   ;1   ;Group     ;
                CaptionML=[ENU=Service;
                           ENG=Service];
                GroupType=Group }

    { 7   ;2   ;Field     ;
                ToolTipML=[ENU=Specifies which customers are included when you use the Filters to Get Source Docs. window to retrieve source document lines.;
                           ENG=Specifies which customers are included when you use the Filters to Get Source Docs. window to retrieve source document lines.];
                ApplicationArea=#Warehouse;
                SourceExpr="Customer No. Filter" }

  }
  CODE
  {
    VAR
      WhseShptHeader@1000 : Record 7320;
      WhseReceiptHeader@1004 : Record 7316;
      DataCaption@1001 : Text[250];
      RequestType@1005 : 'Receive,Ship';
      SalesOrdersEnable@19007621 : Boolean INDATASET;
      PurchaseReturnOrdersEnable@19041519 : Boolean INDATASET;
      OutboundTransfersEnable@19050668 : Boolean INDATASET;
      PurchaseOrdersEnable@19062116 : Boolean INDATASET;
      SalesReturnOrdersEnable@19013468 : Boolean INDATASET;
      InboundTransfersEnable@19065012 : Boolean INDATASET;
      ShippingAgentCodeFilterEnable@19010383 : Boolean INDATASET;
      ShippingAgentServiceFilterEnab@19072944 : Boolean INDATASET;

    [External]
    PROCEDURE SetOneCreatedShptHeader@1(WhseShptHeader2@1000 : Record 7320);
    BEGIN
      RequestType := RequestType::Ship;
      WhseShptHeader := WhseShptHeader2;
    END;

    [External]
    PROCEDURE SetOneCreatedReceiptHeader@4(WhseReceiptHeader2@1000 : Record 7316);
    BEGIN
      RequestType := RequestType::Receive;
      WhseReceiptHeader := WhseReceiptHeader2;
    END;

    LOCAL PROCEDURE EnableControls@2();
    BEGIN
      CASE Type OF
        Type::Inbound:
          BEGIN
            SalesOrdersEnable := FALSE;
            PurchaseReturnOrdersEnable := FALSE;
            OutboundTransfersEnable := FALSE;
          END;
        Type::Outbound:
          BEGIN
            PurchaseOrdersEnable := FALSE;
            SalesReturnOrdersEnable := FALSE;
            InboundTransfersEnable := FALSE;
          END;
      END;
      IF "Sales Orders" OR "Inbound Transfers" OR "Outbound Transfers" THEN BEGIN
        ShippingAgentCodeFilterEnable := TRUE;
        ShippingAgentServiceFilterEnab := TRUE;
      END ELSE BEGIN
        ShippingAgentCodeFilterEnable := FALSE;
        ShippingAgentServiceFilterEnab := FALSE;
      END;
    END;

    LOCAL PROCEDURE SalesOrdersOnAfterValidate@19022893();
    BEGIN
      EnableControls;
    END;

    LOCAL PROCEDURE InboundTransfersOnAfterValidat@19067194();
    BEGIN
      EnableControls;
    END;

    LOCAL PROCEDURE OutboundTransfersOnAfterValida@19031431();
    BEGIN
      EnableControls;
    END;

    BEGIN
    END.
  }
}

