OBJECT Page 5346 CRM Pricelevel List
{
  OBJECT-PROPERTIES
  {
    Date=22/11/17;
    Time=12:00:00;
    Version List=NAVW111.00;
  }
  PROPERTIES
  {
    Editable=No;
    CaptionML=[ENU=Price List - Microsoft Dynamics 365 for Sales;
               ENG=Price List - Microsoft Dynamics 365 for Sales];
    SourceTable=Table5346;
    PageType=List;
    OnInit=BEGIN
             CODEUNIT.RUN(CODEUNIT::"CRM Integration Management");
           END;

    OnAfterGetRecord=VAR
                       CRMIntegrationRecord@1001 : Record 5331;
                       RecordID@1000 : RecordID;
                     BEGIN
                       IF CRMIntegrationRecord.FindRecordIDFromID(PriceLevelId,DATABASE::"Customer Price Group",RecordID) THEN
                         IF CurrentlyCoupledCRMPricelevel.PriceLevelId = PriceLevelId THEN BEGIN
                           Coupled := 'Current';
                           FirstColumnStyle := 'Strong';
                         END ELSE BEGIN
                           Coupled := 'Yes';
                           FirstColumnStyle := 'Subordinate';
                         END
                       ELSE BEGIN
                         Coupled := 'No';
                         FirstColumnStyle := 'None';
                       END;
                     END;

  }
  CONTROLS
  {
    { 1   ;0   ;Container ;
                ContainerType=ContentArea }

    { 2   ;1   ;Group     ;
                Name=Group;
                GroupType=Repeater }

    { 3   ;2   ;Field     ;
                CaptionML=[ENU=Name;
                           ENG=Name];
                ToolTipML=[ENU=Specifies the name of the record.;
                           ENG=Specifies the name of the record.];
                ApplicationArea=#Suite;
                SourceExpr=Name;
                StyleExpr=FirstColumnStyle }

    { 4   ;2   ;Field     ;
                CaptionML=[ENU=Status;
                           ENG=Status];
                ToolTipML=[ENU="Specifies information related to the Dynamics 365 for Sales connection. ";
                           ENG="Specifies information related to the Dynamics 365 for Sales connection. "];
                ApplicationArea=#Suite;
                SourceExpr=StateCode }

    { 5   ;2   ;Field     ;
                CaptionML=[ENU=Status Reason;
                           ENG=Status Reason];
                ToolTipML=[ENU="Specifies information related to the Dynamics 365 for Sales connection. ";
                           ENG="Specifies information related to the Dynamics 365 for Sales connection. "];
                ApplicationArea=#Suite;
                SourceExpr=StatusCode }

    { 6   ;2   ;Field     ;
                CaptionML=[ENU=Currency;
                           ENG=Currency];
                ToolTipML=[ENU=Specifies the currency that amounts are shown in.;
                           ENG=Specifies the currency that amounts are shown in.];
                ApplicationArea=#Suite;
                SourceExpr=TransactionCurrencyIdName }

    { 7   ;2   ;Field     ;
                CaptionML=[ENU=Exchange Rate;
                           ENG=Exchange Rate];
                ToolTipML=[ENU=Specifies the currency exchange rate.;
                           ENG=Specifies the currency exchange rate.];
                ApplicationArea=#Suite;
                SourceExpr=ExchangeRate }

    { 8   ;2   ;Field     ;
                Name=Coupled;
                CaptionML=[ENU=Coupled;
                           ENG=Coupled];
                ToolTipML=[ENU=Specifies the coupling mark of the record.;
                           ENG=Specifies the coupling mark of the record.];
                ApplicationArea=#Suite;
                SourceExpr=Coupled }

  }
  CODE
  {
    VAR
      CurrentlyCoupledCRMPricelevel@1002 : Record 5346;
      Coupled@1001 : Text;
      FirstColumnStyle@1000 : Text;

    [External]
    PROCEDURE SetCurrentlyCoupledCRMPricelevel@1(CRMPricelevel@1000 : Record 5346);
    BEGIN
      CurrentlyCoupledCRMPricelevel := CRMPricelevel;
    END;

    BEGIN
    END.
  }
}

