OBJECT Page 5912 Service Ledger Entries
{
  OBJECT-PROPERTIES
  {
    Date=21/12/17;
    Time=12:00:00;
    Version List=NAVW111.00.00.19846;
  }
  PROPERTIES
  {
    Editable=No;
    CaptionML=[ENU=Service Ledger Entries;
               ENG=Service Ledger Entries];
    SourceTable=Table5907;
    SourceTableView=SORTING(Entry No.)
                    ORDER(Descending);
    DataCaptionFields=Service Contract No.,Service Item No. (Serviced),Service Order No.;
    PageType=List;
    ActionList=ACTIONS
    {
      { 1900000003;0 ;ActionContainer;
                      ActionContainerType=RelatedInformation }
      { 96      ;1   ;ActionGroup;
                      CaptionML=[ENU=&Entry;
                                 ENG=&Entry];
                      Image=Entry }
      { 97      ;2   ;Action    ;
                      AccessByPermission=TableData 348=R;
                      ShortCutKey=Shift+Ctrl+D;
                      CaptionML=[ENU=Dimensions;
                                 ENG=Dimensions];
                      ToolTipML=[ENU=View or edit dimensions, such as area, project, or department, that you can assign to sales and purchase documents to distribute costs and analyze transaction history.;
                                 ENG=View or edit dimensions, such as area, project, or department, that you can assign to sales and purchase documents to distribute costs and analyse transaction history.];
                      ApplicationArea=#Dimensions;
                      Image=Dimensions;
                      OnAction=BEGIN
                                 ShowDimensions;
                               END;
                                }
      { 5       ;2   ;Action    ;
                      Name=SetDimensionFilter;
                      Ellipsis=Yes;
                      CaptionML=[ENU=Set Dimension Filter;
                                 ENG=Set Dimension Filter];
                      ToolTipML=[ENU=Limit the entries according to dimension filters that you specify.;
                                 ENG=Limit the entries according to dimension filters that you specify.];
                      ApplicationArea=#Dimensions;
                      Image=Filter;
                      OnAction=BEGIN
                                 SETFILTER("Dimension Set ID",DimensionSetIDFilter.LookupFilter);
                               END;
                                }
      { 1900000004;0 ;ActionContainer;
                      ActionContainerType=ActionItems }
      { 95      ;1   ;Action    ;
                      CaptionML=[ENU=&Navigate;
                                 ENG=&Navigate];
                      ToolTipML=[ENU=Find all entries and documents that exist for the document number and posting date on the selected entry or document.;
                                 ENG=Find all entries and documents that exist for the document number and posting date on the selected entry or document.];
                      ApplicationArea=#Service;
                      Promoted=Yes;
                      Image=Navigate;
                      PromotedCategory=Process;
                      OnAction=BEGIN
                                 Navigate.SetDoc("Posting Date","Document No.");
                                 Navigate.RUN;
                               END;
                                }
    }
  }
  CONTROLS
  {
    { 1900000001;0;Container;
                ContainerType=ContentArea }

    { 1   ;1   ;Group     ;
                GroupType=Repeater }

    { 18  ;2   ;Field     ;
                ToolTipML=[ENU=Specifies the date when this entry was posted.;
                           ENG=Specifies the date when this entry was posted.];
                ApplicationArea=#Service;
                SourceExpr="Posting Date" }

    { 20  ;2   ;Field     ;
                ToolTipML=[ENU=Specifies the type for this entry.;
                           ENG=Specifies the type for this entry.];
                ApplicationArea=#Service;
                SourceExpr="Entry Type" }

    { 14  ;2   ;Field     ;
                ToolTipML=[ENU=Specifies the type of the service order if this entry was created for a service order.;
                           ENG=Specifies the type of the service order if this entry was created for a service order.];
                ApplicationArea=#Service;
                SourceExpr="Service Order Type";
                Visible=FALSE }

    { 4   ;2   ;Field     ;
                ToolTipML=[ENU=Specifies the number of the service contract, if this entry is linked to a service contract.;
                           ENG=Specifies the number of the service contract, if this entry is linked to a service contract.];
                ApplicationArea=#Service;
                SourceExpr="Service Contract No." }

    { 81  ;2   ;Field     ;
                ToolTipML=[ENU=Specifies the number of the service order, if this entry was created for a service order.;
                           ENG=Specifies the number of the service order, if this entry was created for a service order.];
                ApplicationArea=#Service;
                SourceExpr="Service Order No." }

    { 83  ;2   ;Field     ;
                ToolTipML=[ENU=Specifies the number of the related job.;
                           ENG=Specifies the number of the related job.];
                ApplicationArea=#Jobs;
                SourceExpr="Job No.";
                Visible=FALSE }

    { 79  ;2   ;Field     ;
                ToolTipML=[ENU=Specifies the number of the related job task.;
                           ENG=Specifies the number of the related job task.];
                ApplicationArea=#Jobs;
                SourceExpr="Job Task No.";
                Visible=FALSE }

    { 91  ;2   ;Field     ;
                ToolTipML=[ENU=Specifies the journal line type that is created in the Job Planning Line table and linked to this job ledger entry.;
                           ENG=Specifies the journal line type that is created in the Job Planning Line table and linked to this job ledger entry.];
                ApplicationArea=#Jobs;
                SourceExpr="Job Line Type";
                Visible=FALSE }

    { 6   ;2   ;Field     ;
                ToolTipML=[ENU=Specifies the document type of the service ledger entry.;
                           ENG=Specifies the document type of the service ledger entry.];
                ApplicationArea=#Service;
                SourceExpr="Document Type" }

    { 8   ;2   ;Field     ;
                ToolTipML=[ENU=Specifies the number of the document from which this entry was created.;
                           ENG=Specifies the number of the document from which this entry was created.];
                ApplicationArea=#Service;
                SourceExpr="Document No." }

    { 69  ;2   ;Field     ;
                ToolTipML=[ENU=Specifies the number of the customer that you send or sent the invoice or credit memo to.;
                           ENG=Specifies the number of the customer that you send or sent the invoice or credit memo to.];
                ApplicationArea=#Service;
                SourceExpr="Bill-to Customer No.";
                Visible=FALSE }

    { 24  ;2   ;Field     ;
                ToolTipML=[ENU=Specifies the number of the customer related to this entry.;
                           ENG=Specifies the number of the customer related to this entry.];
                ApplicationArea=#Service;
                SourceExpr="Customer No." }

    { 26  ;2   ;Field     ;
                ToolTipML=[ENU=Specifies a code for an alternate shipment address if you want to ship to another address than the one that has been entered automatically. This field is also used in case of drop shipment.;
                           ENG=Specifies a code for an alternate shipment address if you want to ship to another address than the one that has been entered automatically. This field is also used in case of drop shipment.];
                ApplicationArea=#Service;
                SourceExpr="Ship-to Code";
                Visible=FALSE }

    { 43  ;2   ;Field     ;
                ToolTipML=[ENU=Specifies the number of the serviced item associated with this entry.;
                           ENG=Specifies the number of the serviced item associated with this entry.];
                ApplicationArea=#Service;
                SourceExpr="Service Item No. (Serviced)" }

    { 28  ;2   ;Field     ;
                ToolTipML=[ENU=Specifies the number of the serviced item associated with this entry.;
                           ENG=Specifies the number of the serviced item associated with this entry.];
                ApplicationArea=#Service;
                SourceExpr="Item No. (Serviced)" }

    { 30  ;2   ;Field     ;
                ToolTipML=[ENU=Specifies the serial number of the serviced item associated with this entry.;
                           ENG=Specifies the serial number of the serviced item associated with this entry.];
                ApplicationArea=#ItemTracking;
                SourceExpr="Serial No. (Serviced)" }

    { 34  ;2   ;Field     ;
                ToolTipML=[ENU=Specifies the invoice period of that contract, if this entry originates from a service contract.;
                           ENG=Specifies the invoice period of that contract, if this entry originates from a service contract.];
                ApplicationArea=#Service;
                SourceExpr="Contract Invoice Period";
                Visible=FALSE }

    { 39  ;2   ;Field     ;
                ToolTipML=[ENU=Specifies the code for the global dimension that is linked to the record or entry for analysis purposes. Two global dimensions, typically for the company's most important activities, are available on all cards, documents, reports, and lists.;
                           ENG=Specifies the code for the global dimension that is linked to the record or entry for analysis purposes. Two global dimensions, typically for the company's most important activities, are available on all cards, documents, reports, and lists.];
                ApplicationArea=#Dimensions;
                SourceExpr="Global Dimension 1 Code" }

    { 41  ;2   ;Field     ;
                ToolTipML=[ENU=Specifies the code for the global dimension that is linked to the record or entry for analysis purposes. Two global dimensions, typically for the company's most important activities, are available on all cards, documents, reports, and lists.;
                           ENG=Specifies the code for the global dimension that is linked to the record or entry for analysis purposes. Two global dimensions, typically for the company's most important activities, are available on all cards, documents, reports, and lists.];
                ApplicationArea=#Dimensions;
                SourceExpr="Global Dimension 2 Code" }

    { 47  ;2   ;Field     ;
                ToolTipML=[ENU=Specifies the contract group code of the service contract to which this entry is associated.;
                           ENG=Specifies the contract group code of the service contract to which this entry is associated.];
                ApplicationArea=#Service;
                SourceExpr="Contract Group Code";
                Visible=FALSE }

    { 49  ;2   ;Field     ;
                ToolTipML=[ENU=Specifies the type of origin of this entry.;
                           ENG=Specifies the type of origin of this entry.];
                ApplicationArea=#Service;
                SourceExpr=Type }

    { 51  ;2   ;Field     ;
                ToolTipML=[ENU=Specifies the number of the involved entry or record, according to the specified number series.;
                           ENG=Specifies the number of the involved entry or record, according to the specified number series.];
                ApplicationArea=#Service;
                SourceExpr="No." }

    { 53  ;2   ;Field     ;
                ToolTipML=[ENU=Specifies the total cost on the line by multiplying the unit cost by the quantity.;
                           ENG=Specifies the total cost on the line by multiplying the unit cost by the quantity.];
                ApplicationArea=#Service;
                SourceExpr="Cost Amount" }

    { 55  ;2   ;Field     ;
                ToolTipML=[ENU=Specifies the total discount amount on this entry.;
                           ENG=Specifies the total discount amount on this entry.];
                ApplicationArea=#Service;
                SourceExpr="Discount Amount" }

    { 57  ;2   ;Field     ;
                ToolTipML=[ENU=Specifies the cost of one unit of the item or resource on the line.;
                           ENG=Specifies the cost of one unit of the item or resource on the line.];
                ApplicationArea=#Service;
                SourceExpr="Unit Cost" }

    { 59  ;2   ;Field     ;
                ToolTipML=[ENU=Specifies the number of units in this entry.;
                           ENG=Specifies the number of units in this entry.];
                ApplicationArea=#Service;
                SourceExpr=Quantity }

    { 61  ;2   ;Field     ;
                ToolTipML=[ENU=Specifies the number of units in this entry that should be invoiced.;
                           ENG=Specifies the number of units in this entry that should be invoiced.];
                ApplicationArea=#Service;
                SourceExpr="Charged Qty." }

    { 63  ;2   ;Field     ;
                ToolTipML=[ENU=Specifies the price of one unit of the item or resource. You can enter a price manually or have it entered according to the Price/Profit Calculation field on the related card.;
                           ENG=Specifies the price of one unit of the item or resource. You can enter a price manually or have it entered according to the Price/Profit Calculation field on the related card.];
                ApplicationArea=#Service;
                SourceExpr="Unit Price" }

    { 65  ;2   ;Field     ;
                ToolTipML=[ENU=Specifies the discount percentage of this entry.;
                           ENG=Specifies the discount percentage of this entry.];
                ApplicationArea=#Service;
                SourceExpr="Discount %" }

    { 67  ;2   ;Field     ;
                ToolTipML=[ENU=Specifies the total contract discount amount of this entry.;
                           ENG=Specifies the total contract discount amount of this entry.];
                ApplicationArea=#Service;
                SourceExpr="Contract Disc. Amount";
                Visible=FALSE }

    { 22  ;2   ;Field     ;
                ToolTipML=[ENU=Specifies the amount of the entry in LCY.;
                           ENG=Specifies the amount of the entry in LCY.];
                ApplicationArea=#Service;
                SourceExpr="Amount (LCY)" }

    { 16  ;2   ;Field     ;
                ToolTipML=[ENU=Specifies that this entry is not a prepaid entry from a service contract.;
                           ENG=Specifies that this entry is not a prepaid entry from a service contract.];
                ApplicationArea=#Service;
                SourceExpr="Moved from Prepaid Acc." }

    { 10  ;2   ;Field     ;
                ToolTipML=[ENU=Specifies the service contract account group code the service contract is associated with, if this entry is included in a service contract.;
                           ENG=Specifies the service contract account group code the service contract is associated with, if this entry is included in a service contract.];
                ApplicationArea=#Service;
                SourceExpr="Serv. Contract Acc. Gr. Code" }

    { 71  ;2   ;Field     ;
                ToolTipML=[ENU=Specifies the fault reason code for this entry.;
                           ENG=Specifies the fault reason code for this entry.];
                ApplicationArea=#Service;
                SourceExpr="Fault Reason Code" }

    { 73  ;2   ;Field     ;
                ToolTipML=[ENU=Specifies a description of the resource, item, cost, standard text, general ledger account, or service contract associated with this entry.;
                           ENG=Specifies a description of the resource, item, cost, standard text, general ledger account, or service contract associated with this entry.];
                ApplicationArea=#Service;
                SourceExpr=Description }

    { 85  ;2   ;Field     ;
                ToolTipML=[ENU=Specifies the vendor's or customer's trade type to link transactions made for this business partner with the appropriate general ledger account according to the general posting setup.;
                           ENG=Specifies the vendor's or customer's trade type to link transactions made for this business partner with the appropriate general ledger account according to the general posting setup.];
                ApplicationArea=#Service;
                SourceExpr="Gen. Bus. Posting Group" }

    { 87  ;2   ;Field     ;
                ToolTipML=[ENU=Specifies the item's product type to link transactions made for this item with the appropriate general ledger account according to the general posting setup.;
                           ENG=Specifies the item's product type to link transactions made for this item with the appropriate general ledger account according to the general posting setup.];
                ApplicationArea=#Service;
                SourceExpr="Gen. Prod. Posting Group" }

    { 89  ;2   ;Field     ;
                ToolTipML=[ENU=Specifies the code for the location associated with this entry.;
                           ENG=Specifies the code for the location associated with this entry.];
                ApplicationArea=#Location;
                SourceExpr="Location Code";
                Visible=FALSE }

    { 45  ;2   ;Field     ;
                ToolTipML=[ENU=Specifies the bin where the items are picked or put away.;
                           ENG=Specifies the bin where the items are picked or put away.];
                ApplicationArea=#Service;
                SourceExpr="Bin Code";
                Visible=FALSE }

    { 12  ;2   ;Field     ;
                ToolTipML=[ENU=Specifies whether the service contract or contract-related service order was prepaid.;
                           ENG=Specifies whether the service contract or contract-related service order was prepaid.];
                ApplicationArea=#Service;
                SourceExpr=Prepaid;
                Visible=FALSE }

    { 93  ;2   ;Field     ;
                ToolTipML=[ENU=Specifies contract-related service ledger entries.;
                           ENG=Specifies contract-related service ledger entries.];
                ApplicationArea=#Service;
                SourceExpr=Open }

    { 32  ;2   ;Field     ;
                ToolTipML=[ENU=Specifies the ID of the user who posted the entry, to be used, for example, in the change log.;
                           ENG=Specifies the ID of the user who posted the entry, to be used, for example, in the change log.];
                ApplicationArea=#Service;
                SourceExpr="User ID" }

    { 2   ;2   ;Field     ;
                ToolTipML=[ENU=Specifies the number of the entry, as assigned from the specified number series when the entry was created.;
                           ENG=Specifies the number of the entry, as assigned from the specified number series when the entry was created.];
                ApplicationArea=#Service;
                SourceExpr="Entry No." }

    { 75  ;2   ;Field     ;
                ToolTipML=[ENU=Specifies the number of the entry to which this entry is applied, if an entry is created for a service credit memo.;
                           ENG=Specifies the number of the entry to which this entry is applied, if an entry is created for a service credit memo.];
                ApplicationArea=#Service;
                SourceExpr="Applies-to Entry No." }

    { 77  ;2   ;Field     ;
                ToolTipML=[ENU=Specifies the amount on this entry.;
                           ENG=Specifies the amount on this entry.];
                ApplicationArea=#Service;
                SourceExpr=Amount }

    { 3   ;2   ;Field     ;
                ToolTipML=[ENU=Specifies a reference to a combination of dimension values. The actual values are stored in the Dimension Set Entry table.;
                           ENG=Specifies a reference to a combination of dimension values. The actual values are stored in the Dimension Set Entry table.];
                ApplicationArea=#Dimensions;
                SourceExpr="Dimension Set ID";
                Visible=FALSE }

    { 1900000007;0;Container;
                ContainerType=FactBoxArea }

    { 1900383207;1;Part   ;
                Visible=FALSE;
                PartType=System;
                SystemPartID=RecordLinks }

    { 1905767507;1;Part   ;
                Visible=FALSE;
                PartType=System;
                SystemPartID=Notes }

  }
  CODE
  {
    VAR
      Navigate@1000 : Page 344;
      DimensionSetIDFilter@1001 : Page 481;

    BEGIN
    END.
  }
}

