OBJECT Page 579 Post Application
{
  OBJECT-PROPERTIES
  {
    Date=22/11/17;
    Time=12:00:00;
    Version List=NAVW111.00;
  }
  PROPERTIES
  {
    CaptionML=[ENU=Post Application;
               ENG=Post Application];
    PageType=StandardDialog;
  }
  CONTROLS
  {
    { 1900000001;0;Container;
                ContainerType=ContentArea }

    { 3   ;1   ;Group     ;
                CaptionML=[ENU=General;
                           ENG=General] }

    { 4   ;2   ;Field     ;
                CaptionML=[ENU=Document No.;
                           ENG=Document No.];
                ToolTipML=[ENU=Specifies the document number of the entry to be applied.;
                           ENG=Specifies the document number of the entry to be applied.];
                ApplicationArea=#Basic,#Suite;
                SourceExpr=DocNo }

    { 7   ;2   ;Field     ;
                CaptionML=[ENU=Posting Date;
                           ENG=Posting Date];
                ToolTipML=[ENU=Specifies the posting date of the entry to be applied.;
                           ENG=Specifies the posting date of the entry to be applied.];
                ApplicationArea=#Basic,#Suite;
                SourceExpr=PostingDate }

  }
  CODE
  {
    VAR
      DocNo@1000 : Code[20];
      PostingDate@1001 : Date;

    [External]
    PROCEDURE SetValues@1(NewDocNo@1000 : Code[20];NewPostingDate@1001 : Date);
    BEGIN
      DocNo := NewDocNo;
      PostingDate := NewPostingDate;
    END;

    [External]
    PROCEDURE GetValues@2(VAR NewDocNo@1000 : Code[20];VAR NewPostingDate@1001 : Date);
    BEGIN
      NewDocNo := DocNo;
      NewPostingDate := PostingDate;
    END;

    BEGIN
    END.
  }
}

