OBJECT Page 5957 Default Service Hours
{
  OBJECT-PROPERTIES
  {
    Date=22/11/17;
    Time=12:00:00;
    Version List=NAVW111.00;
  }
  PROPERTIES
  {
    CaptionML=[ENU=Default Service Hours;
               ENG=Default Service Hours];
    SourceTable=Table5910;
    DelayedInsert=Yes;
    SourceTableView=WHERE(Service Contract No.=CONST());
    PageType=List;
    OnInit=BEGIN
             CurrPage.LOOKUPMODE := FALSE;
           END;

    OnQueryClosePage=BEGIN
                       CLEAR(ServHour);
                       ServHour.SETRANGE("Service Contract No.",'');
                       ServHour.SETRANGE("Service Contract Type",ServHour."Service Contract Type"::" ");
                       CLEAR(Weekdays);
                       EntryMissing := FALSE;
                       IF ServHour.FIND('-') THEN BEGIN
                         REPEAT
                           Weekdays[ServHour.Day + 1] := TRUE;
                         UNTIL ServHour.NEXT = 0;
                         FOR i := 1 TO 5 DO BEGIN
                           IF NOT Weekdays[i] THEN
                             EntryMissing := TRUE;
                         END;
                         IF EntryMissing THEN
                           IF NOT CONFIRM(Text000)
                           THEN
                             EXIT(FALSE);
                       END;
                     END;

  }
  CONTROLS
  {
    { 1900000001;0;Container;
                ContainerType=ContentArea }

    { 1   ;1   ;Group     ;
                GroupType=Repeater }

    { 2   ;2   ;Field     ;
                ToolTipML=[ENU=Specifies the number of the service contract to which the service hours apply.;
                           ENG=Specifies the number of the service contract to which the service hours apply.];
                ApplicationArea=#Service;
                SourceExpr="Service Contract No.";
                Visible=FALSE }

    { 4   ;2   ;Field     ;
                ToolTipML=[ENU=Specifies the date when the service hours become valid.;
                           ENG=Specifies the date when the service hours become valid.];
                ApplicationArea=#Service;
                SourceExpr="Starting Date" }

    { 6   ;2   ;Field     ;
                ToolTipML=[ENU=Specifies the day when the service hours are valid.;
                           ENG=Specifies the day when the service hours are valid.];
                ApplicationArea=#Service;
                SourceExpr=Day }

    { 8   ;2   ;Field     ;
                ToolTipML=[ENU=Specifies the starting time of the service hours.;
                           ENG=Specifies the starting time of the service hours.];
                ApplicationArea=#Service;
                SourceExpr="Starting Time" }

    { 10  ;2   ;Field     ;
                ToolTipML=[ENU=Specifies the ending time of the service hours.;
                           ENG=Specifies the ending time of the service hours.];
                ApplicationArea=#Service;
                SourceExpr="Ending Time" }

    { 15  ;2   ;Field     ;
                ToolTipML=[ENU=Specifies that service hours are valid on holidays.;
                           ENG=Specifies that service hours are valid on holidays.];
                ApplicationArea=#Service;
                SourceExpr="Valid on Holidays" }

    { 1900000007;0;Container;
                ContainerType=FactBoxArea }

    { 1900383207;1;Part   ;
                Visible=FALSE;
                PartType=System;
                SystemPartID=RecordLinks }

    { 1905767507;1;Part   ;
                Visible=FALSE;
                PartType=System;
                SystemPartID=Notes }

  }
  CODE
  {
    VAR
      Text000@1000 : TextConst '@@@=You have not specified service hours for all working days.\Do you want to close the window?;ENU=You have not specified service hours for all working days.\Do you want to close the window?;ENG=You have not specified service hours for all working days.\Do you want to close the window?';
      ServHour@1002 : Record 5910;
      Weekdays@1003 : ARRAY [7] OF Boolean;
      EntryMissing@1004 : Boolean;
      i@1005 : Integer;

    BEGIN
    END.
  }
}

