OBJECT Page 5189 Create Rating
{
  OBJECT-PROPERTIES
  {
    Date=22/11/17;
    Time=12:00:00;
    Version List=NAVW111.00;
  }
  PROPERTIES
  {
    CaptionML=[ENU=Create Rating;
               ENG=Create Rating];
    InsertAllowed=No;
    DeleteAllowed=No;
    LinksAllowed=No;
    SourceTable=Table5088;
    DataCaptionExpr="Profile Questionnaire Code" + ' ' + Description;
    PageType=NavigatePage;
    OnInit=BEGIN
             MaximumEnable := TRUE;
             MinimumEnable := TRUE;
             WizardToValueEnable := TRUE;
             WizardFromValueEnable := TRUE;
             NoOfAnswersEnable := TRUE;
             NextEnable := TRUE;
             SubFormVisible := TRUE;
           END;

    OnOpenPage=BEGIN
                 FormWidth := CancelXPos + CancelWidth + 220;
                 FrmXPos := ROUND((FrmWidth - FormWidth) / 2,1) + FrmXPos;
                 FrmWidth := FormWidth;

                 VALIDATE("Auto Contact Classification",TRUE);
                 VALIDATE("Contact Class. Field","Contact Class. Field"::Rating);
                 MODIFY;

                 ValidateAnswerOption;
                 ValidateIntervalOption;

                 ShowStep(TRUE);

                 UpdateCntrls;
               END;

    ActionList=ACTIONS
    {
      { 1900000004;0 ;ActionContainer;
                      ActionContainerType=ActionItems }
      { 8       ;1   ;Action    ;
                      Name=Back;
                      CaptionML=[ENU=&Back;
                                 ENG=&Back];
                      ApplicationArea=#RelationshipMgmt;
                      Enabled=BackEnable;
                      InFooterBar=Yes;
                      Image=PreviousRecord;
                      OnAction=BEGIN
                                 ShowStep(FALSE);
                                 PerformPrevWizardStatus;
                                 ShowStep(TRUE);
                                 UpdateCntrls;
                                 CurrPage.UPDATE(TRUE);
                               END;
                                }
      { 9       ;1   ;Action    ;
                      Name=Next;
                      CaptionML=[ENU=&Next;
                                 ENG=&Next];
                      ApplicationArea=#RelationshipMgmt;
                      Enabled=NextEnable;
                      InFooterBar=Yes;
                      Image=NextRecord;
                      OnAction=BEGIN
                                 CheckStatus;
                                 ShowStep(FALSE);
                                 PerformNextWizardStatus;
                                 ShowStep(TRUE);
                                 UpdateCntrls;
                                 CurrPage.UPDATE(TRUE);
                               END;
                                }
      { 10      ;1   ;Action    ;
                      Name=Finish;
                      CaptionML=[ENU=&Finish;
                                 ENG=&Finish];
                      ApplicationArea=#RelationshipMgmt;
                      Enabled=FinishEnable;
                      InFooterBar=Yes;
                      Image=Approve;
                      OnAction=BEGIN
                                 CheckStatus;
                                 FinishWizard;
                                 CurrPage.CLOSE;
                               END;
                                }
    }
  }
  CONTROLS
  {
    { 1900000001;0;Container;
                ContainerType=ContentArea }

    { 4   ;1   ;Group     ;
                Name=Step3;
                CaptionML=[ENU=Step 3;
                           ENG=Step 3];
                Visible=Step3Visible;
                GroupType=Group;
                InstructionalTextML=[ENU=Please specify the range of points required to get the different answer options.;
                                     ENG=Please specify the range of points required to get the different answer options.] }

    { 20  ;2   ;Field     ;
                CaptionML=[ENU=Please select one of the options below to specify the points your contact must earn in order to receive this rating.;
                           ENG=Please select one of the options below to specify the points your contact must earn in order to receive this rating.];
                ApplicationArea=#RelationshipMgmt;
                SourceExpr=GetProfileLineAnswerDesc;
                Editable=FALSE;
                MultiLine=Yes }

    { 3   ;2   ;Group      }

    { 74  ;3   ;Field     ;
                ApplicationArea=#RelationshipMgmt;
                SourceExpr="Interval Option";
                ValuesAllowed=Interval;
                OnValidate=BEGIN
                             IF "Interval Option" = "Interval Option"::Interval THEN
                               IntervalIntervalOptionOnValida;
                           END;
                            }

    { 12  ;3   ;Field     ;
                CaptionML=[ENU=From:;
                           ENG=From:];
                ApplicationArea=#RelationshipMgmt;
                DecimalPlaces=0:;
                BlankZero=Yes;
                SourceExpr="Wizard From Value";
                Enabled=WizardFromValueEnable }

    { 18  ;3   ;Field     ;
                CaptionML=[ENU=To:;
                           ENG=To:];
                ApplicationArea=#RelationshipMgmt;
                DecimalPlaces=0:;
                BlankZero=Yes;
                SourceExpr="Wizard To Value";
                Enabled=WizardToValueEnable }

    { 32  ;2   ;Group      }

    { 78  ;3   ;Field     ;
                Name=Interval Option2;
                ApplicationArea=#RelationshipMgmt;
                SourceExpr="Interval Option";
                ValuesAllowed=Minimum;
                OnValidate=BEGIN
                             IF "Interval Option" = "Interval Option"::Minimum THEN
                               MinimumIntervalOptionOnValidat;
                           END;
                            }

    { 2   ;3   ;Field     ;
                Name=Minimum;
                CaptionML=[ENU=From:;
                           ENG=From:];
                ApplicationArea=#RelationshipMgmt;
                DecimalPlaces=0:;
                BlankZero=Yes;
                SourceExpr="Wizard From Value";
                Enabled=MinimumEnable }

    { 33  ;2   ;Group      }

    { 76  ;3   ;Field     ;
                Name=Interval Option3;
                ApplicationArea=#RelationshipMgmt;
                SourceExpr="Interval Option";
                ValuesAllowed=Maximum;
                OnValidate=BEGIN
                             IF "Interval Option" = "Interval Option"::Maximum THEN
                               MaximumIntervalOptionOnValidat;
                           END;
                            }

    { 14  ;3   ;Field     ;
                Name=Maximum;
                CaptionML=[ENU=To:;
                           ENG=To:];
                ApplicationArea=#RelationshipMgmt;
                DecimalPlaces=0:;
                BlankZero=Yes;
                SourceExpr="Wizard To Value";
                Enabled=MaximumEnable }

    { 1   ;1   ;Group     ;
                Name=Step1;
                CaptionML=[ENU=Step 1;
                           ENG=Step 1];
                Visible=Step1Visible;
                GroupType=Group;
                InstructionalTextML=[ENU=This wizard helps you define the methods you will use to rate your contacts.;
                                     ENG=This wizard helps you define the methods you will use to rate your contacts.] }

    { 24  ;2   ;Field     ;
                CaptionML=[ENU=For which questionnaire should this rating be created;
                           ENG=For which questionnaire should this rating be created];
                ApplicationArea=#RelationshipMgmt;
                SourceExpr="Profile Questionnaire Code";
                TableRelation="Profile Questionnaire Header" }

    { 48  ;2   ;Field     ;
                CaptionML=[ENU=Describe the type of rating (for example, Overall Customer Rating);
                           ENG=Describe the type of rating (for example, Overall Customer Rating)];
                ApplicationArea=#RelationshipMgmt;
                SourceExpr=Description;
                MultiLine=Yes }

    { 34  ;2   ;Field     ;
                CaptionML=[ENU=What percentage of questions need to be answered before a rating is assigned?;
                           ENG=What percentage of questions need to be answered before a rating is assigned?];
                ApplicationArea=#RelationshipMgmt;
                SourceExpr="Min. % Questions Answered";
                MultiLine=Yes }

    { 5   ;1   ;Group     ;
                Name=Step4;
                CaptionML=[ENU=Step 4;
                           ENG=Step 4];
                Visible=Step4Visible;
                GroupType=Group;
                InstructionalTextML=[ENU=When you choose Finish, the questions and answers you have created will be saved and the Answer Points window will open. In this window, you can assign points to each answer.;
                                     ENG=When you choose Finish, the questions and answers you have created will be saved and the Answer Points window will open. In this window, you can assign points to each answer.] }

    { 30  ;2   ;Part      ;
                Name=SubForm;
                ApplicationArea=#RelationshipMgmt;
                PagePartID=Page5191;
                Visible=SubFormVisible;
                Editable=FALSE;
                PartType=Page }

    { 15  ;1   ;Group     ;
                Name=Step2;
                CaptionML=[ENU=Step 2;
                           ENG=Step 2];
                Visible=Step2Visible;
                GroupType=Group }

    { 22  ;2   ;Field     ;
                CaptionML=[ENU=Specify which of the following grouping methods you will use to rate your contacts.;
                           ENG=Specify which of the following grouping methods you will use to rate your contacts.];
                ApplicationArea=#RelationshipMgmt;
                SourceExpr="Answer Option";
                ValuesAllowed=[HighLow;ABC;Custom];
                OnValidate=BEGIN
                             IF "Answer Option" = "Answer Option"::Custom THEN
                               CustomAnswerOptionOnValidate;
                             IF "Answer Option" = "Answer Option"::ABC THEN
                               ABCAnswerOptionOnValidate;
                             IF "Answer Option" = "Answer Option"::HighLow THEN
                               HighLowAnswerOptionOnValidate;
                           END;
                            }

    { 28  ;2   ;Field     ;
                Name=NoOfAnswers;
                CaptionML=[ENU=Number of possible answers:;
                           ENG=Number of possible answers:];
                ApplicationArea=#RelationshipMgmt;
                SourceExpr=NoOfProfileAnswers;
                Enabled=NoOfAnswersEnable;
                OnDrillDown=BEGIN
                              ShowAnswers;
                              CurrPage.UPDATE;
                            END;
                             }

  }
  CODE
  {
    VAR
      TempProfileLineAnswer@1007 : TEMPORARY Record 5088;
      FormWidth@1018 : Integer;
      CancelXPos@19007686 : Integer;
      CancelWidth@19035161 : Integer;
      FrmXPos@19006598 : Integer;
      FrmWidth@19057698 : Integer;
      Step1Visible@19067551 : Boolean INDATASET;
      Step2Visible@19067406 : Boolean INDATASET;
      Step3Visible@19067629 : Boolean INDATASET;
      Step4Visible@19067716 : Boolean INDATASET;
      SubFormVisible@19001734 : Boolean INDATASET;
      NextEnable@19007695 : Boolean INDATASET;
      BackEnable@19029006 : Boolean INDATASET;
      FinishEnable@19079943 : Boolean INDATASET;
      NoOfAnswersEnable@19072732 : Boolean INDATASET;
      WizardFromValueEnable@19034539 : Boolean INDATASET;
      WizardToValueEnable@19027947 : Boolean INDATASET;
      MinimumEnable@19077941 : Boolean INDATASET;
      MaximumEnable@19063099 : Boolean INDATASET;

    LOCAL PROCEDURE ShowStep@2(Visible@1001 : Boolean);
    BEGIN
      CASE "Wizard Step" OF
        "Wizard Step"::"1":
          BEGIN
            NextEnable := TRUE;
            BackEnable := FALSE;
            Step1Visible := Visible;
            IF Visible THEN;
          END;
        "Wizard Step"::"2":
          BEGIN
            Step2Visible := Visible;
            BackEnable := TRUE;
            NextEnable := TRUE;
          END;
        "Wizard Step"::"3":
          BEGIN
            Step3Visible := Visible;
            IF Visible THEN BEGIN
              BackEnable := TRUE;
              NextEnable := TRUE;
              FinishEnable := FALSE;
            END;
          END;
        "Wizard Step"::"4":
          BEGIN
            IF Visible THEN BEGIN
              GetAnswers(TempProfileLineAnswer);
              CurrPage.SubForm.PAGE.SetRecords(Rec,TempProfileLineAnswer);
            END;
            FinishEnable := TRUE;
            NextEnable := FALSE;
            Step4Visible := Visible;
            CurrPage.SubForm.PAGE.UpdateForm;
          END;
      END;
    END;

    LOCAL PROCEDURE UpdateCntrls@1();
    BEGIN
      NoOfAnswersEnable := "Answer Option" = "Answer Option"::Custom;
      WizardFromValueEnable := "Interval Option" = "Interval Option"::Interval;
      WizardToValueEnable := "Interval Option" = "Interval Option"::Interval;
      MinimumEnable := "Interval Option" = "Interval Option"::Minimum;
      MaximumEnable := "Interval Option" = "Interval Option"::Maximum;
    END;

    LOCAL PROCEDURE IntervalIntervalOptionOnValida@19002733();
    BEGIN
      ValidateIntervalOption;
      UpdateCntrls;
    END;

    LOCAL PROCEDURE MinimumIntervalOptionOnValidat@19075165();
    BEGIN
      ValidateIntervalOption;
      UpdateCntrls
    END;

    LOCAL PROCEDURE MaximumIntervalOptionOnValidat@19076719();
    BEGIN
      ValidateIntervalOption;
      UpdateCntrls
    END;

    LOCAL PROCEDURE HighLowAnswerOptionOnValidate@19000528();
    BEGIN
      ValidateAnswerOption;
      UpdateCntrls;
    END;

    LOCAL PROCEDURE ABCAnswerOptionOnValidate@19013869();
    BEGIN
      ValidateAnswerOption;
      UpdateCntrls;
    END;

    LOCAL PROCEDURE CustomAnswerOptionOnValidate@19051078();
    BEGIN
      ValidateAnswerOption;
      ShowAnswers;
      UpdateCntrls;
    END;

    BEGIN
    END.
  }
}

