OBJECT Page 5130 Opportunity Entries
{
  OBJECT-PROPERTIES
  {
    Date=22/11/17;
    Time=12:00:00;
    Version List=NAVW111.00;
  }
  PROPERTIES
  {
    Editable=No;
    CaptionML=[ENU=Opportunity Entries;
               ENG=Opportunity Entries];
    SourceTable=Table5093;
    DataCaptionFields=Contact No.,Campaign No.,Salesperson Code,Sales Cycle Code,Sales Cycle Stage,Close Opportunity Code;
    PageType=List;
    ActionList=ACTIONS
    {
      { 3       ;    ;ActionContainer;
                      ActionContainerType=ActionItems }
      { 5       ;1   ;Action    ;
                      CaptionML=[ENU=Show Opportunity Card;
                                 ENG=Show Opportunity Card];
                      ToolTipML=[ENU=Open the card for the opportunity.;
                                 ENG=Open the card for the opportunity.];
                      ApplicationArea=#RelationshipMgmt;
                      RunObject=Page 5124;
                      RunPageLink=No.=FIELD(Opportunity No.);
                      Promoted=Yes;
                      Image=Opportunity;
                      PromotedCategory=Process;
                      RunPageMode=View;
                      Scope=Repeater }
    }
  }
  CONTROLS
  {
    { 1900000001;0;Container;
                ContainerType=ContentArea }

    { 1   ;1   ;Group     ;
                GroupType=Repeater }

    { 31  ;2   ;Field     ;
                ToolTipML=[ENU=Specifies the number of the opportunity to which this entry applies.;
                           ENG=Specifies the number of the opportunity to which this entry applies.];
                ApplicationArea=#All;
                SourceExpr="Opportunity No." }

    { 2   ;2   ;Field     ;
                ToolTipML=[ENU=Specifies the action that was taken when the entry was last updated. There are six options:;
                           ENG=Specifies the action that was taken when the entry was last updated. There are six options:];
                ApplicationArea=#RelationshipMgmt;
                SourceExpr="Action Taken" }

    { 4   ;2   ;Field     ;
                ToolTipML=[ENU=Specifies that the opportunity entry is active.;
                           ENG=Specifies that the opportunity entry is active.];
                ApplicationArea=#RelationshipMgmt;
                SourceExpr=Active }

    { 6   ;2   ;Field     ;
                ToolTipML=[ENU=Specifies the date this opportunity entry was last changed.;
                           ENG=Specifies the date this opportunity entry was last changed.];
                ApplicationArea=#RelationshipMgmt;
                SourceExpr="Date of Change" }

    { 8   ;2   ;Field     ;
                ToolTipML=[ENU=Specifies the date that the opportunity was closed.;
                           ENG=Specifies the date that the opportunity was closed.];
                ApplicationArea=#RelationshipMgmt;
                SourceExpr="Date Closed" }

    { 10  ;2   ;Field     ;
                ToolTipML=[ENU=Specifies the number of days that the opportunity entry was open.;
                           ENG=Specifies the number of days that the opportunity entry was open.];
                ApplicationArea=#RelationshipMgmt;
                SourceExpr="Days Open" }

    { 12  ;2   ;Field     ;
                ToolTipML=[ENU=Specifies the code of the sales cycle to which the opportunity is linked.;
                           ENG=Specifies the code of the sales cycle to which the opportunity is linked.];
                ApplicationArea=#Advanced;
                SourceExpr="Sales Cycle Code";
                Visible=FALSE }

    { 7   ;2   ;Field     ;
                ToolTipML=[ENU=Specifies a description of the sales cycle that is related to the task. The description is copied from the sales cycle card.;
                           ENG=Specifies a description of the sales cycle that is related to the task. The description is copied from the sales cycle card.];
                ApplicationArea=#RelationshipMgmt;
                SourceExpr="Sales Cycle Stage Description" }

    { 16  ;2   ;Field     ;
                ToolTipML=[ENU=Specifies the sales cycle stage of the opportunity before this entry.;
                           ENG=Specifies the sales cycle stage of the opportunity before this entry.];
                ApplicationArea=#Advanced;
                SourceExpr="Previous Sales Cycle Stage";
                Visible=FALSE }

    { 18  ;2   ;Field     ;
                ToolTipML=[ENU=Specifies the estimated value of the opportunity entry.;
                           ENG=Specifies the estimated value of the opportunity entry.];
                ApplicationArea=#RelationshipMgmt;
                SourceExpr="Estimated Value (LCY)" }

    { 20  ;2   ;Field     ;
                ToolTipML=[ENU=Specifies the calculated current value of the opportunity entry.;
                           ENG=Specifies the calculated current value of the opportunity entry.];
                ApplicationArea=#RelationshipMgmt;
                SourceExpr="Calcd. Current Value (LCY)" }

    { 22  ;2   ;Field     ;
                ToolTipML=[ENU=Specifies the percentage of the sales cycle that has been completed for this opportunity entry.;
                           ENG=Specifies the percentage of the sales cycle that has been completed for this opportunity entry.];
                ApplicationArea=#RelationshipMgmt;
                SourceExpr="Completed %" }

    { 24  ;2   ;Field     ;
                ToolTipML=[ENU=Specifies the chances of success of the opportunity entry.;
                           ENG=Specifies the chances of success of the opportunity entry.];
                ApplicationArea=#RelationshipMgmt;
                SourceExpr="Chances of Success %" }

    { 26  ;2   ;Field     ;
                ToolTipML=[ENU=Specifies the probability of the opportunity resulting in a sale.;
                           ENG=Specifies the probability of the opportunity resulting in a sale.];
                ApplicationArea=#RelationshipMgmt;
                SourceExpr="Probability %" }

    { 9   ;2   ;Field     ;
                ToolTipML=[ENU=Specifies the code for closing the opportunity.;
                           ENG=Specifies the code for closing the opportunity.];
                ApplicationArea=#RelationshipMgmt;
                SourceExpr="Close Opportunity Code" }

    { 1900000007;0;Container;
                ContainerType=FactBoxArea }

    { 1900383207;1;Part   ;
                Visible=FALSE;
                PartType=System;
                SystemPartID=RecordLinks }

    { 1905767507;1;Part   ;
                Visible=FALSE;
                PartType=System;
                SystemPartID=Notes }

  }
  CODE
  {

    BEGIN
    END.
  }
}

