OBJECT Page 5231 Absence Overview by Categories
{
  OBJECT-PROPERTIES
  {
    Date=21/12/17;
    Time=12:00:00;
    Version List=NAVW111.00.00.19846;
  }
  PROPERTIES
  {
    CaptionML=[ENU=Absence Overview by Categories;
               ENG=Absence Overview by Categories];
    InsertAllowed=No;
    DeleteAllowed=No;
    LinksAllowed=No;
    SourceTable=Table5200;
    DataCaptionExpr='';
    PageType=Card;
    OnOpenPage=BEGIN
                 MATRIX_GenerateColumnCaptions(SetWanted::Initial);
                 IF HASFILTER THEN
                   EmployeeNoFilter := GETFILTER("Employee No. Filter");
               END;

    ActionList=ACTIONS
    {
      { 1900000004;0 ;ActionContainer;
                      ActionContainerType=ActionItems }
      { 1       ;1   ;Action    ;
                      Name=ShowMatrix;
                      CaptionML=[ENU=&Show Matrix;
                                 ENG=&Show Matrix];
                      ToolTipML=[ENU=View the data overview according to the selected filters and options.;
                                 ENG=View the data overview according to the selected filters and options.];
                      ApplicationArea=#Advanced;
                      Promoted=Yes;
                      PromotedIsBig=Yes;
                      Image=ShowMatrix;
                      PromotedCategory=Process;
                      OnAction=VAR
                                 MatrixForm@1055 : Page 9273;
                               BEGIN
                                 MatrixForm.Load(MATRIX_CaptionSet,MatrixRecords,PeriodType,AbsenceAmountType,EmployeeNoFilter);
                                 MatrixForm.RUNMODAL;
                               END;
                                }
      { 11      ;1   ;Action    ;
                      CaptionML=[ENU=Previous Set;
                                 ENG=Previous Set];
                      ToolTipML=[ENU=Go to the previous set of data.;
                                 ENG=Go to the previous set of data.];
                      ApplicationArea=#Advanced;
                      Promoted=Yes;
                      PromotedIsBig=Yes;
                      Image=PreviousSet;
                      PromotedCategory=Process;
                      OnAction=BEGIN
                                 MATRIX_GenerateColumnCaptions(SetWanted::Previous);
                               END;
                                }
      { 12      ;1   ;Action    ;
                      CaptionML=[ENU=Next Set;
                                 ENG=Next Set];
                      ToolTipML=[ENU=Go to the next set of data.;
                                 ENG=Go to the next set of data.];
                      ApplicationArea=#Advanced;
                      Promoted=Yes;
                      PromotedIsBig=Yes;
                      Image=NextSet;
                      PromotedCategory=Process;
                      OnAction=BEGIN
                                 MATRIX_GenerateColumnCaptions(SetWanted::Next);
                               END;
                                }
    }
  }
  CONTROLS
  {
    { 1900000001;0;Container;
                ContainerType=ContentArea }

    { 2   ;1   ;Group     ;
                CaptionML=[ENU=Options;
                           ENG=Options] }

    { 3   ;2   ;Field     ;
                CaptionML=[ENU=Employee No. Filter;
                           ENG=Employee No. Filter];
                ToolTipML=[ENU=Specifies the employees that will be included in the overview.;
                           ENG=Specifies the employees that will be included in the overview.];
                ApplicationArea=#Advanced;
                SourceExpr=EmployeeNoFilter;
                TableRelation=Employee }

    { 1906098301;1;Group  ;
                CaptionML=[ENU=Matrix Options;
                           ENG=Matrix Options] }

    { 8   ;2   ;Field     ;
                CaptionML=[ENU=View by;
                           ENG=View by];
                ToolTipML=[ENU=Specifies by which period amounts are displayed.;
                           ENG=Specifies by which period amounts are displayed.];
                OptionCaptionML=[ENU=Day,Week,Month,Quarter,Year,Accounting Period;
                                 ENG=Day,Week,Month,Quarter,Year,Accounting Period];
                ApplicationArea=#Advanced;
                SourceExpr=PeriodType;
                OnValidate=BEGIN
                             MATRIX_GenerateColumnCaptions(SetWanted::Initial);
                           END;
                            }

    { 7   ;2   ;Field     ;
                CaptionML=[ENU=Amount Type;
                           ENG=Amount Type];
                ToolTipML=[ENU=Specifies the amount type of the absence.;
                           ENG=Specifies the amount type of the absence.];
                OptionCaptionML=[ENU=Net Change,Balance at Date;
                                 ENG=Net Change,Balance at Date];
                ApplicationArea=#Advanced;
                SourceExpr=AbsenceAmountType }

    { 10  ;2   ;Field     ;
                CaptionML=[ENU=Column Set;
                           ENG=Column Set];
                ToolTipML=[ENU=Specifies the range of values that are displayed in the matrix window, for example, the total period. To change the contents of the field, choose Next Set or Previous Set.;
                           ENG=Specifies the range of values that are displayed in the matrix window, for example, the total period. To change the contents of the field, choose Next Set or Previous Set.];
                ApplicationArea=#Advanced;
                SourceExpr=MATRIX_CaptionRange;
                Editable=FALSE }

  }
  CODE
  {
    VAR
      MatrixRecord@1002 : Record 5206;
      MatrixRecords@1056 : ARRAY [32] OF Record 5206;
      PeriodType@1008 : 'Day,Week,Month,Quarter,Year,Accounting Period';
      AbsenceAmountType@1006 : 'Balance at Date,Net Change';
      MATRIX_CaptionSet@1057 : ARRAY [32] OF Text[80];
      EmployeeNoFilter@1004 : Text;
      PKFirstRecInCurrSet@1011 : Text;
      MATRIX_CaptionRange@1010 : Text;
      MatrixCaptions@1009 : Integer;
      SetWanted@1007 : 'Initial,Previous,Same,Next';

    LOCAL PROCEDURE MATRIX_GenerateColumnCaptions@1107(SetWanted@1001 : 'First,Previous,Same,Next');
    VAR
      MatrixMgt@1003 : Codeunit 9200;
      RecRef@1002 : RecordRef;
      CurrentMatrixRecordOrdinal@1000 : Integer;
    BEGIN
      CLEAR(MATRIX_CaptionSet);
      CLEAR(MatrixRecords);
      CurrentMatrixRecordOrdinal := 1;
      RecRef.GETTABLE(MatrixRecord);
      RecRef.SETTABLE(MatrixRecord);

      MatrixMgt.GenerateMatrixData(RecRef,SetWanted,ARRAYLEN(MatrixRecords),1,PKFirstRecInCurrSet,
        MATRIX_CaptionSet,MATRIX_CaptionRange,MatrixCaptions);
      IF MatrixCaptions > 0 THEN BEGIN
        MatrixRecord.SETPOSITION(PKFirstRecInCurrSet);
        MatrixRecord.FIND;
        REPEAT
          MatrixRecords[CurrentMatrixRecordOrdinal].COPY(MatrixRecord);
          CurrentMatrixRecordOrdinal := CurrentMatrixRecordOrdinal + 1;
        UNTIL (CurrentMatrixRecordOrdinal > MatrixCaptions) OR (MatrixRecord.NEXT <> 1);
      END;
    END;

    BEGIN
    END.
  }
}

