OBJECT Page 5075 Interaction Templates
{
  OBJECT-PROPERTIES
  {
    Date=21/12/17;
    Time=12:00:00;
    Version List=NAVW111.00.00.19846;
  }
  PROPERTIES
  {
    CaptionML=[ENU=Interaction Templates;
               ENG=Interaction Templates];
    SourceTable=Table5064;
    PageType=List;
    OnAfterGetRecord=BEGIN
                       CALCFIELDS("Attachment No.");
                     END;

    OnNewRecord=BEGIN
                  IF GETFILTER("Interaction Group Code") <> '' THEN
                    IF GETRANGEMIN("Interaction Group Code") = GETRANGEMAX("Interaction Group Code") THEN
                      "Interaction Group Code" := GETRANGEMIN("Interaction Group Code");
                END;

    ActionList=ACTIONS
    {
      { 1900000003;0 ;ActionContainer;
                      ActionContainerType=RelatedInformation }
      { 25      ;1   ;ActionGroup;
                      CaptionML=[ENU=&Interaction Template;
                                 ENG=&Interaction Template];
                      Image=Interaction }
      { 29      ;2   ;Action    ;
                      ShortCutKey=Ctrl+F7;
                      CaptionML=[ENU=Interaction Log E&ntries;
                                 ENG=Interaction Log E&ntries];
                      ToolTipML=[ENU=View a list of the interactions that you have logged, for example, when you create an interaction, print a cover sheet, a sales order, and so on.;
                                 ENG=View a list of the interactions that you have logged, for example, when you create an interaction, print a cover sheet, a sales order, and so on.];
                      ApplicationArea=#RelationshipMgmt;
                      RunObject=Page 5076;
                      RunPageView=SORTING(Interaction Template Code,Date);
                      RunPageLink=Interaction Template Code=FIELD(Code);
                      Image=InteractionLog }
      { 30      ;2   ;Action    ;
                      ShortCutKey=F7;
                      CaptionML=[ENU=Statistics;
                                 ENG=Statistics];
                      ToolTipML=[ENU=View statistical information, such as the value of posted entries, for the record.;
                                 ENG=View statistical information, such as the value of posted entries, for the record.];
                      ApplicationArea=#RelationshipMgmt;
                      RunObject=Page 5079;
                      RunPageLink=Code=FIELD(Code);
                      Promoted=Yes;
                      Image=Statistics;
                      PromotedCategory=Process }
      { 26      ;2   ;Action    ;
                      CaptionML=[ENU=Languages;
                                 ENG=Languages];
                      ToolTipML=[ENU=Set up and select the preferred languages for the interactions with your contacts.;
                                 ENG=Set up and select the preferred languages for the interactions with your contacts.];
                      ApplicationArea=#RelationshipMgmt;
                      RunObject=Page 5154;
                      RunPageLink=Interaction Template Code=FIELD(Code);
                      Image=Language }
      { 41      ;1   ;ActionGroup;
                      CaptionML=[ENU=&Attachment;
                                 ENG=&Attachment];
                      Image=Attachments }
      { 43      ;2   ;Action    ;
                      ShortCutKey=Return;
                      CaptionML=[ENU=Open;
                                 ENG=Open];
                      ToolTipML=[ENU=Open the card for the selected record.;
                                 ENG=Open the card for the selected record.];
                      ApplicationArea=#RelationshipMgmt;
                      Image=Edit;
                      OnAction=VAR
                                 InteractTemplLanguage@1001 : Record 5103;
                               BEGIN
                                 IF InteractTemplLanguage.GET(Code,"Language Code (Default)") THEN
                                   InteractTemplLanguage.OpenAttachment;
                               END;
                                }
      { 44      ;2   ;Action    ;
                      Ellipsis=Yes;
                      CaptionML=[ENU=Create;
                                 ENG=Create];
                      ToolTipML=[ENU=Create a new interaction template.;
                                 ENG=Create a new interaction template.];
                      ApplicationArea=#RelationshipMgmt;
                      Image=New;
                      OnAction=VAR
                                 InteractTemplLanguage@1001 : Record 5103;
                               BEGIN
                                 IF NOT InteractTemplLanguage.GET(Code,"Language Code (Default)") THEN BEGIN
                                   InteractTemplLanguage.INIT;
                                   InteractTemplLanguage."Interaction Template Code" := Code;
                                   InteractTemplLanguage."Language Code" := "Language Code (Default)";
                                   InteractTemplLanguage.Description := Description;
                                 END;
                                 InteractTemplLanguage.CreateAttachment;
                                 CurrPage.UPDATE;
                               END;
                                }
      { 45      ;2   ;Action    ;
                      Ellipsis=Yes;
                      CaptionML=[ENU=Copy &from;
                                 ENG=Copy &from];
                      ToolTipML=[ENU=Copy an existing interaction template.;
                                 ENG=Copy an existing interaction template.];
                      ApplicationArea=#RelationshipMgmt;
                      Image=Copy;
                      OnAction=VAR
                                 InteractTemplLanguage@1001 : Record 5103;
                               BEGIN
                                 IF NOT InteractTemplLanguage.GET(Code,"Language Code (Default)") THEN BEGIN
                                   InteractTemplLanguage.INIT;
                                   InteractTemplLanguage."Interaction Template Code" := Code;
                                   InteractTemplLanguage."Language Code" := "Language Code (Default)";
                                   InteractTemplLanguage.Description := Description;
                                   InteractTemplLanguage.INSERT;
                                   COMMIT;
                                 END;
                                 InteractTemplLanguage.CopyFromAttachment;
                                 CurrPage.UPDATE;
                               END;
                                }
      { 46      ;2   ;Action    ;
                      Ellipsis=Yes;
                      CaptionML=[ENU=Import;
                                 ENG=Import];
                      ToolTipML=[ENU=Import an interaction template.;
                                 ENG=Import an interaction template.];
                      ApplicationArea=#RelationshipMgmt;
                      Image=Import;
                      OnAction=VAR
                                 InteractTemplLanguage@1001 : Record 5103;
                               BEGIN
                                 IF NOT InteractTemplLanguage.GET(Code,"Language Code (Default)") THEN BEGIN
                                   InteractTemplLanguage.INIT;
                                   InteractTemplLanguage."Interaction Template Code" := Code;
                                   InteractTemplLanguage."Language Code" := "Language Code (Default)";
                                   InteractTemplLanguage.Description := Description;
                                   InteractTemplLanguage.INSERT;
                                 END;
                                 InteractTemplLanguage.ImportAttachment;
                                 CurrPage.UPDATE;
                               END;
                                }
      { 47      ;2   ;Action    ;
                      Ellipsis=Yes;
                      CaptionML=[ENU=E&xport;
                                 ENG=E&xport];
                      ToolTipML=[ENU=Export an interaction template.;
                                 ENG=Export an interaction template.];
                      ApplicationArea=#RelationshipMgmt;
                      Image=Export;
                      OnAction=VAR
                                 InteractTemplLanguage@1001 : Record 5103;
                               BEGIN
                                 IF InteractTemplLanguage.GET(Code,"Language Code (Default)") THEN
                                   InteractTemplLanguage.ExportAttachment;
                               END;
                                }
      { 48      ;2   ;Action    ;
                      Ellipsis=Yes;
                      CaptionML=[ENU=Remove;
                                 ENG=Remove];
                      ToolTipML=[ENU=Remote an interaction template.;
                                 ENG=Remote an interaction template.];
                      ApplicationArea=#RelationshipMgmt;
                      Image=Cancel;
                      OnAction=VAR
                                 InteractTemplLanguage@1001 : Record 5103;
                               BEGIN
                                 IF InteractTemplLanguage.GET(Code,"Language Code (Default)") THEN
                                   InteractTemplLanguage.RemoveAttachment(TRUE);
                               END;
                                }
    }
  }
  CONTROLS
  {
    { 1900000001;0;Container;
                ContainerType=ContentArea }

    { 1   ;1   ;Group     ;
                GroupType=Repeater }

    { 2   ;2   ;Field     ;
                ToolTipML=[ENU=Specifies the code for the interaction template.;
                           ENG=Specifies the code for the interaction template.];
                ApplicationArea=#All;
                SourceExpr=Code }

    { 4   ;2   ;Field     ;
                ToolTipML=[ENU=Specifies the code for the interaction group to which the interaction template belongs.;
                           ENG=Specifies the code for the interaction group to which the interaction template belongs.];
                ApplicationArea=#All;
                SourceExpr="Interaction Group Code" }

    { 6   ;2   ;Field     ;
                ToolTipML=[ENU=Specifies a description of the interaction template.;
                           ENG=Specifies a description of the interaction template.];
                ApplicationArea=#All;
                SourceExpr=Description }

    { 37  ;2   ;Field     ;
                ToolTipML=[ENU=Specifies the action to perform when you click Next in the first window of the Create Interaction wizard. There are 3 options:;
                           ENG=Specifies the action to perform when you click Next in the first window of the Create Interaction wizard. There are 3 options:];
                ApplicationArea=#RelationshipMgmt;
                SourceExpr="Wizard Action" }

    { 31  ;2   ;Field     ;
                ToolTipML=[ENU=Specifies the default language code for the interaction. If the contact's preferred language is not available, then the program uses this language as the default language.;
                           ENG=Specifies the default language code for the interaction. If the contact's preferred language is not available, then the program uses this language as the default language.];
                ApplicationArea=#RelationshipMgmt;
                SourceExpr="Language Code (Default)" }

    { 27  ;2   ;Field     ;
                Name=Attachment;
                AssistEdit=Yes;
                CaptionML=[ENU=Attachment;
                           ENG=Attachment];
                ToolTipML=[ENU=Specifies if the linked attachment is inherited or unique.;
                           ENG=Specifies if the linked attachment is inherited or unique.];
                ApplicationArea=#RelationshipMgmt;
                SourceExpr="Attachment No." <> 0;
                OnAssistEdit=VAR
                               InteractTmplLanguage@1001 : Record 5103;
                             BEGIN
                               IF InteractTmplLanguage.GET(Code,"Language Code (Default)") THEN BEGIN
                                 IF InteractTmplLanguage."Attachment No." <> 0 THEN
                                   InteractTmplLanguage.OpenAttachment
                                 ELSE
                                   InteractTmplLanguage.CreateAttachment;
                               END ELSE BEGIN
                                 InteractTmplLanguage.INIT;
                                 InteractTmplLanguage."Interaction Template Code" := Code;
                                 InteractTmplLanguage."Language Code" := "Language Code (Default)";
                                 InteractTmplLanguage.Description := Description;
                                 InteractTmplLanguage.CreateAttachment;
                               END;
                               CurrPage.UPDATE;
                             END;
                              }

    { 33  ;2   ;Field     ;
                ToolTipML=[ENU=Specifies that the correspondence type that you select in the Correspondence Type (Default) field should be used.;
                           ENG=Specifies that the correspondence type that you select in the Correspondence Type (Default) field should be used.];
                ApplicationArea=#RelationshipMgmt;
                SourceExpr="Ignore Contact Corres. Type" }

    { 39  ;2   ;Field     ;
                ToolTipML=[ENU=Specifies the preferred type of correspondence for the interaction. NOTE: If you use the Web client, you must not select the Hard Copy option because printing is not possible from the web client.;
                           ENG=Specifies the preferred type of correspondence for the interaction. NOTE: If you use the Web client, you must not select the Hard Copy option because printing is not possible from the web client.];
                ApplicationArea=#RelationshipMgmt;
                SourceExpr="Correspondence Type (Default)" }

    { 8   ;2   ;Field     ;
                ToolTipML=[ENU=Specifies the cost, in LCY, of one unit of the item or resource on the line.;
                           ENG=Specifies the cost, in LCY, of one unit of the item or resource on the line.];
                ApplicationArea=#RelationshipMgmt;
                SourceExpr="Unit Cost (LCY)" }

    { 10  ;2   ;Field     ;
                ToolTipML=[ENU=Specifies the usual duration of interactions created using the interaction template.;
                           ENG=Specifies the usual duration of interactions created using the interaction template.];
                ApplicationArea=#RelationshipMgmt;
                SourceExpr="Unit Duration (Min.)" }

    { 12  ;2   ;Field     ;
                ToolTipML=[ENU=Specifies the direction of the information flow for the interaction template. There are two options: Outbound and Inbound. Select Outbound if the information is usually sent by your company. Select Inbound if the information is usually received by your company.;
                           ENG=Specifies the direction of the information flow for the interaction template. There are two options: Outbound and Inbound. Select Outbound if the information is usually sent by your company. Select Inbound if the information is usually received by your company.];
                ApplicationArea=#RelationshipMgmt;
                SourceExpr="Information Flow" }

    { 14  ;2   ;Field     ;
                ToolTipML=[ENU=Specifies who usually initiates interactions created using the interaction template. There are two options: Us and Them. Select Us if the interaction is usually initiated by your company. Select Them if the information is usually initiated by your contacts.;
                           ENG=Specifies who usually initiates interactions created using the interaction template. There are two options: Us and Them. Select Us if the interaction is usually initiated by your company. Select Them if the information is usually initiated by your contacts.];
                ApplicationArea=#RelationshipMgmt;
                SourceExpr="Initiated By" }

    { 16  ;2   ;Field     ;
                ToolTipML=[ENU=Specifies the number of the campaign for which the interaction template has been created.;
                           ENG=Specifies the number of the campaign for which the interaction template has been created.];
                ApplicationArea=#RelationshipMgmt;
                SourceExpr="Campaign No." }

    { 18  ;2   ;Field     ;
                ToolTipML=[ENU=Specifies that the contact who is involved in the interaction is the target of a campaign. This is used to measure the response rate of a campaign.;
                           ENG=Specifies that the contact who is involved in the interaction is the target of a campaign. This is used to measure the response rate of a campaign.];
                ApplicationArea=#RelationshipMgmt;
                SourceExpr="Campaign Target" }

    { 20  ;2   ;Field     ;
                ToolTipML=[ENU=Specifies that the interaction template is being used to record interactions that are a response to a campaign. For example, coupons that are sent in as a response to a campaign.;
                           ENG=Specifies that the interaction template is being used to record interactions that are a response to a campaign. For example, coupons that are sent in as a response to a campaign.];
                ApplicationArea=#RelationshipMgmt;
                SourceExpr="Campaign Response" }

    { 1900000007;0;Container;
                ContainerType=FactBoxArea }

    { 1900383207;1;Part   ;
                Visible=FALSE;
                PartType=System;
                SystemPartID=RecordLinks }

    { 1905767507;1;Part   ;
                Visible=FALSE;
                PartType=System;
                SystemPartID=Notes }

  }
  CODE
  {

    BEGIN
    END.
  }
}

