OBJECT Page 5494 Country/Regions Entity
{
  OBJECT-PROPERTIES
  {
    Date=22/11/17;
    Time=12:00:00;
    Version List=NAVW111.00;
  }
  PROPERTIES
  {
    CaptionML=[@@@={Locked};
               ENU=countriesRegions;
               ENG=countriesRegions];
    SourceTable=Table9;
    DelayedInsert=Yes;
    PageType=API;
    EntitySetName=countriesRegions;
    EntityName=countryRegion;
    OnInsertRecord=VAR
                     CountryRegion@1002 : Record 9;
                     GraphMgtGeneralTools@1001 : Codeunit 5465;
                     RecRef@1000 : RecordRef;
                   BEGIN
                     CountryRegion.SETRANGE(Code,Code);
                     IF NOT CountryRegion.ISEMPTY THEN
                       INSERT;

                     INSERT(TRUE);

                     RecRef.GETTABLE(Rec);
                     GraphMgtGeneralTools.ProcessNewRecordFromAPI(RecRef,TempFieldSet,CURRENTDATETIME);
                     RecRef.SETTABLE(Rec);

                     MODIFY(TRUE);
                     EXIT(FALSE);
                   END;

    OnModifyRecord=VAR
                     CountryRegion@1001 : Record 9;
                     GraphMgtGeneralTools@1000 : Codeunit 5465;
                   BEGIN
                     IF xRec.Id <> Id THEN
                       GraphMgtGeneralTools.ErrorIdImmutable;
                     CountryRegion.SETRANGE(Id,Id);
                     CountryRegion.FINDFIRST;

                     IF Code = CountryRegion.Code THEN
                       MODIFY(TRUE)
                     ELSE BEGIN
                       CountryRegion.TRANSFERFIELDS(Rec,FALSE);
                       CountryRegion.RENAME(Code);
                       TRANSFERFIELDS(CountryRegion);
                     END;
                   END;

    ODataKeyFields=Id;
  }
  CONTROLS
  {
    { 1   ;0   ;Container ;
                ContainerType=ContentArea }

    { 2   ;1   ;Group     ;
                Name=Group;
                GroupType=Repeater }

    { 3   ;2   ;Field     ;
                Name=id;
                CaptionML=[@@@={Locked};
                           ENU=Id;
                           ENG=Id];
                ApplicationArea=#All;
                SourceExpr=Id }

    { 4   ;2   ;Field     ;
                Name=code;
                CaptionML=[@@@={Locked};
                           ENU=Code;
                           ENG=Code];
                ApplicationArea=#All;
                SourceExpr=Code;
                OnValidate=BEGIN
                             RegisterFieldSet(FIELDNO(Code));
                           END;
                            }

    { 5   ;2   ;Field     ;
                Name=displayName;
                CaptionML=[@@@={Locked};
                           ENU=Name;
                           ENG=Name];
                ApplicationArea=#All;
                SourceExpr=Name;
                OnValidate=BEGIN
                             RegisterFieldSet(FIELDNO(Name));
                           END;
                            }

    { 6   ;2   ;Field     ;
                Name=addressFormat;
                CaptionML=[@@@={Locked};
                           ENU=AddressFormat;
                           ENG=AddressFormat];
                ApplicationArea=#All;
                SourceExpr="Address Format";
                OnValidate=BEGIN
                             RegisterFieldSet(FIELDNO("Address Format"));
                           END;
                            }

    { 7   ;2   ;Field     ;
                Name=lastModifiedDateTime;
                CaptionML=[@@@={Locked};
                           ENU=LastModifiedDateTime;
                           ENG=LastModifiedDateTime];
                ApplicationArea=#All;
                SourceExpr="Last Modified Date Time" }

  }
  CODE
  {
    VAR
      TempFieldSet@1000 : TEMPORARY Record 2000000041;

    LOCAL PROCEDURE RegisterFieldSet@11(FieldNo@1000 : Integer);
    BEGIN
      IF TempFieldSet.GET(DATABASE::"Country/Region",FieldNo) THEN
        EXIT;

      TempFieldSet.INIT;
      TempFieldSet.TableNo := DATABASE::"Country/Region";
      TempFieldSet.VALIDATE("No.",FieldNo);
      TempFieldSet.INSERT(TRUE);
    END;

    BEGIN
    END.
  }
}

