OBJECT Page 5134 Contact Duplicates
{
  OBJECT-PROPERTIES
  {
    Date=22/11/17;
    Time=12:00:00;
    Version List=NAVW111.00;
  }
  PROPERTIES
  {
    CaptionML=[ENU=Contact Duplicates;
               ENG=Contact Duplicates];
    InsertAllowed=No;
    DeleteAllowed=No;
    SourceTable=Table5085;
    DataCaptionFields=Contact No.;
    PageType=List;
    ActionList=ACTIONS
    {
      { 3       ;    ;ActionContainer;
                      ActionContainerType=ActionItems }
      { 5       ;1   ;Action    ;
                      Name=GenerateDuplicateSearchString;
                      CaptionML=[ENU=Generate Duplicate Search String;
                                 ENG=Generate Duplicate Search String];
                      ToolTipML=[ENU=Create a duplicate search string for contacts to be used when searching for duplicate contact entries.;
                                 ENG=Create a duplicate search string for contacts to be used when searching for duplicate contact entries.];
                      ApplicationArea=#RelationshipMgmt;
                      Promoted=Yes;
                      PromotedIsBig=Yes;
                      Image=CompareContacts;
                      PromotedCategory=Process;
                      PromotedOnly=Yes;
                      OnAction=BEGIN
                                 REPORT.RUN(REPORT::"Generate Dupl. Search String");
                               END;
                                }
      { 7       ;1   ;Action    ;
                      Name=ContactDuplicateDetails;
                      CaptionML=[ENU=View;
                                 ENG=View];
                      ToolTipML=[ENU=View details of the contacts that were detected as duplicates.;
                                 ENG=View details of the contacts that were detected as duplicates.];
                      ApplicationArea=#RelationshipMgmt;
                      Promoted=Yes;
                      PromotedIsBig=Yes;
                      Image=View;
                      PromotedCategory=Process;
                      PromotedOnly=Yes;
                      OnAction=VAR
                                 ContactDuplicateDetails@1000 : Page 5192;
                               BEGIN
                                 ContactDuplicateDetails.SetContactNo("Contact No.","Duplicate Contact No.");
                                 ContactDuplicateDetails.RUN;
                               END;
                                }
    }
  }
  CONTROLS
  {
    { 1900000001;0;Container;
                ContainerType=ContentArea }

    { 1   ;1   ;Group     ;
                GroupType=Repeater }

    { 2   ;2   ;Field     ;
                ToolTipML=[ENU=Specifies the number of the contact for which a duplicate has been found.;
                           ENG=Specifies the number of the contact for which a duplicate has been found.];
                ApplicationArea=#All;
                SourceExpr="Contact No." }

    { 4   ;2   ;Field     ;
                DrillDown=No;
                ToolTipML=[ENU=Specifies the name of the contact for which a duplicate has been found.;
                           ENG=Specifies the name of the contact for which a duplicate has been found.];
                ApplicationArea=#RelationshipMgmt;
                SourceExpr="Contact Name" }

    { 6   ;2   ;Field     ;
                ToolTipML=[ENU=Specifies the contact number of the duplicate that was found.;
                           ENG=Specifies the contact number of the duplicate that was found.];
                ApplicationArea=#All;
                SourceExpr="Duplicate Contact No." }

    { 8   ;2   ;Field     ;
                DrillDown=No;
                ToolTipML=[ENU=Specifies the name of the contact that has been identified as a possible duplicate.;
                           ENG=Specifies the name of the contact that has been identified as a possible duplicate.];
                ApplicationArea=#RelationshipMgmt;
                SourceExpr="Duplicate Contact Name";
                DrillDownPageID=Contact Card }

    { 10  ;2   ;Field     ;
                ToolTipML=[ENU=Specifies that the two contacts are not true duplicates, but separate contacts.;
                           ENG=Specifies that the two contacts are not true duplicates, but separate contacts.];
                ApplicationArea=#RelationshipMgmt;
                SourceExpr="Separate Contacts";
                OnValidate=BEGIN
                             SeparateContactsOnAfterValidat;
                           END;
                            }

    { 1900000007;0;Container;
                ContainerType=FactBoxArea }

    { 1900383207;1;Part   ;
                Visible=FALSE;
                PartType=System;
                SystemPartID=RecordLinks }

    { 1905767507;1;Part   ;
                Visible=FALSE;
                PartType=System;
                SystemPartID=Notes }

  }
  CODE
  {

    LOCAL PROCEDURE SeparateContactsOnAfterValidat@19026038();
    BEGIN
      CurrPage.UPDATE;
    END;

    BEGIN
    END.
  }
}

