OBJECT Page 5051 Contact Card Subform
{
  OBJECT-PROPERTIES
  {
    Date=22/11/17;
    Time=12:00:00;
    Version List=NAVW111.00;
  }
  PROPERTIES
  {
    Editable=No;
    CaptionML=[ENU=Lines;
               ENG=Lines];
    LinksAllowed=No;
    SourceTable=Table5089;
    SourceTableView=SORTING(Contact No.,Answer Priority,Profile Questionnaire Priority)
                    ORDER(Descending)
                    WHERE(Answer Priority=FILTER(<>'Very Low (Hidden)'));
    PageType=ListPart;
  }
  CONTROLS
  {
    { 1900000001;0;Container;
                ContainerType=ContentArea }

    { 1   ;1   ;Group     ;
                GroupType=Repeater }

    { 8   ;2   ;Field     ;
                ToolTipML=[ENU=Specifies the priority of the profile answer. There are five options:;
                           ENG=Specifies the priority of the profile answer. There are five options:];
                ApplicationArea=#Advanced;
                SourceExpr="Answer Priority";
                Visible=FALSE }

    { 10  ;2   ;Field     ;
                ToolTipML=[ENU=Specifies the priority of the questionnaire that the profile answer is linked to. There are five options: Very Low, Low, Normal, High, and Very High.;
                           ENG=Specifies the priority of the questionnaire that the profile answer is linked to. There are five options: Very Low, Low, Normal, High, and Very High.];
                ApplicationArea=#Advanced;
                SourceExpr="Profile Questionnaire Priority";
                Visible=FALSE }

    { 6   ;2   ;Field     ;
                CaptionML=[ENU=Question;
                           ENG=Question];
                ToolTipML=[ENU=Specifies the question in the profile questionnaire.;
                           ENG=Specifies the question in the profile questionnaire.];
                ApplicationArea=#RelationshipMgmt;
                SourceExpr=Question }

    { 4   ;2   ;Field     ;
                DrillDown=No;
                ToolTipML=[ENU=Specifies your contact's answer to the question.;
                           ENG=Specifies your contact's answer to the question.];
                ApplicationArea=#RelationshipMgmt;
                SourceExpr=Answer;
                OnAssistEdit=VAR
                               ContactProfileAnswer@1005 : Record 5089;
                               Rating@1004 : Record 5111;
                               RatingTemp@1003 : TEMPORARY Record 5111;
                               ProfileQuestionnaireLine@1002 : Record 5088;
                               Contact@1001 : Record 5050;
                               ProfileManagement@1000 : Codeunit 5059;
                             BEGIN
                               ProfileQuestionnaireLine.GET("Profile Questionnaire Code","Line No.");
                               ProfileQuestionnaireLine.GET("Profile Questionnaire Code",ProfileQuestionnaireLine.FindQuestionLine);
                               IF ProfileQuestionnaireLine."Auto Contact Classification" THEN BEGIN
                                 IF ProfileQuestionnaireLine."Contact Class. Field" = ProfileQuestionnaireLine."Contact Class. Field"::Rating THEN BEGIN
                                   Rating.SETRANGE("Profile Questionnaire Code","Profile Questionnaire Code");
                                   Rating.SETRANGE("Profile Questionnaire Line No.",ProfileQuestionnaireLine."Line No.");
                                   IF Rating.FIND('-') THEN
                                     REPEAT
                                       IF ContactProfileAnswer.GET(
                                            "Contact No.",Rating."Rating Profile Quest. Code",Rating."Rating Profile Quest. Line No.")
                                       THEN BEGIN
                                         RatingTemp := Rating;
                                         RatingTemp.INSERT;
                                       END;
                                     UNTIL Rating.NEXT = 0;

                                   IF NOT RatingTemp.ISEMPTY THEN
                                     PAGE.RUNMODAL(PAGE::"Answer Points List",RatingTemp)
                                   ELSE
                                     MESSAGE(Text001);
                                 END ELSE
                                   MESSAGE(Text002,"Last Date Updated");
                               END ELSE BEGIN
                                 Contact.GET("Contact No.");
                                 ProfileManagement.ShowContactQuestionnaireCard(Contact,"Profile Questionnaire Code","Line No.");
                                 CurrPage.UPDATE(FALSE);
                               END;
                             END;
                              }

    { 12  ;2   ;Field     ;
                ToolTipML=[ENU=Specifies the number of questions in percentage of total questions that have scored points based on the question you used for your rating.;
                           ENG=Specifies the number of questions in percentage of total questions that have scored points based on the question you used for your rating.];
                ApplicationArea=#RelationshipMgmt;
                SourceExpr="Questions Answered (%)" }

    { 2   ;2   ;Field     ;
                ToolTipML=[ENU=Specifies the date when the contact profile answer was last updated. This field shows the first date when the questions used to rate this contact has been given points.;
                           ENG=Specifies the date when the contact profile answer was last updated. This field shows the first date when the questions used to rate this contact has been given points.];
                ApplicationArea=#RelationshipMgmt;
                SourceExpr="Last Date Updated" }

  }
  CODE
  {
    VAR
      Text001@1000 : TextConst 'ENU=There are no answer values for this rating answer.;ENG=There are no answer values for this rating answer.';
      Text002@1001 : TextConst 'ENU=This answer reflects the state of the contact on %1 when the Update Contact Class. batch job was run.\To make the answer reflect the current state of the contact, run the batch job again.;ENG=This answer reflects the state of the contact on %1 when the Update Contact Class. batch job was run.\To make the answer reflect the current state of the contact, run the batch job again.';

    BEGIN
    END.
  }
}

