OBJECT Page 5754 Report Selection - Inventory
{
  OBJECT-PROPERTIES
  {
    Date=21/12/17;
    Time=12:00:00;
    Version List=NAVW111.00.00.19846;
  }
  PROPERTIES
  {
    CaptionML=[ENU=Report Selection - Inventory;
               ENG=Report Selection - Inventory];
    SaveValues=Yes;
    SourceTable=Table77;
    PageType=Worksheet;
    OnOpenPage=BEGIN
                 SetUsageFilter(FALSE);
               END;

    OnNewRecord=BEGIN
                  NewRecord;
                END;

  }
  CONTROLS
  {
    { 1900000001;0;Container;
                ContainerType=ContentArea }

    { 11  ;1   ;Field     ;
                CaptionML=[ENU=Usage;
                           ENG=Usage];
                ToolTipML=[ENU=Specifies which type of document the report is used for.;
                           ENG=Specifies which type of document the report is used for.];
                OptionCaptionML=[ENU=Transfer Order,Transfer Shipment,Transfer Receipt,Inventory Period Test,Assembly Order,Posted Assembly Order;
                                 ENG=Transfer Order,Transfer Shipment,Transfer Receipt,Inventory Period Test,Assembly Order,Posted Assembly Order];
                ApplicationArea=#Basic,#Suite;
                SourceExpr=ReportUsage2;
                OnValidate=BEGIN
                             SetUsageFilter(TRUE);
                           END;
                            }

    { 1   ;1   ;Group     ;
                GroupType=Repeater }

    { 2   ;2   ;Field     ;
                ToolTipML=[ENU=Specifies a number that indicates where this report is in the printing order.;
                           ENG=Specifies a number that indicates where this report is in the printing order.];
                ApplicationArea=#Basic,#Suite;
                SourceExpr=Sequence }

    { 9   ;2   ;Field     ;
                ToolTipML=[ENU=Specifies the object ID of the report.;
                           ENG=Specifies the object ID of the report.];
                ApplicationArea=#Basic,#Suite;
                SourceExpr="Report ID";
                LookupPageID=Objects }

    { 4   ;2   ;Field     ;
                DrillDown=No;
                ToolTipML=[ENU=Specifies the display name of the report.;
                           ENG=Specifies the display name of the report.];
                ApplicationArea=#Basic,#Suite;
                SourceExpr="Report Caption";
                LookupPageID=Objects }

    { 1900000007;0;Container;
                ContainerType=FactBoxArea }

    { 1900383207;1;Part   ;
                Visible=FALSE;
                PartType=System;
                SystemPartID=RecordLinks }

    { 1905767507;1;Part   ;
                Visible=FALSE;
                PartType=System;
                SystemPartID=Notes }

  }
  CODE
  {
    VAR
      ReportUsage2@1000 : 'Transfer Order,Transfer Shipment,Transfer Receipt,Inventory Period Test,Assembly Order,Posted Assembly Order';

    LOCAL PROCEDURE SetUsageFilter@1(ModifyRec@1000 : Boolean);
    BEGIN
      IF ModifyRec THEN
        IF MODIFY THEN;
      FILTERGROUP(2);
      CASE ReportUsage2 OF
        ReportUsage2::"Transfer Order":
          SETRANGE(Usage,Usage::Inv1);
        ReportUsage2::"Transfer Shipment":
          SETRANGE(Usage,Usage::Inv2);
        ReportUsage2::"Transfer Receipt":
          SETRANGE(Usage,Usage::Inv3);
        ReportUsage2::"Inventory Period Test":
          SETRANGE(Usage,Usage::"Invt. Period Test");
        ReportUsage2::"Assembly Order":
          SETRANGE(Usage,Usage::"Asm. Order");
        ReportUsage2::"Posted Assembly Order":
          SETRANGE(Usage,Usage::"P.Assembly Order");
      END;
      FILTERGROUP(0);
      CurrPage.UPDATE;
    END;

    BEGIN
    END.
  }
}

