OBJECT Page 5911 Service Comment Sheet
{
  OBJECT-PROPERTIES
  {
    Date=22/11/17;
    Time=12:00:00;
    Version List=NAVW111.00;
  }
  PROPERTIES
  {
    CaptionML=[ENU=Service Comment Sheet;
               ENG=Service Comment Sheet];
    LinksAllowed=No;
    SourceTable=Table5906;
    PageType=List;
    AutoSplitKey=Yes;
    OnOpenPage=BEGIN
                 CaptionString := CurrPage.CAPTION;
               END;

    OnNewRecord=BEGIN
                  SetUpNewLine;
                END;

    OnAfterGetCurrRecord=BEGIN
                           CurrPage.CAPTION := COPYSTR(Caption + CaptionString,1,80);
                         END;

  }
  CONTROLS
  {
    { 1900000001;0;Container;
                ContainerType=ContentArea }

    { 1   ;1   ;Group     ;
                GroupType=Repeater }

    { 7   ;2   ;Field     ;
                ToolTipML=[ENU=Specifies the date you entered the service comment.;
                           ENG=Specifies the date you entered the service comment.];
                ApplicationArea=#Service;
                SourceExpr=Date }

    { 2   ;2   ;Field     ;
                ToolTipML=[ENU=Specifies the service comment.;
                           ENG=Specifies the service comment.];
                ApplicationArea=#Service;
                SourceExpr=Comment }

  }
  CODE
  {
    VAR
      CaptionString@1000 : Text[80];

    LOCAL PROCEDURE Caption@1() : Text[100];
    VAR
      ServHeader@1000 : Record 5900;
      ServItemLine@1001 : Record 5901;
      ServContractLine@1008 : Record 5964;
      ServContract@1002 : Record 5965;
      ServCommentLine@1004 : Record 5906;
      ServItem@1005 : Record 5940;
      Loaner@1006 : Record 5913;
    BEGIN
      CLEAR(ServCommentLine);
      IF GETFILTER("Table Name") <> '' THEN
        EVALUATE(ServCommentLine."Table Name",GETFILTER("Table Name"));

      IF GETFILTER("Table Subtype") <> '' THEN
        EVALUATE(ServCommentLine."Table Subtype",GETFILTER("Table Subtype"));

      IF GETFILTER("No.") <> '' THEN
        EVALUATE(ServCommentLine."No.",GETFILTER("No."));

      IF GETFILTER(Type) <> '' THEN
        EVALUATE(ServCommentLine.Type,GETFILTER(Type));

      IF GETFILTER("Table Line No.") <> '' THEN
        EVALUATE(ServCommentLine."Table Line No.",GETFILTER("Table Line No."));

      IF ServCommentLine."Table Line No." > 0 THEN
        IF ServItemLine.GET(ServCommentLine."Table Subtype",ServCommentLine."No.",ServCommentLine."Table Line No.") THEN
          EXIT(
            STRSUBSTNO('%1 %2 %3 - %4 ',ServItemLine."Document Type",ServItemLine."Document No.",
              ServItemLine.Description,ServCommentLine.Type));

      IF ServCommentLine."Table Name" = ServCommentLine."Table Name"::"Service Header" THEN
        IF ServHeader.GET(ServCommentLine."Table Subtype",ServCommentLine."No.") THEN
          EXIT(
            STRSUBSTNO('%1 %2 %3 - %4 ',ServHeader."Document Type",ServHeader."No.",
              ServHeader.Description,ServCommentLine.Type));

      IF ServCommentLine."Table Name" = ServCommentLine."Table Name"::"Service Contract" THEN BEGIN
        IF ServContractLine.GET(ServCommentLine."Table Subtype",
             ServCommentLine."No.",ServCommentLine."Table Line No.")
        THEN
          EXIT(
            STRSUBSTNO('%1 %2 %3 - %4 ',ServContractLine."Contract Type",ServContractLine."Contract No.",
              ServContractLine.Description,ServCommentLine.Type));
      END;

      IF ServCommentLine."Table Name" = ServCommentLine."Table Name"::"Service Contract" THEN BEGIN
        IF ServContract.GET(ServCommentLine."Table Subtype",ServCommentLine."No.") THEN
          EXIT(
            STRSUBSTNO('%1 %2 %3 - %4 ',ServContract."Contract Type",
              ServContract."Contract No.",ServContract.Description,ServCommentLine.Type));
      END;

      IF ServCommentLine."Table Name" = ServCommentLine."Table Name"::"Service Item" THEN BEGIN
        IF ServItem.GET(ServCommentLine."No.") THEN
          EXIT(STRSUBSTNO('%1 %2 - %3 ',ServItem."No.",ServItem.Description,ServCommentLine.Type));
      END;

      IF ServCommentLine."Table Name" = ServCommentLine."Table Name"::Loaner THEN
        IF Loaner.GET(ServCommentLine."No.") THEN
          EXIT(STRSUBSTNO('%1 %2 - %3 ',Loaner."No.",Loaner.Description,ServCommentLine.Type));
    END;

    BEGIN
    END.
  }
}

