OBJECT Page 6405 Purchase Document Line Entity
{
  OBJECT-PROPERTIES
  {
    Date=22/11/17;
    Time=12:00:00;
    Version List=NAVW111.00;
  }
  PROPERTIES
  {
    CaptionML=[@@@={Locked};
               ENU=Purchase Document Line Entity;
               ENG=Purchase Document Line Entity];
    SourceTable=Table39;
    DelayedInsert=Yes;
    PageType=ListPart;
  }
  CONTROLS
  {
    { 1   ;0   ;Container ;
                ContainerType=ContentArea }

    { 2   ;1   ;Group     ;
                Name=Group;
                GroupType=Repeater }

    { 3   ;2   ;Field     ;
                Name=documentType;
                CaptionML=[@@@={Locked};
                           ENU=Document Type;
                           ENG=Document Type];
                ApplicationArea=#All;
                SourceExpr="Document Type" }

    { 4   ;2   ;Field     ;
                Name=buyFromVendorNumber;
                CaptionML=[@@@={Locked};
                           ENU=Buy-from Vendor No.;
                           ENG=Buy-from Vendor No.];
                ApplicationArea=#All;
                SourceExpr="Buy-from Vendor No." }

    { 5   ;2   ;Field     ;
                Name=documentNumber;
                CaptionML=[@@@={Locked};
                           ENU=Document No.;
                           ENG=Document No.];
                ApplicationArea=#All;
                SourceExpr="Document No." }

    { 6   ;2   ;Field     ;
                Name=lineNumber;
                CaptionML=[@@@={Locked};
                           ENU=Line No.;
                           ENG=Line No.];
                ApplicationArea=#All;
                SourceExpr="Line No." }

    { 7   ;2   ;Field     ;
                Name=type;
                CaptionML=[@@@={Locked};
                           ENU=Type;
                           ENG=Type];
                ApplicationArea=#All;
                SourceExpr=Type }

    { 8   ;2   ;Field     ;
                Name=number;
                CaptionML=[@@@={Locked};
                           ENU=No.;
                           ENG=No.];
                ApplicationArea=#All;
                SourceExpr="No." }

    { 9   ;2   ;Field     ;
                Name=locationCode;
                CaptionML=[@@@={Locked};
                           ENU=Location Code;
                           ENG=Location Code];
                ApplicationArea=#All;
                SourceExpr="Location Code" }

    { 10  ;2   ;Field     ;
                Name=postingGroup;
                CaptionML=[@@@={Locked};
                           ENU=Posting Group;
                           ENG=Posting Group];
                ApplicationArea=#All;
                SourceExpr="Posting Group" }

    { 11  ;2   ;Field     ;
                Name=expectedReceiptDate;
                CaptionML=[@@@={Locked};
                           ENU=Expected Receipt Date;
                           ENG=Expected Receipt Date];
                ApplicationArea=#All;
                SourceExpr="Expected Receipt Date" }

    { 12  ;2   ;Field     ;
                Name=description;
                CaptionML=[@@@={Locked};
                           ENU=Description;
                           ENG=Description];
                ApplicationArea=#All;
                SourceExpr=Description }

    { 13  ;2   ;Field     ;
                Name=description2;
                CaptionML=[@@@={Locked};
                           ENU=Description 2;
                           ENG=Description 2];
                ApplicationArea=#All;
                SourceExpr="Description 2" }

    { 14  ;2   ;Field     ;
                Name=unitOfMeasure;
                CaptionML=[@@@={Locked};
                           ENU=Unit of Measure;
                           ENG=Unit of Measure];
                ApplicationArea=#All;
                SourceExpr="Unit of Measure" }

    { 15  ;2   ;Field     ;
                Name=quantity;
                CaptionML=[@@@={Locked};
                           ENU=Quantity;
                           ENG=Quantity];
                ApplicationArea=#All;
                SourceExpr=Quantity }

    { 16  ;2   ;Field     ;
                Name=outstandingQuantity;
                CaptionML=[@@@={Locked};
                           ENU=Outstanding Quantity;
                           ENG=Outstanding Quantity];
                ApplicationArea=#All;
                SourceExpr="Outstanding Quantity" }

    { 17  ;2   ;Field     ;
                Name=qtyToInvoice;
                CaptionML=[@@@={Locked};
                           ENU=Qty. to Invoice;
                           ENG=Qty. to Invoice];
                ApplicationArea=#All;
                SourceExpr="Qty. to Invoice" }

    { 18  ;2   ;Field     ;
                Name=qtyToReceive;
                CaptionML=[@@@={Locked};
                           ENU=Qty. to Receive;
                           ENG=Qty. to Receive];
                ApplicationArea=#All;
                SourceExpr="Qty. to Receive" }

    { 19  ;2   ;Field     ;
                Name=directUnitCost;
                CaptionML=[@@@={Locked};
                           ENU=Direct Unit Cost;
                           ENG=Direct Unit Cost];
                ApplicationArea=#All;
                SourceExpr="Direct Unit Cost" }

    { 20  ;2   ;Field     ;
                Name=unitCostLcy;
                CaptionML=[@@@={Locked};
                           ENU=Unit Cost (LCY);
                           ENG=Unit Cost (LCY)];
                ApplicationArea=#All;
                SourceExpr="Unit Cost (LCY)" }

    { 21  ;2   ;Field     ;
                Name=vatPercent;
                CaptionML=[@@@={Locked};
                           ENU=VAT %;
                           ENG=VAT %];
                ApplicationArea=#All;
                SourceExpr="VAT %" }

    { 22  ;2   ;Field     ;
                Name=lineDiscountPercent;
                CaptionML=[@@@={Locked};
                           ENU=Line Discount %;
                           ENG=Line Discount %];
                ApplicationArea=#All;
                SourceExpr="Line Discount %" }

    { 23  ;2   ;Field     ;
                Name=lineDiscountAmount;
                CaptionML=[@@@={Locked};
                           ENU=Line Discount Amount;
                           ENG=Line Discount Amount];
                ApplicationArea=#All;
                SourceExpr="Line Discount Amount" }

    { 24  ;2   ;Field     ;
                Name=amount;
                CaptionML=[@@@={Locked};
                           ENU=Amount;
                           ENG=Amount];
                ApplicationArea=#All;
                SourceExpr=Amount }

    { 25  ;2   ;Field     ;
                Name=amountIncludingVat;
                CaptionML=[@@@={Locked};
                           ENU=Amount Including VAT;
                           ENG=Amount Including VAT];
                ApplicationArea=#All;
                SourceExpr="Amount Including VAT" }

    { 26  ;2   ;Field     ;
                Name=unitPriceLcy;
                CaptionML=[@@@={Locked};
                           ENU=Unit Price (LCY);
                           ENG=Unit Price (LCY)];
                ApplicationArea=#All;
                SourceExpr="Unit Price (LCY)" }

    { 27  ;2   ;Field     ;
                Name=allowInvoiceDisc;
                CaptionML=[@@@={Locked};
                           ENU=Allow Invoice Disc.;
                           ENG=Allow Invoice Disc.];
                ApplicationArea=#All;
                SourceExpr="Allow Invoice Disc." }

    { 28  ;2   ;Field     ;
                Name=grossWeight;
                CaptionML=[@@@={Locked};
                           ENU=Gross Weight;
                           ENG=Gross Weight];
                ApplicationArea=#All;
                SourceExpr="Gross Weight" }

    { 29  ;2   ;Field     ;
                Name=netWeight;
                CaptionML=[@@@={Locked};
                           ENU=Net Weight;
                           ENG=Net Weight];
                ApplicationArea=#All;
                SourceExpr="Net Weight" }

    { 30  ;2   ;Field     ;
                Name=unitsPerParcel;
                CaptionML=[@@@={Locked};
                           ENU=Units per Parcel;
                           ENG=Units per Parcel];
                ApplicationArea=#All;
                SourceExpr="Units per Parcel" }

    { 31  ;2   ;Field     ;
                Name=unitVolume;
                CaptionML=[@@@={Locked};
                           ENU=Unit Volume;
                           ENG=Unit Volume];
                ApplicationArea=#All;
                SourceExpr="Unit Volume" }

    { 32  ;2   ;Field     ;
                Name=applToItemEntry;
                CaptionML=[@@@={Locked};
                           ENU=Appl.-to Item Entry;
                           ENG=Appl.-to Item Entry];
                ApplicationArea=#All;
                SourceExpr="Appl.-to Item Entry" }

    { 33  ;2   ;Field     ;
                Name=shortcutDimension1Code;
                CaptionML=[@@@={Locked};
                           ENU=Shortcut Dimension 1 Code;
                           ENG=Shortcut Dimension 1 Code];
                ApplicationArea=#All;
                SourceExpr="Shortcut Dimension 1 Code" }

    { 34  ;2   ;Field     ;
                Name=shortcutDimension2Code;
                CaptionML=[@@@={Locked};
                           ENU=Shortcut Dimension 2 Code;
                           ENG=Shortcut Dimension 2 Code];
                ApplicationArea=#All;
                SourceExpr="Shortcut Dimension 2 Code" }

    { 35  ;2   ;Field     ;
                Name=jobNumber;
                CaptionML=[@@@={Locked};
                           ENU=Job No.;
                           ENG=Job No.];
                ApplicationArea=#All;
                SourceExpr="Job No." }

    { 36  ;2   ;Field     ;
                Name=indirectCostPercent;
                CaptionML=[@@@={Locked};
                           ENU=Indirect Cost %;
                           ENG=Indirect Cost %];
                ApplicationArea=#All;
                SourceExpr="Indirect Cost %" }

    { 37  ;2   ;Field     ;
                Name=recalculateInvoiceDisc;
                CaptionML=[@@@={Locked};
                           ENU=Recalculate Invoice Disc.;
                           ENG=Recalculate Invoice Disc.];
                ApplicationArea=#All;
                SourceExpr="Recalculate Invoice Disc." }

    { 38  ;2   ;Field     ;
                Name=outstandingAmount;
                CaptionML=[@@@={Locked};
                           ENU=Outstanding Amount;
                           ENG=Outstanding Amount];
                ApplicationArea=#All;
                SourceExpr="Outstanding Amount" }

    { 39  ;2   ;Field     ;
                Name=qtyRcdNotInvoiced;
                CaptionML=[@@@={Locked};
                           ENU=Qty. Rcd. Not Invoiced;
                           ENG=Qty. Rcd. Not Invoiced];
                ApplicationArea=#All;
                SourceExpr="Qty. Rcd. Not Invoiced" }

    { 40  ;2   ;Field     ;
                Name=amtRcdNotInvoiced;
                CaptionML=[@@@={Locked};
                           ENU=Amt. Rcd. Not Invoiced;
                           ENG=Amt. Rcd. Not Invoiced];
                ApplicationArea=#All;
                SourceExpr="Amt. Rcd. Not Invoiced" }

    { 41  ;2   ;Field     ;
                Name=quantityReceived;
                CaptionML=[@@@={Locked};
                           ENU=Quantity Received;
                           ENG=Quantity Received];
                ApplicationArea=#All;
                SourceExpr="Quantity Received" }

    { 42  ;2   ;Field     ;
                Name=quantityInvoiced;
                CaptionML=[@@@={Locked};
                           ENU=Quantity Invoiced;
                           ENG=Quantity Invoiced];
                ApplicationArea=#All;
                SourceExpr="Quantity Invoiced" }

    { 43  ;2   ;Field     ;
                Name=receiptNumber;
                CaptionML=[@@@={Locked};
                           ENU=Receipt No.;
                           ENG=Receipt No.];
                ApplicationArea=#All;
                SourceExpr="Receipt No." }

    { 44  ;2   ;Field     ;
                Name=receiptLineNumber;
                CaptionML=[@@@={Locked};
                           ENU=Receipt Line No.;
                           ENG=Receipt Line No.];
                ApplicationArea=#All;
                SourceExpr="Receipt Line No." }

    { 45  ;2   ;Field     ;
                Name=profitPercent;
                CaptionML=[@@@={Locked};
                           ENU=Profit %;
                           ENG=Profit %];
                ApplicationArea=#All;
                SourceExpr="Profit %" }

    { 46  ;2   ;Field     ;
                Name=payToVendorNumber;
                CaptionML=[@@@={Locked};
                           ENU=Pay-to Vendor No.;
                           ENG=Pay-to Vendor No.];
                ApplicationArea=#All;
                SourceExpr="Pay-to Vendor No." }

    { 47  ;2   ;Field     ;
                Name=invDiscountAmount;
                CaptionML=[@@@={Locked};
                           ENU=Inv. Discount Amount;
                           ENG=Inv. Discount Amount];
                ApplicationArea=#All;
                SourceExpr="Inv. Discount Amount" }

    { 48  ;2   ;Field     ;
                Name=vendorItemNumber;
                CaptionML=[@@@={Locked};
                           ENU=Vendor Item No.;
                           ENG=Vendor Item No.];
                ApplicationArea=#All;
                SourceExpr="Vendor Item No." }

    { 49  ;2   ;Field     ;
                Name=salesOrderNumber;
                CaptionML=[@@@={Locked};
                           ENU=Sales Order No.;
                           ENG=Sales Order No.];
                ApplicationArea=#All;
                SourceExpr="Sales Order No." }

    { 50  ;2   ;Field     ;
                Name=salesOrderLineNumber;
                CaptionML=[@@@={Locked};
                           ENU=Sales Order Line No.;
                           ENG=Sales Order Line No.];
                ApplicationArea=#All;
                SourceExpr="Sales Order Line No." }

    { 51  ;2   ;Field     ;
                Name=dropShipment;
                CaptionML=[@@@={Locked};
                           ENU=Drop Shipment;
                           ENG=Drop Shipment];
                ApplicationArea=#All;
                SourceExpr="Drop Shipment" }

    { 52  ;2   ;Field     ;
                Name=genBusPostingGroup;
                CaptionML=[@@@={Locked};
                           ENU=Gen. Bus. Posting Group;
                           ENG=Gen. Bus. Posting Group];
                ApplicationArea=#All;
                SourceExpr="Gen. Bus. Posting Group" }

    { 53  ;2   ;Field     ;
                Name=genProdPostingGroup;
                CaptionML=[@@@={Locked};
                           ENU=Gen. Prod. Posting Group;
                           ENG=Gen. Prod. Posting Group];
                ApplicationArea=#All;
                SourceExpr="Gen. Prod. Posting Group" }

    { 54  ;2   ;Field     ;
                Name=vatCalculationType;
                CaptionML=[@@@={Locked};
                           ENU=VAT Calculation Type;
                           ENG=VAT Calculation Type];
                ApplicationArea=#All;
                SourceExpr="VAT Calculation Type" }

    { 55  ;2   ;Field     ;
                Name=transactionType;
                CaptionML=[@@@={Locked};
                           ENU=Transaction Type;
                           ENG=Transaction Type];
                ApplicationArea=#All;
                SourceExpr="Transaction Type" }

    { 56  ;2   ;Field     ;
                Name=transportMethod;
                CaptionML=[@@@={Locked};
                           ENU=Transport Method;
                           ENG=Transport Method];
                ApplicationArea=#All;
                SourceExpr="Transport Method" }

    { 57  ;2   ;Field     ;
                Name=attachedToLineNumber;
                CaptionML=[@@@={Locked};
                           ENU=Attached to Line No.;
                           ENG=Attached to Line No.];
                ApplicationArea=#All;
                SourceExpr="Attached to Line No." }

    { 58  ;2   ;Field     ;
                Name=entryPoint;
                CaptionML=[@@@={Locked};
                           ENU=Entry Point;
                           ENG=Entry Point];
                ApplicationArea=#All;
                SourceExpr="Entry Point" }

    { 59  ;2   ;Field     ;
                Name=area;
                CaptionML=[@@@={Locked};
                           ENU=Area;
                           ENG=Area];
                ApplicationArea=#All;
                SourceExpr=Area }

    { 60  ;2   ;Field     ;
                Name=transactionSpecification;
                CaptionML=[@@@={Locked};
                           ENU=Transaction Specification;
                           ENG=Transaction Specification];
                ApplicationArea=#All;
                SourceExpr="Transaction Specification" }

    { 61  ;2   ;Field     ;
                Name=taxAreaCode;
                CaptionML=[@@@={Locked};
                           ENU=Tax Area Code;
                           ENG=Tax Area Code];
                ApplicationArea=#All;
                SourceExpr="Tax Area Code" }

    { 62  ;2   ;Field     ;
                Name=taxLiable;
                CaptionML=[@@@={Locked};
                           ENU=Tax Liable;
                           ENG=Tax Liable];
                ApplicationArea=#All;
                SourceExpr="Tax Liable" }

    { 63  ;2   ;Field     ;
                Name=taxGroupCode;
                CaptionML=[@@@={Locked};
                           ENU=Tax Group Code;
                           ENG=Tax Group Code];
                ApplicationArea=#All;
                SourceExpr="Tax Group Code" }

    { 64  ;2   ;Field     ;
                Name=useTax;
                CaptionML=[@@@={Locked};
                           ENU=Use Tax;
                           ENG=Use Tax];
                ApplicationArea=#All;
                SourceExpr="Use Tax" }

    { 65  ;2   ;Field     ;
                Name=vatBusPostingGroup;
                CaptionML=[@@@={Locked};
                           ENU=VAT Bus. Posting Group;
                           ENG=VAT Bus. Posting Group];
                ApplicationArea=#All;
                SourceExpr="VAT Bus. Posting Group" }

    { 66  ;2   ;Field     ;
                Name=vatProdPostingGroup;
                CaptionML=[@@@={Locked};
                           ENU=VAT Prod. Posting Group;
                           ENG=VAT Prod. Posting Group];
                ApplicationArea=#All;
                SourceExpr="VAT Prod. Posting Group" }

    { 67  ;2   ;Field     ;
                Name=currencyCode;
                CaptionML=[@@@={Locked};
                           ENU=Currency Code;
                           ENG=Currency Code];
                ApplicationArea=#All;
                SourceExpr="Currency Code" }

    { 68  ;2   ;Field     ;
                Name=outstandingAmountLcy;
                CaptionML=[@@@={Locked};
                           ENU=Outstanding Amount (LCY);
                           ENG=Outstanding Amount (LCY)];
                ApplicationArea=#All;
                SourceExpr="Outstanding Amount (LCY)" }

    { 69  ;2   ;Field     ;
                Name=amtRcdNotInvoicedLcy;
                CaptionML=[@@@={Locked};
                           ENU=Amt. Rcd. Not Invoiced (LCY);
                           ENG=Amt. Rcd. Not Invoiced (LCY)];
                ApplicationArea=#All;
                SourceExpr="Amt. Rcd. Not Invoiced (LCY)" }

    { 70  ;2   ;Field     ;
                Name=reservedQuantity;
                CaptionML=[@@@={Locked};
                           ENU=Reserved Quantity;
                           ENG=Reserved Quantity];
                ApplicationArea=#All;
                SourceExpr="Reserved Quantity" }

    { 71  ;2   ;Field     ;
                Name=blanketOrderNumber;
                CaptionML=[@@@={Locked};
                           ENU=Blanket Order No.;
                           ENG=Blanket Order No.];
                ApplicationArea=#All;
                SourceExpr="Blanket Order No." }

    { 72  ;2   ;Field     ;
                Name=blanketOrderLineNumber;
                CaptionML=[@@@={Locked};
                           ENU=Blanket Order Line No.;
                           ENG=Blanket Order Line No.];
                ApplicationArea=#All;
                SourceExpr="Blanket Order Line No." }

    { 73  ;2   ;Field     ;
                Name=vatBaseAmount;
                CaptionML=[@@@={Locked};
                           ENU=VAT Base Amount;
                           ENG=VAT Base Amount];
                ApplicationArea=#All;
                SourceExpr="VAT Base Amount" }

    { 74  ;2   ;Field     ;
                Name=unitCost;
                CaptionML=[@@@={Locked};
                           ENU=Unit Cost;
                           ENG=Unit Cost];
                ApplicationArea=#All;
                SourceExpr="Unit Cost" }

    { 75  ;2   ;Field     ;
                Name=systemCreatedEntry;
                CaptionML=[@@@={Locked};
                           ENU=System-Created Entry;
                           ENG=System-Created Entry];
                ApplicationArea=#All;
                SourceExpr="System-Created Entry" }

    { 76  ;2   ;Field     ;
                Name=lineAmount;
                CaptionML=[@@@={Locked};
                           ENU=Line Amount;
                           ENG=Line Amount];
                ApplicationArea=#All;
                SourceExpr="Line Amount" }

    { 77  ;2   ;Field     ;
                Name=vatDifference;
                CaptionML=[@@@={Locked};
                           ENU=VAT Difference;
                           ENG=VAT Difference];
                ApplicationArea=#All;
                SourceExpr="VAT Difference" }

    { 78  ;2   ;Field     ;
                Name=invDiscAmountToInvoice;
                CaptionML=[@@@={Locked};
                           ENU=Inv. Disc. Amount to Invoice;
                           ENG=Inv. Disc. Amount to Invoice];
                ApplicationArea=#All;
                SourceExpr="Inv. Disc. Amount to Invoice" }

    { 79  ;2   ;Field     ;
                Name=vatIdentifier;
                CaptionML=[@@@={Locked};
                           ENU=VAT Identifier;
                           ENG=VAT Identifier];
                ApplicationArea=#All;
                SourceExpr="VAT Identifier" }

    { 80  ;2   ;Field     ;
                Name=icPartnerRefType;
                CaptionML=[@@@={Locked};
                           ENU=IC Partner Ref. Type;
                           ENG=IC Partner Ref. Type];
                ApplicationArea=#All;
                SourceExpr="IC Partner Ref. Type" }

    { 81  ;2   ;Field     ;
                Name=icPartnerReference;
                CaptionML=[@@@={Locked};
                           ENU=IC Partner Reference;
                           ENG=IC Partner Reference];
                ApplicationArea=#All;
                SourceExpr="IC Partner Reference" }

    { 82  ;2   ;Field     ;
                Name=prepaymentPercent;
                CaptionML=[@@@={Locked};
                           ENU=Prepayment %;
                           ENG=Prepayment %];
                ApplicationArea=#All;
                SourceExpr="Prepayment %" }

    { 83  ;2   ;Field     ;
                Name=prepmtLineAmount;
                CaptionML=[@@@={Locked};
                           ENU=Prepmt. Line Amount;
                           ENG=Prepmt. Line Amount];
                ApplicationArea=#All;
                SourceExpr="Prepmt. Line Amount" }

    { 84  ;2   ;Field     ;
                Name=prepmtAmtInv;
                CaptionML=[@@@={Locked};
                           ENU=Prepmt. Amt. Inv.;
                           ENG=Prepmt. Amt. Inv.];
                ApplicationArea=#All;
                SourceExpr="Prepmt. Amt. Inv." }

    { 85  ;2   ;Field     ;
                Name=prepmtAmtInclVat;
                CaptionML=[@@@={Locked};
                           ENU=Prepmt. Amt. Incl. VAT;
                           ENG=Prepmt. Amt. Incl. VAT];
                ApplicationArea=#All;
                SourceExpr="Prepmt. Amt. Incl. VAT" }

    { 86  ;2   ;Field     ;
                Name=prepaymentAmount;
                CaptionML=[@@@={Locked};
                           ENU=Prepayment Amount;
                           ENG=Prepayment Amount];
                ApplicationArea=#All;
                SourceExpr="Prepayment Amount" }

    { 87  ;2   ;Field     ;
                Name=prepmtVatBaseAmt;
                CaptionML=[@@@={Locked};
                           ENU=Prepmt. VAT Base Amt.;
                           ENG=Prepmt. VAT Base Amt.];
                ApplicationArea=#All;
                SourceExpr="Prepmt. VAT Base Amt." }

    { 88  ;2   ;Field     ;
                Name=prepaymentVatPercent;
                CaptionML=[@@@={Locked};
                           ENU=Prepayment VAT %;
                           ENG=Prepayment VAT %];
                ApplicationArea=#All;
                SourceExpr="Prepayment VAT %" }

    { 89  ;2   ;Field     ;
                Name=prepmtVatCalcType;
                CaptionML=[@@@={Locked};
                           ENU=Prepmt. VAT Calc. Type;
                           ENG=Prepmt. VAT Calc. Type];
                ApplicationArea=#All;
                SourceExpr="Prepmt. VAT Calc. Type" }

    { 90  ;2   ;Field     ;
                Name=prepaymentVatIdentifier;
                CaptionML=[@@@={Locked};
                           ENU=Prepayment VAT Identifier;
                           ENG=Prepayment VAT Identifier];
                ApplicationArea=#All;
                SourceExpr="Prepayment VAT Identifier" }

    { 91  ;2   ;Field     ;
                Name=prepaymentTaxAreaCode;
                CaptionML=[@@@={Locked};
                           ENU=Prepayment Tax Area Code;
                           ENG=Prepayment Tax Area Code];
                ApplicationArea=#All;
                SourceExpr="Prepayment Tax Area Code" }

    { 92  ;2   ;Field     ;
                Name=prepaymentTaxLiable;
                CaptionML=[@@@={Locked};
                           ENU=Prepayment Tax Liable;
                           ENG=Prepayment Tax Liable];
                ApplicationArea=#All;
                SourceExpr="Prepayment Tax Liable" }

    { 93  ;2   ;Field     ;
                Name=prepaymentTaxGroupCode;
                CaptionML=[@@@={Locked};
                           ENU=Prepayment Tax Group Code;
                           ENG=Prepayment Tax Group Code];
                ApplicationArea=#All;
                SourceExpr="Prepayment Tax Group Code" }

    { 94  ;2   ;Field     ;
                Name=prepmtAmtToDeduct;
                CaptionML=[@@@={Locked};
                           ENU=Prepmt Amt to Deduct;
                           ENG=Prepmt Amt to Deduct];
                ApplicationArea=#All;
                SourceExpr="Prepmt Amt to Deduct" }

    { 95  ;2   ;Field     ;
                Name=prepmtAmtDeducted;
                CaptionML=[@@@={Locked};
                           ENU=Prepmt Amt Deducted;
                           ENG=Prepmt Amt Deducted];
                ApplicationArea=#All;
                SourceExpr="Prepmt Amt Deducted" }

    { 96  ;2   ;Field     ;
                Name=prepaymentLine;
                CaptionML=[@@@={Locked};
                           ENU=Prepayment Line;
                           ENG=Prepayment Line];
                ApplicationArea=#All;
                SourceExpr="Prepayment Line" }

    { 97  ;2   ;Field     ;
                Name=prepmtAmountInvInclVat;
                CaptionML=[@@@={Locked};
                           ENU=Prepmt. Amount Inv. Incl. VAT;
                           ENG=Prepmt. Amount Inv. Incl. VAT];
                ApplicationArea=#All;
                SourceExpr="Prepmt. Amount Inv. Incl. VAT" }

    { 98  ;2   ;Field     ;
                Name=prepmtAmountInvLcy;
                CaptionML=[@@@={Locked};
                           ENU=Prepmt. Amount Inv. (LCY);
                           ENG=Prepmt. Amount Inv. (LCY)];
                ApplicationArea=#All;
                SourceExpr="Prepmt. Amount Inv. (LCY)" }

    { 99  ;2   ;Field     ;
                Name=icPartnerCode;
                CaptionML=[@@@={Locked};
                           ENU=IC Partner Code;
                           ENG=IC Partner Code];
                ApplicationArea=#All;
                SourceExpr="IC Partner Code" }

    { 100 ;2   ;Field     ;
                Name=prepmtVatAmountInvLcy;
                CaptionML=[@@@={Locked};
                           ENU=Prepmt. VAT Amount Inv. (LCY);
                           ENG=Prepmt. VAT Amount Inv. (LCY)];
                ApplicationArea=#All;
                SourceExpr="Prepmt. VAT Amount Inv. (LCY)" }

    { 101 ;2   ;Field     ;
                Name=prepaymentVatDifference;
                CaptionML=[@@@={Locked};
                           ENU=Prepayment VAT Difference;
                           ENG=Prepayment VAT Difference];
                ApplicationArea=#All;
                SourceExpr="Prepayment VAT Difference" }

    { 102 ;2   ;Field     ;
                Name=prepmtVatDiffToDeduct;
                CaptionML=[@@@={Locked};
                           ENU=Prepmt VAT Diff. to Deduct;
                           ENG=Prepmt VAT Diff. to Deduct];
                ApplicationArea=#All;
                SourceExpr="Prepmt VAT Diff. to Deduct" }

    { 103 ;2   ;Field     ;
                Name=prepmtVatDiffDeducted;
                CaptionML=[@@@={Locked};
                           ENU=Prepmt VAT Diff. Deducted;
                           ENG=Prepmt VAT Diff. Deducted];
                ApplicationArea=#All;
                SourceExpr="Prepmt VAT Diff. Deducted" }

    { 104 ;2   ;Field     ;
                Name=outstandingAmtExVatLcy;
                CaptionML=[@@@={Locked};
                           ENU=Outstanding Amt. Ex. VAT (LCY);
                           ENG=Outstanding Amt. Ex. VAT (LCY)];
                ApplicationArea=#All;
                SourceExpr="Outstanding Amt. Ex. VAT (LCY)" }

    { 105 ;2   ;Field     ;
                Name=aRcdNotInvExVatLcy;
                CaptionML=[@@@={Locked};
                           ENU=A. Rcd. Not Inv. Ex. VAT (LCY);
                           ENG=A. Rcd. Not Inv. Ex. VAT (LCY)];
                ApplicationArea=#All;
                SourceExpr="A. Rcd. Not Inv. Ex. VAT (LCY)" }

    { 106 ;2   ;Field     ;
                Name=dimensionSetId;
                CaptionML=[@@@={Locked};
                           ENU=Dimension Set ID;
                           ENG=Dimension Set ID];
                ApplicationArea=#All;
                SourceExpr="Dimension Set ID" }

    { 107 ;2   ;Field     ;
                Name=jobTaskNumber;
                CaptionML=[@@@={Locked};
                           ENU=Job Task No.;
                           ENG=Job Task No.];
                ApplicationArea=#All;
                SourceExpr="Job Task No." }

    { 108 ;2   ;Field     ;
                Name=jobLineType;
                CaptionML=[@@@={Locked};
                           ENU=Job Line Type;
                           ENG=Job Line Type];
                ApplicationArea=#All;
                SourceExpr="Job Line Type" }

    { 109 ;2   ;Field     ;
                Name=jobUnitPrice;
                CaptionML=[@@@={Locked};
                           ENU=Job Unit Price;
                           ENG=Job Unit Price];
                ApplicationArea=#All;
                SourceExpr="Job Unit Price" }

    { 110 ;2   ;Field     ;
                Name=jobTotalPrice;
                CaptionML=[@@@={Locked};
                           ENU=Job Total Price;
                           ENG=Job Total Price];
                ApplicationArea=#All;
                SourceExpr="Job Total Price" }

    { 111 ;2   ;Field     ;
                Name=jobLineAmount;
                CaptionML=[@@@={Locked};
                           ENU=Job Line Amount;
                           ENG=Job Line Amount];
                ApplicationArea=#All;
                SourceExpr="Job Line Amount" }

    { 112 ;2   ;Field     ;
                Name=jobLineDiscountAmount;
                CaptionML=[@@@={Locked};
                           ENU=Job Line Discount Amount;
                           ENG=Job Line Discount Amount];
                ApplicationArea=#All;
                SourceExpr="Job Line Discount Amount" }

    { 113 ;2   ;Field     ;
                Name=jobLineDiscountPercent;
                CaptionML=[@@@={Locked};
                           ENU=Job Line Discount %;
                           ENG=Job Line Discount %];
                ApplicationArea=#All;
                SourceExpr="Job Line Discount %" }

    { 114 ;2   ;Field     ;
                Name=jobUnitPriceLcy;
                CaptionML=[@@@={Locked};
                           ENU=Job Unit Price (LCY);
                           ENG=Job Unit Price (LCY)];
                ApplicationArea=#All;
                SourceExpr="Job Unit Price (LCY)" }

    { 115 ;2   ;Field     ;
                Name=jobTotalPriceLcy;
                CaptionML=[@@@={Locked};
                           ENU=Job Total Price (LCY);
                           ENG=Job Total Price (LCY)];
                ApplicationArea=#All;
                SourceExpr="Job Total Price (LCY)" }

    { 116 ;2   ;Field     ;
                Name=jobLineAmountLcy;
                CaptionML=[@@@={Locked};
                           ENU=Job Line Amount (LCY);
                           ENG=Job Line Amount (LCY)];
                ApplicationArea=#All;
                SourceExpr="Job Line Amount (LCY)" }

    { 117 ;2   ;Field     ;
                Name=jobLineDiscAmountLcy;
                CaptionML=[@@@={Locked};
                           ENU=Job Line Disc. Amount (LCY);
                           ENG=Job Line Disc. Amount (LCY)];
                ApplicationArea=#All;
                SourceExpr="Job Line Disc. Amount (LCY)" }

    { 118 ;2   ;Field     ;
                Name=jobCurrencyFactor;
                CaptionML=[@@@={Locked};
                           ENU=Job Currency Factor;
                           ENG=Job Currency Factor];
                ApplicationArea=#All;
                SourceExpr="Job Currency Factor" }

    { 119 ;2   ;Field     ;
                Name=jobCurrencyCode;
                CaptionML=[@@@={Locked};
                           ENU=Job Currency Code;
                           ENG=Job Currency Code];
                ApplicationArea=#All;
                SourceExpr="Job Currency Code" }

    { 120 ;2   ;Field     ;
                Name=jobPlanningLineNumber;
                CaptionML=[@@@={Locked};
                           ENU=Job Planning Line No.;
                           ENG=Job Planning Line No.];
                ApplicationArea=#All;
                SourceExpr="Job Planning Line No." }

    { 121 ;2   ;Field     ;
                Name=jobRemainingQty;
                CaptionML=[@@@={Locked};
                           ENU=Job Remaining Qty.;
                           ENG=Job Remaining Qty.];
                ApplicationArea=#All;
                SourceExpr="Job Remaining Qty." }

    { 122 ;2   ;Field     ;
                Name=jobRemainingQtyBase;
                CaptionML=[@@@={Locked};
                           ENU=Job Remaining Qty. (Base);
                           ENG=Job Remaining Qty. (Base)];
                ApplicationArea=#All;
                SourceExpr="Job Remaining Qty. (Base)" }

    { 123 ;2   ;Field     ;
                Name=deferralCode;
                CaptionML=[@@@={Locked};
                           ENU=Deferral Code;
                           ENG=Deferral Code];
                ApplicationArea=#All;
                SourceExpr="Deferral Code" }

    { 124 ;2   ;Field     ;
                Name=returnsDeferralStartDate;
                CaptionML=[@@@={Locked};
                           ENU=Returns Deferral Start Date;
                           ENG=Returns Deferral Start Date];
                ApplicationArea=#All;
                SourceExpr="Returns Deferral Start Date" }

    { 125 ;2   ;Field     ;
                Name=prodOrderNumber;
                CaptionML=[@@@={Locked};
                           ENU=Prod. Order No.;
                           ENG=Prod. Order No.];
                ApplicationArea=#All;
                SourceExpr="Prod. Order No." }

    { 126 ;2   ;Field     ;
                Name=variantCode;
                CaptionML=[@@@={Locked};
                           ENU=Variant Code;
                           ENG=Variant Code];
                ApplicationArea=#Advanced;
                SourceExpr="Variant Code" }

    { 127 ;2   ;Field     ;
                Name=binCode;
                CaptionML=[@@@={Locked};
                           ENU=Bin Code;
                           ENG=Bin Code];
                ApplicationArea=#All;
                SourceExpr="Bin Code" }

    { 128 ;2   ;Field     ;
                Name=qtyPerUnitOfMeasure;
                CaptionML=[@@@={Locked};
                           ENU=Qty. per Unit of Measure;
                           ENG=Qty. per Unit of Measure];
                ApplicationArea=#All;
                SourceExpr="Qty. per Unit of Measure" }

    { 129 ;2   ;Field     ;
                Name=unitOfMeasureCode;
                CaptionML=[@@@={Locked};
                           ENU=Unit of Measure Code;
                           ENG=Unit of Measure Code];
                ApplicationArea=#All;
                SourceExpr="Unit of Measure Code" }

    { 130 ;2   ;Field     ;
                Name=quantityBase;
                CaptionML=[@@@={Locked};
                           ENU=Quantity (Base);
                           ENG=Quantity (Base)];
                ApplicationArea=#All;
                SourceExpr="Quantity (Base)" }

    { 131 ;2   ;Field     ;
                Name=outstandingQtyBase;
                CaptionML=[@@@={Locked};
                           ENU=Outstanding Qty. (Base);
                           ENG=Outstanding Qty. (Base)];
                ApplicationArea=#All;
                SourceExpr="Outstanding Qty. (Base)" }

    { 132 ;2   ;Field     ;
                Name=qtyToInvoiceBase;
                CaptionML=[@@@={Locked};
                           ENU=Qty. to Invoice (Base);
                           ENG=Qty. to Invoice (Base)];
                ApplicationArea=#All;
                SourceExpr="Qty. to Invoice (Base)" }

    { 133 ;2   ;Field     ;
                Name=qtyToReceiveBase;
                CaptionML=[@@@={Locked};
                           ENU=Qty. to Receive (Base);
                           ENG=Qty. to Receive (Base)];
                ApplicationArea=#All;
                SourceExpr="Qty. to Receive (Base)" }

    { 134 ;2   ;Field     ;
                Name=qtyRcdNotInvoicedBase;
                CaptionML=[@@@={Locked};
                           ENU=Qty. Rcd. Not Invoiced (Base);
                           ENG=Qty. Rcd. Not Invoiced (Base)];
                ApplicationArea=#All;
                SourceExpr="Qty. Rcd. Not Invoiced (Base)" }

    { 135 ;2   ;Field     ;
                Name=qtyReceivedBase;
                CaptionML=[@@@={Locked};
                           ENU=Qty. Received (Base);
                           ENG=Qty. Received (Base)];
                ApplicationArea=#All;
                SourceExpr="Qty. Received (Base)" }

    { 136 ;2   ;Field     ;
                Name=qtyInvoicedBase;
                CaptionML=[@@@={Locked};
                           ENU=Qty. Invoiced (Base);
                           ENG=Qty. Invoiced (Base)];
                ApplicationArea=#All;
                SourceExpr="Qty. Invoiced (Base)" }

    { 137 ;2   ;Field     ;
                Name=reservedQtyBase;
                CaptionML=[@@@={Locked};
                           ENU=Reserved Qty. (Base);
                           ENG=Reserved Qty. (Base)];
                ApplicationArea=#All;
                SourceExpr="Reserved Qty. (Base)" }

    { 138 ;2   ;Field     ;
                Name=faPostingDate;
                CaptionML=[@@@={Locked};
                           ENU=FA Posting Date;
                           ENG=FA Posting Date];
                ApplicationArea=#All;
                SourceExpr="FA Posting Date" }

    { 139 ;2   ;Field     ;
                Name=faPostingType;
                CaptionML=[@@@={Locked};
                           ENU=FA Posting Type;
                           ENG=FA Posting Type];
                ApplicationArea=#All;
                SourceExpr="FA Posting Type" }

    { 140 ;2   ;Field     ;
                Name=depreciationBookCode;
                CaptionML=[@@@={Locked};
                           ENU=Depreciation Book Code;
                           ENG=Depreciation Book Code];
                ApplicationArea=#All;
                SourceExpr="Depreciation Book Code" }

    { 141 ;2   ;Field     ;
                Name=salvageValue;
                CaptionML=[@@@={Locked};
                           ENU=Salvage Value;
                           ENG=Salvage Value];
                ApplicationArea=#All;
                SourceExpr="Salvage Value" }

    { 142 ;2   ;Field     ;
                Name=deprUntilFaPostingDate;
                CaptionML=[@@@={Locked};
                           ENU=Depr. until FA Posting Date;
                           ENG=Depr. until FA Posting Date];
                ApplicationArea=#All;
                SourceExpr="Depr. until FA Posting Date" }

    { 143 ;2   ;Field     ;
                Name=deprAcquisitionCost;
                CaptionML=[@@@={Locked};
                           ENU=Depr. Acquisition Cost;
                           ENG=Depr. Acquisition Cost];
                ApplicationArea=#All;
                SourceExpr="Depr. Acquisition Cost" }

    { 144 ;2   ;Field     ;
                Name=maintenanceCode;
                CaptionML=[@@@={Locked};
                           ENU=Maintenance Code;
                           ENG=Maintenance Code];
                ApplicationArea=#All;
                SourceExpr="Maintenance Code" }

    { 145 ;2   ;Field     ;
                Name=insuranceNumber;
                CaptionML=[@@@={Locked};
                           ENU=Insurance No.;
                           ENG=Insurance No.];
                ApplicationArea=#All;
                SourceExpr="Insurance No." }

    { 146 ;2   ;Field     ;
                Name=budgetedFaNumber;
                CaptionML=[@@@={Locked};
                           ENU=Budgeted FA No.;
                           ENG=Budgeted FA No.];
                ApplicationArea=#All;
                SourceExpr="Budgeted FA No." }

    { 147 ;2   ;Field     ;
                Name=duplicateInDepreciationBook;
                CaptionML=[@@@={Locked};
                           ENU=Duplicate in Depreciation Book;
                           ENG=Duplicate in Depreciation Book];
                ApplicationArea=#All;
                SourceExpr="Duplicate in Depreciation Book" }

    { 148 ;2   ;Field     ;
                Name=useDuplicationList;
                CaptionML=[@@@={Locked};
                           ENU=Use Duplication List;
                           ENG=Use Duplication List];
                ApplicationArea=#All;
                SourceExpr="Use Duplication List" }

    { 149 ;2   ;Field     ;
                Name=responsibilityCenter;
                CaptionML=[@@@={Locked};
                           ENU=Responsibility Center;
                           ENG=Responsibility Center];
                ApplicationArea=#All;
                SourceExpr="Responsibility Center" }

    { 150 ;2   ;Field     ;
                Name=crossReferenceNumber;
                CaptionML=[@@@={Locked};
                           ENU=Cross-Reference No.;
                           ENG=Cross-Reference No.];
                ApplicationArea=#All;
                SourceExpr="Cross-Reference No." }

    { 151 ;2   ;Field     ;
                Name=unitOfMeasureCrossRef;
                CaptionML=[@@@={Locked};
                           ENU=Unit of Measure (Cross Ref.);
                           ENG=Unit of Measure (Cross Ref.)];
                ApplicationArea=#All;
                SourceExpr="Unit of Measure (Cross Ref.)" }

    { 152 ;2   ;Field     ;
                Name=crossReferenceType;
                CaptionML=[@@@={Locked};
                           ENU=Cross-Reference Type;
                           ENG=Cross-Reference Type];
                ApplicationArea=#All;
                SourceExpr="Cross-Reference Type" }

    { 153 ;2   ;Field     ;
                Name=crossReferenceTypeNumber;
                CaptionML=[@@@={Locked};
                           ENU=Cross-Reference Type No.;
                           ENG=Cross-Reference Type No.];
                ApplicationArea=#All;
                SourceExpr="Cross-Reference Type No." }

    { 154 ;2   ;Field     ;
                Name=itemCategoryCode;
                CaptionML=[@@@={Locked};
                           ENU=Item Category Code;
                           ENG=Item Category Code];
                ApplicationArea=#All;
                SourceExpr="Item Category Code" }

    { 155 ;2   ;Field     ;
                Name=nonstock;
                CaptionML=[@@@={Locked};
                           ENU=Nonstock;
                           ENG=Nonstock];
                ApplicationArea=#All;
                SourceExpr=Nonstock }

    { 156 ;2   ;Field     ;
                Name=purchasingCode;
                CaptionML=[@@@={Locked};
                           ENU=Purchasing Code;
                           ENG=Purchasing Code];
                ApplicationArea=#All;
                SourceExpr="Purchasing Code" }

    { 157 ;2   ;Field     ;
                Name=productGroupCode;
                CaptionML=[@@@={Locked};
                           ENU=Product Group Code;
                           ENG=Product Group Code];
                ApplicationArea=#All;
                SourceExpr="Product Group Code" }

    { 158 ;2   ;Field     ;
                Name=specialOrder;
                CaptionML=[@@@={Locked};
                           ENU=Special Order;
                           ENG=Special Order];
                ApplicationArea=#All;
                SourceExpr="Special Order" }

    { 159 ;2   ;Field     ;
                Name=specialOrderSalesNumber;
                CaptionML=[@@@={Locked};
                           ENU=Special Order Sales No.;
                           ENG=Special Order Sales No.];
                ApplicationArea=#All;
                SourceExpr="Special Order Sales No." }

    { 160 ;2   ;Field     ;
                Name=specialOrderSalesLineNumber;
                CaptionML=[@@@={Locked};
                           ENU=Special Order Sales Line No.;
                           ENG=Special Order Sales Line No.];
                ApplicationArea=#All;
                SourceExpr="Special Order Sales Line No." }

    { 161 ;2   ;Field     ;
                Name=whseOutstandingQtyBase;
                CaptionML=[@@@={Locked};
                           ENU=Whse. Outstanding Qty. (Base);
                           ENG=Whse. Outstanding Qty. (Base)];
                ApplicationArea=#All;
                SourceExpr="Whse. Outstanding Qty. (Base)" }

    { 162 ;2   ;Field     ;
                Name=completelyReceived;
                CaptionML=[@@@={Locked};
                           ENU=Completely Received;
                           ENG=Completely Received];
                ApplicationArea=#All;
                SourceExpr="Completely Received" }

    { 163 ;2   ;Field     ;
                Name=requestedReceiptDate;
                CaptionML=[@@@={Locked};
                           ENU=Requested Receipt Date;
                           ENG=Requested Receipt Date];
                ApplicationArea=#All;
                SourceExpr="Requested Receipt Date" }

    { 164 ;2   ;Field     ;
                Name=promisedReceiptDate;
                CaptionML=[@@@={Locked};
                           ENU=Promised Receipt Date;
                           ENG=Promised Receipt Date];
                ApplicationArea=#All;
                SourceExpr="Promised Receipt Date" }

    { 165 ;2   ;Field     ;
                Name=leadTimeCalculation;
                CaptionML=[@@@={Locked};
                           ENU=Lead Time Calculation;
                           ENG=Lead Time Calculation];
                ApplicationArea=#All;
                SourceExpr="Lead Time Calculation" }

    { 166 ;2   ;Field     ;
                Name=inboundWhseHandlingTime;
                CaptionML=[@@@={Locked};
                           ENU=Inbound Whse. Handling Time;
                           ENG=Inbound Whse. Handling Time];
                ApplicationArea=#All;
                SourceExpr="Inbound Whse. Handling Time" }

    { 167 ;2   ;Field     ;
                Name=plannedReceiptDate;
                CaptionML=[@@@={Locked};
                           ENU=Planned Receipt Date;
                           ENG=Planned Receipt Date];
                ApplicationArea=#All;
                SourceExpr="Planned Receipt Date" }

    { 168 ;2   ;Field     ;
                Name=orderDate;
                CaptionML=[@@@={Locked};
                           ENU=Order Date;
                           ENG=Order Date];
                ApplicationArea=#All;
                SourceExpr="Order Date" }

    { 169 ;2   ;Field     ;
                Name=allowItemChargeAssignment;
                CaptionML=[@@@={Locked};
                           ENU=Allow Item Charge Assignment;
                           ENG=Allow Item Charge Assignment];
                ApplicationArea=#All;
                SourceExpr="Allow Item Charge Assignment" }

    { 170 ;2   ;Field     ;
                Name=qtyToAssign;
                CaptionML=[@@@={Locked};
                           ENU=Qty. to Assign;
                           ENG=Qty. to Assign];
                ApplicationArea=#All;
                SourceExpr="Qty. to Assign" }

    { 171 ;2   ;Field     ;
                Name=qtyAssigned;
                CaptionML=[@@@={Locked};
                           ENU=Qty. Assigned;
                           ENG=Qty. Assigned];
                ApplicationArea=#All;
                SourceExpr="Qty. Assigned" }

    { 172 ;2   ;Field     ;
                Name=returnQtyToShip;
                CaptionML=[@@@={Locked};
                           ENU=Return Qty. to Ship;
                           ENG=Return Qty. to Ship];
                ApplicationArea=#All;
                SourceExpr="Return Qty. to Ship" }

    { 173 ;2   ;Field     ;
                Name=returnQtyToShipBase;
                CaptionML=[@@@={Locked};
                           ENU=Return Qty. to Ship (Base);
                           ENG=Return Qty. to Ship (Base)];
                ApplicationArea=#All;
                SourceExpr="Return Qty. to Ship (Base)" }

    { 174 ;2   ;Field     ;
                Name=returnQtyShippedNotInvd;
                CaptionML=[@@@={Locked};
                           ENU=Return Qty. Shipped Not Invd.;
                           ENG=Return Qty. Shipped Not Invd.];
                ApplicationArea=#All;
                SourceExpr="Return Qty. Shipped Not Invd." }

    { 175 ;2   ;Field     ;
                Name=retQtyShpdNotInvdBase;
                CaptionML=[@@@={Locked};
                           ENU=Ret. Qty. Shpd Not Invd.(Base);
                           ENG=Ret. Qty. Shpd Not Invd.(Base)];
                ApplicationArea=#All;
                SourceExpr="Ret. Qty. Shpd Not Invd.(Base)" }

    { 176 ;2   ;Field     ;
                Name=returnShpdNotInvd;
                CaptionML=[@@@={Locked};
                           ENU=Return Shpd. Not Invd.;
                           ENG=Return Shpd. Not Invd.];
                ApplicationArea=#All;
                SourceExpr="Return Shpd. Not Invd." }

    { 177 ;2   ;Field     ;
                Name=returnShpdNotInvdLcy;
                CaptionML=[@@@={Locked};
                           ENU=Return Shpd. Not Invd. (LCY);
                           ENG=Return Shpd. Not Invd. (LCY)];
                ApplicationArea=#All;
                SourceExpr="Return Shpd. Not Invd. (LCY)" }

    { 178 ;2   ;Field     ;
                Name=returnQtyShipped;
                CaptionML=[@@@={Locked};
                           ENU=Return Qty. Shipped;
                           ENG=Return Qty. Shipped];
                ApplicationArea=#All;
                SourceExpr="Return Qty. Shipped" }

    { 179 ;2   ;Field     ;
                Name=returnQtyShippedBase;
                CaptionML=[@@@={Locked};
                           ENU=Return Qty. Shipped (Base);
                           ENG=Return Qty. Shipped (Base)];
                ApplicationArea=#All;
                SourceExpr="Return Qty. Shipped (Base)" }

    { 180 ;2   ;Field     ;
                Name=returnShipmentNumber;
                CaptionML=[@@@={Locked};
                           ENU=Return Shipment No.;
                           ENG=Return Shipment No.];
                ApplicationArea=#All;
                SourceExpr="Return Shipment No." }

    { 181 ;2   ;Field     ;
                Name=returnShipmentLineNumber;
                CaptionML=[@@@={Locked};
                           ENU=Return Shipment Line No.;
                           ENG=Return Shipment Line No.];
                ApplicationArea=#All;
                SourceExpr="Return Shipment Line No." }

    { 182 ;2   ;Field     ;
                Name=returnReasonCode;
                CaptionML=[@@@={Locked};
                           ENU=Return Reason Code;
                           ENG=Return Reason Code];
                ApplicationArea=#All;
                SourceExpr="Return Reason Code" }

    { 183 ;2   ;Field     ;
                Name=subtype;
                CaptionML=[@@@={Locked};
                           ENU=Subtype;
                           ENG=Subtype];
                ApplicationArea=#All;
                SourceExpr=Subtype }

    { 184 ;2   ;Field     ;
                Name=routingNumber;
                CaptionML=[@@@={Locked};
                           ENU=Routing No.;
                           ENG=Routing No.];
                ApplicationArea=#All;
                SourceExpr="Routing No." }

    { 185 ;2   ;Field     ;
                Name=operationNumber;
                CaptionML=[@@@={Locked};
                           ENU=Operation No.;
                           ENG=Operation No.];
                ApplicationArea=#All;
                SourceExpr="Operation No." }

    { 186 ;2   ;Field     ;
                Name=workCenterNumber;
                CaptionML=[@@@={Locked};
                           ENU=Work Center No.;
                           ENG=Work Center No.];
                ApplicationArea=#All;
                SourceExpr="Work Center No." }

    { 187 ;2   ;Field     ;
                Name=finished;
                CaptionML=[@@@={Locked};
                           ENU=Finished;
                           ENG=Finished];
                ApplicationArea=#All;
                SourceExpr=Finished }

    { 188 ;2   ;Field     ;
                Name=prodOrderLineNumber;
                CaptionML=[@@@={Locked};
                           ENU=Prod. Order Line No.;
                           ENG=Prod. Order Line No.];
                ApplicationArea=#All;
                SourceExpr="Prod. Order Line No." }

    { 189 ;2   ;Field     ;
                Name=overheadRate;
                CaptionML=[@@@={Locked};
                           ENU=Overhead Rate;
                           ENG=Overhead Rate];
                ApplicationArea=#All;
                SourceExpr="Overhead Rate" }

    { 190 ;2   ;Field     ;
                Name=mpsOrder;
                CaptionML=[@@@={Locked};
                           ENU=MPS Order;
                           ENG=MPS Order];
                ApplicationArea=#All;
                SourceExpr="MPS Order" }

    { 191 ;2   ;Field     ;
                Name=planningFlexibility;
                CaptionML=[@@@={Locked};
                           ENU=Planning Flexibility;
                           ENG=Planning Flexibility];
                ApplicationArea=#All;
                SourceExpr="Planning Flexibility" }

    { 192 ;2   ;Field     ;
                Name=safetyLeadTime;
                CaptionML=[@@@={Locked};
                           ENU=Safety Lead Time;
                           ENG=Safety Lead Time];
                ApplicationArea=#All;
                SourceExpr="Safety Lead Time" }

    { 193 ;2   ;Field     ;
                Name=routingReferenceNumber;
                CaptionML=[@@@={Locked};
                           ENU=Routing Reference No.;
                           ENG=Routing Reference No.];
                ApplicationArea=#All;
                SourceExpr="Routing Reference No." }

  }
  CODE
  {

    BEGIN
    END.
  }
}

