OBJECT Page 617 Handled IC Inbox Transactions
{
  OBJECT-PROPERTIES
  {
    Date=22/11/17;
    Time=12:00:00;
    Version List=NAVW111.00;
  }
  PROPERTIES
  {
    CaptionML=[ENU=Handled IC Inbox Transactions;
               ENG=Handled IC Inbox Transactions];
    InsertAllowed=No;
    ModifyAllowed=No;
    SourceTable=Table420;
    PageType=List;
    PromotedActionCategoriesML=[ENU=New,Process,Report,Functions,Outbox Transaction;
                                ENG=New,Process,Report,Functions,Outbox Transaction];
    ActionList=ACTIONS
    {
      { 1900000003;0 ;ActionContainer;
                      ActionContainerType=RelatedInformation }
      { 21      ;1   ;ActionGroup;
                      CaptionML=[ENU=&Inbox Transaction;
                                 ENG=&Inbox Transaction];
                      Image=Import }
      { 23      ;2   ;Action    ;
                      CaptionML=[ENU=Details;
                                 ENG=Details];
                      ToolTipML=[ENU=View transaction details.;
                                 ENG=View transaction details.];
                      ApplicationArea=#Intercompany;
                      Promoted=Yes;
                      Image=View;
                      PromotedCategory=Category5;
                      PromotedOnly=Yes;
                      OnAction=BEGIN
                                 ShowDetails;
                               END;
                                }
      { 24      ;2   ;Action    ;
                      CaptionML=[ENU=Comments;
                                 ENG=Comments];
                      ToolTipML=[ENU=View or add comments for the record.;
                                 ENG=View or add comments for the record.];
                      ApplicationArea=#Intercompany;
                      RunObject=Page 620;
                      RunPageLink=Table Name=CONST(Handled IC Inbox Transaction),
                                  Transaction No.=FIELD(Transaction No.),
                                  IC Partner Code=FIELD(IC Partner Code),
                                  Transaction Source=FIELD(Transaction Source);
                      Promoted=Yes;
                      Image=ViewComments;
                      PromotedCategory=Category5;
                      PromotedOnly=Yes }
      { 1900000004;0 ;ActionContainer;
                      ActionContainerType=ActionItems }
      { 25      ;1   ;ActionGroup;
                      CaptionML=[ENU=F&unctions;
                                 ENG=F&unctions];
                      Image=Action }
      { 28      ;2   ;Action    ;
                      CaptionML=[ENU=Re-create Inbox Transaction;
                                 ENG=Re-create Inbox Transaction];
                      ToolTipML=[ENU=Re-creates a transaction in the inbox. For example, if you accepted a transaction in your inbox but then deleted the document or journal instead of posting it, you can re-create the inbox entry and accept it again.;
                                 ENG=Re-creates a transaction in the inbox. For example, if you accepted a transaction in your inbox but then deleted the document or journal instead of posting it, you can re-create the inbox entry and accept it again.];
                      ApplicationArea=#Intercompany;
                      Promoted=Yes;
                      Image=NewStatusChange;
                      PromotedCategory=Category4;
                      PromotedOnly=Yes;
                      OnAction=VAR
                                 InboxOutboxMgt@1000 : Codeunit 427;
                               BEGIN
                                 InboxOutboxMgt.RecreateInboxTransaction(Rec);
                                 CurrPage.UPDATE;
                               END;
                                }
    }
  }
  CONTROLS
  {
    { 1900000001;0;Container;
                ContainerType=ContentArea }

    { 1   ;1   ;Group     ;
                GroupType=Repeater }

    { 2   ;2   ;Field     ;
                ToolTipML=[ENU=Specifies the transaction's entry number.;
                           ENG=Specifies the transaction's entry number.];
                ApplicationArea=#Intercompany;
                SourceExpr="Transaction No.";
                Editable=FALSE }

    { 4   ;2   ;Field     ;
                ToolTipML=[ENU=Specifies the code of the intercompany partner that the transaction is related to if the entry was created from an intercompany transaction.;
                           ENG=Specifies the code of the intercompany partner that the transaction is related to if the entry was created from an intercompany transaction.];
                ApplicationArea=#Intercompany;
                SourceExpr="IC Partner Code";
                Editable=FALSE }

    { 8   ;2   ;Field     ;
                ToolTipML=[ENU=Specifies what action has been taken on the transaction.;
                           ENG=Specifies what action has been taken on the transaction.];
                ApplicationArea=#Intercompany;
                SourceExpr=Status;
                Editable=FALSE }

    { 6   ;2   ;Field     ;
                ToolTipML=[ENU=Specifies whether the transaction was created in a journal, a sales document, or a purchase document.;
                           ENG=Specifies whether the transaction was created in a journal, a sales document, or a purchase document.];
                ApplicationArea=#Intercompany;
                SourceExpr="Source Type";
                Editable=FALSE }

    { 10  ;2   ;Field     ;
                ToolTipML=[ENU=Specifies the type of the related document.;
                           ENG=Specifies the type of the related document.];
                ApplicationArea=#Intercompany;
                SourceExpr="Document Type";
                Editable=FALSE }

    { 12  ;2   ;Field     ;
                ToolTipML=[ENU=Specifies the number of the related document.;
                           ENG=Specifies the number of the related document.];
                ApplicationArea=#Intercompany;
                SourceExpr="Document No.";
                Editable=FALSE }

    { 14  ;2   ;Field     ;
                ToolTipML=[ENU=Specifies the entry's posting date.;
                           ENG=Specifies the entry's posting date.];
                ApplicationArea=#Intercompany;
                SourceExpr="Posting Date";
                Editable=FALSE }

    { 16  ;2   ;Field     ;
                ToolTipML=[ENU=Specifies which company created the transaction.;
                           ENG=Specifies which company created the transaction.];
                ApplicationArea=#Intercompany;
                SourceExpr="Transaction Source";
                Editable=FALSE }

    { 18  ;2   ;Field     ;
                ToolTipML=[ENU=Specifies the date when the related document was created.;
                           ENG=Specifies the date when the related document was created.];
                ApplicationArea=#Intercompany;
                SourceExpr="Document Date";
                Editable=FALSE }

    { 1900000007;0;Container;
                ContainerType=FactBoxArea }

    { 1900383207;1;Part   ;
                Visible=FALSE;
                PartType=System;
                SystemPartID=RecordLinks }

    { 1905767507;1;Part   ;
                Visible=FALSE;
                PartType=System;
                SystemPartID=Notes }

  }
  CODE
  {

    BEGIN
    END.
  }
}

