OBJECT Page 6638 Get Return Receipt Lines
{
  OBJECT-PROPERTIES
  {
    Date=21/12/17;
    Time=12:00:00;
    Version List=NAVW111.00.00.19846;
  }
  PROPERTIES
  {
    Editable=No;
    CaptionML=[ENU=Get Return Receipt Lines;
               ENG=Get Return Receipt Lines];
    SourceTable=Table6661;
    PageType=List;
    OnAfterGetRecord=BEGIN
                       DocumentNoHideValue := FALSE;
                       DocumentNoOnFormat;
                     END;

    OnQueryClosePage=BEGIN
                       IF CloseAction = ACTION::LookupOK THEN
                         LookupOKOnPush;
                     END;

    ActionList=ACTIONS
    {
      { 1900000003;0 ;ActionContainer;
                      ActionContainerType=RelatedInformation }
      { 47      ;1   ;ActionGroup;
                      CaptionML=[ENU=&Line;
                                 ENG=&Line];
                      Image=Line }
      { 48      ;2   ;Action    ;
                      ShortCutKey=Shift+F7;
                      CaptionML=[ENU=Show Document;
                                 ENG=Show Document];
                      ToolTipML=[ENU=Open the document that the selected line exists on.;
                                 ENG=Open the document that the selected line exists on.];
                      ApplicationArea=#SalesReturnOrder;
                      Image=View;
                      OnAction=BEGIN
                                 ReturnRcptHeader.GET("Document No.");
                                 PAGE.RUN(PAGE::"Posted Return Receipt",ReturnRcptHeader);
                               END;
                                }
      { 49      ;2   ;Action    ;
                      AccessByPermission=TableData 348=R;
                      ShortCutKey=Shift+Ctrl+D;
                      CaptionML=[ENU=Dimensions;
                                 ENG=Dimensions];
                      ToolTipML=[ENU=View or edit dimensions, such as area, project, or department, that you can assign to sales and purchase documents to distribute costs and analyze transaction history.;
                                 ENG=View or edit dimensions, such as area, project, or department, that you can assign to sales and purchase documents to distribute costs and analyse transaction history.];
                      ApplicationArea=#Dimensions;
                      Image=Dimensions;
                      OnAction=BEGIN
                                 ShowDimensions;
                               END;
                                }
      { 28      ;2   ;Action    ;
                      CaptionML=[ENU=Item &Tracking Entries;
                                 ENG=Item &Tracking Entries];
                      ToolTipML=[ENU=View serial or lot numbers that are assigned to items.;
                                 ENG=View serial or lot numbers that are assigned to items.];
                      ApplicationArea=#ItemTracking;
                      Image=ItemTrackingLedger;
                      OnAction=BEGIN
                                 ShowItemTrackingLines;
                               END;
                                }
    }
  }
  CONTROLS
  {
    { 1900000001;0;Container;
                ContainerType=ContentArea }

    { 1   ;1   ;Group     ;
                GroupType=Repeater }

    { 2   ;2   ;Field     ;
                ToolTipML=[ENU=Specifies the number of the related document.;
                           ENG=Specifies the number of the related document.];
                ApplicationArea=#SalesReturnOrder;
                SourceExpr="Document No.";
                HideValue=DocumentNoHideValue;
                StyleExpr='Strong' }

    { 50  ;2   ;Field     ;
                ToolTipML=[ENU=Specifies the number of the customer that you send or sent the invoice or credit memo to.;
                           ENG=Specifies the number of the customer that you send or sent the invoice or credit memo to.];
                ApplicationArea=#SalesReturnOrder;
                SourceExpr="Bill-to Customer No.";
                Visible=TRUE }

    { 4   ;2   ;Field     ;
                ToolTipML=[ENU=Specifies the number of the customer.;
                           ENG=Specifies the number of the customer.];
                ApplicationArea=#SalesReturnOrder;
                SourceExpr="Sell-to Customer No.";
                Visible=FALSE }

    { 6   ;2   ;Field     ;
                ToolTipML=[ENU=Specifies the line type.;
                           ENG=Specifies the line type.];
                ApplicationArea=#SalesReturnOrder;
                SourceExpr=Type }

    { 8   ;2   ;Field     ;
                ToolTipML=[ENU=Specifies the number of the involved entry or record, according to the specified number series.;
                           ENG=Specifies the number of the involved entry or record, according to the specified number series.];
                ApplicationArea=#SalesReturnOrder;
                SourceExpr="No." }

    { 10  ;2   ;Field     ;
                ToolTipML=[ENU=Specifies the variant of the item on the line.;
                           ENG=Specifies the variant of the item on the line.];
                ApplicationArea=#Advanced;
                SourceExpr="Variant Code";
                Visible=FALSE }

    { 12  ;2   ;Field     ;
                ToolTipML=[ENU=Specifies a description of posted sales return receipts.;
                           ENG=Specifies a description of posted sales return receipts.];
                ApplicationArea=#SalesReturnOrder;
                SourceExpr=Description }

    { 53  ;2   ;Field     ;
                ToolTipML=[ENU=Specifies the code explaining why the item was returned.;
                           ENG=Specifies the code explaining why the item was returned.];
                ApplicationArea=#SalesReturnOrder;
                SourceExpr="Return Reason Code";
                Visible=FALSE }

    { 31  ;2   ;Field     ;
                Lookup=No;
                DrillDown=No;
                ToolTipML=[ENU=Specifies the currency that is used on the entry.;
                           ENG=Specifies the currency that is used on the entry.];
                ApplicationArea=#SalesReturnOrder;
                SourceExpr="Currency Code";
                Visible=FALSE }

    { 14  ;2   ;Field     ;
                ToolTipML=[ENU=Specifies the code for Shortcut Dimension 1, which is one of two global dimension codes that you set up in the General Ledger Setup window.;
                           ENG=Specifies the code for Shortcut Dimension 1, which is one of two global dimension codes that you set up in the General Ledger Setup window.];
                ApplicationArea=#Dimensions;
                SourceExpr="Shortcut Dimension 1 Code";
                Visible=FALSE }

    { 16  ;2   ;Field     ;
                ToolTipML=[ENU=Specifies the code for Shortcut Dimension 2, which is one of two global dimension codes that you set up in the General Ledger Setup window.;
                           ENG=Specifies the code for Shortcut Dimension 2, which is one of two global dimension codes that you set up in the General Ledger Setup window.];
                ApplicationArea=#Dimensions;
                SourceExpr="Shortcut Dimension 2 Code";
                Visible=FALSE }

    { 18  ;2   ;Field     ;
                ToolTipML=[ENU=Specifies a code for the location where you want the items to be placed when they are received.;
                           ENG=Specifies a code for the location where you want the items to be placed when they are received.];
                ApplicationArea=#SalesReturnOrder;
                SourceExpr="Location Code";
                Visible=FALSE }

    { 20  ;2   ;Field     ;
                ToolTipML=[ENU=Specifies the bin where the items are picked or put away.;
                           ENG=Specifies the bin where the items are picked or put away.];
                ApplicationArea=#SalesReturnOrder;
                SourceExpr="Bin Code";
                Visible=FALSE }

    { 24  ;2   ;Field     ;
                ToolTipML=[ENU=Specifies how each unit of the item or resource is measured, such as in pieces or hours. By default, the value in the Base Unit of Measure field on the item or resource card is inserted.;
                           ENG=Specifies how each unit of the item or resource is measured, such as in pieces or hours. By default, the value in the Base Unit of Measure field on the item or resource card is inserted.];
                ApplicationArea=#SalesReturnOrder;
                SourceExpr="Unit of Measure Code" }

    { 22  ;2   ;Field     ;
                ToolTipML=[ENU=Specifies the quantity of the item on the line.;
                           ENG=Specifies the quantity of the item on the line.];
                ApplicationArea=#SalesReturnOrder;
                SourceExpr=Quantity }

    { 26  ;2   ;Field     ;
                ToolTipML=[ENU=Specifies the name of the item or resource's unit of measure, such as piece or hour.;
                           ENG=Specifies the name of the item or resource's unit of measure, such as piece or hour.];
                ApplicationArea=#SalesReturnOrder;
                SourceExpr="Unit of Measure";
                Visible=FALSE }

    { 32  ;2   ;Field     ;
                ToolTipML=[ENU=Specifies the number of the item ledger entry that the document or journal line is applied to.;
                           ENG=Specifies the number of the item ledger entry that the document or journal line is applied to.];
                ApplicationArea=#SalesReturnOrder;
                SourceExpr="Appl.-to Item Entry";
                Visible=FALSE }

    { 34  ;2   ;Field     ;
                ToolTipML=[ENU=Specifies the number of the related job.;
                           ENG=Specifies the number of the related job.];
                ApplicationArea=#SalesReturnOrder;
                SourceExpr="Job No.";
                Visible=FALSE }

    { 40  ;2   ;Field     ;
                ToolTipML=[ENU=Specifies when items on the document are shipped or were shipped. A shipment date is usually calculated from a requested delivery date plus lead time.;
                           ENG=Specifies when items on the document are shipped or were shipped. A shipment date is usually calculated from a requested delivery date plus lead time.];
                ApplicationArea=#SalesReturnOrder;
                SourceExpr="Shipment Date";
                Visible=FALSE }

    { 45  ;2   ;Field     ;
                ToolTipML=[ENU=Specifies how many units of the item on the line have been posted as invoiced.;
                           ENG=Specifies how many units of the item on the line have been posted as invoiced.];
                ApplicationArea=#SalesReturnOrder;
                SourceExpr="Quantity Invoiced" }

    { 29  ;2   ;Field     ;
                ToolTipML=[ENU=Specifies the quantity from the line that has been posted as received but that has not yet been posted as invoiced.;
                           ENG=Specifies the quantity from the line that has been posted as received but that has not yet been posted as invoiced.];
                ApplicationArea=#SalesReturnOrder;
                SourceExpr="Return Qty. Rcd. Not Invd." }

    { 1900000007;0;Container;
                ContainerType=FactBoxArea }

    { 1900383207;1;Part   ;
                Visible=FALSE;
                PartType=System;
                SystemPartID=RecordLinks }

    { 1905767507;1;Part   ;
                Visible=FALSE;
                PartType=System;
                SystemPartID=Notes }

  }
  CODE
  {
    VAR
      ReturnRcptHeader@1000 : Record 6660;
      SalesHeader@1001 : Record 36;
      TempReturnRcptLine@1002 : TEMPORARY Record 6661;
      SalesGetReturnReceipts@1004 : Codeunit 6638;
      DocumentNoHideValue@19020538 : Boolean INDATASET;

    [External]
    PROCEDURE SetSalesHeader@1(VAR SalesHeader2@1000 : Record 36);
    BEGIN
      SalesHeader.GET(SalesHeader2."Document Type",SalesHeader2."No.");
      SalesHeader.TESTFIELD("Document Type",SalesHeader."Document Type"::"Credit Memo");
    END;

    LOCAL PROCEDURE IsFirstDocLine@2() : Boolean;
    VAR
      ReturnRcptLine@1000 : Record 6661;
    BEGIN
      TempReturnRcptLine.RESET;
      TempReturnRcptLine.COPYFILTERS(Rec);
      TempReturnRcptLine.SETRANGE("Document No.","Document No.");
      IF NOT TempReturnRcptLine.FINDFIRST THEN BEGIN
        ReturnRcptLine.COPYFILTERS(Rec);
        ReturnRcptLine.SETRANGE("Document No.","Document No.");
        IF NOT ReturnRcptLine.FINDFIRST THEN
          EXIT(FALSE);
        TempReturnRcptLine := ReturnRcptLine;
        TempReturnRcptLine.INSERT;
      END;
      IF "Line No." = TempReturnRcptLine."Line No." THEN
        EXIT(TRUE);
    END;

    LOCAL PROCEDURE LookupOKOnPush@19031339();
    BEGIN
      CurrPage.SETSELECTIONFILTER(Rec);
      SalesGetReturnReceipts.SetSalesHeader(SalesHeader);
      SalesGetReturnReceipts.CreateInvLines(Rec);
    END;

    LOCAL PROCEDURE DocumentNoOnFormat@19001080();
    BEGIN
      IF NOT IsFirstDocLine THEN
        DocumentNoHideValue := TRUE;
    END;

    BEGIN
    END.
  }
}

