OBJECT Page 6002 Cancelled Allocation Reasons
{
  OBJECT-PROPERTIES
  {
    Date=22/11/17;
    Time=12:00:00;
    Version List=NAVW111.00;
  }
  PROPERTIES
  {
    CaptionML=[ENU=Canceled Allocation Reasons;
               ENG=Cancelled Allocation Reasons];
    InsertAllowed=No;
    DeleteAllowed=No;
    ModifyAllowed=Yes;
    LinksAllowed=No;
    SourceTable=Table5950;
    DataCaptionExpr='';
    PageType=ConfirmationDialog;
    InstructionalTextML=[ENU=Do you want to cancel the allocation?;
                         ENG=Do you want to cancel the allocation?];
    OnInit=BEGIN
             CurrPage.LOOKUPMODE := TRUE;
           END;

    OnAfterGetRecord=BEGIN
                       ServHeader.GET("Document Type","Document No.");
                       IF NOT ServItemLine.GET("Document Type","Document No.","Service Item Line No.") THEN
                         ServPriority := ServHeader.Priority
                       ELSE
                         ServPriority := ServItemLine.Priority;
                     END;

  }
  CONTROLS
  {
    { 1900000001;0;Container;
                ContainerType=ContentArea }

    { 1   ;1   ;Group     ;
                CaptionML=[ENU=Details;
                           ENG=Details] }

    { 25  ;2   ;Field     ;
                ToolTipML=[ENU=Specifies the type of the document (Order or Quote) from which the allocation entry was created.;
                           ENG=Specifies the type of the document (Order or Quote) from which the allocation entry was created.];
                ApplicationArea=#Service;
                SourceExpr="Document Type";
                Editable=FALSE }

    { 3   ;2   ;Field     ;
                ToolTipML=[ENU=Specifies the number of the service order associated with this entry.;
                           ENG=Specifies the number of the service order associated with this entry.];
                ApplicationArea=#Service;
                SourceExpr="Document No.";
                Editable=FALSE }

    { 5   ;2   ;Field     ;
                ToolTipML=[ENU=Specifies the date when the resource allocation should start.;
                           ENG=Specifies the date when the resource allocation should start.];
                ApplicationArea=#Service;
                SourceExpr="Allocation Date";
                Editable=FALSE }

    { 7   ;2   ;Field     ;
                ToolTipML=[ENU=Specifies the number of the resource allocated to the service task in this entry.;
                           ENG=Specifies the number of the resource allocated to the service task in this entry.];
                ApplicationArea=#Service;
                SourceExpr="Resource No.";
                Editable=FALSE }

    { 11  ;2   ;Field     ;
                ToolTipML=[ENU=Specifies the number of the service item line linked to this entry.;
                           ENG=Specifies the number of the service item line linked to this entry.];
                ApplicationArea=#Service;
                SourceExpr="Service Item Line No.";
                Editable=FALSE }

    { 13  ;2   ;Field     ;
                ToolTipML=[ENU=Specifies the hours allocated to the resource or resource group for the service task in this entry.;
                           ENG=Specifies the hours allocated to the resource or resource group for the service task in this entry.];
                ApplicationArea=#Service;
                DecimalPlaces=0:0;
                SourceExpr="Allocated Hours";
                Editable=FALSE }

    { 15  ;2   ;Field     ;
                ToolTipML=[ENU=Specifies the time when you want the allocation to start.;
                           ENG=Specifies the time when you want the allocation to start.];
                ApplicationArea=#Service;
                SourceExpr="Starting Time";
                Editable=FALSE }

    { 17  ;2   ;Field     ;
                ToolTipML=[ENU=Specifies the time when you want the allocation to finish.;
                           ENG=Specifies the time when you want the allocation to finish.];
                ApplicationArea=#Service;
                SourceExpr="Finishing Time";
                Editable=FALSE }

    { 21  ;2   ;Field     ;
                ToolTipML=[ENU=Specifies a description for the service order allocation.;
                           ENG=Specifies a description for the service order allocation.];
                ApplicationArea=#Service;
                SourceExpr=Description;
                Editable=FALSE }

    { 10  ;1   ;Field     ;
                CaptionML=[ENU=Priority;
                           ENG=Priority];
                OptionCaptionML=[ENU=Low,Medium,High;
                                 ENG=Low,Medium,High];
                ApplicationArea=#Service;
                SourceExpr=ServPriority }

    { 30  ;1   ;Field     ;
                CaptionML=[ENU=Reason Code;
                           ENG=Reason Code];
                ApplicationArea=#Service;
                SourceExpr=ReasonCode;
                TableRelation="Reason Code" }

  }
  CODE
  {
    VAR
      ServHeader@1000 : Record 5900;
      ServItemLine@1001 : Record 5901;
      ReasonCode@1002 : Code[10];
      ServPriority@1003 : 'Low,Medium,High';

    [External]
    PROCEDURE ReturnReasonCode@1() : Code[10];
    BEGIN
      EXIT(ReasonCode);
    END;

    [External]
    PROCEDURE ReturnPriority@2() : Integer;
    BEGIN
      EXIT(ServPriority);
    END;

    BEGIN
    END.
  }
}

