OBJECT Page 6508 Lot No. Information List
{
  OBJECT-PROPERTIES
  {
    Date=21/12/17;
    Time=12:00:00;
    Version List=NAVW111.00.00.19846;
  }
  PROPERTIES
  {
    Editable=No;
    CaptionML=[ENU=Lot No. Information List;
               ENG=Lot No. Information List];
    SourceTable=Table6505;
    PageType=List;
    CardPageID=Lot No. Information Card;
    OnInit=BEGIN
             CurrPage.LOOKUPMODE := TRUE;
           END;

    OnOpenPage=BEGIN
                 SETRANGE("Date Filter",DMY2DATE(1,1,0),WORKDATE);
               END;

    ActionList=ACTIONS
    {
      { 1900000003;0 ;ActionContainer;
                      ActionContainerType=RelatedInformation }
      { 1102601000;1 ;ActionGroup;
                      CaptionML=[ENU=&Lot No.;
                                 ENG=&Lot No.];
                      Image=Lot }
      { 1102601001;2 ;Action    ;
                      ShortCutKey=Shift+Ctrl+I;
                      CaptionML=[ENU=Item &Tracking Entries;
                                 ENG=Item &Tracking Entries];
                      ToolTipML=[ENU=View serial or lot numbers that are assigned to items.;
                                 ENG=View serial or lot numbers that are assigned to items.];
                      ApplicationArea=#ItemTracking;
                      Image=ItemTrackingLedger;
                      OnAction=VAR
                                 ItemTrackingDocMgt@1000 : Codeunit 6503;
                               BEGIN
                                 ItemTrackingDocMgt.ShowItemTrackingForMasterData(0,'',"Item No.","Variant Code",'',"Lot No.",'');
                               END;
                                }
      { 1102601002;2 ;Action    ;
                      CaptionML=[ENU=Comment;
                                 ENG=Comment];
                      ToolTipML=[ENU=View or add comments for the record.;
                                 ENG=View or add comments for the record.];
                      ApplicationArea=#ItemTracking;
                      RunObject=Page 6506;
                      RunPageLink=Type=CONST(Lot No.),
                                  Item No.=FIELD(Item No.),
                                  Variant Code=FIELD(Variant Code),
                                  Serial/Lot No.=FIELD(Lot No.);
                      Image=ViewComments }
      { 1102601003;2 ;Separator  }
      { 1102601004;2 ;Action    ;
                      CaptionML=[ENU=&Item Tracing;
                                 ENG=&Item Tracing];
                      ToolTipML=[ENU=Trace where a lot or serial number assigned to the item was used, for example, to find which lot a defective component came from or to find all the customers that have received items containing the defective component.;
                                 ENG=Trace where a lot or serial number assigned to the item was used, for example, to find which lot a defective component came from or to find all the customers that have received items containing the defective component.];
                      ApplicationArea=#ItemTracking;
                      Image=ItemTracing;
                      OnAction=VAR
                                 ItemTracingBuffer@1002 : Record 6520;
                                 ItemTracing@1000 : Page 6520;
                               BEGIN
                                 CLEAR(ItemTracing);
                                 ItemTracingBuffer.SETRANGE("Item No.","Item No.");
                                 ItemTracingBuffer.SETRANGE("Variant Code","Variant Code");
                                 ItemTracingBuffer.SETRANGE("Lot No.","Lot No.");
                                 ItemTracing.InitFilters(ItemTracingBuffer);
                                 ItemTracing.FindRecords;
                                 ItemTracing.RUNMODAL;
                               END;
                                }
      { 1900000004;0 ;ActionContainer;
                      ActionContainerType=ActionItems }
      { 1102601005;1 ;Action    ;
                      Name=Navigate;
                      CaptionML=[ENU=&Navigate;
                                 ENG=&Navigate];
                      ToolTipML=[ENU=Find all entries and documents that exist for the document number and posting date on the selected entry or document.;
                                 ENG=Find all entries and documents that exist for the document number and posting date on the selected entry or document.];
                      ApplicationArea=#ItemTracking;
                      Promoted=Yes;
                      Image=Navigate;
                      PromotedCategory=Process;
                      OnAction=VAR
                                 Navigate@1000000000 : Page 344;
                               BEGIN
                                 Navigate.SetTracking('',"Lot No.");
                                 Navigate.RUN;
                               END;
                                }
    }
  }
  CONTROLS
  {
    { 1900000001;0;Container;
                ContainerType=ContentArea }

    { 1   ;1   ;Group     ;
                GroupType=Repeater }

    { 2   ;2   ;Field     ;
                ToolTipML=[ENU=Specifies this number from the Tracking Specification table when a lot number information record is created.;
                           ENG=Specifies this number from the Tracking Specification table when a lot number information record is created.];
                ApplicationArea=#ItemTracking;
                SourceExpr="Item No.";
                Visible=FALSE }

    { 4   ;2   ;Field     ;
                ToolTipML=[ENU=Specifies the variant of the item on the line.;
                           ENG=Specifies the variant of the item on the line.];
                ApplicationArea=#Advanced;
                SourceExpr="Variant Code";
                Visible=FALSE }

    { 6   ;2   ;Field     ;
                ToolTipML=[ENU=Specifies this number from the Tracking Specification table when a lot number information record is created.;
                           ENG=Specifies this number from the Tracking Specification table when a lot number information record is created.];
                ApplicationArea=#ItemTracking;
                SourceExpr="Lot No." }

    { 8   ;2   ;Field     ;
                ToolTipML=[ENU=Specifies a description of the lot no. information record.;
                           ENG=Specifies a description of the lot no. information record.];
                ApplicationArea=#ItemTracking;
                SourceExpr=Description;
                Editable=TRUE }

    { 10  ;2   ;Field     ;
                ToolTipML=[ENU=Specifies the quality of a given lot if you have inspected the items.;
                           ENG=Specifies the quality of a given lot if you have inspected the items.];
                ApplicationArea=#ItemTracking;
                SourceExpr="Test Quality" }

    { 12  ;2   ;Field     ;
                ToolTipML=[ENU=Specifies the number provided by the supplier to indicate that the batch or lot meets the specified requirements.;
                           ENG=Specifies the number provided by the supplier to indicate that the batch or lot meets the specified requirements.];
                ApplicationArea=#ItemTracking;
                SourceExpr="Certificate Number" }

    { 14  ;2   ;Field     ;
                ToolTipML=[ENU=Specifies that the related record is blocked from being posted in transactions, for example a customer that is declared insolvent or an item that is placed in quarantine.;
                           ENG=Specifies that the related record is blocked from being posted in transactions, for example a customer that is declared insolvent or an item that is placed in quarantine.];
                ApplicationArea=#ItemTracking;
                SourceExpr=Blocked }

    { 16  ;2   ;Field     ;
                ToolTipML=[ENU=Specifies that a comment has been recorded for the lot number.;
                           ENG=Specifies that a comment has been recorded for the lot number.];
                ApplicationArea=#ItemTracking;
                SourceExpr=Comment }

    { 18  ;2   ;Field     ;
                ToolTipML=[ENU=Specifies the inventory quantity of the specified lot number.;
                           ENG=Specifies the inventory quantity of the specified lot number.];
                ApplicationArea=#ItemTracking;
                SourceExpr=Inventory;
                Visible=FALSE }

    { 26  ;2   ;Field     ;
                ToolTipML=[ENU=Specifies the inventory of the lot number with an expiration date before the posting date on the associated document.;
                           ENG=Specifies the inventory of the lot number with an expiration date before the posting date on the associated document.];
                ApplicationArea=#ItemTracking;
                SourceExpr="Expired Inventory";
                Visible=FALSE }

    { 1900000007;0;Container;
                ContainerType=FactBoxArea }

    { 1900383207;1;Part   ;
                ApplicationArea=#ItemTracking;
                Visible=FALSE;
                PartType=System;
                SystemPartID=RecordLinks }

    { 1905767507;1;Part   ;
                ApplicationArea=#ItemTracking;
                Visible=TRUE;
                PartType=System;
                SystemPartID=Notes }

  }
  CODE
  {

    [Internal]
    PROCEDURE GetSelectionFilter@4() : Text;
    VAR
      LotNoInfo@1004 : Record 6505;
      SelectionFilterManagement@1001 : Codeunit 46;
    BEGIN
      CurrPage.SETSELECTIONFILTER(LotNoInfo);
      EXIT(SelectionFilterManagement.GetSelectionFilterForLotNoInformation(LotNoInfo));
    END;

    BEGIN
    END.
  }
}

