OBJECT Page 6402 Sales Document Entity
{
  OBJECT-PROPERTIES
  {
    Date=22/11/17;
    Time=12:00:00;
    Version List=NAVW111.00;
  }
  PROPERTIES
  {
    CaptionML=[@@@={Locked};
               ENU=workflowSalesDocuments;
               ENG=workflowSalesDocuments];
    SourceTable=Table36;
    DelayedInsert=Yes;
    PageType=List;
    ODataKeyFields=Id;
  }
  CONTROLS
  {
    { 1   ;0   ;Container ;
                ContainerType=ContentArea }

    { 2   ;1   ;Group     ;
                Name=General;
                GroupType=Group }

    { 3   ;2   ;Field     ;
                Name=documentType;
                CaptionML=[@@@={Locked};
                           ENU=Document Type;
                           ENG=Document Type];
                ApplicationArea=#All;
                SourceExpr="Document Type" }

    { 4   ;2   ;Field     ;
                Name=sellToCustomerNumber;
                CaptionML=[@@@={Locked};
                           ENU=Sell-to Customer No.;
                           ENG=Sell-to Customer No.];
                ApplicationArea=#All;
                SourceExpr="Sell-to Customer No." }

    { 5   ;2   ;Field     ;
                Name=number;
                CaptionML=[@@@={Locked};
                           ENU=No.;
                           ENG=No.];
                ApplicationArea=#All;
                SourceExpr="No." }

    { 6   ;2   ;Field     ;
                Name=billToCustomerNumber;
                CaptionML=[@@@={Locked};
                           ENU=Bill-to Customer No.;
                           ENG=Bill-to Customer No.];
                ApplicationArea=#All;
                SourceExpr="Bill-to Customer No." }

    { 7   ;2   ;Field     ;
                Name=billToName;
                CaptionML=[@@@={Locked};
                           ENU=Bill-to Name;
                           ENG=Bill-to Name];
                ApplicationArea=#All;
                SourceExpr="Bill-to Name" }

    { 8   ;2   ;Field     ;
                Name=billToName2;
                CaptionML=[@@@={Locked};
                           ENU=Bill-to Name 2;
                           ENG=Bill-to Name 2];
                ApplicationArea=#All;
                SourceExpr="Bill-to Name 2" }

    { 9   ;2   ;Field     ;
                Name=billToAddress;
                CaptionML=[@@@={Locked};
                           ENU=Bill-to Address;
                           ENG=Bill-to Address];
                ApplicationArea=#All;
                SourceExpr="Bill-to Address" }

    { 10  ;2   ;Field     ;
                Name=billToAddress2;
                CaptionML=[@@@={Locked};
                           ENU=Bill-to Address 2;
                           ENG=Bill-to Address 2];
                ApplicationArea=#All;
                SourceExpr="Bill-to Address 2" }

    { 11  ;2   ;Field     ;
                Name=billToCity;
                CaptionML=[@@@={Locked};
                           ENU=Bill-to City;
                           ENG=Bill-to City];
                ApplicationArea=#All;
                SourceExpr="Bill-to City" }

    { 12  ;2   ;Field     ;
                Name=billToContact;
                CaptionML=[@@@={Locked};
                           ENU=Bill-to Contact;
                           ENG=Bill-to Contact];
                ApplicationArea=#All;
                SourceExpr="Bill-to Contact" }

    { 13  ;2   ;Field     ;
                Name=yourReference;
                CaptionML=[@@@={Locked};
                           ENU=Your Reference;
                           ENG=Your Reference];
                ApplicationArea=#All;
                SourceExpr="Your Reference" }

    { 14  ;2   ;Field     ;
                Name=shipToCode;
                CaptionML=[@@@={Locked};
                           ENU=Ship-to Code;
                           ENG=Ship-to Code];
                ApplicationArea=#All;
                SourceExpr="Ship-to Code" }

    { 15  ;2   ;Field     ;
                Name=shipToName;
                CaptionML=[@@@={Locked};
                           ENU=Ship-to Name;
                           ENG=Ship-to Name];
                ApplicationArea=#All;
                SourceExpr="Ship-to Name" }

    { 16  ;2   ;Field     ;
                Name=shipToName2;
                CaptionML=[@@@={Locked};
                           ENU=Ship-to Name 2;
                           ENG=Ship-to Name 2];
                ApplicationArea=#All;
                SourceExpr="Ship-to Name 2" }

    { 17  ;2   ;Field     ;
                Name=shipToAddress;
                CaptionML=[@@@={Locked};
                           ENU=Ship-to Address;
                           ENG=Ship-to Address];
                ApplicationArea=#All;
                SourceExpr="Ship-to Address" }

    { 18  ;2   ;Field     ;
                Name=shipToAddress2;
                CaptionML=[@@@={Locked};
                           ENU=Ship-to Address 2;
                           ENG=Ship-to Address 2];
                ApplicationArea=#All;
                SourceExpr="Ship-to Address 2" }

    { 19  ;2   ;Field     ;
                Name=shipToCity;
                CaptionML=[@@@={Locked};
                           ENU=Ship-to City;
                           ENG=Ship-to City];
                ApplicationArea=#All;
                SourceExpr="Ship-to City" }

    { 20  ;2   ;Field     ;
                Name=shipToContact;
                CaptionML=[@@@={Locked};
                           ENU=Ship-to Contact;
                           ENG=Ship-to Contact];
                ApplicationArea=#All;
                SourceExpr="Ship-to Contact" }

    { 21  ;2   ;Field     ;
                Name=orderDate;
                CaptionML=[@@@={Locked};
                           ENU=Order Date;
                           ENG=Order Date];
                ApplicationArea=#All;
                SourceExpr="Order Date" }

    { 22  ;2   ;Field     ;
                Name=postingDate;
                CaptionML=[@@@={Locked};
                           ENU=Posting Date;
                           ENG=Posting Date];
                ApplicationArea=#All;
                SourceExpr="Posting Date" }

    { 23  ;2   ;Field     ;
                Name=shipmentDate;
                CaptionML=[@@@={Locked};
                           ENU=Shipment Date;
                           ENG=Shipment Date];
                ApplicationArea=#All;
                SourceExpr="Shipment Date" }

    { 24  ;2   ;Field     ;
                Name=postingDescription;
                CaptionML=[@@@={Locked};
                           ENU=Posting Description;
                           ENG=Posting Description];
                ApplicationArea=#All;
                SourceExpr="Posting Description" }

    { 25  ;2   ;Field     ;
                Name=paymentTermsCode;
                CaptionML=[@@@={Locked};
                           ENU=Payment Terms Code;
                           ENG=Payment Terms Code];
                ApplicationArea=#All;
                SourceExpr="Payment Terms Code" }

    { 26  ;2   ;Field     ;
                Name=dueDate;
                CaptionML=[@@@={Locked};
                           ENU=Due Date;
                           ENG=Due Date];
                ApplicationArea=#All;
                SourceExpr="Due Date" }

    { 27  ;2   ;Field     ;
                Name=paymentDiscountPercent;
                CaptionML=[@@@={Locked};
                           ENU=Payment Discount %;
                           ENG=Payment Discount %];
                ApplicationArea=#All;
                SourceExpr="Payment Discount %" }

    { 28  ;2   ;Field     ;
                Name=pmtDiscountDate;
                CaptionML=[@@@={Locked};
                           ENU=Pmt. Discount Date;
                           ENG=Pmt. Discount Date];
                ApplicationArea=#All;
                SourceExpr="Pmt. Discount Date" }

    { 29  ;2   ;Field     ;
                Name=shipmentMethodCode;
                CaptionML=[@@@={Locked};
                           ENU=Shipment Method Code;
                           ENG=Shipment Method Code];
                ApplicationArea=#All;
                SourceExpr="Shipment Method Code" }

    { 30  ;2   ;Field     ;
                Name=locationCode;
                CaptionML=[@@@={Locked};
                           ENU=Location Code;
                           ENG=Location Code];
                ApplicationArea=#All;
                SourceExpr="Location Code" }

    { 31  ;2   ;Field     ;
                Name=shortcutDimension1Code;
                CaptionML=[@@@={Locked};
                           ENU=Shortcut Dimension 1 Code;
                           ENG=Shortcut Dimension 1 Code];
                ApplicationArea=#All;
                SourceExpr="Shortcut Dimension 1 Code" }

    { 32  ;2   ;Field     ;
                Name=shortcutDimension2Code;
                CaptionML=[@@@={Locked};
                           ENU=Shortcut Dimension 2 Code;
                           ENG=Shortcut Dimension 2 Code];
                ApplicationArea=#All;
                SourceExpr="Shortcut Dimension 2 Code" }

    { 33  ;2   ;Field     ;
                Name=customerPostingGroup;
                CaptionML=[@@@={Locked};
                           ENU=Customer Posting Group;
                           ENG=Customer Posting Group];
                ApplicationArea=#All;
                SourceExpr="Customer Posting Group" }

    { 34  ;2   ;Field     ;
                Name=currencyCode;
                CaptionML=[@@@={Locked};
                           ENU=Currency Code;
                           ENG=Currency Code];
                ApplicationArea=#All;
                SourceExpr="Currency Code" }

    { 35  ;2   ;Field     ;
                Name=currencyFactor;
                CaptionML=[@@@={Locked};
                           ENU=Currency Factor;
                           ENG=Currency Factor];
                ApplicationArea=#All;
                SourceExpr="Currency Factor" }

    { 36  ;2   ;Field     ;
                Name=customerPriceGroup;
                CaptionML=[@@@={Locked};
                           ENU=Customer Price Group;
                           ENG=Customer Price Group];
                ApplicationArea=#All;
                SourceExpr="Customer Price Group" }

    { 37  ;2   ;Field     ;
                Name=pricesIncludingVat;
                CaptionML=[@@@={Locked};
                           ENU=Prices Including VAT;
                           ENG=Prices Including VAT];
                ApplicationArea=#All;
                SourceExpr="Prices Including VAT" }

    { 38  ;2   ;Field     ;
                Name=invoiceDiscCode;
                CaptionML=[@@@={Locked};
                           ENU=Invoice Disc. Code;
                           ENG=Invoice Disc. Code];
                ApplicationArea=#All;
                SourceExpr="Invoice Disc. Code" }

    { 39  ;2   ;Field     ;
                Name=customerDiscGroup;
                CaptionML=[@@@={Locked};
                           ENU=Customer Disc. Group;
                           ENG=Customer Disc. Group];
                ApplicationArea=#All;
                SourceExpr="Customer Disc. Group" }

    { 40  ;2   ;Field     ;
                Name=languageCode;
                CaptionML=[@@@={Locked};
                           ENU=Language Code;
                           ENG=Language Code];
                ApplicationArea=#All;
                SourceExpr="Language Code" }

    { 41  ;2   ;Field     ;
                Name=salespersonCode;
                CaptionML=[@@@={Locked};
                           ENU=Salesperson Code;
                           ENG=Salesperson Code];
                ApplicationArea=#All;
                SourceExpr="Salesperson Code" }

    { 42  ;2   ;Field     ;
                Name=orderClass;
                CaptionML=[@@@={Locked};
                           ENU=Order Class;
                           ENG=Order Class];
                ApplicationArea=#All;
                SourceExpr="Order Class" }

    { 43  ;2   ;Field     ;
                Name=comment;
                CaptionML=[@@@={Locked};
                           ENU=Comment;
                           ENG=Comment];
                ApplicationArea=#All;
                SourceExpr=Comment }

    { 44  ;2   ;Field     ;
                Name=numberPrinted;
                CaptionML=[@@@={Locked};
                           ENU=No. Printed;
                           ENG=No. Printed];
                ApplicationArea=#All;
                SourceExpr="No. Printed" }

    { 45  ;2   ;Field     ;
                Name=onHold;
                CaptionML=[@@@={Locked};
                           ENU=On Hold;
                           ENG=On Hold];
                ApplicationArea=#All;
                SourceExpr="On Hold" }

    { 46  ;2   ;Field     ;
                Name=appliesToDocType;
                CaptionML=[@@@={Locked};
                           ENU=Applies-to Doc. Type;
                           ENG=Applies-to Doc. Type];
                ApplicationArea=#All;
                SourceExpr="Applies-to Doc. Type" }

    { 47  ;2   ;Field     ;
                Name=appliesToDocNumber;
                CaptionML=[@@@={Locked};
                           ENU=Applies-to Doc. No.;
                           ENG=Applies-to Doc. No.];
                ApplicationArea=#All;
                SourceExpr="Applies-to Doc. No." }

    { 48  ;2   ;Field     ;
                Name=balAccountNumber;
                CaptionML=[@@@={Locked};
                           ENU=Bal. Account No.;
                           ENG=Bal. Account No.];
                ApplicationArea=#All;
                SourceExpr="Bal. Account No." }

    { 49  ;2   ;Field     ;
                Name=recalculateInvoiceDisc;
                CaptionML=[@@@={Locked};
                           ENU=Recalculate Invoice Disc.;
                           ENG=Recalculate Invoice Disc.];
                ApplicationArea=#All;
                SourceExpr="Recalculate Invoice Disc." }

    { 50  ;2   ;Field     ;
                Name=ship;
                CaptionML=[@@@={Locked};
                           ENU=Ship;
                           ENG=Ship];
                ApplicationArea=#All;
                SourceExpr=Ship }

    { 51  ;2   ;Field     ;
                Name=invoice;
                CaptionML=[@@@={Locked};
                           ENU=Invoice;
                           ENG=Invoice];
                ApplicationArea=#All;
                SourceExpr=Invoice }

    { 52  ;2   ;Field     ;
                Name=printPostedDocuments;
                CaptionML=[@@@={Locked};
                           ENU=Print Posted Documents;
                           ENG=Print Posted Documents];
                ApplicationArea=#All;
                SourceExpr="Print Posted Documents" }

    { 53  ;2   ;Field     ;
                Name=amount;
                CaptionML=[@@@={Locked};
                           ENU=Amount;
                           ENG=Amount];
                ApplicationArea=#All;
                SourceExpr=Amount }

    { 54  ;2   ;Field     ;
                Name=amountIncludingVAT;
                CaptionML=[@@@={Locked};
                           ENU=Amount Including VAT;
                           ENG=Amount Including VAT];
                ApplicationArea=#All;
                SourceExpr="Amount Including VAT" }

    { 55  ;2   ;Field     ;
                Name=shippingNumber;
                CaptionML=[@@@={Locked};
                           ENU=Shipping No.;
                           ENG=Shipping No.];
                ApplicationArea=#All;
                SourceExpr="Shipping No." }

    { 56  ;2   ;Field     ;
                Name=postingNumber;
                CaptionML=[@@@={Locked};
                           ENU=Posting No.;
                           ENG=Posting No.];
                ApplicationArea=#All;
                SourceExpr="Posting No." }

    { 57  ;2   ;Field     ;
                Name=lastShippingNumber;
                CaptionML=[@@@={Locked};
                           ENU=Last Shipping No.;
                           ENG=Last Shipping No.];
                ApplicationArea=#All;
                SourceExpr="Last Shipping No." }

    { 58  ;2   ;Field     ;
                Name=lastPostingNumber;
                CaptionML=[@@@={Locked};
                           ENU=Last Posting No.;
                           ENG=Last Posting No.];
                ApplicationArea=#All;
                SourceExpr="Last Posting No." }

    { 59  ;2   ;Field     ;
                Name=prepaymentNumber;
                CaptionML=[@@@={Locked};
                           ENU=Prepayment No.;
                           ENG=Prepayment No.];
                ApplicationArea=#All;
                SourceExpr="Prepayment No." }

    { 60  ;2   ;Field     ;
                Name=lastPrepaymentNumber;
                CaptionML=[@@@={Locked};
                           ENU=Last Prepayment No.;
                           ENG=Last Prepayment No.];
                ApplicationArea=#All;
                SourceExpr="Last Prepayment No." }

    { 61  ;2   ;Field     ;
                Name=premptCrMemoNumber;
                CaptionML=[@@@={Locked};
                           ENU=Prepmt. Cr. Memo No.;
                           ENG=Prepmt. Cr. Memo No.];
                ApplicationArea=#All;
                SourceExpr="Prepmt. Cr. Memo No." }

    { 62  ;2   ;Field     ;
                Name=lastPremtCrMemoNumber;
                CaptionML=[@@@={Locked};
                           ENU=Last Prepmt. Cr. Memo No.;
                           ENG=Last Prepmt. Cr. Memo No.];
                ApplicationArea=#All;
                SourceExpr="Last Prepmt. Cr. Memo No." }

    { 63  ;2   ;Field     ;
                Name=vatRegistrationNumber;
                CaptionML=[@@@={Locked};
                           ENU=VAT Registration No.;
                           ENG=VAT Registration No.];
                ApplicationArea=#All;
                SourceExpr="VAT Registration No." }

    { 64  ;2   ;Field     ;
                Name=combineShipments;
                CaptionML=[@@@={Locked};
                           ENU=Combine Shipments;
                           ENG=Combine Shipments];
                ApplicationArea=#All;
                SourceExpr="Combine Shipments" }

    { 65  ;2   ;Field     ;
                Name=reasonCode;
                CaptionML=[@@@={Locked};
                           ENU=Reason Code;
                           ENG=Reason Code];
                ApplicationArea=#All;
                SourceExpr="Reason Code" }

    { 66  ;2   ;Field     ;
                Name=genBusPostingGroup;
                CaptionML=[@@@={Locked};
                           ENU=Gen. Bus. Posting Group;
                           ENG=Gen. Bus. Posting Group];
                ApplicationArea=#All;
                SourceExpr="Gen. Bus. Posting Group" }

    { 67  ;2   ;Field     ;
                Name=eu3PartyTrade;
                CaptionML=[@@@={Locked};
                           ENU=EU 3-Party Trade;
                           ENG=EU 3-Party Trade];
                ApplicationArea=#All;
                SourceExpr="EU 3-Party Trade" }

    { 68  ;2   ;Field     ;
                Name=transactionType;
                CaptionML=[@@@={Locked};
                           ENU=Transaction Type;
                           ENG=Transaction Type];
                ApplicationArea=#All;
                SourceExpr="Transaction Type" }

    { 69  ;2   ;Field     ;
                Name=transportMethod;
                CaptionML=[@@@={Locked};
                           ENU=Transport Method;
                           ENG=Transport Method];
                ApplicationArea=#All;
                SourceExpr="Transport Method" }

    { 70  ;2   ;Field     ;
                Name=vatCountryRegionCode;
                CaptionML=[@@@={Locked};
                           ENU=VAT Country/Region Code;
                           ENG=VAT Country/Region Code];
                ApplicationArea=#All;
                SourceExpr="VAT Country/Region Code" }

    { 71  ;2   ;Field     ;
                Name=sellToCustomerName;
                CaptionML=[@@@={Locked};
                           ENU=Sell-to Customer Name;
                           ENG=Sell-to Customer Name];
                ApplicationArea=#All;
                SourceExpr="Sell-to Customer Name" }

    { 72  ;2   ;Field     ;
                Name=sellToCustomerName2;
                CaptionML=[@@@={Locked};
                           ENU=Sell-to Customer Name 2;
                           ENG=Sell-to Customer Name 2];
                ApplicationArea=#All;
                SourceExpr="Sell-to Customer Name 2" }

    { 73  ;2   ;Field     ;
                Name=sellToAddress;
                CaptionML=[@@@={Locked};
                           ENU=Sell-to Address;
                           ENG=Sell-to Address];
                ApplicationArea=#All;
                SourceExpr="Sell-to Address" }

    { 74  ;2   ;Field     ;
                Name=sellToAddress2;
                CaptionML=[@@@={Locked};
                           ENU=Sell-to Address 2;
                           ENG=Sell-to Address 2];
                ApplicationArea=#All;
                SourceExpr="Sell-to Address 2" }

    { 75  ;2   ;Field     ;
                Name=sellToCity;
                CaptionML=[@@@={Locked};
                           ENU=Sell-to City;
                           ENG=Sell-to City];
                ApplicationArea=#All;
                SourceExpr="Sell-to City" }

    { 76  ;2   ;Field     ;
                Name=sellToContact;
                CaptionML=[@@@={Locked};
                           ENU=Sell-to Contact;
                           ENG=Sell-to Contact];
                ApplicationArea=#All;
                SourceExpr="Sell-to Contact" }

    { 77  ;2   ;Field     ;
                Name=billToPostCode;
                CaptionML=[@@@={Locked};
                           ENU=Bill-to Post Code;
                           ENG=Bill-to Post Code];
                ApplicationArea=#All;
                SourceExpr="Bill-to Post Code" }

    { 78  ;2   ;Field     ;
                Name=billToCounty;
                CaptionML=[@@@={Locked};
                           ENU=Bill-to County;
                           ENG=Bill-to County];
                ApplicationArea=#All;
                SourceExpr="Bill-to County" }

    { 79  ;2   ;Field     ;
                Name=billToCountryRegionCode;
                CaptionML=[@@@={Locked};
                           ENU=Bill-to Country/Region Code;
                           ENG=Bill-to Country/Region Code];
                ApplicationArea=#All;
                SourceExpr="Bill-to Country/Region Code" }

    { 80  ;2   ;Field     ;
                Name=sellToPostCode;
                CaptionML=[@@@={Locked};
                           ENU=Sell-to Post Code;
                           ENG=Sell-to Post Code];
                ApplicationArea=#All;
                SourceExpr="Sell-to Post Code" }

    { 81  ;2   ;Field     ;
                Name=sellToCounty;
                CaptionML=[@@@={Locked};
                           ENU=Sell-to County;
                           ENG=Sell-to County];
                ApplicationArea=#All;
                SourceExpr="Sell-to County" }

    { 82  ;2   ;Field     ;
                Name=sellToCountryRegionCode;
                CaptionML=[@@@={Locked};
                           ENU=Sell-to Country/Region Code;
                           ENG=Sell-to Country/Region Code];
                ApplicationArea=#All;
                SourceExpr="Sell-to Country/Region Code" }

    { 83  ;2   ;Field     ;
                Name=shipToPostCode;
                CaptionML=[@@@={Locked};
                           ENU=Ship-to Post Code;
                           ENG=Ship-to Post Code];
                ApplicationArea=#All;
                SourceExpr="Ship-to Post Code" }

    { 84  ;2   ;Field     ;
                Name=shipToCounty;
                CaptionML=[@@@={Locked};
                           ENU=Ship-to County;
                           ENG=Ship-to County];
                ApplicationArea=#All;
                SourceExpr="Ship-to County" }

    { 85  ;2   ;Field     ;
                Name=shipToCountryRegionCode;
                CaptionML=[@@@={Locked};
                           ENU=Ship-to Country/Region Code;
                           ENG=Ship-to Country/Region Code];
                ApplicationArea=#All;
                SourceExpr="Ship-to Country/Region Code" }

    { 86  ;2   ;Field     ;
                Name=balAccountType;
                CaptionML=[@@@={Locked};
                           ENU=Bal. Account Type;
                           ENG=Bal. Account Type];
                ApplicationArea=#All;
                SourceExpr="Bal. Account Type" }

    { 87  ;2   ;Field     ;
                Name=exitPoint;
                CaptionML=[@@@={Locked};
                           ENU=Exit Point;
                           ENG=Exit Point];
                ApplicationArea=#All;
                SourceExpr="Exit Point" }

    { 88  ;2   ;Field     ;
                Name=correction;
                CaptionML=[@@@={Locked};
                           ENU=Correction;
                           ENG=Correction];
                ApplicationArea=#All;
                SourceExpr=Correction }

    { 89  ;2   ;Field     ;
                Name=documentDate;
                CaptionML=[@@@={Locked};
                           ENU=Document Date;
                           ENG=Document Date];
                ApplicationArea=#All;
                SourceExpr="Document Date" }

    { 90  ;2   ;Field     ;
                Name=externalDocumentNumber;
                CaptionML=[@@@={Locked};
                           ENU=External Document No.;
                           ENG=External Document No.];
                ApplicationArea=#All;
                SourceExpr="External Document No." }

    { 91  ;2   ;Field     ;
                Name=area;
                CaptionML=[@@@={Locked};
                           ENU=Area;
                           ENG=Area];
                ApplicationArea=#All;
                SourceExpr=Area }

    { 92  ;2   ;Field     ;
                Name=transactionSpecification;
                CaptionML=[@@@={Locked};
                           ENU=Transaction Specification;
                           ENG=Transaction Specification];
                ApplicationArea=#All;
                SourceExpr="Transaction Specification" }

    { 93  ;2   ;Field     ;
                Name=paymentMethodCode;
                CaptionML=[@@@={Locked};
                           ENU=Payment Method Code;
                           ENG=Payment Method Code];
                ApplicationArea=#All;
                SourceExpr="Payment Method Code" }

    { 94  ;2   ;Field     ;
                Name=shippingAgentCode;
                CaptionML=[@@@={Locked};
                           ENU=Shipping Agent Code;
                           ENG=Shipping Agent Code];
                ApplicationArea=#All;
                SourceExpr="Shipping Agent Code" }

    { 95  ;2   ;Field     ;
                Name=packageTrackingNumber;
                CaptionML=[@@@={Locked};
                           ENU=Package Tracking No.;
                           ENG=Package Tracking No.];
                ApplicationArea=#All;
                SourceExpr="Package Tracking No." }

    { 96  ;2   ;Field     ;
                Name=numberSeries;
                CaptionML=[@@@={Locked};
                           ENU=No. Series;
                           ENG=No. Series];
                ApplicationArea=#All;
                SourceExpr="No. Series" }

    { 97  ;2   ;Field     ;
                Name=postingNumberSeries;
                CaptionML=[@@@={Locked};
                           ENU=Posting No. Series;
                           ENG=Posting No. Series];
                ApplicationArea=#All;
                SourceExpr="Posting No. Series" }

    { 98  ;2   ;Field     ;
                Name=shippingNumberSeries;
                CaptionML=[@@@={Locked};
                           ENU=Shipping No. Series;
                           ENG=Shipping No. Series];
                ApplicationArea=#All;
                SourceExpr="Shipping No. Series" }

    { 99  ;2   ;Field     ;
                Name=taxAreaCode;
                CaptionML=[@@@={Locked};
                           ENU=Tax Area Code;
                           ENG=Tax Area Code];
                ApplicationArea=#All;
                SourceExpr="Tax Area Code" }

    { 100 ;2   ;Field     ;
                Name=taxLiable;
                CaptionML=[@@@={Locked};
                           ENU=Tax Liable;
                           ENG=Tax Liable];
                ApplicationArea=#All;
                SourceExpr="Tax Liable" }

    { 101 ;2   ;Field     ;
                Name=vatBusPostingGroup;
                CaptionML=[@@@={Locked};
                           ENU=VAT Bus. Posting Group;
                           ENG=VAT Bus. Posting Group];
                ApplicationArea=#All;
                SourceExpr="VAT Bus. Posting Group" }

    { 102 ;2   ;Field     ;
                Name=reserve;
                CaptionML=[@@@={Locked};
                           ENU=Reserve;
                           ENG=Reserve];
                ApplicationArea=#All;
                SourceExpr=Reserve }

    { 103 ;2   ;Field     ;
                Name=appliesToId;
                CaptionML=[@@@={Locked};
                           ENU=Applies-to ID;
                           ENG=Applies-to ID];
                ApplicationArea=#All;
                SourceExpr="Applies-to ID" }

    { 104 ;2   ;Field     ;
                Name=vatBaseDiscountPercent;
                CaptionML=[@@@={Locked};
                           ENU=VAT Base Discount %;
                           ENG=VAT Base Discount %];
                ApplicationArea=#All;
                SourceExpr="VAT Base Discount %" }

    { 105 ;2   ;Field     ;
                Name=status;
                CaptionML=[@@@={Locked};
                           ENU=Status;
                           ENG=Status];
                ApplicationArea=#All;
                SourceExpr=Status }

    { 106 ;2   ;Field     ;
                Name=invoiceDiscountCalculation;
                CaptionML=[@@@={Locked};
                           ENU=Invoice Discount Calculation;
                           ENG=Invoice Discount Calculation];
                ApplicationArea=#All;
                SourceExpr="Invoice Discount Calculation" }

    { 107 ;2   ;Field     ;
                Name=invoiceDiscountValue;
                CaptionML=[@@@={Locked};
                           ENU=Invoice Discount Value;
                           ENG=Invoice Discount Value];
                ApplicationArea=#All;
                SourceExpr="Invoice Discount Value" }

    { 108 ;2   ;Field     ;
                Name=sendIcDocument;
                CaptionML=[@@@={Locked};
                           ENU=Send IC Document;
                           ENG=Send IC Document];
                ApplicationArea=#All;
                SourceExpr="Send IC Document" }

    { 109 ;2   ;Field     ;
                Name=icStatus;
                CaptionML=[@@@={Locked};
                           ENU=IC Status;
                           ENG=IC Status];
                ApplicationArea=#All;
                SourceExpr="IC Status" }

    { 110 ;2   ;Field     ;
                Name=sellToIcPartnerCode;
                CaptionML=[@@@={Locked};
                           ENU=Sell-to IC Partner Code;
                           ENG=Sell-to IC Partner Code];
                ApplicationArea=#All;
                SourceExpr="Sell-to IC Partner Code" }

    { 111 ;2   ;Field     ;
                Name=billToIcPartnerCode;
                CaptionML=[@@@={Locked};
                           ENU=Bill-to IC Partner Code;
                           ENG=Bill-to IC Partner Code];
                ApplicationArea=#All;
                SourceExpr="Bill-to IC Partner Code" }

    { 112 ;2   ;Field     ;
                Name=icDirection;
                CaptionML=[@@@={Locked};
                           ENU=IC Direction;
                           ENG=IC Direction];
                ApplicationArea=#All;
                SourceExpr="IC Direction" }

    { 113 ;2   ;Field     ;
                Name=prepaymentPercent;
                CaptionML=[@@@={Locked};
                           ENU=Prepayment %;
                           ENG=Prepayment %];
                ApplicationArea=#All;
                SourceExpr="Prepayment %" }

    { 114 ;2   ;Field     ;
                Name=prepaymentNumberSeries;
                CaptionML=[@@@={Locked};
                           ENU=Prepayment No. Series;
                           ENG=Prepayment No. Series];
                ApplicationArea=#All;
                SourceExpr="Prepayment No. Series" }

    { 115 ;2   ;Field     ;
                Name=compressPrepayment;
                CaptionML=[@@@={Locked};
                           ENU=Compress Prepayment;
                           ENG=Compress Prepayment];
                ApplicationArea=#All;
                SourceExpr="Compress Prepayment" }

    { 116 ;2   ;Field     ;
                Name=prepaymentDueDate;
                CaptionML=[@@@={Locked};
                           ENU=Prepayment Due Date;
                           ENG=Prepayment Due Date];
                ApplicationArea=#All;
                SourceExpr="Prepayment Due Date" }

    { 117 ;2   ;Field     ;
                Name=prepmtCrMemoNumberSeries;
                CaptionML=[@@@={Locked};
                           ENU=Prepmt. Cr. Memo No. Series;
                           ENG=Prepmt. Cr. Memo No. Series];
                ApplicationArea=#All;
                SourceExpr="Prepmt. Cr. Memo No. Series" }

    { 118 ;2   ;Field     ;
                Name=prepmtPostingDescription;
                CaptionML=[@@@={Locked};
                           ENU=Prepmt. Posting Description;
                           ENG=Prepmt. Posting Description];
                ApplicationArea=#All;
                SourceExpr="Prepmt. Posting Description" }

    { 119 ;2   ;Field     ;
                Name=prepmtPmtDiscountDate;
                CaptionML=[@@@={Locked};
                           ENU=Prepmt. Pmt. Discount Date;
                           ENG=Prepmt. Pmt. Discount Date];
                ApplicationArea=#All;
                SourceExpr="Prepmt. Pmt. Discount Date" }

    { 120 ;2   ;Field     ;
                Name=prepmtPaymentTermsCode;
                CaptionML=[@@@={Locked};
                           ENU=Prepmt. Payment Terms Code;
                           ENG=Prepmt. Payment Terms Code];
                ApplicationArea=#All;
                SourceExpr="Prepmt. Payment Terms Code" }

    { 121 ;2   ;Field     ;
                Name=prepmtPaymentDiscountPercent;
                CaptionML=[@@@={Locked};
                           ENU=Prepmt. Payment Discount %;
                           ENG=Prepmt. Payment Discount %];
                ApplicationArea=#All;
                SourceExpr="Prepmt. Payment Discount %" }

    { 122 ;2   ;Field     ;
                Name=quoteNumber;
                CaptionML=[@@@={Locked};
                           ENU=Quote No.;
                           ENG=Quote No.];
                ApplicationArea=#All;
                SourceExpr="Quote No." }

    { 123 ;2   ;Field     ;
                Name=quoteValidUntilDate;
                CaptionML=[@@@={Locked};
                           ENU=Quote Valid Until Date;
                           ENG=Quote Valid Until Date];
                ApplicationArea=#All;
                SourceExpr="Quote Valid Until Date" }

    { 124 ;2   ;Field     ;
                Name=quoteSentToCustomer;
                CaptionML=[@@@={Locked};
                           ENU=Quote Sent to Customer;
                           ENG=Quote Sent to Customer];
                ApplicationArea=#All;
                SourceExpr="Quote Sent to Customer" }

    { 125 ;2   ;Field     ;
                Name=quoteAccepted;
                CaptionML=[@@@={Locked};
                           ENU=Quote Accepted;
                           ENG=Quote Accepted];
                ApplicationArea=#All;
                SourceExpr="Quote Accepted" }

    { 126 ;2   ;Field     ;
                Name=quoteAcceptedDate;
                CaptionML=[@@@={Locked};
                           ENU=Quote Accepted Date;
                           ENG=Quote Accepted Date];
                ApplicationArea=#All;
                SourceExpr="Quote Accepted Date" }

    { 127 ;2   ;Field     ;
                Name=jobQueueStatus;
                CaptionML=[@@@={Locked};
                           ENU=Job Queue Status;
                           ENG=Job Queue Status];
                ApplicationArea=#All;
                SourceExpr="Job Queue Status" }

    { 128 ;2   ;Field     ;
                Name=jobQueueEntryId;
                CaptionML=[@@@={Locked};
                           ENU=Job Queue Entry ID;
                           ENG=Job Queue Entry ID];
                ApplicationArea=#All;
                SourceExpr="Job Queue Entry ID" }

    { 129 ;2   ;Field     ;
                Name=incomingDocumentEntryNumber;
                CaptionML=[@@@={Locked};
                           ENU=Incoming Document Entry No.;
                           ENG=Incoming Document Entry No.];
                ApplicationArea=#All;
                SourceExpr="Incoming Document Entry No." }

    { 130 ;2   ;Field     ;
                Name=workDescription;
                CaptionML=[@@@={Locked};
                           ENU=Work Description;
                           ENG=Work Description];
                ApplicationArea=#All;
                SourceExpr="Work Description" }

    { 131 ;2   ;Field     ;
                Name=amountShippedNotInvoicedInclVat;
                CaptionML=[@@@={Locked};
                           ENU=Amount Shipped Not Invoiced (LCY) Incl. VAT;
                           ENG=Amount Shipped Not Invoiced (LCY) Incl. VAT];
                ApplicationArea=#All;
                SourceExpr="Amt. Ship. Not Inv. (LCY)" }

    { 132 ;2   ;Field     ;
                Name=amountShippedNotInvoiced;
                CaptionML=[@@@={Locked};
                           ENU=Amount Shipped Not Invoiced (LCY);
                           ENG=Amount Shipped Not Invoiced (LCY)];
                ApplicationArea=#All;
                SourceExpr="Amt. Ship. Not Inv. (LCY) Base" }

    { 133 ;2   ;Field     ;
                Name=dimensionSetId;
                CaptionML=[@@@={Locked};
                           ENU=Dimension Set ID;
                           ENG=Dimension Set ID];
                ApplicationArea=#All;
                SourceExpr="Dimension Set ID" }

    { 134 ;2   ;Field     ;
                Name=paymentServiceSetId;
                CaptionML=[@@@={Locked};
                           ENU=Payment Service Set ID;
                           ENG=Payment Service Set ID];
                ApplicationArea=#All;
                SourceExpr="Payment Service Set ID" }

    { 135 ;2   ;Field     ;
                Name=directDebitMandateId;
                CaptionML=[@@@={Locked};
                           ENU=Direct Debit Mandate ID;
                           ENG=Direct Debit Mandate ID];
                ApplicationArea=#All;
                SourceExpr="Direct Debit Mandate ID" }

    { 136 ;2   ;Field     ;
                Name=invoiceDiscountAmount;
                CaptionML=[@@@={Locked};
                           ENU=Invoice Discount Amount;
                           ENG=Invoice Discount Amount];
                ApplicationArea=#All;
                SourceExpr="Invoice Discount Amount" }

    { 137 ;2   ;Field     ;
                Name=numberOfArchivedVersions;
                CaptionML=[@@@={Locked};
                           ENU=No. of Archived Versions;
                           ENG=No. of Archived Versions];
                ApplicationArea=#All;
                SourceExpr="No. of Archived Versions" }

    { 138 ;2   ;Field     ;
                Name=docNumberOccurrence;
                CaptionML=[@@@={Locked};
                           ENU=Doc. No. Occurrence;
                           ENG=Doc. No. Occurrence];
                ApplicationArea=#All;
                SourceExpr="Doc. No. Occurrence" }

    { 139 ;2   ;Field     ;
                Name=campaignNumber;
                CaptionML=[@@@={Locked};
                           ENU=Campaign No.;
                           ENG=Campaign No.];
                ApplicationArea=#All;
                SourceExpr="Campaign No." }

    { 140 ;2   ;Field     ;
                Name=sellToCustomerTemplateCode;
                CaptionML=[@@@={Locked};
                           ENU=Sell-to Customer Template Code;
                           ENG=Sell-to Customer Template Code];
                ApplicationArea=#All;
                SourceExpr="Sell-to Customer Template Code" }

    { 141 ;2   ;Field     ;
                Name=sellToContactNumber;
                CaptionML=[@@@={Locked};
                           ENU=Sell-to Contact No.;
                           ENG=Sell-to Contact No.];
                ApplicationArea=#All;
                SourceExpr="Sell-to Contact No." }

    { 142 ;2   ;Field     ;
                Name=billToContactNumber;
                CaptionML=[@@@={Locked};
                           ENU=Bill-to Contact No.;
                           ENG=Bill-to Contact No.];
                ApplicationArea=#All;
                SourceExpr="Bill-to Contact No." }

    { 143 ;2   ;Field     ;
                Name=billToCustomerTemplateCode;
                CaptionML=[@@@={Locked};
                           ENU=Bill-to Customer Template Code;
                           ENG=Bill-to Customer Template Code];
                ApplicationArea=#All;
                SourceExpr="Bill-to Customer Template Code" }

    { 144 ;2   ;Field     ;
                Name=opportunityNumber;
                CaptionML=[@@@={Locked};
                           ENU=Opportunity No.;
                           ENG=Opportunity No.];
                ApplicationArea=#All;
                SourceExpr="Opportunity No." }

    { 145 ;2   ;Field     ;
                Name=responsibilityCenter;
                CaptionML=[@@@={Locked};
                           ENU=Responsibility Center;
                           ENG=Responsibility Center];
                ApplicationArea=#All;
                SourceExpr="Responsibility Center" }

    { 146 ;2   ;Field     ;
                Name=shippingAdvice;
                CaptionML=[@@@={Locked};
                           ENU=Shipping Advice;
                           ENG=Shipping Advice];
                ApplicationArea=#All;
                SourceExpr="Shipping Advice" }

    { 147 ;2   ;Field     ;
                Name=shippedNotInvoiced;
                CaptionML=[@@@={Locked};
                           ENU=Shipped Not Invoiced;
                           ENG=Shipped Not Invoiced];
                ApplicationArea=#All;
                SourceExpr="Shipped Not Invoiced" }

    { 148 ;2   ;Field     ;
                Name=completelyShipped;
                CaptionML=[@@@={Locked};
                           ENU=Completely Shipped;
                           ENG=Completely Shipped];
                ApplicationArea=#All;
                SourceExpr="Completely Shipped" }

    { 149 ;2   ;Field     ;
                Name=postingFromWhseRef;
                CaptionML=[@@@={Locked};
                           ENU=Posting from Whse. Ref.;
                           ENG=Posting from Whse. Ref.];
                ApplicationArea=#All;
                SourceExpr="Posting from Whse. Ref." }

    { 150 ;2   ;Field     ;
                Name=locationFilter;
                CaptionML=[@@@={Locked};
                           ENU=Location Filter;
                           ENG=Location Filter];
                ApplicationArea=#All;
                SourceExpr="Location Filter" }

    { 151 ;2   ;Field     ;
                Name=shipped;
                CaptionML=[@@@={Locked};
                           ENU=Shipped;
                           ENG=Shipped];
                ApplicationArea=#All;
                SourceExpr=Shipped }

    { 152 ;2   ;Field     ;
                Name=requestedDeliveryDate;
                CaptionML=[@@@={Locked};
                           ENU=Requested Delivery Date;
                           ENG=Requested Delivery Date];
                ApplicationArea=#All;
                SourceExpr="Requested Delivery Date" }

    { 153 ;2   ;Field     ;
                Name=promisedDeliveryDate;
                CaptionML=[@@@={Locked};
                           ENU=Promised Delivery Date;
                           ENG=Promised Delivery Date];
                ApplicationArea=#All;
                SourceExpr="Promised Delivery Date" }

    { 154 ;2   ;Field     ;
                Name=shippingTime;
                CaptionML=[@@@={Locked};
                           ENU=Shipping Time;
                           ENG=Shipping Time];
                ApplicationArea=#All;
                SourceExpr="Shipping Time" }

    { 155 ;2   ;Field     ;
                Name=outboundWhseHandlingTime;
                CaptionML=[@@@={Locked};
                           ENU=Outbound Whse. Handling Time;
                           ENG=Outbound Whse. Handling Time];
                ApplicationArea=#All;
                SourceExpr="Outbound Whse. Handling Time" }

    { 156 ;2   ;Field     ;
                Name=shippingAgentServiceCode;
                CaptionML=[@@@={Locked};
                           ENU=Shipping Agent Service Code;
                           ENG=Shipping Agent Service Code];
                ApplicationArea=#All;
                SourceExpr="Shipping Agent Service Code" }

    { 157 ;2   ;Field     ;
                Name=lateOrderShipping;
                CaptionML=[@@@={Locked};
                           ENU=Late Order Shipping;
                           ENG=Late Order Shipping];
                ApplicationArea=#All;
                SourceExpr="Late Order Shipping" }

    { 159 ;2   ;Field     ;
                Name=receive;
                CaptionML=[@@@={Locked};
                           ENU=Receive;
                           ENG=Receive];
                ApplicationArea=#All;
                SourceExpr=Receive }

    { 160 ;2   ;Field     ;
                Name=returnReceiptNumber;
                CaptionML=[@@@={Locked};
                           ENU=Return Receipt No.;
                           ENG=Return Receipt No.];
                ApplicationArea=#All;
                SourceExpr="Return Receipt No." }

    { 161 ;2   ;Field     ;
                Name=returnReceiptNumberSeries;
                CaptionML=[@@@={Locked};
                           ENU=Return Receipt No. Series;
                           ENG=Return Receipt No. Series];
                ApplicationArea=#All;
                SourceExpr="Return Receipt No. Series" }

    { 162 ;2   ;Field     ;
                Name=lastReturnReceiptNumber;
                CaptionML=[@@@={Locked};
                           ENU=Last Return Receipt No.;
                           ENG=Last Return Receipt No.];
                ApplicationArea=#All;
                SourceExpr="Last Return Receipt No." }

    { 163 ;2   ;Field     ;
                Name=allowLineDisc;
                CaptionML=[@@@={Locked};
                           ENU=Allow Line Disc.;
                           ENG=Allow Line Disc.];
                ApplicationArea=#All;
                SourceExpr="Allow Line Disc." }

    { 164 ;2   ;Field     ;
                Name=getShipmentUsed;
                CaptionML=[@@@={Locked};
                           ENU=Get Shipment Used;
                           ENG=Get Shipment Used];
                ApplicationArea=#All;
                SourceExpr="Get Shipment Used" }

    { 165 ;2   ;Field     ;
                Name=id;
                CaptionML=[@@@={Locked};
                           ENU=Id;
                           ENG=Id];
                ApplicationArea=#All;
                SourceExpr=Id }

    { 166 ;2   ;Field     ;
                Name=assignedUserId;
                CaptionML=[@@@={Locked};
                           ENU=Assigned User ID;
                           ENG=Assigned User ID];
                ApplicationArea=#All;
                SourceExpr="Assigned User ID" }

    { 167 ;2   ;Part      ;
                Name=workflowSalesDocumentLines;
                CaptionML=[@@@={Locked};
                           ENU=Lines;
                           ENG=Lines];
                ApplicationArea=#All;
                SubPageLink=Document Type=FIELD(Document Type),
                            Document No.=FIELD(No.);
                PagePartID=Page6403;
                PartType=Page }

  }
  CODE
  {

    BEGIN
    END.
  }
}

