OBJECT Page 6218 Field List
{
  OBJECT-PROPERTIES
  {
    Date=25/10/16;
    Time=12:00:00;
    Version List=NAVW110.00;
  }
  PROPERTIES
  {
    Editable=No;
    CaptionML=[ENU=Field List;
               ENG=Field List];
    SourceTable=Table2000000041;
    DataCaptionExpr=Caption;
    PageType=List;
  }
  CONTROLS
  {
    { 1900000001;0;Container;
                ContainerType=ContentArea }

    { 1   ;1   ;Group     ;
                GroupType=Repeater }

    { 2   ;2   ;Field     ;
                CaptionML=[ENU=Name;
                           ENG=Name];
                ToolTipML=[ENU=Specifies the name of the record.;
                           ENG=Specifies the name of the record.];
                ApplicationArea=#Suite;
                SourceExpr=FieldName }

    { 1900000007;0;Container;
                ContainerType=FactBoxArea }

    { 1900383207;1;Part   ;
                Visible=FALSE;
                PartType=System;
                SystemPartID=RecordLinks }

    { 1905767507;1;Part   ;
                Visible=FALSE;
                PartType=System;
                SystemPartID=Notes }

  }
  CODE
  {

    LOCAL PROCEDURE Caption@1() : Text[100];
    BEGIN
      EXIT(STRSUBSTNO('%1',TableName));
    END;

    BEGIN
    END.
  }
}

