OBJECT Page 6651 Posted Return Shipment Subform
{
  OBJECT-PROPERTIES
  {
    Date=21/12/17;
    Time=12:00:00;
    Version List=NAVW111.00.00.19846;
  }
  PROPERTIES
  {
    Editable=No;
    CaptionML=[ENU=Lines;
               ENG=Lines];
    LinksAllowed=No;
    SourceTable=Table6651;
    PageType=ListPart;
    AutoSplitKey=Yes;
    ActionList=ACTIONS
    {
      { 1900000004;0 ;ActionContainer;
                      ActionContainerType=ActionItems }
      { 1906587504;1 ;ActionGroup;
                      CaptionML=[ENU=F&unctions;
                                 ENG=F&unctions];
                      Image=Action }
      { 1901653604;2 ;Action    ;
                      CaptionML=[ENU=&Undo Return Shipment;
                                 ENG=&Undo Return Shipment];
                      ToolTipML=[ENU=Undo the quantity posting made with the return shipment. A corrective line is inserted in the posted document, and the Return Qty. Shipped and Return Shpd. Not Invd. fields on the return order are set to zero.;
                                 ENG=Undo the quantity posting made with the return shipment. A corrective line is inserted in the posted document, and the Return Qty. Shipped and Return Shpd. Not Invd. fields on the return order are set to zero.];
                      ApplicationArea=#PurchReturnOrder;
                      OnAction=BEGIN
                                 UndoReturnShipment;
                               END;
                                }
      { 1907935204;1 ;ActionGroup;
                      CaptionML=[ENU=&Line;
                                 ENG=&Line];
                      Image=Line }
      { 1900295304;2 ;Action    ;
                      Name=Dimensions;
                      AccessByPermission=TableData 348=R;
                      ShortCutKey=Shift+Ctrl+D;
                      CaptionML=[ENU=Dimensions;
                                 ENG=Dimensions];
                      ToolTipML=[ENU=View or edit dimensions, such as area, project, or department, that you can assign to sales and purchase documents to distribute costs and analyze transaction history.;
                                 ENG=View or edit dimensions, such as area, project, or department, that you can assign to sales and purchase documents to distribute costs and analyse transaction history.];
                      ApplicationArea=#Dimensions;
                      Image=Dimensions;
                      OnAction=BEGIN
                                 ShowDimensions;
                               END;
                                }
      { 1907504604;2 ;Action    ;
                      Name=Comments;
                      CaptionML=[ENU=Co&mments;
                                 ENG=Co&mments];
                      ToolTipML=[ENU=View or add comments for the record.;
                                 ENG=View or add comments for the record.];
                      ApplicationArea=#PurchReturnOrder;
                      Image=ViewComments;
                      OnAction=BEGIN
                                 ShowLineComments;
                               END;
                                }
      { 1905987604;2 ;Action    ;
                      Name=ItemTrackingEntries;
                      CaptionML=[ENU=Item &Tracking Entries;
                                 ENG=Item &Tracking Entries];
                      ToolTipML=[ENU=View serial or lot numbers that are assigned to items.;
                                 ENG=View serial or lot numbers that are assigned to items.];
                      ApplicationArea=#ItemTracking;
                      Image=ItemTrackingLedger;
                      OnAction=BEGIN
                                 ShowItemTrackingLines;
                               END;
                                }
      { 1903100004;2 ;Action    ;
                      Name=ItemCreditMemoLines;
                      CaptionML=[ENU=Item Credit Memo &Lines;
                                 ENG=Item Credit Memo &Lines];
                      ToolTipML=[ENU=View the related credit memo lines.;
                                 ENG=View the related credit memo lines.];
                      ApplicationArea=#PurchReturnOrder;
                      OnAction=BEGIN
                                 PageShowItemPurchCrMemoLines;
                               END;
                                }
    }
  }
  CONTROLS
  {
    { 1900000001;0;Container;
                ContainerType=ContentArea }

    { 1   ;1   ;Group     ;
                GroupType=Repeater }

    { 2   ;2   ;Field     ;
                ToolTipML=[ENU=Specifies the line type.;
                           ENG=Specifies the line type.];
                ApplicationArea=#PurchReturnOrder;
                SourceExpr=Type }

    { 4   ;2   ;Field     ;
                ToolTipML=[ENU=Specifies the number of the involved entry or record, according to the specified number series.;
                           ENG=Specifies the number of the involved entry or record, according to the specified number series.];
                ApplicationArea=#PurchReturnOrder;
                SourceExpr="No." }

    { 66  ;2   ;Field     ;
                ToolTipML=[ENU=Specifies the cross-referenced item number. If you enter a cross reference between yours and your vendor's or customer's item number, then this number will override the standard item number when you enter the cross-reference number on a sales or purchase document.;
                           ENG=Specifies the cross-referenced item number. If you enter a cross reference between yours and your vendor's or customer's item number, then this number will override the standard item number when you enter the cross-reference number on a sales or purchase document.];
                ApplicationArea=#PurchReturnOrder;
                SourceExpr="Cross-Reference No.";
                Visible=FALSE }

    { 46  ;2   ;Field     ;
                ToolTipML=[ENU=Specifies the variant of the item on the line.;
                           ENG=Specifies the variant of the item on the line.];
                ApplicationArea=#Advanced;
                SourceExpr="Variant Code";
                Visible=FALSE }

    { 6   ;2   ;Field     ;
                ToolTipML=[ENU=Specifies a description of the shipment that was returned to vendor, that was posted;
                           ENG=Specifies a description of the shipment that was returned to vendor, that was posted];
                ApplicationArea=#PurchReturnOrder;
                SourceExpr=Description }

    { 16  ;2   ;Field     ;
                ToolTipML=[ENU=Specifies the code explaining why the item was returned.;
                           ENG=Specifies the code explaining why the item was returned.];
                ApplicationArea=#PurchReturnOrder;
                SourceExpr="Return Reason Code" }

    { 40  ;2   ;Field     ;
                ToolTipML=[ENU=Specifies the location from where inventory items to the customer on the sales document are to be shipped by default.;
                           ENG=Specifies the location from where inventory items to the customer on the sales document are to be shipped by default.];
                ApplicationArea=#PurchReturnOrder;
                SourceExpr="Location Code" }

    { 22  ;2   ;Field     ;
                ToolTipML=[ENU=Specifies the bin where the items are picked or put away.;
                           ENG=Specifies the bin where the items are picked or put away.];
                ApplicationArea=#PurchReturnOrder;
                SourceExpr="Bin Code";
                Visible=FALSE }

    { 8   ;2   ;Field     ;
                ToolTipML=[ENU=Specifies the number of units of the item, general ledger account, or item charge on the line.;
                           ENG=Specifies the number of units of the item, general ledger account, or item charge on the line.];
                ApplicationArea=#PurchReturnOrder;
                BlankZero=Yes;
                SourceExpr=Quantity }

    { 64  ;2   ;Field     ;
                ToolTipML=[ENU=Specifies how each unit of the item or resource is measured, such as in pieces or hours. By default, the value in the Base Unit of Measure field on the item or resource card is inserted.;
                           ENG=Specifies how each unit of the item or resource is measured, such as in pieces or hours. By default, the value in the Base Unit of Measure field on the item or resource card is inserted.];
                ApplicationArea=#PurchReturnOrder;
                SourceExpr="Unit of Measure Code" }

    { 10  ;2   ;Field     ;
                ToolTipML=[ENU=Specifies the name of the item or resource's unit of measure, such as piece or hour.;
                           ENG=Specifies the name of the item or resource's unit of measure, such as piece or hour.];
                ApplicationArea=#PurchReturnOrder;
                SourceExpr="Unit of Measure";
                Visible=FALSE }

    { 12  ;2   ;Field     ;
                ToolTipML=[ENU=Specifies the cost of one unit of the selected item or resource.;
                           ENG=Specifies the cost of one unit of the selected item or resource.];
                ApplicationArea=#PurchReturnOrder;
                BlankZero=Yes;
                SourceExpr="Direct Unit Cost" }

    { 14  ;2   ;Field     ;
                ToolTipML=[ENU=Specifies how many units of the item on the line have been posted as invoiced.;
                           ENG=Specifies how many units of the item on the line have been posted as invoiced.];
                ApplicationArea=#PurchReturnOrder;
                SourceExpr="Quantity Invoiced" }

    { 18  ;2   ;Field     ;
                ToolTipML=[ENU=Specifies the quantity from the line that has been posted as shipped but that has not yet been posted as invoiced.;
                           ENG=Specifies the quantity from the line that has been posted as shipped but that has not yet been posted as invoiced.];
                ApplicationArea=#PurchReturnOrder;
                SourceExpr="Return Qty. Shipped Not Invd.";
                Visible=FALSE;
                Editable=FALSE }

    { 34  ;2   ;Field     ;
                ToolTipML=[ENU=Specifies the number of the related job.;
                           ENG=Specifies the number of the related job.];
                ApplicationArea=#PurchReturnOrder;
                SourceExpr="Job No.";
                Visible=FALSE }

    { 62  ;2   ;Field     ;
                ToolTipML=[ENU=Specifies the number of the related production order.;
                           ENG=Specifies the number of the related production order.];
                ApplicationArea=#PurchReturnOrder;
                SourceExpr="Prod. Order No.";
                Visible=FALSE }

    { 36  ;2   ;Field     ;
                ToolTipML=[ENU=Specifies the number of the item ledger entry that the document or journal line is applied to.;
                           ENG=Specifies the number of the item ledger entry that the document or journal line is applied to.];
                ApplicationArea=#PurchReturnOrder;
                SourceExpr="Appl.-to Item Entry";
                Visible=FALSE }

    { 56  ;2   ;Field     ;
                ToolTipML=[ENU=Specifies the code for Shortcut Dimension 1, which is one of two global dimension codes that you set up in the General Ledger Setup window.;
                           ENG=Specifies the code for Shortcut Dimension 1, which is one of two global dimension codes that you set up in the General Ledger Setup window.];
                ApplicationArea=#Dimensions;
                SourceExpr="Shortcut Dimension 1 Code";
                Visible=FALSE }

    { 54  ;2   ;Field     ;
                ToolTipML=[ENU=Specifies the code for Shortcut Dimension 2, which is one of two global dimension codes that you set up in the General Ledger Setup window.;
                           ENG=Specifies the code for Shortcut Dimension 2, which is one of two global dimension codes that you set up in the General Ledger Setup window.];
                ApplicationArea=#Dimensions;
                SourceExpr="Shortcut Dimension 2 Code";
                Visible=FALSE }

    { 20  ;2   ;Field     ;
                ToolTipML=[ENU=Specifies the entry as a corrective entry. You can use the field if you need to post a corrective entry to an account.;
                           ENG=Specifies the entry as a corrective entry. You can use the field if you need to post a corrective entry to an account.];
                ApplicationArea=#PurchReturnOrder;
                SourceExpr=Correction;
                Visible=FALSE;
                Enabled=TRUE;
                Editable=FALSE }

  }
  CODE
  {

    LOCAL PROCEDURE UndoReturnShipment@1();
    VAR
      ReturnShptLine@1000 : Record 6651;
    BEGIN
      ReturnShptLine.COPY(Rec);
      CurrPage.SETSELECTIONFILTER(ReturnShptLine);
      CODEUNIT.RUN(CODEUNIT::"Undo Return Shipment Line",ReturnShptLine);
    END;

    LOCAL PROCEDURE PageShowItemPurchCrMemoLines@2();
    BEGIN
      TESTFIELD(Type,Type::Item);
      ShowItemPurchCrMemoLines;
    END;

    BEGIN
    END.
  }
}

