OBJECT Page 6652 Posted Return Shipments
{
  OBJECT-PROPERTIES
  {
    Date=21/12/17;
    Time=12:00:00;
    Version List=NAVW111.00.00.19846;
  }
  PROPERTIES
  {
    Editable=No;
    CaptionML=[ENU=Posted Return Shipments;
               ENG=Posted Return Shipments];
    SourceTable=Table6650;
    PageType=List;
    CardPageID=Posted Return Shipment;
    OnOpenPage=BEGIN
                 SetSecurityFilterOnRespCenter;
               END;

    ActionList=ACTIONS
    {
      { 1900000003;0 ;ActionContainer;
                      ActionContainerType=RelatedInformation }
      { 23      ;1   ;ActionGroup;
                      CaptionML=[ENU=&Return Shpt.;
                                 ENG=&Return Shpt.];
                      Image=Shipment }
      { 29      ;2   ;Action    ;
                      ShortCutKey=F7;
                      CaptionML=[ENU=Statistics;
                                 ENG=Statistics];
                      ToolTipML=[ENU=View statistical information, such as the value of posted entries, for the record.;
                                 ENG=View statistical information, such as the value of posted entries, for the record.];
                      ApplicationArea=#PurchReturnOrder;
                      RunObject=Page 6655;
                      RunPageLink=No.=FIELD(No.);
                      Promoted=Yes;
                      Image=Statistics;
                      PromotedCategory=Process }
      { 30      ;2   ;Action    ;
                      CaptionML=[ENU=Co&mments;
                                 ENG=Co&mments];
                      ToolTipML=[ENU=View or add comments for the record.;
                                 ENG=View or add comments for the record.];
                      ApplicationArea=#PurchReturnOrder;
                      RunObject=Page 66;
                      RunPageLink=Document Type=CONST(Posted Return Shipment),
                                  No.=FIELD(No.);
                      Image=ViewComments }
      { 1102601000;2 ;Action    ;
                      AccessByPermission=TableData 348=R;
                      ShortCutKey=Shift+Ctrl+D;
                      CaptionML=[ENU=Dimensions;
                                 ENG=Dimensions];
                      ToolTipML=[ENU=View or edit dimensions, such as area, project, or department, that you can assign to sales and purchase documents to distribute costs and analyze transaction history.;
                                 ENG=View or edit dimensions, such as area, project, or department, that you can assign to sales and purchase documents to distribute costs and analyse transaction history.];
                      ApplicationArea=#Dimensions;
                      Image=Dimensions;
                      OnAction=BEGIN
                                 ShowDimensions;
                               END;
                                }
      { 5       ;2   ;Action    ;
                      Name=CertificateOfSupplyDetails;
                      CaptionML=[ENU=Certificate of Supply Details;
                                 ENG=Certificate of Supply Details];
                      ToolTipML=[ENU=View the certificate of supply that you must send to your customer for signature as confirmation of receipt. You must print a certificate of supply if the shipment uses a combination of VAT business posting group and VAT product posting group that have been marked to require a certificate of supply in the VAT Posting Setup window.;
                                 ENG=View the certificate of supply that you must send to your customer for signature as confirmation of receipt. You must print a certificate of supply if the shipment uses a combination of VAT business posting group and VAT product posting group that have been marked to require a certificate of supply in the VAT Posting Setup window.];
                      ApplicationArea=#PurchReturnOrder;
                      RunObject=Page 780;
                      RunPageLink=Document Type=FILTER(Return Shipment),
                                  Document No.=FIELD(No.);
                      Image=Certificate }
      { 7       ;2   ;Action    ;
                      Name=PrintCertificateofSupply;
                      CaptionML=[ENU=Print Certificate of Supply;
                                 ENG=Print Certificate of Supply];
                      ToolTipML=[ENU=Print the certificate of supply that you must send to your customer for signature as confirmation of receipt.;
                                 ENG=Print the certificate of supply that you must send to your customer for signature as confirmation of receipt.];
                      ApplicationArea=#PurchReturnOrder;
                      Image=PrintReport;
                      OnAction=VAR
                                 CertificateOfSupply@1000 : Record 780;
                               BEGIN
                                 CertificateOfSupply.SETRANGE("Document Type",CertificateOfSupply."Document Type"::"Return Shipment");
                                 CertificateOfSupply.SETRANGE("Document No.","No.");
                                 CertificateOfSupply.Print;
                               END;
                                }
      { 1900000004;0 ;ActionContainer;
                      ActionContainerType=ActionItems }
      { 21      ;1   ;Action    ;
                      Ellipsis=Yes;
                      CaptionML=[ENU=&Print;
                                 ENG=&Print];
                      ToolTipML=[ENU=Prepare to print the document. A report request window for the document opens where you can specify what to include on the print-out.;
                                 ENG=Prepare to print the document. A report request window for the document opens where you can specify what to include on the print-out.];
                      ApplicationArea=#PurchReturnOrder;
                      Promoted=Yes;
                      Image=Print;
                      PromotedCategory=Process;
                      OnAction=BEGIN
                                 CurrPage.SETSELECTIONFILTER(ReturnShptHeader);
                                 ReturnShptHeader.PrintRecords(TRUE);
                               END;
                                }
      { 22      ;1   ;Action    ;
                      CaptionML=[ENU=&Navigate;
                                 ENG=&Navigate];
                      ToolTipML=[ENU=Find all entries and documents that exist for the document number and posting date on the selected entry or document.;
                                 ENG=Find all entries and documents that exist for the document number and posting date on the selected entry or document.];
                      ApplicationArea=#PurchReturnOrder;
                      Promoted=Yes;
                      Image=Navigate;
                      PromotedCategory=Process;
                      OnAction=BEGIN
                                 Navigate;
                               END;
                                }
    }
  }
  CONTROLS
  {
    { 1900000001;0;Container;
                ContainerType=ContentArea }

    { 1   ;1   ;Group     ;
                GroupType=Repeater }

    { 2   ;2   ;Field     ;
                ToolTipML=[ENU=Specifies the number of the involved entry or record, according to the specified number series.;
                           ENG=Specifies the number of the involved entry or record, according to the specified number series.];
                ApplicationArea=#PurchReturnOrder;
                SourceExpr="No." }

    { 4   ;2   ;Field     ;
                ToolTipML=[ENU=Specifies the name of the vendor who delivered the items.;
                           ENG=Specifies the name of the vendor who delivered the items.];
                ApplicationArea=#PurchReturnOrder;
                SourceExpr="Buy-from Vendor No." }

    { 15  ;2   ;Field     ;
                ToolTipML=[ENU=Specifies the order address of the related customer.;
                           ENG=Specifies the order address of the related customer.];
                ApplicationArea=#PurchReturnOrder;
                SourceExpr="Order Address Code";
                Visible=FALSE }

    { 6   ;2   ;Field     ;
                ToolTipML=[ENU=Specifies the name of the vendor who delivered the items.;
                           ENG=Specifies the name of the vendor who delivered the items.];
                ApplicationArea=#PurchReturnOrder;
                SourceExpr="Buy-from Vendor Name" }

    { 35  ;2   ;Field     ;
                ToolTipML=[ENU=Specifies the currency that is used on the entry.;
                           ENG=Specifies the currency that is used on the entry.];
                ApplicationArea=#PurchReturnOrder;
                SourceExpr="Currency Code";
                Visible=FALSE }

    { 31  ;2   ;Field     ;
                ToolTipML=[ENU=Specifies the post code of the vendor who delivered the items.;
                           ENG=Specifies the postcode of the vendor who delivered the items.];
                ApplicationArea=#PurchReturnOrder;
                SourceExpr="Buy-from Post Code";
                Visible=FALSE }

    { 27  ;2   ;Field     ;
                ToolTipML=[ENU=Specifies the city of the vendor who delivered the items.;
                           ENG=Specifies the city of the vendor who delivered the items.];
                ApplicationArea=#PurchReturnOrder;
                SourceExpr="Buy-from Country/Region Code";
                Visible=FALSE }

    { 39  ;2   ;Field     ;
                ToolTipML=[ENU=Specifies the name of the contact person at the vendor who delivered the items.;
                           ENG=Specifies the name of the contact person at the vendor who delivered the items.];
                ApplicationArea=#PurchReturnOrder;
                SourceExpr="Buy-from Contact";
                Visible=FALSE }

    { 127 ;2   ;Field     ;
                ToolTipML=[ENU=Specifies the number of the vendor that you received the invoice from.;
                           ENG=Specifies the number of the vendor that you received the invoice from.];
                ApplicationArea=#PurchReturnOrder;
                SourceExpr="Pay-to Vendor No.";
                Visible=FALSE }

    { 125 ;2   ;Field     ;
                ToolTipML=[ENU=Specifies the name of the customer who you received the invoice from.;
                           ENG=Specifies the name of the customer who you received the invoice from.];
                ApplicationArea=#PurchReturnOrder;
                SourceExpr="Pay-to Name";
                Visible=FALSE }

    { 37  ;2   ;Field     ;
                ToolTipML=[ENU=Specifies the post code of the customer that you received the invoice from.;
                           ENG=Specifies the postcode of the customer that you received the invoice from.];
                ApplicationArea=#PurchReturnOrder;
                SourceExpr="Pay-to Post Code";
                Visible=FALSE }

    { 33  ;2   ;Field     ;
                ToolTipML=[ENU=Specifies the country/region code of the address.;
                           ENG=Specifies the country/region code of the address.];
                ApplicationArea=#PurchReturnOrder;
                SourceExpr="Pay-to Country/Region Code";
                Visible=FALSE }

    { 115 ;2   ;Field     ;
                ToolTipML=[ENU=Specifies the name of the person to contact about an invoice from this customer.;
                           ENG=Specifies the name of the person to contact about an invoice from this customer.];
                ApplicationArea=#PurchReturnOrder;
                SourceExpr="Pay-to Contact";
                Visible=FALSE }

    { 111 ;2   ;Field     ;
                ToolTipML=[ENU=Specifies a code for an alternate shipment address if you want to ship to another address than the one that has been entered automatically. This field is also used in case of drop shipment.;
                           ENG=Specifies a code for an alternate shipment address if you want to ship to another address than the one that has been entered automatically. This field is also used in case of drop shipment.];
                ApplicationArea=#PurchReturnOrder;
                SourceExpr="Ship-to Code";
                Visible=FALSE }

    { 109 ;2   ;Field     ;
                ToolTipML=[ENU=Specifies the name of the customer at the address that the items are shipped to.;
                           ENG=Specifies the name of the customer at the address that the items are shipped to.];
                ApplicationArea=#PurchReturnOrder;
                SourceExpr="Ship-to Name";
                Visible=FALSE }

    { 25  ;2   ;Field     ;
                ToolTipML=[ENU=Specifies the postal code of the address that the items are shipped to.;
                           ENG=Specifies the postcode of the address that the items are shipped to.];
                ApplicationArea=#PurchReturnOrder;
                SourceExpr="Ship-to Post Code";
                Visible=FALSE }

    { 19  ;2   ;Field     ;
                ToolTipML=[ENU=Specifies the country/region code of the address that the items are shipped to.;
                           ENG=Specifies the country/region code of the address that the items are shipped to.];
                ApplicationArea=#PurchReturnOrder;
                SourceExpr="Ship-to Country/Region Code";
                Visible=FALSE }

    { 99  ;2   ;Field     ;
                ToolTipML=[ENU=Specifies the name of the contact person at the address that the items are shipped to.;
                           ENG=Specifies the name of the contact person at the address that the items are shipped to.];
                ApplicationArea=#PurchReturnOrder;
                SourceExpr="Ship-to Contact";
                Visible=FALSE }

    { 97  ;2   ;Field     ;
                ToolTipML=[ENU=Specifies the entry's posting date.;
                           ENG=Specifies the entry's posting date.];
                ApplicationArea=#PurchReturnOrder;
                SourceExpr="Posting Date";
                Visible=FALSE }

    { 71  ;2   ;Field     ;
                ToolTipML=[ENU=Specifies which purchaser is assigned to the vendor.;
                           ENG=Specifies which purchaser is assigned to the vendor.];
                ApplicationArea=#PurchReturnOrder;
                SourceExpr="Purchaser Code";
                Visible=FALSE }

    { 87  ;2   ;Field     ;
                ToolTipML=[ENU=Specifies the code for Shortcut Dimension 1, which is one of two global dimension codes that you set up in the General Ledger Setup window.;
                           ENG=Specifies the code for Shortcut Dimension 1, which is one of two global dimension codes that you set up in the General Ledger Setup window.];
                ApplicationArea=#Dimensions;
                SourceExpr="Shortcut Dimension 1 Code";
                Visible=FALSE }

    { 85  ;2   ;Field     ;
                ToolTipML=[ENU=Specifies the code for Shortcut Dimension 2, which is one of two global dimension codes that you set up in the General Ledger Setup window.;
                           ENG=Specifies the code for Shortcut Dimension 2, which is one of two global dimension codes that you set up in the General Ledger Setup window.];
                ApplicationArea=#Dimensions;
                SourceExpr="Shortcut Dimension 2 Code";
                Visible=FALSE }

    { 89  ;2   ;Field     ;
                ToolTipML=[ENU=Specifies the location from where inventory items to the customer on the sales document are to be shipped by default.;
                           ENG=Specifies the location from where inventory items to the customer on the sales document are to be shipped by default.];
                ApplicationArea=#PurchReturnOrder;
                SourceExpr="Location Code";
                Visible=TRUE }

    { 8   ;2   ;Field     ;
                ToolTipML=[ENU=Specifies how many times the document has been printed.;
                           ENG=Specifies how many times the document has been printed.];
                ApplicationArea=#PurchReturnOrder;
                SourceExpr="No. Printed" }

    { 1102601001;2;Field  ;
                ToolTipML=[ENU=Specifies the date when the related document was created.;
                           ENG=Specifies the date when the related document was created.];
                ApplicationArea=#PurchReturnOrder;
                SourceExpr="Document Date";
                Visible=FALSE }

    { 1102601003;2;Field  ;
                ToolTipML=[ENU=Specifies the type of the posted document that this document or journal line will be applied to when you post, for example to register payment.;
                           ENG=Specifies the type of the posted document that this document or journal line will be applied to when you post, for example to register payment.];
                ApplicationArea=#PurchReturnOrder;
                SourceExpr="Applies-to Doc. Type";
                Visible=FALSE }

    { 1900000007;0;Container;
                ContainerType=FactBoxArea }

    { 1900383207;1;Part   ;
                Visible=FALSE;
                PartType=System;
                SystemPartID=RecordLinks }

    { 1905767507;1;Part   ;
                Visible=TRUE;
                PartType=System;
                SystemPartID=Notes }

  }
  CODE
  {
    VAR
      ReturnShptHeader@1000 : Record 6650;

    BEGIN
    END.
  }
}

