OBJECT Page 637 IC Outbox Sales Lines
{
  OBJECT-PROPERTIES
  {
    Date=21/12/17;
    Time=12:00:00;
    Version List=NAVW111.00.00.19846;
  }
  PROPERTIES
  {
    CaptionML=[ENU=Lines;
               ENG=Lines];
    InsertAllowed=No;
    DeleteAllowed=No;
    LinksAllowed=No;
    SourceTable=Table427;
    PageType=ListPart;
    ActionList=ACTIONS
    {
      { 1900000004;0 ;ActionContainer;
                      ActionContainerType=ActionItems }
      { 1907935204;1 ;ActionGroup;
                      CaptionML=[ENU=&Line;
                                 ENG=&Line];
                      Image=Line }
      { 1903099104;2 ;Action    ;
                      AccessByPermission=TableData 348=R;
                      ShortCutKey=Shift+Ctrl+D;
                      CaptionML=[ENU=Dimensions;
                                 ENG=Dimensions];
                      ToolTipML=[ENU=View or edit dimensions, such as area, project, or department, that you can assign to sales and purchase documents to distribute costs and analyze transaction history.;
                                 ENG=View or edit dimensions, such as area, project, or department, that you can assign to sales and purchase documents to distribute costs and analyse transaction history.];
                      ApplicationArea=#Intercompany;
                      Promoted=Yes;
                      Image=Dimensions;
                      PromotedCategory=Process;
                      PromotedOnly=Yes;
                      OnAction=BEGIN
                                 ShowDimensions;
                               END;
                                }
    }
  }
  CONTROLS
  {
    { 1900000001;0;Container;
                ContainerType=ContentArea }

    { 1   ;1   ;Group     ;
                GroupType=Repeater }

    { 2   ;2   ;Field     ;
                ToolTipML=[ENU=Specifies the item or account in your IC partner's company that corresponds to the item or account on the line.;
                           ENG=Specifies the item or account in your IC partner's company that corresponds to the item or account on the line.];
                ApplicationArea=#Intercompany;
                SourceExpr="IC Partner Ref. Type" }

    { 4   ;2   ;Field     ;
                ToolTipML=[ENU=Specifies the IC partner. If the line is being sent to one of your intercompany partners, this field is used together with the IC Partner Ref. Type field to indicate the item or account in your partner's company that corresponds to the line.;
                           ENG=Specifies the IC partner. If the line is being sent to one of your intercompany partners, this field is used together with the IC Partner Ref. Type field to indicate the item or account in your partner's company that corresponds to the line.];
                ApplicationArea=#Intercompany;
                SourceExpr="IC Partner Reference" }

    { 6   ;2   ;Field     ;
                ToolTipML=[ENU=Specifies a description of the entry. The description depends on what you chose in the Type field. If you did not choose Blank, the program will fill in the field when you enter something in the No. field.;
                           ENG=Specifies a description of the entry. The description depends on what you chose in the Type field. If you did not choose Blank, the program will fill in the field when you enter something in the No. field.];
                ApplicationArea=#Intercompany;
                SourceExpr=Description }

    { 8   ;2   ;Field     ;
                ToolTipML=[ENU=Specifies how many units of the item will be specified on the line.;
                           ENG=Specifies how many units of the item will be specified on the line.];
                ApplicationArea=#Intercompany;
                SourceExpr=Quantity }

    { 10  ;2   ;Field     ;
                ToolTipML=[ENU=Specifies the price of one unit of the item or resource. You can enter a price manually or have it entered according to the Price/Profit Calculation field on the related card.;
                           ENG=Specifies the price of one unit of the item or resource. You can enter a price manually or have it entered according to the Price/Profit Calculation field on the related card.];
                ApplicationArea=#Intercompany;
                SourceExpr="Unit Price" }

    { 12  ;2   ;Field     ;
                ToolTipML=[ENU=Specifies the discount amount that is granted for the item on the line.;
                           ENG=Specifies the discount amount that is granted for the item on the line.];
                ApplicationArea=#Intercompany;
                SourceExpr="Line Discount Amount" }

    { 14  ;2   ;Field     ;
                ToolTipML=[ENU=Specifies the net amount, including VAT, for this line.;
                           ENG=Specifies the net amount, including VAT, for this line.];
                ApplicationArea=#Intercompany;
                SourceExpr="Amount Including VAT" }

    { 16  ;2   ;Field     ;
                ToolTipML=[ENU=Specifies the number of the related job.;
                           ENG=Specifies the number of the related job.];
                ApplicationArea=#Intercompany;
                SourceExpr="Job No.";
                Visible=FALSE }

    { 18  ;2   ;Field     ;
                ToolTipML=[ENU=Specifies if your vendor ships the items directly to your customer.;
                           ENG=Specifies if your vendor ships the items directly to your customer.];
                ApplicationArea=#Intercompany;
                SourceExpr="Drop Shipment";
                Visible=FALSE }

    { 20  ;2   ;Field     ;
                ToolTipML=[ENU=Specifies the amount that serves as a base for calculating the Amount Including VAT field.;
                           ENG=Specifies the amount that serves as a base for calculating the Amount Including VAT field.];
                ApplicationArea=#Intercompany;
                SourceExpr="VAT Base Amount";
                Visible=FALSE }

    { 22  ;2   ;Field     ;
                ToolTipML=[ENU=Specifies the net amount, excluding any invoice discount amount, that must be paid for products on the line.;
                           ENG=Specifies the net amount, excluding any invoice discount amount, that must be paid for products on the line.];
                ApplicationArea=#Intercompany;
                SourceExpr="Line Amount";
                Visible=FALSE }

    { 24  ;2   ;Field     ;
                ToolTipML=[ENU=Specifies the date that your customer has asked the items on this order line to be delivered.;
                           ENG=Specifies the date that your customer has asked the items on this order line to be delivered.];
                ApplicationArea=#Intercompany;
                SourceExpr="Requested Delivery Date";
                Visible=FALSE }

  }
  CODE
  {

    BEGIN
    END.
  }
}

