OBJECT Page 782 Opportunity Chart
{
  OBJECT-PROPERTIES
  {
    Date=22/11/17;
    Time=12:00:00;
    Version List=NAVW111.00;
  }
  PROPERTIES
  {
    CaptionML=[ENU=Opportunities;
               ENG=Opportunities];
    PageType=CardPart;
    OnOpenPage=BEGIN
                 OppChartMgt.SetDefaultOppStatus(Opportunity);
                 OppChartMgt.SetDefaultPeriod(Period);
               END;

    ActionList=ACTIONS
    {
      { 4       ;    ;ActionContainer;
                      ActionContainerType=ActionItems }
      { 5       ;1   ;ActionGroup;
                      CaptionML=[ENU=Opportunity;
                                 ENG=Opportunity];
                      Image=SelectChart }
      { 7       ;2   ;Action    ;
                      Name=NotStarted;
                      CaptionML=[ENU=Not Started;
                                 ENG=Not Started];
                      ToolTipML=[ENU=View opportunities not started.;
                                 ENG=View opportunities not started.];
                      ApplicationArea=#RelationshipMgmt;
                      OnAction=BEGIN
                                 Opportunity.Status := Opportunity.Status::"Not Started";
                                 UpdateChart(Period,Opportunity);
                               END;
                                }
      { 8       ;2   ;Action    ;
                      Name=InProgress;
                      CaptionML=[ENU=In Progress;
                                 ENG=In Progress];
                      ToolTipML=[ENU=View opportunities in progress.;
                                 ENG=View opportunities in progress.];
                      ApplicationArea=#RelationshipMgmt;
                      OnAction=BEGIN
                                 Opportunity.Status := Opportunity.Status::"In Progress";
                                 UpdateChart(Period,Opportunity);
                               END;
                                }
      { 9       ;2   ;Action    ;
                      Name=Won;
                      CaptionML=[ENU=Won;
                                 ENG=Won];
                      ToolTipML=[ENU=View opportunities won.;
                                 ENG=View opportunities won.];
                      ApplicationArea=#RelationshipMgmt;
                      OnAction=BEGIN
                                 Opportunity.Status := Opportunity.Status::Won;
                                 UpdateChart(Period,Opportunity);
                               END;
                                }
      { 10      ;2   ;Action    ;
                      Name=Lost;
                      CaptionML=[ENU=Lost;
                                 ENG=Lost];
                      ToolTipML=[ENU=View opportunities lost.;
                                 ENG=View opportunities lost.];
                      ApplicationArea=#RelationshipMgmt;
                      OnAction=BEGIN
                                 Opportunity.Status := Opportunity.Status::Lost;
                                 UpdateChart(Period,Opportunity);
                               END;
                                }
      { 6       ;1   ;ActionGroup;
                      CaptionML=[ENU=Period;
                                 ENG=Period];
                      Image=Period }
      { 11      ;2   ;Action    ;
                      Name=Day;
                      CaptionML=[ENU=Day;
                                 ENG=Day];
                      ToolTipML=[ENU=View the day.;
                                 ENG=View the day.];
                      ApplicationArea=#RelationshipMgmt;
                      OnAction=BEGIN
                                 Period."Period Type" := Period."Period Type"::Date;
                                 SetPeriodAndUpdateChart(Period);
                               END;
                                }
      { 12      ;2   ;Action    ;
                      Name=Week;
                      CaptionML=[ENU=Week;
                                 ENG=Week];
                      ToolTipML=[ENU=View the week.;
                                 ENG=View the week.];
                      ApplicationArea=#RelationshipMgmt;
                      OnAction=BEGIN
                                 Period."Period Type" := Period."Period Type"::Week;
                                 SetPeriodAndUpdateChart(Period);
                               END;
                                }
      { 13      ;2   ;Action    ;
                      Name=Month;
                      CaptionML=[ENU=Month;
                                 ENG=Month];
                      ToolTipML=[ENU=View the month.;
                                 ENG=View the month.];
                      ApplicationArea=#RelationshipMgmt;
                      OnAction=BEGIN
                                 Period."Period Type" := Period."Period Type"::Month;
                                 SetPeriodAndUpdateChart(Period);
                               END;
                                }
      { 14      ;2   ;Action    ;
                      Name=Quarter;
                      CaptionML=[ENU=Quarter;
                                 ENG=Quarter];
                      ToolTipML=[ENU=View the quarter.;
                                 ENG=View the quarter.];
                      ApplicationArea=#RelationshipMgmt;
                      OnAction=BEGIN
                                 Period."Period Type" := Period."Period Type"::Quarter;
                                 SetPeriodAndUpdateChart(Period);
                               END;
                                }
      { 15      ;2   ;Action    ;
                      Name=Year;
                      CaptionML=[ENU=Year;
                                 ENG=Year];
                      ToolTipML=[ENU=View the year.;
                                 ENG=View the year.];
                      ApplicationArea=#RelationshipMgmt;
                      OnAction=BEGIN
                                 Period."Period Type" := Period."Period Type"::Year;
                                 SetPeriodAndUpdateChart(Period);
                               END;
                                }
      { 16      ;1   ;Action    ;
                      Name=PrevPeriod;
                      CaptionML=[ENU=Previous Period;
                                 ENG=Previous Period];
                      ToolTipML=[ENU=Show the information based on the previous period. If you set the View by field to Day, the date filter changes to the day before.;
                                 ENG=Show the information based on the previous period. If you set the View by field to Day, the date filter changes to the day before.];
                      ApplicationArea=#RelationshipMgmt;
                      Image=PreviousRecord;
                      OnAction=BEGIN
                                 OppChartMgt.SetPrevPeriod(Period);
                                 UpdateChart(Period,Opportunity);
                               END;
                                }
      { 17      ;1   ;Action    ;
                      Name=NextPeriod;
                      CaptionML=[ENU=Next Period;
                                 ENG=Next Period];
                      ToolTipML=[ENU=Show the information based on the next period. If you set the View by field to Day, the date filter changes to the day before.;
                                 ENG=Show the information based on the next period. If you set the View by field to Day, the date filter changes to the day before.];
                      ApplicationArea=#RelationshipMgmt;
                      Image=NextRecord;
                      OnAction=BEGIN
                                 OppChartMgt.SetNextPeriod(Period);
                                 UpdateChart(Period,Opportunity);
                               END;
                                }
    }
  }
  CONTROLS
  {
    { 1   ;    ;Container ;
                Name=Container;
                ContainerType=ContentArea }

    { 2   ;1   ;Field     ;
                Name=StatusText;
                CaptionML=[ENU=Status Text;
                           ENG=Status Text];
                ToolTipML=[ENU=Specifies the status of the chart.;
                           ENG=Specifies the status of the chart.];
                ApplicationArea=#RelationshipMgmt;
                SourceExpr=StatusText;
                Enabled=FALSE;
                Style=StrongAccent;
                StyleExpr=TRUE;
                ShowCaption=No }

    { 3   ;1   ;Field     ;
                Name=BusinessChart;
                CaptionML=[ENU=Business Chart;
                           ENG=Business Chart];
                ToolTipML=[ENU=Specifies if the chart is of type Business Chart.;
                           ENG=Specifies if the chart is of type Business Chart.];
                ApplicationArea=#RelationshipMgmt;
                ControlAddIn=[Microsoft.Dynamics.Nav.Client.BusinessChart;PublicKeyToken=31bf3856ad364e35];
                ShowCaption=No }

  }
  CODE
  {
    VAR
      BusinessChartBuffer@1000 : Record 485;
      Opportunity@1003 : Record 5092;
      Period@1004 : Record 2000000007;
      OppChartMgt@1002 : Codeunit 782;
      StatusText@1001 : Text;
      IsChartAddInReady@1005 : Boolean;

    LOCAL PROCEDURE SetPeriodAndUpdateChart@3(VAR Period@1000 : Record 2000000007);
    BEGIN
      OppChartMgt.SetPeriodRange(Period);
      UpdateChart(Period,Opportunity);
    END;

    LOCAL PROCEDURE UpdateChart@8(Period@1001 : Record 2000000007;Opportunity@1000 : Record 5092);
    BEGIN
      IF NOT IsChartAddInReady THEN
        EXIT;

      OppChartMgt.UpdateData(BusinessChartBuffer,Period,Opportunity.Status);
      BusinessChartBuffer.Update(CurrPage.BusinessChart);
      UpdateStatusText(Period,Opportunity);
    END;

    LOCAL PROCEDURE UpdateStatusText@1(Period@1000 : Record 2000000007;Opportunity@1001 : Record 5092);
    BEGIN
      StatusText := FORMAT(Opportunity.Status) + ' | ' + FORMAT(Period."Period Type") + ' | ';
      CASE Opportunity.Status OF
        Opportunity.Status::"Not Started",
        Opportunity.Status::"In Progress":
          StatusText += ' .. ' + FORMAT(Period."Period End");
        Opportunity.Status::Won,
        Opportunity.Status::Lost:
          StatusText += FORMAT(Period."Period Start") + ' .. ' + FORMAT(Period."Period End")
      END;
    END;

    EVENT BusinessChart@-3::DataPointClicked@1(point@1000 : DotNet "'Microsoft.Dynamics.Nav.Client.BusinessChart.Model, Version=11.0.0.0, Culture=neutral, PublicKeyToken=31bf3856ad364e35'.Microsoft.Dynamics.Nav.Client.BusinessChart.BusinessChartDataPoint");
    BEGIN
      BusinessChartBuffer.SetDrillDownIndexes(point);
      OppChartMgt.DrillDown(BusinessChartBuffer,Period,Opportunity.Status);
    END;

    EVENT BusinessChart@-3::DataPointDoubleClicked@2(point@1000 : DotNet "'Microsoft.Dynamics.Nav.Client.BusinessChart.Model, Version=11.0.0.0, Culture=neutral, PublicKeyToken=31bf3856ad364e35'.Microsoft.Dynamics.Nav.Client.BusinessChart.BusinessChartDataPoint");
    BEGIN
    END;

    EVENT BusinessChart@-3::AddInReady@3();
    BEGIN
      IsChartAddInReady := TRUE;
      UpdateChart(Period,Opportunity);
    END;

    EVENT BusinessChart@-3::Refresh@4();
    BEGIN
      IF IsChartAddInReady THEN
        UpdateChart(Period,Opportunity);
    END;

    BEGIN
    END.
  }
}

