OBJECT Page 7337 Posted Whse. Shipment
{
  OBJECT-PROPERTIES
  {
    Date=21/12/17;
    Time=12:00:00;
    Version List=NAVW111.00.00.19846;
  }
  PROPERTIES
  {
    CaptionML=[ENU=Posted Whse. Shipment;
               ENG=Posted Whse. Shipment];
    InsertAllowed=No;
    SourceTable=Table7322;
    PageType=Document;
    RefreshOnActivate=Yes;
    OnOpenPage=BEGIN
                 ErrorIfUserIsNotWhseEmployee;
               END;

    OnFindRecord=BEGIN
                   EXIT(FindFirstAllowedRec(Which));
                 END;

    OnNextRecord=BEGIN
                   EXIT(FindNextAllowedRec(Steps));
                 END;

    ActionList=ACTIONS
    {
      { 1900000003;0 ;ActionContainer;
                      ActionContainerType=RelatedInformation }
      { 100     ;1   ;ActionGroup;
                      CaptionML=[ENU=&Shipment;
                                 ENG=&Shipment];
                      Image=Shipment }
      { 101     ;2   ;Action    ;
                      ShortCutKey=Shift+Ctrl+L;
                      CaptionML=[ENU=List;
                                 ENG=List];
                      ToolTipML=[ENU=View all warehouse documents of this type that exist.;
                                 ENG=View all warehouse documents of this type that exist.];
                      ApplicationArea=#Warehouse;
                      Image=OpportunitiesList;
                      OnAction=BEGIN
                                 LookupPostedWhseShptHeader(Rec);
                               END;
                                }
      { 23      ;2   ;Action    ;
                      CaptionML=[ENU=Co&mments;
                                 ENG=Co&mments];
                      ToolTipML=[ENU=View or add comments for the record.;
                                 ENG=View or add comments for the record.];
                      ApplicationArea=#Warehouse;
                      RunObject=Page 5776;
                      RunPageLink=Table Name=CONST(Posted Whse. Shipment),
                                  Type=CONST(" "),
                                  No.=FIELD(No.);
                      Image=ViewComments }
      { 1900000004;0 ;ActionContainer;
                      ActionContainerType=ActionItems }
      { 6       ;1   ;Action    ;
                      Ellipsis=Yes;
                      CaptionML=[ENU=&Print;
                                 ENG=&Print];
                      ToolTipML=[ENU=Prepare to print the document. A report request window for the document opens where you can specify what to include on the print-out.;
                                 ENG=Prepare to print the document. A report request window for the document opens where you can specify what to include on the print-out.];
                      ApplicationArea=#Warehouse;
                      Promoted=Yes;
                      Image=Print;
                      PromotedCategory=Process;
                      OnAction=BEGIN
                                 WhseDocPrint.PrintPostedShptHeader(Rec);
                               END;
                                }
    }
  }
  CONTROLS
  {
    { 1900000001;0;Container;
                ContainerType=ContentArea }

    { 1   ;1   ;Group     ;
                CaptionML=[ENU=General;
                           ENG=General] }

    { 4   ;2   ;Field     ;
                ToolTipML=[ENU=Specifies the number of the involved entry or record, according to the specified number series.;
                           ENG=Specifies the number of the involved entry or record, according to the specified number series.];
                ApplicationArea=#Warehouse;
                SourceExpr="No.";
                Importance=Promoted;
                Editable=FALSE }

    { 19  ;2   ;Field     ;
                ToolTipML=[ENU=Specifies the number of the warehouse shipment that the posted warehouse shipment originates from.;
                           ENG=Specifies the number of the warehouse shipment that the posted warehouse shipment originates from.];
                ApplicationArea=#Warehouse;
                SourceExpr="Whse. Shipment No.";
                Importance=Promoted;
                Editable=FALSE }

    { 28  ;2   ;Field     ;
                ToolTipML=[ENU=Specifies the code of the location from which the items were shipped.;
                           ENG=Specifies the code of the location from which the items were shipped.];
                ApplicationArea=#Warehouse;
                SourceExpr="Location Code";
                Editable=FALSE }

    { 10  ;2   ;Field     ;
                ToolTipML=[ENU=Specifies the code of the zone on this posted shipment header.;
                           ENG=Specifies the code of the zone on this posted shipment header.];
                ApplicationArea=#Warehouse;
                SourceExpr="Zone Code";
                Editable=FALSE }

    { 17  ;2   ;Field     ;
                ToolTipML=[ENU=Specifies the bin where the items are picked or put away.;
                           ENG=Specifies the bin where the items are picked or put away.];
                ApplicationArea=#Warehouse;
                SourceExpr="Bin Code";
                Editable=FALSE }

    { 2   ;2   ;Field     ;
                ToolTipML=[ENU=Specifies the posting date of the posted warehouse shipment.;
                           ENG=Specifies the posting date of the posted warehouse shipment.];
                ApplicationArea=#Warehouse;
                SourceExpr="Posting Date";
                Editable=FALSE }

    { 24  ;2   ;Field     ;
                ToolTipML=[ENU=Specifies the ID of the user who is responsible for the document.;
                           ENG=Specifies the ID of the user who is responsible for the document.];
                ApplicationArea=#Warehouse;
                SourceExpr="Assigned User ID";
                Importance=Promoted;
                Editable=FALSE }

    { 26  ;2   ;Field     ;
                ToolTipML=[ENU=Specifies the date when the user was assigned the activity.;
                           ENG=Specifies the date when the user was assigned the activity.];
                ApplicationArea=#Warehouse;
                SourceExpr="Assignment Date";
                Editable=FALSE }

    { 30  ;2   ;Field     ;
                ToolTipML=[ENU=Specifies the time when the user was assigned the activity.;
                           ENG=Specifies the time when the user was assigned the activity.];
                ApplicationArea=#Warehouse;
                SourceExpr="Assignment Time";
                Editable=FALSE }

    { 97  ;1   ;Part      ;
                Name=WhseShptLines;
                ApplicationArea=#Warehouse;
                SubPageView=SORTING(No.,Line No.);
                SubPageLink=No.=FIELD(No.);
                PagePartID=Page7338;
                PartType=Page }

    { 1906801201;1;Group  ;
                CaptionML=[ENU=Shipping;
                           ENG=Shipping] }

    { 32  ;2   ;Field     ;
                ToolTipML=[ENU=Specifies a document number that refers to the customer's or vendor's numbering system.;
                           ENG=Specifies a document number that refers to the customer's or vendor's numbering system.];
                ApplicationArea=#Warehouse;
                SourceExpr="External Document No.";
                Importance=Promoted;
                Editable=FALSE }

    { 7   ;2   ;Field     ;
                ToolTipML=[ENU=Specifies when items on the document are shipped or were shipped. A shipment date is usually calculated from a requested delivery date plus lead time.;
                           ENG=Specifies when items on the document are shipped or were shipped. A shipment date is usually calculated from a requested delivery date plus lead time.];
                ApplicationArea=#Warehouse;
                SourceExpr="Shipment Date";
                Importance=Promoted;
                Editable=FALSE }

    { 12  ;2   ;Field     ;
                ToolTipML=[ENU=Specifies the code for the shipping agent who is transporting the items.;
                           ENG=Specifies the code for the shipping agent who is transporting the items.];
                ApplicationArea=#Warehouse;
                SourceExpr="Shipping Agent Code";
                Editable=FALSE }

    { 13  ;2   ;Field     ;
                ToolTipML=[ENU=Specifies the code for the service, such as a one-day delivery, that is offered by the shipping agent.;
                           ENG=Specifies the code for the service, such as a one-day delivery, that is offered by the shipping agent.];
                ApplicationArea=#Warehouse;
                SourceExpr="Shipping Agent Service Code";
                Importance=Promoted;
                Editable=FALSE }

    { 14  ;2   ;Field     ;
                ToolTipML=[ENU=Specifies the delivery conditions of the related shipment, such as free on board (FOB).;
                           ENG=Specifies the delivery conditions of the related shipment, such as free on board (FOB).];
                ApplicationArea=#Warehouse;
                SourceExpr="Shipment Method Code";
                Editable=FALSE }

    { 1900000007;0;Container;
                ContainerType=FactBoxArea }

    { 1900383207;1;Part   ;
                Visible=FALSE;
                PartType=System;
                SystemPartID=RecordLinks }

    { 1905767507;1;Part   ;
                Visible=TRUE;
                PartType=System;
                SystemPartID=Notes }

  }
  CODE
  {
    VAR
      WhseDocPrint@1000 : Codeunit 5776;

    BEGIN
    END.
  }
}

