OBJECT Page 7307 Bin Type List
{
  OBJECT-PROPERTIES
  {
    Date=22/11/17;
    Time=12:00:00;
    Version List=NAVW111.00;
  }
  PROPERTIES
  {
    Editable=No;
    CaptionML=[ENU=Bin Type List;
               ENG=Bin Type List];
    SourceTable=Table7303;
    PageType=List;
  }
  CONTROLS
  {
    { 1900000001;0;Container;
                ContainerType=ContentArea }

    { 1   ;1   ;Group     ;
                GroupType=Repeater }

    { 2   ;2   ;Field     ;
                ToolTipML=[ENU=Specifies a unique code for the bin type.;
                           ENG=Specifies a unique code for the bin type.];
                ApplicationArea=#Warehouse;
                SourceExpr=Code }

    { 4   ;2   ;Field     ;
                ToolTipML=[ENU=Specifies a description of the bin type.;
                           ENG=Specifies a description of the bin type.];
                ApplicationArea=#Warehouse;
                SourceExpr=Description }

    { 6   ;2   ;Field     ;
                ToolTipML=[ENU=Specifies to use the bin for items that have just arrived at the warehouse.;
                           ENG=Specifies to use the bin for items that have just arrived at the warehouse.];
                ApplicationArea=#Warehouse;
                SourceExpr=Receive }

    { 8   ;2   ;Field     ;
                ToolTipML=[ENU=Specifies to use the bin for items that are about to be shipped out of the warehouse.;
                           ENG=Specifies to use the bin for items that are about to be shipped out of the warehouse.];
                ApplicationArea=#Warehouse;
                SourceExpr=Ship }

    { 10  ;2   ;Field     ;
                ToolTipML=[ENU=Specifies to use the bin for items that are being put away, such as receipts and internal put-always.;
                           ENG=Specifies to use the bin for items that are being put away, such as receipts and internal put-always.];
                ApplicationArea=#Warehouse;
                SourceExpr="Put Away" }

    { 12  ;2   ;Field     ;
                ToolTipML=[ENU=Specifies to use the bin for items that can be picked for shipment, internal picks, and production.;
                           ENG=Specifies to use the bin for items that can be picked for shipment, internal picks, and production.];
                ApplicationArea=#Warehouse;
                SourceExpr=Pick }

    { 1900000007;0;Container;
                ContainerType=FactBoxArea }

    { 1900383207;1;Part   ;
                Visible=FALSE;
                PartType=System;
                SystemPartID=RecordLinks }

    { 1905767507;1;Part   ;
                Visible=FALSE;
                PartType=System;
                SystemPartID=Notes }

  }
  CODE
  {

    BEGIN
    END.
  }
}

