OBJECT Page 7357 Whse. Internal Pick
{
  OBJECT-PROPERTIES
  {
    Date=21/12/17;
    Time=12:00:00;
    Version List=NAVW111.00.00.19846;
  }
  PROPERTIES
  {
    CaptionML=[ENU=Whse. Internal Pick;
               ENG=Whse. Internal Pick];
    SourceTable=Table7333;
    PopulateAllFields=Yes;
    PageType=Document;
    RefreshOnActivate=Yes;
    OnOpenPage=BEGIN
                 SetWhseLocationFilter;
               END;

    ActionList=ACTIONS
    {
      { 1900000003;0 ;ActionContainer;
                      ActionContainerType=RelatedInformation }
      { 100     ;1   ;ActionGroup;
                      CaptionML=[ENU=&Pick;
                                 ENG=&Pick];
                      Image=CreateInventoryPickup }
      { 101     ;2   ;Action    ;
                      ShortCutKey=Shift+Ctrl+L;
                      CaptionML=[ENU=List;
                                 ENG=List];
                      ToolTipML=[ENU=View all warehouse documents of this type that exist.;
                                 ENG=View all warehouse documents of this type that exist.];
                      ApplicationArea=#Warehouse;
                      Image=OpportunitiesList;
                      OnAction=BEGIN
                                 LookupWhseInternalPickHeader(Rec);
                               END;
                                }
      { 31      ;2   ;Action    ;
                      CaptionML=[ENU=Co&mments;
                                 ENG=Co&mments];
                      ToolTipML=[ENU=View or add comments for the record.;
                                 ENG=View or add comments for the record.];
                      ApplicationArea=#Warehouse;
                      RunObject=Page 5776;
                      RunPageLink=Table Name=CONST(Internal Pick),
                                  Type=CONST(" "),
                                  No.=FIELD(No.);
                      Image=ViewComments }
      { 16      ;2   ;Action    ;
                      CaptionML=[ENU=Pick Lines;
                                 ENG=Pick Lines];
                      ToolTipML=[ENU=View the related picks.;
                                 ENG=View the related picks.];
                      ApplicationArea=#Warehouse;
                      RunObject=Page 5785;
                      RunPageView=SORTING(Whse. Document No.,Whse. Document Type,Activity Type)
                                  WHERE(Activity Type=CONST(Pick));
                      RunPageLink=Whse. Document Type=CONST(Internal Pick),
                                  Whse. Document No.=FIELD(No.);
                      Image=PickLines }
      { 1900000004;0 ;ActionContainer;
                      ActionContainerType=ActionItems }
      { 9       ;1   ;ActionGroup;
                      CaptionML=[ENU=F&unctions;
                                 ENG=F&unctions];
                      Image=Action }
      { 45      ;2   ;Action    ;
                      ShortCutKey=Ctrl+F9;
                      CaptionML=[ENU=Re&lease;
                                 ENG=Re&lease];
                      ToolTipML=[ENU=Release the document to the next stage of processing. When a document is released, it will be included in all availability calculations from the expected receipt date of the items. You must reopen the document before you can make changes to it.;
                                 ENG=Release the document to the next stage of processing. When a document is released, it will be included in all availability calculations from the expected receipt date of the items. You must reopen the document before you can make changes to it.];
                      ApplicationArea=#Warehouse;
                      Image=ReleaseDoc;
                      OnAction=VAR
                                 ReleaseWhseInternalPick@1000 : Codeunit 7315;
                               BEGIN
                                 CurrPage.UPDATE(TRUE);
                                 IF Status = Status::Open THEN
                                   ReleaseWhseInternalPick.Release(Rec);
                               END;
                                }
      { 46      ;2   ;Action    ;
                      CaptionML=[ENU=Re&open;
                                 ENG=Re&open];
                      ToolTipML=[ENU=Reopen the document for additional warehouse activity.;
                                 ENG=Reopen the document for additional warehouse activity.];
                      ApplicationArea=#Warehouse;
                      Image=ReOpen;
                      OnAction=VAR
                                 ReleaseWhseInternalPick@1000 : Codeunit 7315;
                               BEGIN
                                 ReleaseWhseInternalPick.Reopen(Rec);
                               END;
                                }
      { 24      ;2   ;Action    ;
                      Name=CreatePick;
                      Ellipsis=Yes;
                      CaptionML=[ENU=Create Pick;
                                 ENG=Create Pick];
                      ToolTipML=[ENU=Create a warehouse pick document.;
                                 ENG=Create a warehouse pick document.];
                      ApplicationArea=#Warehouse;
                      Image=CreateInventoryPickup;
                      OnAction=BEGIN
                                 CurrPage.UPDATE(TRUE);
                                 CurrPage.WhseInternalPickLines.PAGE.PickCreate;
                               END;
                                }
    }
  }
  CONTROLS
  {
    { 1900000001;0;Container;
                ContainerType=ContentArea }

    { 1   ;1   ;Group     ;
                CaptionML=[ENU=General;
                           ENG=General] }

    { 2   ;2   ;Field     ;
                ToolTipML=[ENU=Specifies the number of the involved entry or record, according to the specified number series.;
                           ENG=Specifies the number of the involved entry or record, according to the specified number series.];
                ApplicationArea=#Warehouse;
                SourceExpr="No.";
                OnAssistEdit=BEGIN
                               IF AssistEdit(xRec) THEN
                                 CurrPage.UPDATE;
                             END;
                              }

    { 36  ;2   ;Field     ;
                ToolTipML=[ENU=Specifies the code of the location where the internal pick is being performed.;
                           ENG=Specifies the code of the location where the internal pick is being performed.];
                ApplicationArea=#Warehouse;
                SourceExpr="Location Code";
                OnLookup=BEGIN
                           CurrPage.SAVERECORD;
                           LookupLocation(Rec);
                           CurrPage.UPDATE(TRUE);
                         END;
                          }

    { 4   ;2   ;Field     ;
                ToolTipML=[ENU=Specifies the zone in which you want the items to be placed when they are picked.;
                           ENG=Specifies the zone in which you want the items to be placed when they are picked.];
                ApplicationArea=#Warehouse;
                SourceExpr="To Zone Code" }

    { 8   ;2   ;Field     ;
                ToolTipML=[ENU=Specifies the bin in which you want the items to be placed when they are picked.;
                           ENG=Specifies the bin in which you want the items to be placed when they are picked.];
                ApplicationArea=#Warehouse;
                SourceExpr="To Bin Code" }

    { 38  ;2   ;Field     ;
                ToolTipML=[ENU=Specifies the document status of the internal pick.;
                           ENG=Specifies the document status of the internal pick.];
                ApplicationArea=#Warehouse;
                SourceExpr="Document Status" }

    { 20  ;2   ;Field     ;
                ToolTipML=[ENU=Specifies whether the internal pick is open or released.;
                           ENG=Specifies whether the internal pick is open or released.];
                ApplicationArea=#Warehouse;
                SourceExpr=Status }

    { 18  ;2   ;Field     ;
                ToolTipML=[ENU=Specifies the date when the warehouse activity must be completed.;
                           ENG=Specifies the date when the warehouse activity must be completed.];
                ApplicationArea=#Warehouse;
                SourceExpr="Due Date" }

    { 5   ;2   ;Field     ;
                ToolTipML=[ENU=Specifies the ID of the user who is responsible for the document.;
                           ENG=Specifies the ID of the user who is responsible for the document.];
                ApplicationArea=#Warehouse;
                SourceExpr="Assigned User ID" }

    { 15  ;2   ;Field     ;
                ToolTipML=[ENU=Specifies the date when the user was assigned the activity.;
                           ENG=Specifies the date when the user was assigned the activity.];
                ApplicationArea=#Warehouse;
                SourceExpr="Assignment Date";
                Editable=FALSE }

    { 29  ;2   ;Field     ;
                ToolTipML=[ENU=Specifies the time when the user was assigned the activity.;
                           ENG=Specifies the time when the user was assigned the activity.];
                ApplicationArea=#Warehouse;
                SourceExpr="Assignment Time";
                Editable=FALSE }

    { 13  ;2   ;Field     ;
                ToolTipML=[ENU=Specifies the method by which the warehouse internal pick lines are sorted.;
                           ENG=Specifies the method by which the warehouse internal pick lines are sorted.];
                ApplicationArea=#Warehouse;
                SourceExpr="Sorting Method";
                OnValidate=BEGIN
                             SortingMethodOnAfterValidate;
                           END;
                            }

    { 97  ;1   ;Part      ;
                Name=WhseInternalPickLines;
                ApplicationArea=#Warehouse;
                SubPageView=SORTING(No.,Sorting Sequence No.);
                SubPageLink=No.=FIELD(No.);
                PagePartID=Page7358;
                PartType=Page }

    { 1900000007;0;Container;
                ContainerType=FactBoxArea }

    { 6   ;1   ;Part      ;
                ApplicationArea=#ItemTracking;
                SubPageLink=Item No.=FIELD(Item No.),
                            Variant Code=FIELD(Variant Code),
                            Location Code=FIELD(Location Code);
                PagePartID=Page9126;
                ProviderID=97;
                Visible=false;
                PartType=Page }

    { 1900383207;1;Part   ;
                Visible=FALSE;
                PartType=System;
                SystemPartID=RecordLinks }

    { 1905767507;1;Part   ;
                Visible=TRUE;
                PartType=System;
                SystemPartID=Notes }

  }
  CODE
  {

    LOCAL PROCEDURE SortingMethodOnAfterValidate@19063061();
    BEGIN
      CurrPage.UPDATE;
    END;

    BEGIN
    END.
  }
}

