OBJECT Page 7601 Base Calendar List
{
  OBJECT-PROPERTIES
  {
    Date=22/11/17;
    Time=12:00:00;
    Version List=NAVW111.00;
  }
  PROPERTIES
  {
    Editable=No;
    CaptionML=[ENU=Base Calendar List;
               ENG=Base Calendar List];
    SourceTable=Table7600;
    PageType=List;
    CardPageID=Base Calendar Card;
    OnInit=BEGIN
             CurrPage.LOOKUPMODE := TRUE;
           END;

    ActionList=ACTIONS
    {
      { 1900000003;0 ;ActionContainer;
                      ActionContainerType=RelatedInformation }
      { 16      ;1   ;ActionGroup;
                      CaptionML=[ENU=&Base Calendar;
                                 ENG=&Base Calendar];
                      Image=Calendar }
      { 10      ;2   ;Action    ;
                      CaptionML=[ENU=&Where-Used List;
                                 ENG=&Where-Used List];
                      ToolTipML=[ENU=View a list of the BOMs that the selected items are components of.;
                                 ENG=View a list of the BOMs that the selected items are components of.];
                      ApplicationArea=#Advanced;
                      Image=Track;
                      OnAction=VAR
                                 CalendarMgmt@1000 : Codeunit 7600;
                                 WhereUsedList@1002 : Page 7608;
                               BEGIN
                                 CalendarMgmt.CreateWhereUsedEntries(Code);
                                 WhereUsedList.RUNMODAL;
                                 CLEAR(WhereUsedList);
                               END;
                                }
      { 11      ;2   ;Separator ;
                      CaptionML=[ENU=-;
                                 ENG=-] }
      { 12      ;2   ;Action    ;
                      CaptionML=[ENU=&Base Calendar Changes;
                                 ENG=&Base Calendar Changes];
                      ToolTipML=[ENU=View changes to a base calendar entry. You would typically enter any nonworking days that you want to apply to a base calendar that you are setting up, to change their status from working to nonworking. You can also use this window to edit a base calendar that has already been set up.;
                                 ENG=View changes to a base calendar entry. You would typically enter any nonworking days that you want to apply to a base calendar that you are setting up, to change their status from working to nonworking. You can also use this window to edit a base calendar that has already been set up.];
                      ApplicationArea=#Advanced;
                      RunObject=Page 7607;
                      RunPageLink=Base Calendar Code=FIELD(Code);
                      Image=Change }
    }
  }
  CONTROLS
  {
    { 1900000001;0;Container;
                ContainerType=ContentArea }

    { 1   ;1   ;Group     ;
                GroupType=Repeater }

    { 2   ;2   ;Field     ;
                CaptionML=[ENU=Code;
                           ENG=Code];
                ToolTipML=[ENU=Specifies the code for the base calendar you have set up.;
                           ENG=Specifies the code for the base calendar you have set up.];
                ApplicationArea=#Advanced;
                SourceExpr=Code }

    { 4   ;2   ;Field     ;
                ToolTipML=[ENU=Specifies the name of the base calendar in the entry.;
                           ENG=Specifies the name of the base calendar in the entry.];
                ApplicationArea=#Advanced;
                SourceExpr=Name }

    { 13  ;2   ;Field     ;
                CaptionML=[ENU=Customized Changes Exist;
                           ENG=Customised Changes Exist];
                ToolTipML=[ENU=Specifies that the base calendar has been used to create customized calendars.;
                           ENG=Specifies that the base calendar has been used to create customised calendars.];
                ApplicationArea=#Advanced;
                SourceExpr="Customized Changes Exist" }

    { 1900000007;0;Container;
                ContainerType=FactBoxArea }

    { 1900383207;1;Part   ;
                Visible=FALSE;
                PartType=System;
                SystemPartID=RecordLinks }

    { 1905767507;1;Part   ;
                Visible=FALSE;
                PartType=System;
                SystemPartID=Notes }

  }
  CODE
  {

    BEGIN
    END.
  }
}

