OBJECT Page 753 Standard Item Journals
{
  OBJECT-PROPERTIES
  {
    Date=25/10/16;
    Time=12:00:00;
    Version List=NAVW110.00;
  }
  PROPERTIES
  {
    CaptionML=[ENU=Standard Item Journals;
               ENG=Standard Item Journals];
    SourceTable=Table752;
    DataCaptionFields=Journal Template Name;
    PageType=List;
    CardPageID=Standard Item Journal;
    RefreshOnActivate=Yes;
    ActionList=ACTIONS
    {
      { 1900000003;0 ;ActionContainer;
                      ActionContainerType=RelatedInformation }
      { 11      ;1   ;ActionGroup;
                      CaptionML=[ENU=&Standard;
                                 ENG=&Standard];
                      Image=Journal }
      { 12      ;2   ;Action    ;
                      ShortCutKey=Shift+F7;
                      CaptionML=[ENU=&Show Journal;
                                 ENG=&Show Journal];
                      ToolTipML=[ENU=Open a journal based on the journal batch that you selected.;
                                 ENG=Open a journal based on the journal batch that you selected.];
                      ApplicationArea=#Suite;
                      Image=Journal;
                      OnAction=VAR
                                 StdItemJnl@1000 : Record 752;
                               BEGIN
                                 StdItemJnl.SETRANGE("Journal Template Name","Journal Template Name");
                                 StdItemJnl.SETRANGE(Code,Code);

                                 PAGE.RUN(PAGE::"Standard Item Journal",StdItemJnl);
                               END;
                                }
    }
  }
  CONTROLS
  {
    { 1900000001;0;Container;
                ContainerType=ContentArea }

    { 1   ;1   ;Group     ;
                GroupType=Repeater }

    { 4   ;2   ;Field     ;
                ToolTipML=[ENU=Specifies the code of the record.;
                           ENG=Specifies the code of the record.];
                ApplicationArea=#Suite;
                SourceExpr=Code }

    { 6   ;2   ;Field     ;
                ToolTipML=[ENU=Specifies the record in the line of the journal.;
                           ENG=Specifies the record in the line of the journal.];
                ApplicationArea=#Suite;
                SourceExpr=Description }

    { 1900000007;0;Container;
                ContainerType=FactBoxArea }

    { 1900383207;1;Part   ;
                Visible=FALSE;
                PartType=System;
                SystemPartID=RecordLinks }

    { 1905767507;1;Part   ;
                Visible=FALSE;
                PartType=System;
                SystemPartID=Notes }

  }
  CODE
  {

    BEGIN
    END.
  }
}

