OBJECT Page 7340 Posted Whse. Shipment List
{
  OBJECT-PROPERTIES
  {
    Date=21/12/17;
    Time=12:00:00;
    Version List=NAVW111.00.00.19846;
  }
  PROPERTIES
  {
    Editable=No;
    CaptionML=[ENU=Posted Whse. Shipment List;
               ENG=Posted Whse. Shipment List];
    SourceTable=Table7322;
    DataCaptionFields=No.;
    PageType=List;
    CardPageID=Posted Whse. Shipment;
    OnOpenPage=BEGIN
                 ErrorIfUserIsNotWhseEmployee;
               END;

    OnFindRecord=BEGIN
                   EXIT(FindFirstAllowedRec(Which));
                 END;

    OnNextRecord=BEGIN
                   EXIT(FindNextAllowedRec(Steps));
                 END;

    ActionList=ACTIONS
    {
      { 1900000003;0 ;ActionContainer;
                      ActionContainerType=RelatedInformation }
      { 1102601000;1 ;ActionGroup;
                      CaptionML=[ENU=&Shipment;
                                 ENG=&Shipment];
                      Image=Shipment }
      { 1102601002;2 ;Action    ;
                      CaptionML=[ENU=Co&mments;
                                 ENG=Co&mments];
                      ToolTipML=[ENU=View or add comments for the record.;
                                 ENG=View or add comments for the record.];
                      ApplicationArea=#Warehouse;
                      RunObject=Page 5776;
                      RunPageLink=Table Name=CONST(Posted Whse. Shipment),
                                  Type=CONST(" "),
                                  No.=FIELD(No.);
                      Image=ViewComments }
      { 17      ;1   ;ActionGroup;
                      CaptionML=[ENU=&Line;
                                 ENG=&Line];
                      Image=Line }
      { 19      ;2   ;Action    ;
                      ShortCutKey=Shift+F7;
                      CaptionML=[ENU=Card;
                                 ENG=Card];
                      ToolTipML=[ENU=View or change detailed information about the record on the document or journal line.;
                                 ENG=View or change detailed information about the record on the document or journal line.];
                      ApplicationArea=#Warehouse;
                      Image=EditLines;
                      OnAction=BEGIN
                                 PAGE.RUN(PAGE::"Posted Whse. Shipment",Rec);
                               END;
                                }
    }
  }
  CONTROLS
  {
    { 1900000001;0;Container;
                ContainerType=ContentArea }

    { 1   ;1   ;Group     ;
                GroupType=Repeater }

    { 8   ;2   ;Field     ;
                ToolTipML=[ENU=Specifies the number of the involved entry or record, according to the specified number series.;
                           ENG=Specifies the number of the involved entry or record, according to the specified number series.];
                ApplicationArea=#Warehouse;
                SourceExpr="No." }

    { 4   ;2   ;Field     ;
                ToolTipML=[ENU=Specifies the code of the location from which the items were shipped.;
                           ENG=Specifies the code of the location from which the items were shipped.];
                ApplicationArea=#Warehouse;
                SourceExpr="Location Code" }

    { 15  ;2   ;Field     ;
                ToolTipML=[ENU=Specifies the ID of the user who is responsible for the document.;
                           ENG=Specifies the ID of the user who is responsible for the document.];
                ApplicationArea=#Warehouse;
                SourceExpr="Assigned User ID" }

    { 10  ;2   ;Field     ;
                ToolTipML=[ENU=Specifies the number series from which entry or record numbers are assigned to new entries or records.;
                           ENG=Specifies the number series from which entry or record numbers are assigned to new entries or records.];
                ApplicationArea=#Warehouse;
                SourceExpr="No. Series" }

    { 2   ;2   ;Field     ;
                ToolTipML=[ENU=Specifies the number of the warehouse shipment that the posted warehouse shipment originates from.;
                           ENG=Specifies the number of the warehouse shipment that the posted warehouse shipment originates from.];
                ApplicationArea=#Warehouse;
                SourceExpr="Whse. Shipment No." }

    { 1102601001;2;Field  ;
                ToolTipML=[ENU=Specifies the code of the zone on this posted shipment header.;
                           ENG=Specifies the code of the zone on this posted shipment header.];
                ApplicationArea=#Warehouse;
                SourceExpr="Zone Code";
                Visible=FALSE }

    { 1102601004;2;Field  ;
                ToolTipML=[ENU=Specifies the bin where the items are picked or put away.;
                           ENG=Specifies the bin where the items are picked or put away.];
                ApplicationArea=#Warehouse;
                SourceExpr="Bin Code";
                Visible=FALSE }

    { 1102601006;2;Field  ;
                ToolTipML=[ENU=Specifies the posting date of the posted warehouse shipment.;
                           ENG=Specifies the posting date of the posted warehouse shipment.];
                ApplicationArea=#Warehouse;
                SourceExpr="Posting Date";
                Visible=FALSE }

    { 1102601008;2;Field  ;
                ToolTipML=[ENU=Specifies the date when the user was assigned the activity.;
                           ENG=Specifies the date when the user was assigned the activity.];
                ApplicationArea=#Warehouse;
                SourceExpr="Assignment Date";
                Visible=FALSE }

    { 1102601010;2;Field  ;
                ToolTipML=[ENU=Specifies when items on the document are shipped or were shipped. A shipment date is usually calculated from a requested delivery date plus lead time.;
                           ENG=Specifies when items on the document are shipped or were shipped. A shipment date is usually calculated from a requested delivery date plus lead time.];
                ApplicationArea=#Warehouse;
                SourceExpr="Shipment Date";
                Visible=FALSE }

    { 1102601012;2;Field  ;
                ToolTipML=[ENU=Specifies the code for the shipping agent who is transporting the items.;
                           ENG=Specifies the code for the shipping agent who is transporting the items.];
                ApplicationArea=#Warehouse;
                SourceExpr="Shipping Agent Code";
                Visible=FALSE }

    { 1102601014;2;Field  ;
                ToolTipML=[ENU=Specifies the code for the service, such as a one-day delivery, that is offered by the shipping agent.;
                           ENG=Specifies the code for the service, such as a one-day delivery, that is offered by the shipping agent.];
                ApplicationArea=#Warehouse;
                SourceExpr="Shipping Agent Service Code";
                Visible=FALSE }

    { 1102601016;2;Field  ;
                ToolTipML=[ENU=Specifies the delivery conditions of the related shipment, such as free on board (FOB).;
                           ENG=Specifies the delivery conditions of the related shipment, such as free on board (FOB).];
                ApplicationArea=#Warehouse;
                SourceExpr="Shipment Method Code";
                Visible=FALSE }

    { 1900000007;0;Container;
                ContainerType=FactBoxArea }

    { 1900383207;1;Part   ;
                Visible=FALSE;
                PartType=System;
                SystemPartID=RecordLinks }

    { 1905767507;1;Part   ;
                Visible=TRUE;
                PartType=System;
                SystemPartID=Notes }

  }
  CODE
  {

    BEGIN
    END.
  }
}

