OBJECT Page 7329 Whse. Journal Batches List
{
  OBJECT-PROPERTIES
  {
    Date=21/12/17;
    Time=12:00:00;
    Version List=NAVW111.00.00.19846;
  }
  PROPERTIES
  {
    Editable=No;
    CaptionML=[ENU=Whse. Journal Batches List;
               ENG=Whse. Journal Batches List];
    SourceTable=Table7310;
    DataCaptionExpr=DataCaption;
    DelayedInsert=Yes;
    PageType=List;
    OnFindRecord=BEGIN
                   IF FIND(Which) THEN BEGIN
                     WhseJnlBatch := Rec;
                     WHILE TRUE DO BEGIN
                       IF WMSManagement.LocationIsAllowed("Location Code") THEN
                         EXIT(TRUE);
                       IF NEXT(1) = 0 THEN BEGIN
                         Rec := WhseJnlBatch;
                         IF FIND(Which) THEN
                           WHILE TRUE DO BEGIN
                             IF WMSManagement.LocationIsAllowed("Location Code") THEN
                               EXIT(TRUE);
                             IF NEXT(-1) = 0 THEN
                               EXIT(FALSE);
                           END;
                       END;
                     END;
                   END;
                   EXIT(FALSE);
                 END;

    OnNextRecord=VAR
                   RealSteps@1001 : Integer;
                   NextSteps@1002 : Integer;
                 BEGIN
                   IF Steps = 0 THEN
                     EXIT;

                   WhseJnlBatch := Rec;
                   REPEAT
                     NextSteps := NEXT(Steps / ABS(Steps));
                     IF WMSManagement.LocationIsAllowed("Location Code") THEN BEGIN
                       RealSteps := RealSteps + NextSteps;
                       WhseJnlBatch := Rec;
                     END;
                   UNTIL (NextSteps = 0) OR (RealSteps = Steps);
                   Rec := WhseJnlBatch;
                   FIND;
                   EXIT(RealSteps);
                 END;

    ActionList=ACTIONS
    {
      { 1900000004;0 ;ActionContainer;
                      ActionContainerType=ActionItems }
      { 12      ;1   ;Action    ;
                      ShortCutKey=Return;
                      CaptionML=[ENU=Edit Journal;
                                 ENG=Edit Journal];
                      ToolTipML=[ENU=Open a journal based on the journal batch.;
                                 ENG=Open a journal based on the journal batch.];
                      ApplicationArea=#Advanced;
                      Promoted=Yes;
                      PromotedIsBig=Yes;
                      Image=OpenJournal;
                      PromotedCategory=Process;
                      OnAction=BEGIN
                                 WhseJnlLine.TemplateSelectionFromBatch(Rec);
                               END;
                                }
      { 11      ;1   ;ActionGroup;
                      CaptionML=[ENU=&Registering;
                                 ENG=&Registering];
                      Image=PostOrder }
      { 13      ;2   ;Action    ;
                      Ellipsis=Yes;
                      CaptionML=[ENU=Test Report;
                                 ENG=Test Report];
                      ToolTipML=[ENU=View a test report so that you can find and correct any errors before you perform the actual posting of the journal or document.;
                                 ENG=View a test report so that you can find and correct any errors before you perform the actual posting of the journal or document.];
                      ApplicationArea=#Advanced;
                      Image=TestReport;
                      OnAction=VAR
                                 ReportPrint@1000 : Codeunit 228;
                               BEGIN
                                 ReportPrint.PrintWhseJnlBatch(Rec);
                               END;
                                }
      { 14      ;2   ;Action    ;
                      ShortCutKey=F9;
                      CaptionML=[ENU=&Register;
                                 ENG=&Register];
                      ToolTipML=[ENU="Register the warehouse entry in question, such as a positive adjustment. ";
                                 ENG="Register the warehouse entry in question, such as a positive adjustment. "];
                      ApplicationArea=#Warehouse;
                      RunObject=Codeunit 7305;
                      Promoted=Yes;
                      Image=Confirm;
                      PromotedCategory=Process }
      { 21      ;2   ;Action    ;
                      ShortCutKey=Shift+F9;
                      CaptionML=[ENU=Register and &Print;
                                 ENG=Register and &Print];
                      ToolTipML=[ENU="Register the warehouse entry adjustments and print an overview of the changes. ";
                                 ENG="Register the warehouse entry adjustments and print an overview of the changes. "];
                      ApplicationArea=#Advanced;
                      RunObject=Codeunit 7300;
                      Promoted=Yes;
                      Image=ConfirmAndPrint;
                      PromotedCategory=Process }
    }
  }
  CONTROLS
  {
    { 1900000001;0;Container;
                ContainerType=ContentArea }

    { 1   ;1   ;Group     ;
                GroupType=Repeater }

    { 2   ;2   ;Field     ;
                ToolTipML=[ENU=Specifies the name of the warehouse journal batch.;
                           ENG=Specifies the name of the warehouse journal batch.];
                ApplicationArea=#Warehouse;
                SourceExpr=Name }

    { 4   ;2   ;Field     ;
                ToolTipML=[ENU=Specifies a description of the warehouse journal batch.;
                           ENG=Specifies a description of the warehouse journal batch.];
                ApplicationArea=#Warehouse;
                SourceExpr=Description }

    { 19  ;2   ;Field     ;
                ToolTipML=[ENU=Specifies the code of the location where the journal batch applies.;
                           ENG=Specifies the code of the location where the journal batch applies.];
                ApplicationArea=#Warehouse;
                SourceExpr="Location Code" }

    { 6   ;2   ;Field     ;
                ToolTipML=[ENU=Specifies the reason code, a supplementary source code that enables you to trace the entry.;
                           ENG=Specifies the reason code, a supplementary source code that enables you to trace the entry.];
                ApplicationArea=#Warehouse;
                SourceExpr="Reason Code" }

    { 15  ;2   ;Field     ;
                ToolTipML=[ENU=Specifies the number series from which entry or record numbers are assigned to new entries or records.;
                           ENG=Specifies the number series from which entry or record numbers are assigned to new entries or records.];
                ApplicationArea=#Warehouse;
                SourceExpr="No. Series" }

    { 17  ;2   ;Field     ;
                ToolTipML=[ENU=Specifies the number series code used to assign document numbers to the warehouse entries that are registered from this journal batch.;
                           ENG=Specifies the number series code used to assign document numbers to the warehouse entries that are registered from this journal batch.];
                ApplicationArea=#Warehouse;
                SourceExpr="Registering No. Series" }

    { 1900000007;0;Container;
                ContainerType=FactBoxArea }

    { 1900383207;1;Part   ;
                Visible=FALSE;
                PartType=System;
                SystemPartID=RecordLinks }

    { 1905767507;1;Part   ;
                Visible=FALSE;
                PartType=System;
                SystemPartID=Notes }

  }
  CODE
  {
    VAR
      WhseJnlLine@1002 : Record 7311;
      WhseJnlBatch@1000 : Record 7310;
      WMSManagement@1001 : Codeunit 7302;

    LOCAL PROCEDURE DataCaption@1() : Text[250];
    VAR
      WhseJnlTemplate@1000 : Record 7309;
    BEGIN
      IF NOT CurrPage.LOOKUPMODE THEN
        IF GETFILTER("Journal Template Name") <> '' THEN
          IF GETRANGEMIN("Journal Template Name") = GETRANGEMAX("Journal Template Name") THEN
            IF WhseJnlTemplate.GET(GETRANGEMIN("Journal Template Name")) THEN
              EXIT(WhseJnlTemplate.Name + ' ' + WhseJnlTemplate.Description);
    END;

    BEGIN
    END.
  }
}

