OBJECT Page 7397 Posted Invt. Pick Lines
{
  OBJECT-PROPERTIES
  {
    Date=21/12/17;
    Time=12:00:00;
    Version List=NAVW111.00.00.19846;
  }
  PROPERTIES
  {
    Editable=No;
    CaptionML=[ENU=Posted Invt. Pick Lines;
               ENG=Posted Invt. Pick Lines];
    LinksAllowed=No;
    SourceTable=Table7343;
    PageType=List;
    ActionList=ACTIONS
    {
      { 1900000003;0 ;ActionContainer;
                      ActionContainerType=RelatedInformation }
      { 49      ;1   ;ActionGroup;
                      CaptionML=[ENU=&Line;
                                 ENG=&Line];
                      Image=Line }
      { 50      ;2   ;Action    ;
                      ShortCutKey=Shift+F7;
                      CaptionML=[ENU=Show Document;
                                 ENG=Show Document];
                      ToolTipML=[ENU=Open the document that the selected line exists on.;
                                 ENG=Open the document that the selected line exists on.];
                      ApplicationArea=#Warehouse;
                      Image=View;
                      OnAction=BEGIN
                                 PostedInvtPickHeader.GET("No.");
                                 PAGE.RUN(PAGE::"Posted Invt. Pick",PostedInvtPickHeader);
                               END;
                                }
    }
  }
  CONTROLS
  {
    { 1900000001;0;Container;
                ContainerType=ContentArea }

    { 1   ;1   ;Group     ;
                GroupType=Repeater }

    { 2   ;2   ;Field     ;
                ToolTipML=[ENU=Specifies the number of the involved entry or record, according to the specified number series.;
                           ENG=Specifies the number of the involved entry or record, according to the specified number series.];
                ApplicationArea=#Warehouse;
                SourceExpr="No." }

    { 4   ;2   ;Field     ;
                ToolTipML=[ENU=Specifies the number of the posted inventory pick line.;
                           ENG=Specifies the number of the posted inventory pick line.];
                ApplicationArea=#Warehouse;
                SourceExpr="Line No." }

    { 6   ;2   ;Field     ;
                ToolTipML=[ENU=Specifies the action type for the inventory pick line. For posted inventory pick lines, the action type is always Take, meaning that the items are being taken out of the bin.;
                           ENG=Specifies the action type for the inventory pick line. For posted inventory pick lines, the action type is always Take, meaning that the items are being taken out of the bin.];
                ApplicationArea=#Warehouse;
                SourceExpr="Action Type";
                Visible=FALSE }

    { 8   ;2   ;Field     ;
                ToolTipML=[ENU=Specifies the type of document that the line relates to.;
                           ENG=Specifies the type of document that the line relates to.];
                ApplicationArea=#Warehouse;
                SourceExpr="Source Document" }

    { 10  ;2   ;Field     ;
                ToolTipML=[ENU=Specifies the number of the source document that the entry originates from.;
                           ENG=Specifies the number of the source document that the entry originates from.];
                ApplicationArea=#Warehouse;
                SourceExpr="Source No." }

    { 12  ;2   ;Field     ;
                ToolTipML=[ENU=Specifies the number of the item that was picked.;
                           ENG=Specifies the number of the item that was picked.];
                ApplicationArea=#Warehouse;
                SourceExpr="Item No." }

    { 14  ;2   ;Field     ;
                ToolTipML=[ENU=Specifies the variant of the item on the line.;
                           ENG=Specifies the variant of the item on the line.];
                ApplicationArea=#Advanced;
                SourceExpr="Variant Code";
                Visible=FALSE }

    { 16  ;2   ;Field     ;
                ToolTipML=[ENU=Specifies a description of the item that was picked.;
                           ENG=Specifies a description of the item that was picked.];
                ApplicationArea=#Warehouse;
                SourceExpr=Description }

    { 18  ;2   ;Field     ;
                ToolTipML=[ENU=Specifies the serial number for the item that was picked.;
                           ENG=Specifies the serial number for the item that was picked.];
                ApplicationArea=#ItemTracking;
                SourceExpr="Serial No.";
                Visible=FALSE }

    { 20  ;2   ;Field     ;
                ToolTipML=[ENU=Specifies the lot number for the item that was picked.;
                           ENG=Specifies the lot number for the item that was picked.];
                ApplicationArea=#ItemTracking;
                SourceExpr="Lot No.";
                Visible=FALSE }

    { 22  ;2   ;Field     ;
                ToolTipML=[ENU=Specifies the expiration date for the item that was picked.;
                           ENG=Specifies the expiration date for the item that was picked.];
                ApplicationArea=#ItemTracking;
                SourceExpr="Expiration Date";
                Visible=FALSE }

    { 24  ;2   ;Field     ;
                ToolTipML=[ENU=Specifies the code for the location at which the items were pick.;
                           ENG=Specifies the code for the location at which the items were pick.];
                ApplicationArea=#Warehouse;
                SourceExpr="Location Code";
                Visible=FALSE }

    { 26  ;2   ;Field     ;
                ToolTipML=[ENU=Specifies the bin where the items are picked or put away.;
                           ENG=Specifies the bin where the items are picked or put away.];
                ApplicationArea=#Warehouse;
                SourceExpr="Bin Code" }

    { 28  ;2   ;Field     ;
                ToolTipML=[ENU=Specifies the shelf number of the item for informational use.;
                           ENG=Specifies the shelf number of the item for informational use.];
                ApplicationArea=#Warehouse;
                SourceExpr="Shelf No.";
                Visible=FALSE }

    { 30  ;2   ;Field     ;
                ToolTipML=[ENU=Specifies the quantity of the item that was picked.;
                           ENG=Specifies the quantity of the item that was picked.];
                ApplicationArea=#Warehouse;
                SourceExpr=Quantity }

    { 32  ;2   ;Field     ;
                ToolTipML=[ENU=Specifies the quantity, in the base unit of measure, of the item that was picked.;
                           ENG=Specifies the quantity, in the base unit of measure, of the item that was picked.];
                ApplicationArea=#Warehouse;
                SourceExpr="Qty. (Base)";
                Visible=FALSE }

    { 34  ;2   ;Field     ;
                ToolTipML=[ENU=Specifies the date when the warehouse activity must be completed.;
                           ENG=Specifies the date when the warehouse activity must be completed.];
                ApplicationArea=#Warehouse;
                SourceExpr="Due Date" }

    { 36  ;2   ;Field     ;
                ToolTipML=[ENU=Specifies how each unit of the item or resource is measured, such as in pieces or hours. By default, the value in the Base Unit of Measure field on the item or resource card is inserted.;
                           ENG=Specifies how each unit of the item or resource is measured, such as in pieces or hours. By default, the value in the Base Unit of Measure field on the item or resource card is inserted.];
                ApplicationArea=#Warehouse;
                SourceExpr="Unit of Measure Code" }

    { 38  ;2   ;Field     ;
                ToolTipML=[ENU=Specifies the quantity per unit of measure of the item that was picked.;
                           ENG=Specifies the quantity per unit of measure of the item that was picked.];
                ApplicationArea=#Warehouse;
                SourceExpr="Qty. per Unit of Measure";
                Visible=FALSE }

    { 40  ;2   ;Field     ;
                ToolTipML=[ENU=Specifies the type of destination associated with the posted inventory pick line.;
                           ENG=Specifies the type of destination associated with the posted inventory pick line.];
                ApplicationArea=#Warehouse;
                SourceExpr="Destination Type";
                Visible=FALSE }

    { 42  ;2   ;Field     ;
                ToolTipML=[ENU=Specifies the number or the code of the customer or vendor linked to the line.;
                           ENG=Specifies the number or the code of the customer or vendor linked to the line.];
                ApplicationArea=#Warehouse;
                SourceExpr="Destination No.";
                Visible=FALSE }

    { 44  ;2   ;Field     ;
                ToolTipML=[ENU=Specifies the special equipment code for the item that was picked.;
                           ENG=Specifies the special equipment code for the item that was picked.];
                ApplicationArea=#Warehouse;
                SourceExpr="Special Equipment Code";
                Visible=FALSE }

  }
  CODE
  {
    VAR
      PostedInvtPickHeader@1000 : Record 7342;

    BEGIN
    END.
  }
}

