OBJECT Page 7343 Pick Selection
{
  OBJECT-PROPERTIES
  {
    Date=22/11/17;
    Time=12:00:00;
    Version List=NAVW111.00;
  }
  PROPERTIES
  {
    Editable=No;
    CaptionML=[ENU=Pick Selection;
               ENG=Pick Selection];
    SourceTable=Table7325;
    DataCaptionFields=Document Type,Location Code;
    PageType=List;
  }
  CONTROLS
  {
    { 1900000001;0;Container;
                ContainerType=ContentArea }

    { 1   ;1   ;Group     ;
                GroupType=Repeater }

    { 2   ;2   ;Field     ;
                ToolTipML=[ENU=Specifies the type of document from which the pick originated.;
                           ENG=Specifies the type of document from which the pick originated.];
                ApplicationArea=#Warehouse;
                SourceExpr="Document Type" }

    { 17  ;2   ;Field     ;
                ToolTipML=[ENU=Specifies the type of document that the component pick request is related to, such as Released and Assembly.;
                           ENG=Specifies the type of document that the component pick request is related to, such as Released and Assembly.];
                ApplicationArea=#Warehouse;
                SourceExpr="Document Subtype";
                Visible=FALSE }

    { 4   ;2   ;Field     ;
                ToolTipML=[ENU=Specifies the number of the warehouse document for which the program has received a pick request.;
                           ENG=Specifies the number of the warehouse document for which the program has received a pick request.];
                ApplicationArea=#Warehouse;
                SourceExpr="Document No." }

    { 6   ;2   ;Field     ;
                ToolTipML=[ENU=Specifies the code of the location in which the request is occurring.;
                           ENG=Specifies the code of the location in which the request is occurring.];
                ApplicationArea=#Warehouse;
                SourceExpr="Location Code" }

    { 8   ;2   ;Field     ;
                DrillDown=No;
                ToolTipML=[ENU=Specifies the delivery conditions of the related shipment, such as free on board (FOB).;
                           ENG=Specifies the delivery conditions of the related shipment, such as free on board (FOB).];
                ApplicationArea=#Warehouse;
                SourceExpr="Shipment Method Code" }

    { 10  ;2   ;Field     ;
                DrillDown=No;
                ToolTipML=[ENU=Specifies the code for the shipping agent who is transporting the items.;
                           ENG=Specifies the code for the shipping agent who is transporting the items.];
                ApplicationArea=#Warehouse;
                SourceExpr="Shipping Agent Code" }

    { 12  ;2   ;Field     ;
                DrillDown=No;
                ToolTipML=[ENU=Specifies the code for the service, such as a one-day delivery, that is offered by the shipping agent.;
                           ENG=Specifies the code for the service, such as a one-day delivery, that is offered by the shipping agent.];
                ApplicationArea=#Warehouse;
                SourceExpr="Shipping Agent Service Code" }

    { 3   ;2   ;Field     ;
                Name=AssembleToOrder;
                CaptionML=[ENU=Assemble to Order;
                           ENG=Assemble to Order];
                ToolTipML=[ENU=Specifies the assembly item that are not physically present until they have been assembled.;
                           ENG=Specifies the assembly item that are not physically present until they have been assembled.];
                ApplicationArea=#Assembly;
                SourceExpr=GetAsmToOrder;
                Visible=FALSE;
                Editable=FALSE }

    { 1900000007;0;Container;
                ContainerType=FactBoxArea }

    { 1900383207;1;Part   ;
                Visible=FALSE;
                PartType=System;
                SystemPartID=RecordLinks }

    { 1905767507;1;Part   ;
                Visible=FALSE;
                PartType=System;
                SystemPartID=Notes }

  }
  CODE
  {

    [External]
    PROCEDURE GetResult@1(VAR WhsePickRqst@1000 : Record 7325);
    BEGIN
      CurrPage.SETSELECTIONFILTER(WhsePickRqst);
    END;

    LOCAL PROCEDURE GetAsmToOrder@2() : Boolean;
    VAR
      AsmHeader@1000 : Record 900;
    BEGIN
      IF "Document Type" = "Document Type"::Assembly THEN BEGIN
        AsmHeader.GET("Document Subtype","Document No.");
        AsmHeader.CALCFIELDS("Assemble to Order");
        EXIT(AsmHeader."Assemble to Order");
      END;
    END;

    BEGIN
    END.
  }
}

