OBJECT Page 7186 Purch. Cr. Memo Lines Subform
{
  OBJECT-PROPERTIES
  {
    Date=25/10/16;
    Time=12:00:00;
    Version List=NAVW110.00;
  }
  PROPERTIES
  {
    Editable=No;
    CaptionML=[ENU=Lines;
               ENG=Lines];
    MultipleNewLines=Yes;
    SourceTable=Table125;
    PageType=ListPart;
  }
  CONTROLS
  {
  }
  CODE
  {

    BEGIN
    END.
  }
}

