OBJECT Page 849 Cash Flow Forecast List
{
  OBJECT-PROPERTIES
  {
    Date=21/12/17;
    Time=12:00:00;
    Version List=NAVW111.00.00.19846;
  }
  PROPERTIES
  {
    Editable=No;
    CaptionML=[ENU=Cash Flow Forecast List;
               ENG=Cash Flow Forecast List];
    SourceTable=Table840;
    PageType=List;
    CardPageID=Cash Flow Forecast Card;
    RefreshOnActivate=Yes;
    ActionList=ACTIONS
    {
      { 1900000003;0 ;ActionContainer;
                      ActionContainerType=RelatedInformation }
      { 1018    ;1   ;ActionGroup;
                      CaptionML=[ENU=Cash Flow Forecast;
                                 ENG=Cash Flow Forecast];
                      Image=CashFlow }
      { 1020    ;2   ;Action    ;
                      ShortCutKey=Ctrl+F7;
                      CaptionML=[ENU=E&ntries;
                                 ENG=E&ntries];
                      ToolTipML=[ENU="View the entries that exist for the cash flow account. ";
                                 ENG="View the entries that exist for the cash flow account. "];
                      ApplicationArea=#Basic,#Suite;
                      RunObject=Page 850;
                      RunPageLink=Cash Flow Forecast No.=FIELD(No.);
                      Image=Entries }
      { 1021    ;2   ;Action    ;
                      ShortCutKey=F7;
                      CaptionML=[ENU=Statistics;
                                 ENG=Statistics];
                      ToolTipML=[ENU=View when you expect money for each source type to be received and paid out by your business for the cash flow forecast.;
                                 ENG=View when you expect money for each source type to be received and paid out by your business for the cash flow forecast.];
                      ApplicationArea=#Basic,#Suite;
                      RunObject=Page 868;
                      RunPageLink=No.=FIELD(No.);
                      Promoted=Yes;
                      Image=Statistics;
                      PromotedCategory=Process }
      { 1022    ;2   ;Action    ;
                      CaptionML=[ENU=Co&mments;
                                 ENG=Co&mments];
                      ToolTipML=[ENU=View or add comments for the record.;
                                 ENG=View or add comments for the record.];
                      ApplicationArea=#Basic,#Suite;
                      RunObject=Page 848;
                      RunPageLink=Table Name=CONST(Cash Flow Forecast),
                                  No.=FIELD(No.);
                      Image=ViewComments }
      { 1023    ;2   ;Separator ;
                      CaptionML=[ENU="";
                                 ENG=""] }
      { 1024    ;2   ;Action    ;
                      CaptionML=[ENU=CF &Availability by Periods;
                                 ENG=CF &Availability by Periods];
                      ToolTipML=[ENU=View a scrollable summary of the forecasted amounts per source type, by period. The rows represent individual periods, and the columns represent the source types in the cash flow forecast.;
                                 ENG=View a scrollable summary of the forecasted amounts per source type, by period. The rows represent individual periods, and the columns represent the source types in the cash flow forecast.];
                      ApplicationArea=#Basic,#Suite;
                      RunObject=Page 867;
                      RunPageLink=No.=FIELD(No.);
                      Image=ShowMatrix }
      { 1900000004;0 ;ActionContainer;
                      ActionContainerType=ActionItems }
      { 2       ;1   ;Action    ;
                      Name=CashFlowWorksheet;
                      CaptionML=[ENU=Cash Flow Worksheet;
                                 ENG=Cash Flow Worksheet];
                      ToolTipML=[ENU=Get an overview of cash inflows and outflows and create a short-term forecast that predicts how and when you expect money to be received and paid out by your business.;
                                 ENG=Get an overview of cash inflows and outflows and create a short-term forecast that predicts how and when you expect money to be received and paid out by your business.];
                      ApplicationArea=#Basic,#Suite;
                      RunObject=Page 841;
                      Promoted=Yes;
                      Image=Worksheet2;
                      PromotedCategory=Process }
      { 1025    ;1   ;ActionGroup;
                      CaptionML=[ENU=&Print;
                                 ENG=&Print];
                      Image=Print }
      { 1026    ;2   ;Action    ;
                      Name=CashFlowDateList;
                      Ellipsis=Yes;
                      CaptionML=[ENU=Cash Flow &Date List;
                                 ENG=Cash Flow &Date List];
                      ToolTipML=[ENU=View forecast entries for a period of time that you specify. The registered cash flow forecast entries are organized by source types, such as receivables, sales orders, payables, and purchase orders. You specify the number of periods and their length.;
                                 ENG=View forecast entries for a period of time that you specify. The registered cash flow forecast entries are organised by source types, such as receivables, sales orders, payables, and purchase orders. You specify the number of periods and their length.];
                      ApplicationArea=#Basic,#Suite;
                      Promoted=Yes;
                      Image=Report;
                      PromotedCategory=Report;
                      OnAction=VAR
                                 CashFlowForecast@1002 : Record 840;
                               BEGIN
                                 CurrPage.SETSELECTIONFILTER(CashFlowForecast);
                                 CashFlowForecast.PrintRecords;
                               END;
                                }
    }
  }
  CONTROLS
  {
    { 1900000001;0;Container;
                ContainerType=ContentArea }

    { 1000;1   ;Group     ;
                GroupType=Repeater }

    { 1001;2   ;Field     ;
                ToolTipML=[ENU=Specifies the number of the involved entry or record, according to the specified number series.;
                           ENG=Specifies the number of the involved entry or record, according to the specified number series.];
                ApplicationArea=#Basic,#Suite;
                SourceExpr="No." }

    { 1002;2   ;Field     ;
                ToolTipML=[ENU=Specifies an alternate name that you can use to search for the record in question when you cannot remember the value in the Name field.;
                           ENG=Specifies an alternate name that you can use to search for the record in question when you cannot remember the value in the Name field.];
                ApplicationArea=#Basic,#Suite;
                SourceExpr="Search Name";
                Visible=FALSE }

    { 1003;2   ;Field     ;
                ToolTipML=[ENU=Specifies a description of the cash flow forecast.;
                           ENG=Specifies a description of the cash flow forecast.];
                ApplicationArea=#Basic,#Suite;
                SourceExpr=Description }

    { 1005;2   ;Field     ;
                ToolTipML=[ENU=Specifies an additional description of a forecast.;
                           ENG=Specifies an additional description of a forecast.];
                ApplicationArea=#Basic,#Suite;
                SourceExpr="Description 2" }

    { 1   ;2   ;Field     ;
                Name=ShowInChart;
                CaptionML=[ENU=Show In Chart on Role Center;
                           ENG=Show In Chart on Role Centre];
                ToolTipML=[ENU=Specifies the cash flow forecast chart on the Role Center page.;
                           ENG=Specifies the cash flow forecast chart on the Role Centre page.];
                ApplicationArea=#Basic,#Suite;
                SourceExpr=GetShowInChart }

    { 1007;2   ;Field     ;
                ToolTipML=[ENU=Specifies if you want to include the cash discounts that are assigned in entries and documents in cash flow forecast.;
                           ENG=Specifies if you want to include the cash discounts that are assigned in entries and documents in cash flow forecast.];
                ApplicationArea=#Basic,#Suite;
                SourceExpr="Consider Discount" }

    { 1009;2   ;Field     ;
                ToolTipML=[ENU=Specifies the date that the forecast was created.;
                           ENG=Specifies the date that the forecast was created.];
                ApplicationArea=#Basic,#Suite;
                SourceExpr="Creation Date" }

    { 1011;2   ;Field     ;
                ToolTipML=[ENU=Specifies the user who created the forecast.;
                           ENG=Specifies the user who created the forecast.];
                ApplicationArea=#Basic,#Suite;
                SourceExpr="Created By" }

    { 1013;2   ;Field     ;
                ToolTipML=[ENU=Specifies a starting date to which manual payments should be included in cash flow forecast.;
                           ENG=Specifies a starting date to which manual payments should be included in cash flow forecast.];
                ApplicationArea=#Basic,#Suite;
                SourceExpr="Manual Payments To";
                Visible=FALSE }

    { 1014;2   ;Field     ;
                ToolTipML=[ENU=Specifies the comment for the record.;
                           ENG=Specifies the comment for the record.];
                ApplicationArea=#Basic,#Suite;
                SourceExpr=Comment;
                Visible=FALSE }

    { 1015;2   ;Field     ;
                ToolTipML=[ENU=Specifies the number series from which entry or record numbers are assigned to new entries or records.;
                           ENG=Specifies the number series from which entry or record numbers are assigned to new entries or records.];
                ApplicationArea=#Basic,#Suite;
                SourceExpr="No. Series";
                Visible=FALSE }

    { 1016;2   ;Field     ;
                ToolTipML=[ENU=Specifies a starting date from which manual payments should be included in cash flow forecast.;
                           ENG=Specifies a starting date from which manual payments should be included in cash flow forecast.];
                ApplicationArea=#Basic,#Suite;
                SourceExpr="Manual Payments From";
                Visible=FALSE }

    { 1017;2   ;Field     ;
                ToolTipML=[ENU=Specifies the starting date from which you want to use the budget values from the general ledger in the cash flow forecast.;
                           ENG=Specifies the starting date from which you want to use the budget values from the general ledger in the cash flow forecast.];
                ApplicationArea=#Basic,#Suite;
                SourceExpr="G/L Budget From";
                Visible=FALSE }

    { 1010;2   ;Field     ;
                ToolTipML=[ENU=Specifies the last date to which you want to use the budget values from the general ledger in the cash flow forecast.;
                           ENG=Specifies the last date to which you want to use the budget values from the general ledger in the cash flow forecast.];
                ApplicationArea=#Basic,#Suite;
                SourceExpr="G/L Budget To";
                Visible=FALSE }

    { 1019;2   ;Field     ;
                ToolTipML=[ENU=Specifies if you want to use cash flow payment terms for cash flow forecast. Cash flow payment terms overrule the standard payment terms that you have defined for customers, vendors, and orders. They also overrule the payment terms that you have manually entered on entries or documents.;
                           ENG=Specifies if you want to use cash flow payment terms for cash flow forecast. Cash flow payment terms overrule the standard payment terms that you have defined for customers, vendors, and orders. They also overrule the payment terms that you have manually entered on entries or documents.];
                ApplicationArea=#Basic,#Suite;
                SourceExpr="Consider CF Payment Terms";
                Visible=FALSE }

    { 1027;2   ;Field     ;
                ToolTipML=[ENU=Specifies if the payment discount tolerance date is considered when the cash flow date is calculated. If the check box is cleared, the due date or payment discount date from the customer and vendor ledger entries and the sales order or purchase order are used.;
                           ENG=Specifies if the payment discount tolerance date is considered when the cash flow date is calculated. If the check box is cleared, the due date or payment discount date from the customer and vendor ledger entries and the sales order or purchase order are used.];
                ApplicationArea=#Basic,#Suite;
                SourceExpr="Consider Pmt. Disc. Tol. Date";
                Visible=FALSE }

    { 1028;2   ;Field     ;
                ToolTipML=[ENU=Specifies if the payment tolerance amounts from the posted customer and vendor ledger entries are used in the cash flow forecast. If the check box is cleared, the amount without any payment tolerance amount from the customer and vendor ledger entries are used.;
                           ENG=Specifies if the payment tolerance amounts from the posted customer and vendor ledger entries are used in the cash flow forecast. If the check box is cleared, the amount without any payment tolerance amount from the customer and vendor ledger entries are used.];
                ApplicationArea=#Basic,#Suite;
                SourceExpr="Consider Pmt. Tol. Amount";
                Visible=FALSE }

    { 1900000007;0;Container;
                ContainerType=FactBoxArea }

    { 1905906307;1;Part   ;
                ApplicationArea=#Basic,#Suite;
                SubPageLink=No.=FIELD(No.);
                PagePartID=Page840;
                Visible=FALSE;
                PartType=Page }

  }
  CODE
  {

    [External]
    PROCEDURE SetSelection@1(VAR CashFlowAcc@1000 : Record 841);
    BEGIN
      CurrPage.SETSELECTIONFILTER(CashFlowAcc);
    END;

    [Internal]
    PROCEDURE GetSelectionFilter@4() : Text;
    VAR
      CashFlowForecast@1001 : Record 840;
      SelectionFilterManagement@1002 : Codeunit 46;
    BEGIN
      CurrPage.SETSELECTIONFILTER(CashFlowForecast);
      EXIT(SelectionFilterManagement.GetSelectionFilterForCashFlow(CashFlowForecast));
    END;

    BEGIN
    END.
  }
}

