OBJECT Page 8623 Config. Package Filters
{
  OBJECT-PROPERTIES
  {
    Date=25/10/16;
    Time=12:00:00;
    Version List=NAVW110.00;
  }
  PROPERTIES
  {
    CaptionML=[ENU=Config. Package Filters;
               ENG=Config. Package Filters];
    SourceTable=Table8626;
    PageType=List;
  }
  CONTROLS
  {
    { 1   ;0   ;Container ;
                ContainerType=ContentArea }

    { 2   ;1   ;Group     ;
                Name=Group;
                GroupType=Repeater }

    { 3   ;2   ;Field     ;
                ToolTipML=[ENU=Specifies the ID of the field on which you want to filter records in the configuration table.;
                           ENG=Specifies the ID of the field on which you want to filter records in the configuration table.];
                ApplicationArea=#Basic,#Suite;
                SourceExpr="Field ID";
                OnLookup=VAR
                           Field@1001 : Record 2000000041;
                           ConfigPackageMgt@1003 : Codeunit 8611;
                           FieldsLookup@1000 : Page 9806;
                         BEGIN
                           ConfigPackageMgt.SetFieldFilter(Field,"Table ID",0);
                           FieldsLookup.SETTABLEVIEW(Field);
                           FieldsLookup.LOOKUPMODE(TRUE);
                           IF FieldsLookup.RUNMODAL = ACTION::LookupOK THEN BEGIN
                             FieldsLookup.GETRECORD(Field);
                             "Field ID" := Field."No.";
                             CurrPage.UPDATE(TRUE);
                           END;
                         END;
                          }

    { 4   ;2   ;Field     ;
                ToolTipML=[ENU=Specifies the name of the field on which you want to filter records in the configuration table.;
                           ENG=Specifies the name of the field on which you want to filter records in the configuration table.];
                ApplicationArea=#Basic,#Suite;
                SourceExpr="Field Name" }

    { 5   ;2   ;Field     ;
                ToolTipML=[ENU=Specifies the field caption of the field on which you want to filter records in the configuration table.;
                           ENG=Specifies the field caption of the field on which you want to filter records in the configuration table.];
                ApplicationArea=#Basic,#Suite;
                SourceExpr="Field Caption" }

    { 6   ;2   ;Field     ;
                ToolTipML=[ENU=Specifies the field filter value for a configuration package filter. By setting a value, you specify that only records with that value are included in the configuration package.;
                           ENG=Specifies the field filter value for a configuration package filter. By setting a value, you specify that only records with that value are included in the configuration package.];
                ApplicationArea=#Basic,#Suite;
                SourceExpr="Field Filter" }

  }
  CODE
  {

    BEGIN
    END.
  }
}

