OBJECT Page 8611 Config. Question Area
{
  OBJECT-PROPERTIES
  {
    Date=25/10/16;
    Time=12:00:00;
    Version List=NAVW110.00;
  }
  PROPERTIES
  {
    CaptionML=[ENU=Config. Question Area;
               ENG=Config. Question Area];
    SourceTable=Table8611;
    PopulateAllFields=Yes;
    PageType=ListPlus;
    ActionList=ACTIONS
    {
      { 1900000003;  ;ActionContainer;
                      ActionContainerType=ActionItems }
      { 11      ;1   ;ActionGroup;
                      CaptionML=[ENU=&Question;
                                 ENG=&Question];
                      Image=Questionaire }
      { 13      ;2   ;Separator  }
      { 14      ;2   ;Action    ;
                      Name=UpdateQuestions;
                      CaptionML=[ENU=&Update Questions;
                                 ENG=&Update Questions];
                      ToolTipML=[ENU=Fill the question list based on the fields in the table on which the question area is based.;
                                 ENG=Fill the question list based on the fields in the table on which the question area is based.];
                      ApplicationArea=#Basic,#Suite;
                      Promoted=Yes;
                      PromotedIsBig=Yes;
                      Image=Refresh;
                      PromotedCategory=Process;
                      OnAction=BEGIN
                                 CurrPage.SETSELECTIONFILTER(ConfigQuestionArea);
                                 IF ConfigQuestionArea.FINDSET THEN BEGIN
                                   REPEAT
                                     QuestionnaireMgt.UpdateQuestions(ConfigQuestionArea);
                                   UNTIL ConfigQuestionArea.NEXT = 0;
                                   MESSAGE(Text001);
                                 END;
                               END;
                                }
      { 15      ;2   ;Action    ;
                      Name=ApplyAnswers;
                      CaptionML=[ENU=&Apply Answers;
                                 ENG=&Apply Answers];
                      ToolTipML=[ENU=Implement answers in the questionnaire in the related setup fields.;
                                 ENG=Implement answers in the questionnaire in the related setup fields.];
                      ApplicationArea=#Basic,#Suite;
                      Promoted=Yes;
                      PromotedIsBig=Yes;
                      Image=Apply;
                      PromotedCategory=Process;
                      OnAction=BEGIN
                                 CurrPage.SETSELECTIONFILTER(ConfigQuestionArea);
                                 IF ConfigQuestionArea.FINDSET THEN BEGIN
                                   REPEAT
                                     QuestionnaireMgt.ApplyAnswer(ConfigQuestionArea);
                                   UNTIL ConfigQuestionArea.NEXT = 0;
                                   MESSAGE(Text002);
                                 END;
                               END;
                                }
    }
  }
  CONTROLS
  {
    { 1900000001;0;Container;
                ContainerType=ContentArea }

    { 1   ;1   ;Group     ;
                CaptionML=[ENU=General;
                           ENG=General] }

    { 2   ;2   ;Field     ;
                ToolTipML=[ENU=Specifies the code for the question area. You fill in a value for the code when you create a question area for your setup questionnaire.;
                           ENG=Specifies the code for the question area. You fill in a value for the code when you create a question area for your setup questionnaire.];
                ApplicationArea=#Basic,#Suite;
                NotBlank=Yes;
                SourceExpr=Code }

    { 4   ;2   ;Field     ;
                ToolTipML=[ENU=Specifies a description for the question area code. You can enter up to 50 characters, numbers, and spaces.;
                           ENG=Specifies a description for the question area code. You can enter up to 50 characters, numbers, and spaces.];
                ApplicationArea=#Basic,#Suite;
                SourceExpr=Description }

    { 6   ;2   ;Field     ;
                ToolTipML=[ENU=Specifies the ID of the table that the question area manages. You can select any application table from the Objects window.;
                           ENG=Specifies the ID of the table that the question area manages. You can select any application table from the Objects window.];
                ApplicationArea=#Basic,#Suite;
                SourceExpr="Table ID";
                OnValidate=BEGIN
                             CurrPage.UPDATE;
                           END;
                            }

    { 9   ;2   ;Field     ;
                DrillDown=No;
                ToolTipML=[ENU=Specifies the name of the table that is supporting the setup questionnaire area. The name comes from the name property of the table.;
                           ENG=Specifies the name of the table that is supporting the setup questionnaire area. The name comes from the name property of the table.];
                ApplicationArea=#Basic,#Suite;
                SourceExpr="Table Name";
                Editable=FALSE }

    { 10  ;1   ;Part      ;
                Name=ConfigQuestionSubform;
                ApplicationArea=#Basic,#Suite;
                SubPageView=SORTING(Questionnaire Code,Question Area Code,No.)
                            ORDER(Ascending);
                SubPageLink=Questionnaire Code=FIELD(Questionnaire Code),
                            Question Area Code=FIELD(Code);
                PagePartID=Page8612;
                PartType=Page }

    { 1900000007;0;Container;
                ContainerType=FactBoxArea }

    { 1900383207;1;Part   ;
                Visible=FALSE;
                PartType=System;
                SystemPartID=RecordLinks }

    { 1905767507;1;Part   ;
                Visible=FALSE;
                PartType=System;
                SystemPartID=Notes }

  }
  CODE
  {
    VAR
      ConfigQuestionArea@1001 : Record 8611;
      QuestionnaireMgt@1000 : Codeunit 8610;
      Text001@1002 : TextConst 'ENU=Questions have been updated.;ENG=Questions have been updated.';
      Text002@1003 : TextConst 'ENU=Answers have been applied.;ENG=Answers have been applied.';

    BEGIN
    END.
  }
}

