OBJECT Page 831 Workflow Webhook Subscriptions
{
  OBJECT-PROPERTIES
  {
    Date=22/11/17;
    Time=12:00:00;
    Version List=NAVW111.00;
  }
  PROPERTIES
  {
    CaptionML=[@@@={Locked};
               ENU=workflowWebhookSubscriptions;
               ENG=workflowWebhookSubscriptions];
    SourceTable=Table469;
    PageType=List;
    OnAfterGetCurrRecord=BEGIN
                           // runs on get record
                           // need to return encoded string
                           ConditionsTxt := GetConditions;
                           NotificationURLTxt := GetNotificationUrl;
                         END;

  }
  CONTROLS
  {
    { 1   ;0   ;Container ;
                ContainerType=ContentArea }

    { 2   ;1   ;Group     ;
                Name=Group;
                GroupType=Repeater }

    { 4   ;2   ;Field     ;
                Name=notificationUrl;
                CaptionML=[@@@={Locked};
                           ENU=Notification Url;
                           ENG=Notification Url];
                ToolTipML=[ENU=Specifies the notification url to post to.;
                           ENG=Specifies the notification url to post to.];
                ApplicationArea=#All;
                SourceExpr=NotificationURLTxt;
                OnValidate=BEGIN
                             // runs on inserting new entry into the table
                             // entry comes as base64 encoded string but need to be stored as BLOB
                             SetNotificationUrl(NotificationURLTxt);
                           END;
                            }

    { 3   ;2   ;Field     ;
                Name=conditions;
                CaptionML=[@@@={Locked};
                           ENU=Conditions;
                           ENG=Conditions];
                ToolTipML=[ENU=Specifies the workflow conditions.;
                           ENG=Specifies the workflow conditions.];
                ApplicationArea=#All;
                SourceExpr=ConditionsTxt;
                OnValidate=BEGIN
                             // runs on inserting new entry into the table
                             // entry comes as base64 encoded string but need to be stored as BLOB
                             SetConditions(ConditionsTxt);
                           END;
                            }

    { 6   ;2   ;Field     ;
                Name=eventCode;
                CaptionML=[@@@={Locked};
                           ENU=Event Code;
                           ENG=Event Code];
                ToolTipML=[ENU=Specifies the event code for the workflow.;
                           ENG=Specifies the event code for the workflow.];
                ApplicationArea=#All;
                SourceExpr="Event Code" }

    { 8   ;2   ;Field     ;
                Name=clientType;
                CaptionML=[@@@={Locked};
                           ENU=Client Type;
                           ENG=Client Type];
                ToolTipML=[ENU=Specifies the client type;
                           ENG=Specifies the client type];
                ApplicationArea=#All;
                SourceExpr="Client Type" }

    { 7   ;2   ;Field     ;
                Name=clientId;
                CaptionML=[@@@={Locked};
                           ENU=Client Id;
                           ENG=Client Id];
                ToolTipML=[ENU=Specifies the id for the client from Flow.;
                           ENG=Specifies the id for the client from Flow.];
                ApplicationArea=#All;
                SourceExpr="Client Id" }

    { 9   ;2   ;Field     ;
                Name=enabled;
                CaptionML=[@@@={Locked};
                           ENU=Enabled;
                           ENG=Enabled];
                ToolTipML=[ENU=Specifies if the subscription is enabled.;
                           ENG=Specifies if the subscription is enabled.];
                ApplicationArea=#All;
                SourceExpr=Enabled }

    { 5   ;2   ;Field     ;
                Name=id;
                CaptionML=[@@@={Locked};
                           ENU=Id;
                           ENG=Id];
                ToolTipML=[ENU=Specifies the unique identifier for a subscription.;
                           ENG=Specifies the unique identifier for a subscription.];
                ApplicationArea=#All;
                SourceExpr=Id }

  }
  CODE
  {
    VAR
      ConditionsTxt@1001 : Text;
      NotificationURLTxt@1004 : Text;

    BEGIN
    END.
  }
}

