OBJECT Page 9207 Sales Analysis Matrix
{
  OBJECT-PROPERTIES
  {
    Date=22/11/17;
    Time=12:00:00;
    Version List=NAVW111.00;
  }
  PROPERTIES
  {
    Editable=No;
    CaptionML=[ENU=Sales Analysis Matrix;
               ENG=Sales Analysis Matrix];
    LinksAllowed=No;
    SourceTable=Table7114;
    PageType=List;
    OnInit=BEGIN
             Field32Visible := TRUE;
             Field31Visible := TRUE;
             Field30Visible := TRUE;
             Field29Visible := TRUE;
             Field28Visible := TRUE;
             Field27Visible := TRUE;
             Field26Visible := TRUE;
             Field25Visible := TRUE;
             Field24Visible := TRUE;
             Field23Visible := TRUE;
             Field22Visible := TRUE;
             Field21Visible := TRUE;
             Field20Visible := TRUE;
             Field19Visible := TRUE;
             Field18Visible := TRUE;
             Field17Visible := TRUE;
             Field16Visible := TRUE;
             Field15Visible := TRUE;
             Field14Visible := TRUE;
             Field13Visible := TRUE;
             Field12Visible := TRUE;
             Field11Visible := TRUE;
             Field10Visible := TRUE;
             Field9Visible := TRUE;
             Field8Visible := TRUE;
             Field7Visible := TRUE;
             Field6Visible := TRUE;
             Field5Visible := TRUE;
             Field4Visible := TRUE;
             Field3Visible := TRUE;
             Field2Visible := TRUE;
             Field1Visible := TRUE;
           END;

    OnOpenPage=BEGIN
                 SETFILTER(Show,'<>%1',Show::No);
                 AnalysisColumn.SETRANGE("Analysis Area",AnalysisColumn."Analysis Area"::Sales);
                 AnalysisColumn.SETRANGE("Analysis Column Template",AnalysisColumn."Analysis Column Template");
                 AnalysisColumn.SETRANGE("Line No.",FirstLineNo,LastLineNo);
                 AnalysisColumn.SETFILTER(Show,'<>%1',AnalysisColumn.Show::Never);
                 SetVisible;
               END;

    OnAfterGetRecord=VAR
                       CellValue@1000 : Decimal;
                     BEGIN
                       i := 1;

                       IF AnalysisColumn.FIND('-') THEN
                         REPEAT
                           IF i <= ARRAYLEN(MatrixData) THEN BEGIN
                             IF Range = '' THEN
                               CellValue := 0
                             ELSE
                               CellValue := AnalysisReportMgt.CalcCell(Rec,AnalysisColumn,FALSE);
                             MatrixData[i] := MatrixMgt.RoundValue(CellValue,AnalysisColumn."Rounding Factor");
                             MatrixRounding[i] := AnalysisColumn."Rounding Factor";
                             CachedContainsError[i] := FindError;
                           END;
                           SetStyle(i);
                           i := i + 1;
                         UNTIL AnalysisColumn.NEXT = 0;
                       Emphasize := Bold;
                     END;

  }
  CONTROLS
  {
    { 1900000001;0;Container;
                ContainerType=ContentArea }

    { 1   ;1   ;Group     ;
                GroupType=Repeater }

    { 2   ;2   ;Field     ;
                ToolTipML=[ENU=Specifies a row reference number for the analysis line.;
                           ENG=Specifies a row reference number for the analysis line.];
                ApplicationArea=#SalesAnalysis;
                SourceExpr="Row Ref. No.";
                Style=Strong;
                StyleExpr=Emphasize }

    { 4   ;2   ;Field     ;
                ToolTipML=[ENU=Specifies a description for the analysis line.;
                           ENG=Specifies a description for the analysis line.];
                ApplicationArea=#SalesAnalysis;
                SourceExpr=Description;
                Style=Strong;
                StyleExpr=Emphasize }

    { 9   ;2   ;Field     ;
                Name=Field1;
                ApplicationArea=#SalesAnalysis;
                BlankZero=Yes;
                SourceExpr=MatrixData[1];
                AutoFormatType=10;
                AutoFormatExpr=FormatStr(1);
                CaptionClass='3,' + MatrixColumnCaptions[1];
                Visible=Field1Visible;
                StyleExpr=Field1Style;
                OnDrillDown=BEGIN
                              FieldDrillDown(1);
                            END;
                             }

    { 11  ;2   ;Field     ;
                Name=Field2;
                ApplicationArea=#SalesAnalysis;
                BlankZero=Yes;
                SourceExpr=MatrixData[2];
                AutoFormatType=10;
                AutoFormatExpr=FormatStr(2);
                CaptionClass='3,' + MatrixColumnCaptions[2];
                Visible=Field2Visible;
                StyleExpr=Field2Style;
                OnDrillDown=BEGIN
                              FieldDrillDown(2);
                            END;
                             }

    { 13  ;2   ;Field     ;
                Name=Field3;
                ApplicationArea=#SalesAnalysis;
                BlankZero=Yes;
                SourceExpr=MatrixData[3];
                AutoFormatType=10;
                AutoFormatExpr=FormatStr(3);
                CaptionClass='3,' + MatrixColumnCaptions[3];
                Visible=Field3Visible;
                StyleExpr=Field3Style;
                OnDrillDown=BEGIN
                              FieldDrillDown(3);
                            END;
                             }

    { 15  ;2   ;Field     ;
                Name=Field4;
                ApplicationArea=#SalesAnalysis;
                BlankZero=Yes;
                SourceExpr=MatrixData[4];
                AutoFormatType=10;
                AutoFormatExpr=FormatStr(4);
                CaptionClass='3,' + MatrixColumnCaptions[4];
                Visible=Field4Visible;
                StyleExpr=Field4Style;
                OnDrillDown=BEGIN
                              FieldDrillDown(4);
                            END;
                             }

    { 17  ;2   ;Field     ;
                Name=Field5;
                ApplicationArea=#SalesAnalysis;
                BlankZero=Yes;
                SourceExpr=MatrixData[5];
                AutoFormatType=10;
                AutoFormatExpr=FormatStr(5);
                CaptionClass='3,' + MatrixColumnCaptions[5];
                Visible=Field5Visible;
                StyleExpr=Field5Style;
                OnDrillDown=BEGIN
                              FieldDrillDown(5);
                            END;
                             }

    { 19  ;2   ;Field     ;
                Name=Field6;
                ApplicationArea=#SalesAnalysis;
                BlankZero=Yes;
                SourceExpr=MatrixData[6];
                AutoFormatType=10;
                AutoFormatExpr=FormatStr(6);
                CaptionClass='3,' + MatrixColumnCaptions[6];
                Visible=Field6Visible;
                StyleExpr=Field6Style;
                OnDrillDown=BEGIN
                              FieldDrillDown(6);
                            END;
                             }

    { 21  ;2   ;Field     ;
                Name=Field7;
                ApplicationArea=#SalesAnalysis;
                BlankZero=Yes;
                SourceExpr=MatrixData[7];
                AutoFormatType=10;
                AutoFormatExpr=FormatStr(7);
                CaptionClass='3,' + MatrixColumnCaptions[7];
                Visible=Field7Visible;
                StyleExpr=Field7Style;
                OnDrillDown=BEGIN
                              FieldDrillDown(7);
                            END;
                             }

    { 31  ;2   ;Field     ;
                Name=Field8;
                ApplicationArea=#SalesAnalysis;
                BlankZero=Yes;
                SourceExpr=MatrixData[8];
                AutoFormatType=10;
                AutoFormatExpr=FormatStr(8);
                CaptionClass='3,' + MatrixColumnCaptions[8];
                Visible=Field8Visible;
                StyleExpr=Field8Style;
                OnAssistEdit=BEGIN
                               FieldDrillDown(8);
                             END;
                              }

    { 29  ;2   ;Field     ;
                Name=Field9;
                ApplicationArea=#SalesAnalysis;
                BlankZero=Yes;
                SourceExpr=MatrixData[9];
                AutoFormatType=10;
                AutoFormatExpr=FormatStr(9);
                CaptionClass='3,' + MatrixColumnCaptions[9];
                Visible=Field9Visible;
                StyleExpr=Field9Style;
                OnDrillDown=BEGIN
                              FieldDrillDown(9);
                            END;
                             }

    { 27  ;2   ;Field     ;
                Name=Field10;
                ApplicationArea=#SalesAnalysis;
                BlankZero=Yes;
                SourceExpr=MatrixData[10];
                AutoFormatType=10;
                AutoFormatExpr=FormatStr(10);
                CaptionClass='3,' + MatrixColumnCaptions[10];
                Visible=Field10Visible;
                StyleExpr=Field10Style;
                OnDrillDown=BEGIN
                              FieldDrillDown(10);
                            END;
                             }

    { 25  ;2   ;Field     ;
                Name=Field11;
                ApplicationArea=#SalesAnalysis;
                BlankZero=Yes;
                SourceExpr=MatrixData[11];
                AutoFormatType=10;
                AutoFormatExpr=FormatStr(11);
                CaptionClass='3,' + MatrixColumnCaptions[11];
                Visible=Field11Visible;
                StyleExpr=Field11Style;
                OnDrillDown=BEGIN
                              FieldDrillDown(11);
                            END;
                             }

    { 61  ;2   ;Field     ;
                Name=Field12;
                ApplicationArea=#SalesAnalysis;
                BlankZero=Yes;
                SourceExpr=MatrixData[12];
                AutoFormatType=10;
                AutoFormatExpr=FormatStr(12);
                CaptionClass='3,' + MatrixColumnCaptions[12];
                Visible=Field12Visible;
                StyleExpr=Field12Style;
                OnDrillDown=BEGIN
                              FieldDrillDown(12);
                            END;
                             }

    { 71  ;2   ;Field     ;
                Name=Field13;
                ApplicationArea=#SalesAnalysis;
                BlankZero=Yes;
                SourceExpr=MatrixData[13];
                AutoFormatType=10;
                AutoFormatExpr=FormatStr(13);
                CaptionClass='3,' + MatrixColumnCaptions[13];
                Visible=Field13Visible;
                StyleExpr=Field13Style;
                OnDrillDown=BEGIN
                              FieldDrillDown(13);
                            END;
                             }

    { 69  ;2   ;Field     ;
                Name=Field14;
                ApplicationArea=#SalesAnalysis;
                BlankZero=Yes;
                SourceExpr=MatrixData[14];
                AutoFormatType=10;
                AutoFormatExpr=FormatStr(14);
                CaptionClass='3,' + MatrixColumnCaptions[14];
                Visible=Field14Visible;
                StyleExpr=Field14Style;
                OnDrillDown=BEGIN
                              FieldDrillDown(14);
                            END;
                             }

    { 67  ;2   ;Field     ;
                Name=Field15;
                ApplicationArea=#SalesAnalysis;
                BlankZero=Yes;
                SourceExpr=MatrixData[15];
                AutoFormatType=10;
                AutoFormatExpr=FormatStr(15);
                CaptionClass='3,' + MatrixColumnCaptions[15];
                Visible=Field15Visible;
                StyleExpr=Field15Style;
                OnDrillDown=BEGIN
                              FieldDrillDown(15);
                            END;
                             }

    { 65  ;2   ;Field     ;
                Name=Field16;
                ApplicationArea=#SalesAnalysis;
                BlankZero=Yes;
                SourceExpr=MatrixData[16];
                AutoFormatType=10;
                AutoFormatExpr=FormatStr(16);
                CaptionClass='3,' + MatrixColumnCaptions[16];
                Visible=Field16Visible;
                StyleExpr=Field16Style;
                OnDrillDown=BEGIN
                              FieldDrillDown(16);
                            END;
                             }

    { 63  ;2   ;Field     ;
                Name=Field17;
                ApplicationArea=#SalesAnalysis;
                BlankZero=Yes;
                SourceExpr=MatrixData[17];
                AutoFormatType=10;
                AutoFormatExpr=FormatStr(17);
                CaptionClass='3,' + MatrixColumnCaptions[17];
                Visible=Field17Visible;
                StyleExpr=Field17Style;
                OnDrillDown=BEGIN
                              FieldDrillDown(17);
                            END;
                             }

    { 23  ;2   ;Field     ;
                Name=Field18;
                ApplicationArea=#SalesAnalysis;
                BlankZero=Yes;
                SourceExpr=MatrixData[18];
                AutoFormatType=10;
                AutoFormatExpr=FormatStr(18);
                CaptionClass='3,' + MatrixColumnCaptions[18];
                Visible=Field18Visible;
                StyleExpr=Field18Style;
                OnDrillDown=BEGIN
                              FieldDrillDown(18);
                            END;
                             }

    { 59  ;2   ;Field     ;
                Name=Field19;
                ApplicationArea=#SalesAnalysis;
                BlankZero=Yes;
                SourceExpr=MatrixData[19];
                AutoFormatType=10;
                AutoFormatExpr=FormatStr(19);
                CaptionClass='3,' + MatrixColumnCaptions[19];
                Visible=Field19Visible;
                StyleExpr=Field19Style;
                OnDrillDown=BEGIN
                              FieldDrillDown(19);
                            END;
                             }

    { 57  ;2   ;Field     ;
                Name=Field20;
                ApplicationArea=#SalesAnalysis;
                BlankZero=Yes;
                SourceExpr=MatrixData[20];
                AutoFormatType=10;
                AutoFormatExpr=FormatStr(20);
                CaptionClass='3,' + MatrixColumnCaptions[20];
                Visible=Field20Visible;
                StyleExpr=Field20Style;
                OnDrillDown=BEGIN
                              FieldDrillDown(20);
                            END;
                             }

    { 55  ;2   ;Field     ;
                Name=Field21;
                ApplicationArea=#SalesAnalysis;
                BlankZero=Yes;
                SourceExpr=MatrixData[21];
                AutoFormatType=10;
                AutoFormatExpr=FormatStr(21);
                CaptionClass='3,' + MatrixColumnCaptions[21];
                Visible=Field21Visible;
                StyleExpr=Field21Style;
                OnDrillDown=BEGIN
                              FieldDrillDown(21);
                            END;
                             }

    { 53  ;2   ;Field     ;
                Name=Field22;
                ApplicationArea=#SalesAnalysis;
                BlankZero=Yes;
                SourceExpr=MatrixData[22];
                AutoFormatType=10;
                AutoFormatExpr=FormatStr(22);
                CaptionClass='3,' + MatrixColumnCaptions[22];
                Visible=Field22Visible;
                StyleExpr=Field22Style;
                OnDrillDown=BEGIN
                              FieldDrillDown(22);
                            END;
                             }

    { 51  ;2   ;Field     ;
                Name=Field23;
                ApplicationArea=#SalesAnalysis;
                BlankZero=Yes;
                SourceExpr=MatrixData[23];
                AutoFormatType=10;
                AutoFormatExpr=FormatStr(23);
                CaptionClass='3,' + MatrixColumnCaptions[23];
                Visible=Field23Visible;
                StyleExpr=Field23Style;
                OnDrillDown=BEGIN
                              FieldDrillDown(23);
                            END;
                             }

    { 49  ;2   ;Field     ;
                Name=Field24;
                ApplicationArea=#SalesAnalysis;
                BlankZero=Yes;
                SourceExpr=MatrixData[24];
                AutoFormatType=10;
                AutoFormatExpr=FormatStr(24);
                CaptionClass='3,' + MatrixColumnCaptions[24];
                Visible=Field24Visible;
                StyleExpr=Field24Style;
                OnDrillDown=BEGIN
                              FieldDrillDown(24);
                            END;
                             }

    { 47  ;2   ;Field     ;
                Name=Field25;
                ApplicationArea=#SalesAnalysis;
                BlankZero=Yes;
                SourceExpr=MatrixData[25];
                AutoFormatType=10;
                AutoFormatExpr=FormatStr(25);
                CaptionClass='3,' + MatrixColumnCaptions[25];
                Visible=Field25Visible;
                StyleExpr=Field25Style;
                OnDrillDown=BEGIN
                              FieldDrillDown(25);
                            END;
                             }

    { 45  ;2   ;Field     ;
                Name=Field26;
                ApplicationArea=#SalesAnalysis;
                BlankZero=Yes;
                SourceExpr=MatrixData[26];
                AutoFormatType=10;
                AutoFormatExpr=FormatStr(26);
                CaptionClass='3,' + MatrixColumnCaptions[26];
                Visible=Field26Visible;
                StyleExpr=Field26Style;
                OnDrillDown=BEGIN
                              FieldDrillDown(26);
                            END;
                             }

    { 43  ;2   ;Field     ;
                Name=Field27;
                ApplicationArea=#SalesAnalysis;
                BlankZero=Yes;
                SourceExpr=MatrixData[27];
                AutoFormatType=10;
                AutoFormatExpr=FormatStr(27);
                CaptionClass='3,' + MatrixColumnCaptions[27];
                Visible=Field27Visible;
                StyleExpr=Field27Style;
                OnDrillDown=BEGIN
                              FieldDrillDown(27);
                            END;
                             }

    { 41  ;2   ;Field     ;
                Name=Field28;
                ApplicationArea=#SalesAnalysis;
                BlankZero=Yes;
                SourceExpr=MatrixData[28];
                AutoFormatType=10;
                AutoFormatExpr=FormatStr(28);
                CaptionClass='3,' + MatrixColumnCaptions[28];
                Visible=Field28Visible;
                StyleExpr=Field28Style;
                OnDrillDown=BEGIN
                              FieldDrillDown(28);
                            END;
                             }

    { 39  ;2   ;Field     ;
                Name=Field29;
                ApplicationArea=#SalesAnalysis;
                BlankZero=Yes;
                SourceExpr=MatrixData[29];
                AutoFormatType=10;
                AutoFormatExpr=FormatStr(29);
                CaptionClass='3,' + MatrixColumnCaptions[29];
                Visible=Field29Visible;
                StyleExpr=Field29Style;
                OnDrillDown=BEGIN
                              FieldDrillDown(29);
                            END;
                             }

    { 37  ;2   ;Field     ;
                Name=Field30;
                ApplicationArea=#SalesAnalysis;
                BlankZero=Yes;
                SourceExpr=MatrixData[30];
                AutoFormatType=10;
                AutoFormatExpr=FormatStr(30);
                CaptionClass='3,' + MatrixColumnCaptions[30];
                Visible=Field30Visible;
                StyleExpr=Field30Style;
                OnDrillDown=BEGIN
                              FieldDrillDown(30);
                            END;
                             }

    { 35  ;2   ;Field     ;
                Name=Field31;
                ApplicationArea=#SalesAnalysis;
                BlankZero=Yes;
                SourceExpr=MatrixData[31];
                AutoFormatType=10;
                AutoFormatExpr=FormatStr(31);
                CaptionClass='3,' + MatrixColumnCaptions[31];
                Visible=Field31Visible;
                StyleExpr=Field31Style;
                OnDrillDown=BEGIN
                              FieldDrillDown(31);
                            END;
                             }

    { 33  ;2   ;Field     ;
                Name=Field32;
                ApplicationArea=#SalesAnalysis;
                BlankZero=Yes;
                SourceExpr=MatrixData[32];
                AutoFormatType=10;
                AutoFormatExpr=FormatStr(32);
                CaptionClass='3,' + MatrixColumnCaptions[32];
                Visible=Field32Visible;
                StyleExpr=Field32Style;
                OnDrillDown=BEGIN
                              FieldDrillDown(32);
                            END;
                             }

  }
  CODE
  {
    VAR
      AnalysisColumn@1000 : Record 7118;
      AnalysisColumn2@1005 : Record 7118;
      AnalysisReportMgt@1004 : Codeunit 7110;
      MatrixMgt@1016 : Codeunit 9200;
      MatrixColumnCaptions@1001 : ARRAY [32] OF Text[1024];
      i@1002 : Integer;
      MatrixData@1003 : ARRAY [32] OF Decimal;
      MatrixRounding@1017 : ARRAY [32] OF Option;
      FirstLineNo@1014 : Integer;
      LastLineNo@1013 : Integer;
      CachedContainsError@1015 : ARRAY [32] OF Boolean;
      Field1Visible@19069335 : Boolean INDATASET;
      Field2Visible@19014807 : Boolean INDATASET;
      Field3Visible@19062679 : Boolean INDATASET;
      Field4Visible@19074839 : Boolean INDATASET;
      Field5Visible@19043543 : Boolean INDATASET;
      Field6Visible@19067287 : Boolean INDATASET;
      Field7Visible@19067863 : Boolean INDATASET;
      Field8Visible@19039959 : Boolean INDATASET;
      Field9Visible@19008663 : Boolean INDATASET;
      Field10Visible@19006501 : Boolean INDATASET;
      Field11Visible@19052468 : Boolean INDATASET;
      Field12Visible@19013039 : Boolean INDATASET;
      Field13Visible@19079726 : Boolean INDATASET;
      Field14Visible@19077225 : Boolean INDATASET;
      Field15Visible@19035896 : Boolean INDATASET;
      Field16Visible@19003763 : Boolean INDATASET;
      Field17Visible@19049730 : Boolean INDATASET;
      Field18Visible@19007213 : Boolean INDATASET;
      Field19Visible@19053180 : Boolean INDATASET;
      Field20Visible@19014629 : Boolean INDATASET;
      Field21Visible@19060596 : Boolean INDATASET;
      Field22Visible@19021167 : Boolean INDATASET;
      Field23Visible@19047854 : Boolean INDATASET;
      Field24Visible@19045353 : Boolean INDATASET;
      Field25Visible@19004024 : Boolean INDATASET;
      Field26Visible@19011891 : Boolean INDATASET;
      Field27Visible@19057858 : Boolean INDATASET;
      Field28Visible@19015341 : Boolean INDATASET;
      Field29Visible@19061308 : Boolean INDATASET;
      Field30Visible@19010597 : Boolean INDATASET;
      Field31Visible@19056564 : Boolean INDATASET;
      Field32Visible@19017135 : Boolean INDATASET;
      Emphasize@1009 : Boolean;
      Field1Style@1018 : Text INDATASET;
      Field2Style@1021 : Text INDATASET;
      Field3Style@1022 : Text INDATASET;
      Field4Style@1023 : Text INDATASET;
      Field5Style@1024 : Text INDATASET;
      Field6Style@1029 : Text INDATASET;
      Field7Style@1028 : Text INDATASET;
      Field8Style@1027 : Text INDATASET;
      Field9Style@1026 : Text INDATASET;
      Field10Style@1025 : Text INDATASET;
      Field11Style@1039 : Text INDATASET;
      Field12Style@1038 : Text INDATASET;
      Field13Style@1037 : Text INDATASET;
      Field14Style@1036 : Text INDATASET;
      Field15Style@1035 : Text INDATASET;
      Field16Style@1034 : Text INDATASET;
      Field17Style@1033 : Text INDATASET;
      Field18Style@1032 : Text INDATASET;
      Field19Style@1031 : Text INDATASET;
      Field20Style@1030 : Text INDATASET;
      Field21Style@1049 : Text INDATASET;
      Field22Style@1048 : Text INDATASET;
      Field23Style@1047 : Text INDATASET;
      Field24Style@1046 : Text INDATASET;
      Field25Style@1045 : Text INDATASET;
      Field26Style@1044 : Text INDATASET;
      Field27Style@1043 : Text INDATASET;
      Field28Style@1042 : Text INDATASET;
      Field29Style@1041 : Text INDATASET;
      Field30Style@1040 : Text INDATASET;
      Field31Style@1051 : Text INDATASET;
      Field32Style@1050 : Text INDATASET;

    [External]
    PROCEDURE Load@1(AnalysisColumn1@1000 : Record 7118;MatrixColumnCaptions1@1001 : ARRAY [32] OF Text[1024];FirstLineNo1@1005 : Integer;LastLineNo1@1004 : Integer);
    BEGIN
      AnalysisColumn.COPY(AnalysisColumn1);
      COPYARRAY(MatrixColumnCaptions,MatrixColumnCaptions1,1);

      FirstLineNo := FirstLineNo1;
      LastLineNo := LastLineNo1;
    END;

    LOCAL PROCEDURE GetHorizontalRecord@2(HorizontalRecordOrdinal@1000 : Integer;VAR HorizontalRecord@1002 : Record 7118);
    VAR
      n@1001 : Integer;
    BEGIN
      n := 1;
      IF HorizontalRecord.FIND('-') THEN
        WHILE n <> HorizontalRecordOrdinal DO BEGIN
          n := n + 1;
          HorizontalRecord.NEXT;
        END;
    END;

    LOCAL PROCEDURE FindError@3() : Boolean;
    BEGIN
      IF AnalysisReportMgt.GetDivisionError OR
         AnalysisReportMgt.GetPeriodError OR
         AnalysisReportMgt.GetFormulaError OR
         AnalysisReportMgt.GetCyclicError
      THEN
        EXIT(TRUE);

      EXIT(FALSE);
    END;

    LOCAL PROCEDURE FieldDrillDown@4(ColumnID@1000 : Integer);
    BEGIN
      AnalysisColumn2.COPY(AnalysisColumn);
      GetHorizontalRecord(ColumnID,AnalysisColumn2);
      AnalysisReportMgt.CalcCell(Rec,AnalysisColumn2,TRUE);
    END;

    [External]
    PROCEDURE SetVisible@8();
    BEGIN
      Field1Visible := MatrixColumnCaptions[1] <> '';
      Field2Visible := MatrixColumnCaptions[2] <> '';
      Field3Visible := MatrixColumnCaptions[3] <> '';
      Field4Visible := MatrixColumnCaptions[4] <> '';
      Field5Visible := MatrixColumnCaptions[5] <> '';
      Field6Visible := MatrixColumnCaptions[6] <> '';
      Field7Visible := MatrixColumnCaptions[7] <> '';
      Field8Visible := MatrixColumnCaptions[8] <> '';
      Field9Visible := MatrixColumnCaptions[9] <> '';
      Field10Visible := MatrixColumnCaptions[10] <> '';
      Field11Visible := MatrixColumnCaptions[11] <> '';
      Field12Visible := MatrixColumnCaptions[12] <> '';
      Field13Visible := MatrixColumnCaptions[13] <> '';
      Field14Visible := MatrixColumnCaptions[14] <> '';
      Field15Visible := MatrixColumnCaptions[15] <> '';
      Field16Visible := MatrixColumnCaptions[16] <> '';
      Field17Visible := MatrixColumnCaptions[17] <> '';
      Field18Visible := MatrixColumnCaptions[18] <> '';
      Field19Visible := MatrixColumnCaptions[19] <> '';
      Field20Visible := MatrixColumnCaptions[20] <> '';
      Field21Visible := MatrixColumnCaptions[21] <> '';
      Field22Visible := MatrixColumnCaptions[22] <> '';
      Field23Visible := MatrixColumnCaptions[23] <> '';
      Field24Visible := MatrixColumnCaptions[24] <> '';
      Field25Visible := MatrixColumnCaptions[25] <> '';
      Field26Visible := MatrixColumnCaptions[26] <> '';
      Field27Visible := MatrixColumnCaptions[27] <> '';
      Field28Visible := MatrixColumnCaptions[28] <> '';
      Field29Visible := MatrixColumnCaptions[29] <> '';
      Field30Visible := MatrixColumnCaptions[30] <> '';
      Field31Visible := MatrixColumnCaptions[31] <> '';
      Field32Visible := MatrixColumnCaptions[32] <> '';
    END;

    [External]
    PROCEDURE GetMatrixDimension@5() : Integer;
    BEGIN
      EXIT(ARRAYLEN(MatrixColumnCaptions));
    END;

    LOCAL PROCEDURE FormatStr@7(ColumnNo@1000 : Integer) : Text;
    BEGIN
      EXIT(MatrixMgt.GetFormatString(MatrixRounding[ColumnNo],FALSE));
    END;

    LOCAL PROCEDURE SetStyle@13(ColumnID@1003 : Integer);
    BEGIN
      SetFieldStyle(Field1Style,ColumnID);
      SetFieldStyle(Field2Style,ColumnID);
      SetFieldStyle(Field3Style,ColumnID);
      SetFieldStyle(Field4Style,ColumnID);
      SetFieldStyle(Field5Style,ColumnID);
      SetFieldStyle(Field6Style,ColumnID);
      SetFieldStyle(Field7Style,ColumnID);
      SetFieldStyle(Field8Style,ColumnID);
      SetFieldStyle(Field9Style,ColumnID);
      SetFieldStyle(Field10Style,ColumnID);
      SetFieldStyle(Field11Style,ColumnID);
      SetFieldStyle(Field12Style,ColumnID);
      SetFieldStyle(Field13Style,ColumnID);
      SetFieldStyle(Field14Style,ColumnID);
      SetFieldStyle(Field15Style,ColumnID);
      SetFieldStyle(Field16Style,ColumnID);
      SetFieldStyle(Field17Style,ColumnID);
      SetFieldStyle(Field18Style,ColumnID);
      SetFieldStyle(Field19Style,ColumnID);
      SetFieldStyle(Field20Style,ColumnID);
      SetFieldStyle(Field21Style,ColumnID);
      SetFieldStyle(Field22Style,ColumnID);
      SetFieldStyle(Field23Style,ColumnID);
      SetFieldStyle(Field24Style,ColumnID);
      SetFieldStyle(Field25Style,ColumnID);
      SetFieldStyle(Field26Style,ColumnID);
      SetFieldStyle(Field27Style,ColumnID);
      SetFieldStyle(Field28Style,ColumnID);
      SetFieldStyle(Field29Style,ColumnID);
      SetFieldStyle(Field30Style,ColumnID);
      SetFieldStyle(Field31Style,ColumnID);
      SetFieldStyle(Field32Style,ColumnID);
    END;

    LOCAL PROCEDURE SetFieldStyle@6(VAR FieldStyle@1000 : Text;ColumnID@1001 : Integer);
    BEGIN
      IF CachedContainsError[ColumnID] THEN
        FieldStyle := 'Unfavorable'
      ELSE
        FieldStyle := 'Standard';
    END;

    BEGIN
    END.
  }
}

