OBJECT Page 9182 Generic Charts
{
  OBJECT-PROPERTIES
  {
    Date=25/10/16;
    Time=12:00:00;
    Version List=NAVW110.00;
  }
  PROPERTIES
  {
    CaptionML=[ENU=Generic Charts;
               ENG=Generic Charts];
    SourceTable=Table2000000078;
    SourceTableView=SORTING(ID);
    PageType=List;
    CardPageID=Generic Chart Setup;
    ActionList=ACTIONS
    {
      { 1       ;0   ;ActionContainer;
                      ActionContainerType=ActionItems }
      { 2       ;1   ;ActionGroup;
                      CaptionML=[ENU=F&unctions;
                                 ENG=F&unctions];
                      Image=Action }
      { 3       ;2   ;Action    ;
                      Ellipsis=Yes;
                      CaptionML=[ENU=Import Chart;
                                 ENG=Import Chart];
                      ToolTipML=[ENU=Import a generic chart in XML format.;
                                 ENG=Import a generic chart in XML format.];
                      ApplicationArea=#Basic,#Suite;
                      Image=Import;
                      OnAction=VAR
                                 ChartExists@1000 : Boolean;
                               BEGIN
                                 ChartExists := BLOB.HASVALUE;
                                 CLEAR(TempTempBlob.Blob);
                                 IF FileMgt.BLOBImport(TempTempBlob,'*.xml') = '' THEN
                                   EXIT;

                                 IF ChartExists THEN
                                   IF NOT CONFIRM(Text001,FALSE,TABLECAPTION,ID) THEN
                                     EXIT;

                                 BLOB := TempTempBlob.Blob;
                                 CurrPage.SAVERECORD;
                               END;
                                }
      { 4       ;2   ;Action    ;
                      Ellipsis=Yes;
                      CaptionML=[ENU=E&xport Chart;
                                 ENG=E&xport Chart];
                      ToolTipML=[ENU=Export a generic chart in XML format. You can rename the file, modify the chart definition using an XML editor, and then import the new chart into another client.;
                                 ENG=Export a generic chart in XML format. You can rename the file, modify the chart definition using an XML editor, and then import the new chart into another client.];
                      ApplicationArea=#Basic,#Suite;
                      Image=Export;
                      OnAction=BEGIN
                                 CALCFIELDS(BLOB);
                                 IF BLOB.HASVALUE THEN BEGIN
                                   TempTempBlob.Blob := BLOB;
                                   FileMgt.BLOBExport(TempTempBlob,'*.xml',TRUE);
                                 END;
                               END;
                                }
      { 15      ;2   ;Action    ;
                      Ellipsis=Yes;
                      CaptionML=[ENU=Copy Chart;
                                 ENG=Copy Chart];
                      ToolTipML=[ENU=Copy the selected generic chart to create a new generic chart.;
                                 ENG=Copy the selected generic chart to create a new generic chart.];
                      ApplicationArea=#Basic,#Suite;
                      Image=Copy;
                      OnAction=VAR
                                 CopyGenericChart@1034 : Page 9187;
                               BEGIN
                                 IF BLOB.HASVALUE THEN
                                   CALCFIELDS(BLOB);
                                 CopyGenericChart.SetSourceChart(Rec);
                                 CopyGenericChart.RUNMODAL;
                               END;
                                }
      { 5       ;2   ;Action    ;
                      CaptionML=[ENU=Delete Chart;
                                 ENG=Delete Chart];
                      ToolTipML=[ENU=Delete the selected generic chart.;
                                 ENG=Delete the selected generic chart.];
                      ApplicationArea=#Basic,#Suite;
                      Image=Delete;
                      OnAction=BEGIN
                                 IF BLOB.HASVALUE THEN
                                   IF CONFIRM(Text002,FALSE,TABLECAPTION,ID) THEN BEGIN
                                     CALCFIELDS(BLOB);
                                     CLEAR(BLOB);
                                     CurrPage.SAVERECORD;
                                   END;
                               END;
                                }
    }
  }
  CONTROLS
  {
    { 6   ;0   ;Container ;
                ContainerType=ContentArea }

    { 7   ;1   ;Group     ;
                GroupType=Repeater }

    { 8   ;2   ;Field     ;
                CaptionML=[ENU=ID;
                           ENG=ID];
                ToolTipML=[ENU=Specifies the unique ID of the chart.;
                           ENG=Specifies the unique ID of the chart.];
                ApplicationArea=#Basic,#Suite;
                SourceExpr=ID }

    { 9   ;2   ;Field     ;
                CaptionML=[ENU=Name;
                           ENG=Name];
                ToolTipML=[ENU=Specifies the name of the record.;
                           ENG=Specifies the name of the record.];
                ApplicationArea=#Basic,#Suite;
                SourceExpr=Name }

    { 10  ;2   ;Field     ;
                CaptionML=[ENU=Data;
                           ENG=Data];
                ToolTipML=[ENU=Specifies the data that is shown in the chart.;
                           ENG=Specifies the data that is shown in the chart.];
                ApplicationArea=#Basic,#Suite;
                SourceExpr=BLOB.HASVALUE }

    { 16  ;2   ;Field     ;
                CaptionML=[ENU=Description;
                           ENG=Description];
                ToolTipML=[ENU=Specifies a description of the chart.;
                           ENG=Specifies a description of the chart.];
                ApplicationArea=#Basic,#Suite;
                SourceExpr=GenericChartMgt.GetDescription(Rec);
                MultiLine=Yes }

    { 12  ;0   ;Container ;
                ContainerType=FactBoxArea }

    { 13  ;1   ;Part      ;
                Visible=FALSE;
                PartType=System;
                SystemPartID=RecordLinks }

    { 14  ;1   ;Part      ;
                Visible=FALSE;
                PartType=System;
                SystemPartID=Notes }

  }
  CODE
  {
    VAR
      Text001@1000 : TextConst '@@@=Do you want to replace the existing definition for Chart 36-06?;ENU=Do you want to replace the existing definition for %1 %2?;ENG=Do you want to replace the existing definition for %1 %2?';
      Text002@1001 : TextConst '@@@=Are you sure that you want to delete the definition for Chart 36-06?;ENU=Are you sure that you want to delete the definition for %1 %2?;ENG=Are you sure that you want to delete the definition for %1 %2?';
      TempTempBlob@1002 : TEMPORARY Record 99008535;
      FileMgt@1003 : Codeunit 419;
      GenericChartMgt@1004 : Codeunit 9180;

    BEGIN
    END.
  }
}

