OBJECT Page 930 Assembly Quote
{
  OBJECT-PROPERTIES
  {
    Date=21/12/17;
    Time=12:00:00;
    Version List=NAVW111.00.00.19846;
  }
  PROPERTIES
  {
    CaptionML=[ENU=Assembly Quote;
               ENG=Assembly Quote];
    InsertAllowed=No;
    DeleteAllowed=No;
    SourceTable=Table900;
    SourceTableView=SORTING(Document Type,No.)
                    ORDER(Ascending)
                    WHERE(Document Type=CONST(Quote));
    PageType=Document;
    OnOpenPage=BEGIN
                 IsUnitCostEditable := TRUE;
                 IsAsmToOrderEditable := TRUE;

                 UpdateWarningOnLines;
               END;

    OnAfterGetRecord=BEGIN
                       IsUnitCostEditable := NOT IsStandardCostItem;
                       IsAsmToOrderEditable := NOT IsAsmToOrder;
                     END;

    ActionList=ACTIONS
    {
      { 18      ;    ;ActionContainer;
                      ActionContainerType=RelatedInformation }
      { 14      ;1   ;Action    ;
                      ShortCutKey=F7;
                      CaptionML=[ENU=Statistics;
                                 ENG=Statistics];
                      ToolTipML=[ENU=View statistical information, such as the value of posted entries, for the record.;
                                 ENG=View statistical information, such as the value of posted entries, for the record.];
                      ApplicationArea=#Assembly;
                      RunPageOnRec=Yes;
                      Image=Statistics;
                      OnAction=BEGIN
                                 ShowStatistics;
                               END;
                                }
      { 15      ;1   ;Action    ;
                      AccessByPermission=TableData 348=R;
                      ShortCutKey=Shift+Ctrl+D;
                      CaptionML=[ENU=Dimensions;
                                 ENG=Dimensions];
                      ToolTipML=[ENU=View or edit dimensions, such as area, project, or department, that you can assign to sales and purchase documents to distribute costs and analyze transaction history.;
                                 ENG=View or edit dimensions, such as area, project, or department, that you can assign to sales and purchase documents to distribute costs and analyse transaction history.];
                      ApplicationArea=#Suite;
                      Image=Dimensions;
                      OnAction=BEGIN
                                 ShowDimensions;
                               END;
                                }
      { 31      ;1   ;Action    ;
                      CaptionML=[ENU=Assembly BOM;
                                 ENG=Assembly BOM];
                      ToolTipML=[ENU=View or edit the bill of material that specifies which items and resources are required to assemble the assembly item.;
                                 ENG=View or edit the bill of material that specifies which items and resources are required to assemble the assembly item.];
                      ApplicationArea=#Assembly;
                      Image=AssemblyBOM;
                      OnAction=BEGIN
                                 ShowAssemblyList;
                               END;
                                }
      { 32      ;1   ;Action    ;
                      CaptionML=[ENU=Comments;
                                 ENG=Comments];
                      ToolTipML=[ENU=View or add comments for the record.;
                                 ENG=View or add comments for the record.];
                      ApplicationArea=#Advanced;
                      RunObject=Page 907;
                      RunPageLink=Document Type=FIELD(Document Type),
                                  Document No.=FIELD(No.),
                                  Document Line No.=CONST(0);
                      Image=ViewComments }
      { 42      ;0   ;ActionContainer;
                      ActionContainerType=ActionItems }
      { 17      ;1   ;ActionGroup;
                      CaptionML=[ENU=F&unctions;
                                 ENG=F&unctions];
                      ActionContainerType=ActionItems;
                      Image=Action }
      { 19      ;2   ;Action    ;
                      CaptionML=[ENU=Update Unit Cost;
                                 ENG=Update Unit Cost];
                      ToolTipML=[ENU=Update the cost of the parent item per changes to the assembly BOM.;
                                 ENG=Update the cost of the parent item per changes to the assembly BOM.];
                      ApplicationArea=#Basic,#Suite;
                      Enabled=IsUnitCostEditable;
                      Image=UpdateUnitCost;
                      OnAction=BEGIN
                                 UpdateUnitCost;
                               END;
                                }
      { 13      ;2   ;Action    ;
                      CaptionML=[ENU=Refresh Lines;
                                 ENG=Refresh Lines];
                      ToolTipML=[ENU=Update information on the lines according to changes that you made on the header.;
                                 ENG=Update information on the lines according to changes that you made on the header.];
                      ApplicationArea=#Assembly;
                      Image=RefreshLines;
                      OnAction=BEGIN
                                 RefreshBOM;
                                 CurrPage.UPDATE;
                               END;
                                }
      { 41      ;2   ;Action    ;
                      CaptionML=[ENU=Show Availability;
                                 ENG=Show Availability];
                      ToolTipML=[ENU="View how many of the assembly order quantity can be assembled by the due date based on availability of the required components. This is shown in the Able to Assemble field. ";
                                 ENG="View how many of the assembly order quantity can be assembled by the due date based on availability of the required components. This is shown in the Able to Assemble field. "];
                      ApplicationArea=#Assembly;
                      Image=ItemAvailbyLoc;
                      OnAction=BEGIN
                                 ShowAvailability;
                               END;
                                }
    }
  }
  CONTROLS
  {
    { 1   ;0   ;Container ;
                ContainerType=ContentArea }

    { 2   ;1   ;Group     ;
                CaptionML=[ENU=General;
                           ENG=General];
                GroupType=Group }

    { 3   ;2   ;Field     ;
                AssistEdit=Yes;
                ToolTipML=[ENU=Specifies the number of the involved entry or record, according to the specified number series.;
                           ENG=Specifies the number of the involved entry or record, according to the specified number series.];
                ApplicationArea=#Assembly;
                SourceExpr="No.";
                OnAssistEdit=BEGIN
                               IF AssistEdit(xRec) THEN
                                 CurrPage.UPDATE;
                             END;
                              }

    { 4   ;2   ;Field     ;
                ToolTipML=[ENU=Specifies the number of the item that is being assembled with the assembly order.;
                           ENG=Specifies the number of the item that is being assembled with the assembly order.];
                ApplicationArea=#Basic,#Suite;
                SourceExpr="Item No.";
                TableRelation=Item.No. WHERE (Assembly BOM=CONST(Yes));
                Importance=Promoted;
                Editable=IsAsmToOrderEditable }

    { 5   ;2   ;Field     ;
                ToolTipML=[ENU=Specifies the description of the assembly item.;
                           ENG=Specifies the description of the assembly item.];
                ApplicationArea=#Assembly;
                SourceExpr=Description }

    { 33  ;2   ;Group     ;
                GroupType=Group }

    { 6   ;3   ;Field     ;
                ToolTipML=[ENU=Specifies how many units of the assembly item that you expect to assemble with the assembly order.;
                           ENG=Specifies how many units of the assembly item that you expect to assemble with the assembly order.];
                ApplicationArea=#Assembly;
                SourceExpr=Quantity;
                Importance=Promoted;
                Editable=IsAsmToOrderEditable }

    { 30  ;3   ;Field     ;
                ToolTipML=[ENU=Specifies how each unit of the item or resource is measured, such as in pieces or hours. By default, the value in the Base Unit of Measure field on the item or resource card is inserted.;
                           ENG=Specifies how each unit of the item or resource is measured, such as in pieces or hours. By default, the value in the Base Unit of Measure field on the item or resource card is inserted.];
                ApplicationArea=#Assembly;
                SourceExpr="Unit of Measure Code";
                Editable=IsAsmToOrderEditable }

    { 27  ;2   ;Field     ;
                ToolTipML=[ENU=Specifies the date on which the assembly order is posted.;
                           ENG=Specifies the date on which the assembly order is posted.];
                ApplicationArea=#Assembly;
                SourceExpr="Posting Date";
                Importance=Promoted }

    { 26  ;2   ;Field     ;
                ToolTipML=[ENU=Specifies the date when the assembled item is due to be available for use.;
                           ENG=Specifies the date when the assembled item is due to be available for use.];
                ApplicationArea=#Assembly;
                SourceExpr="Due Date";
                Importance=Promoted;
                Editable=IsAsmToOrderEditable }

    { 45  ;2   ;Field     ;
                ToolTipML=[ENU=Specifies the date when the assembly order is expected to start.;
                           ENG=Specifies the date when the assembly order is expected to start.];
                ApplicationArea=#Assembly;
                SourceExpr="Starting Date" }

    { 46  ;2   ;Field     ;
                ToolTipML=[ENU=Specifies the date when the assembly order is expected to finish.;
                           ENG=Specifies the date when the assembly order is expected to finish.];
                ApplicationArea=#Assembly;
                SourceExpr="Ending Date" }

    { 47  ;2   ;Field     ;
                ToolTipML=[ENU=Specifies if the assembly order is linked to a sales order, which indicates that the item is assembled to order.;
                           ENG=Specifies if the assembly order is linked to a sales order, which indicates that the item is assembled to order.];
                ApplicationArea=#Assembly;
                SourceExpr="Assemble to Order";
                OnDrillDown=BEGIN
                              ShowAsmToOrder;
                            END;
                             }

    { 48  ;2   ;Field     ;
                ToolTipML=[ENU=Specifies if the document is open, waiting to be approved, invoiced for prepayment, or released to the next stage of processing.;
                           ENG=Specifies if the document is open, waiting to be approved, invoiced for prepayment, or released to the next stage of processing.];
                ApplicationArea=#Assembly;
                SourceExpr=Status }

    { 34  ;1   ;Part      ;
                Name=Lines;
                CaptionML=[ENU=Lines;
                           ENG=Lines];
                ApplicationArea=#Assembly;
                SubPageLink=Document Type=FIELD(Document Type),
                            Document No.=FIELD(No.);
                PagePartID=Page931;
                PartType=Page }

    { 23  ;1   ;Group     ;
                CaptionML=[ENU=Posting;
                           ENG=Posting];
                GroupType=Group }

    { 29  ;2   ;Field     ;
                ToolTipML=[ENU=Specifies the variant of the item on the line.;
                           ENG=Specifies the variant of the item on the line.];
                ApplicationArea=#Advanced;
                SourceExpr="Variant Code";
                Importance=Promoted;
                Editable=IsAsmToOrderEditable }

    { 28  ;2   ;Field     ;
                ToolTipML=[ENU=Specifies the location to which you want to post output of the assembly item.;
                           ENG=Specifies the location to which you want to post output of the assembly item.];
                ApplicationArea=#Location;
                SourceExpr="Location Code";
                Importance=Promoted;
                Editable=IsAsmToOrderEditable }

    { 58  ;2   ;Field     ;
                ToolTipML=[ENU=Specifies the bin the assembly item is posted to as output and from where it is taken to storage or shipped if it is assembled to a sales order.;
                           ENG=Specifies the bin the assembly item is posted to as output and from where it is taken to storage or shipped if it is assembled to a sales order.];
                ApplicationArea=#Warehouse;
                SourceExpr="Bin Code";
                Editable=IsAsmToOrderEditable }

    { 24  ;2   ;Field     ;
                ToolTipML=[ENU=Specifies the cost of one unit of the item or resource on the line.;
                           ENG=Specifies the cost of one unit of the item or resource on the line.];
                ApplicationArea=#Assembly;
                SourceExpr="Unit Cost";
                Editable=IsUnitCostEditable }

    { 25  ;2   ;Field     ;
                ToolTipML=[ENU=Specifies the total unit cost of the assembly order.;
                           ENG=Specifies the total unit cost of the assembly order.];
                ApplicationArea=#Assembly;
                SourceExpr="Cost Amount";
                Editable=IsUnitCostEditable }

    { 16  ;2   ;Field     ;
                ToolTipML=[ENU=Specifies the ID of the user who is responsible for the document.;
                           ENG=Specifies the ID of the user who is responsible for the document.];
                ApplicationArea=#Assembly;
                SourceExpr="Assigned User ID";
                Visible=False }

    { 7   ;0   ;Container ;
                ContainerType=FactBoxArea }

    { 11  ;1   ;Part      ;
                ApplicationArea=#Assembly;
                SubPageLink=No.=FIELD(Item No.);
                PagePartID=Page910;
                PartType=Page }

    { 44  ;1   ;Part      ;
                ApplicationArea=#Assembly;
                SubPageLink=No.=FIELD(No.);
                PagePartID=Page911;
                ProviderID=34;
                PartType=Page }

    { 43  ;1   ;Part      ;
                ApplicationArea=#Assembly;
                SubPageLink=No.=FIELD(No.);
                PagePartID=Page912;
                ProviderID=34;
                PartType=Page }

    { 8   ;1   ;Part      ;
                ApplicationArea=#Assembly;
                PartType=System;
                SystemPartID=RecordLinks }

    { 9   ;1   ;Part      ;
                ApplicationArea=#Assembly;
                PartType=System;
                SystemPartID=Notes }

  }
  CODE
  {
    VAR
      IsUnitCostEditable@1000 : Boolean INDATASET;
      IsAsmToOrderEditable@1001 : Boolean INDATASET;

    BEGIN
    END.
  }
}

