OBJECT Page 99000912 Simulated Production Order
{
  OBJECT-PROPERTIES
  {
    Date=21/12/17;
    Time=12:00:00;
    Version List=NAVW111.00.00.19846;
  }
  PROPERTIES
  {
    CaptionML=[ENU=Simulated Production Order;
               ENG=Simulated Production Order];
    SourceTable=Table5405;
    SourceTableView=WHERE(Status=CONST(Simulated));
    PageType=Document;
    RefreshOnActivate=Yes;
    ActionList=ACTIONS
    {
      { 1900000003;0 ;ActionContainer;
                      ActionContainerType=RelatedInformation }
      { 18      ;1   ;ActionGroup;
                      CaptionML=[ENU=O&rder;
                                 ENG=O&rder];
                      Image=Order }
      { 23      ;2   ;Action    ;
                      CaptionML=[ENU=Co&mments;
                                 ENG=Co&mments];
                      ToolTipML=[ENU=View or add comments for the record.;
                                 ENG=View or add comments for the record.];
                      ApplicationArea=#Manufacturing;
                      RunObject=Page 99000838;
                      RunPageLink=Status=FIELD(Status),
                                  Prod. Order No.=FIELD(No.);
                      Image=ViewComments }
      { 50      ;2   ;Action    ;
                      AccessByPermission=TableData 348=R;
                      ShortCutKey=Shift+Ctrl+D;
                      CaptionML=[ENU=Dimensions;
                                 ENG=Dimensions];
                      ToolTipML=[ENU=View or edit dimensions, such as area, project, or department, that you can assign to sales and purchase documents to distribute costs and analyze transaction history.;
                                 ENG=View or edit dimensions, such as area, project, or department, that you can assign to sales and purchase documents to distribute costs and analyse transaction history.];
                      ApplicationArea=#Dimensions;
                      Image=Dimensions;
                      OnAction=BEGIN
                                 ShowDocDim;
                                 CurrPage.SAVERECORD;
                               END;
                                }
      { 46      ;2   ;Action    ;
                      ShortCutKey=F7;
                      CaptionML=[ENU=Statistics;
                                 ENG=Statistics];
                      ToolTipML=[ENU=View statistical information, such as the value of posted entries, for the record.;
                                 ENG=View statistical information, such as the value of posted entries, for the record.];
                      ApplicationArea=#Manufacturing;
                      RunObject=Page 99000816;
                      RunPageLink=Status=FIELD(Status),
                                  No.=FIELD(No.),
                                  Date Filter=FIELD(Date Filter);
                      Promoted=Yes;
                      Image=Statistics;
                      PromotedCategory=Process }
      { 1900000004;0 ;ActionContainer;
                      ActionContainerType=ActionItems }
      { 60      ;1   ;ActionGroup;
                      CaptionML=[ENU=F&unctions;
                                 ENG=F&unctions];
                      Image=Action }
      { 74      ;2   ;Action    ;
                      Ellipsis=Yes;
                      CaptionML=[ENU=Re&fresh;
                                 ENG=Re&fresh];
                      ToolTipML=[ENU=Calculate changes made to the production order header without involving production BOM levels. The function calculates and initiates the values of the component lines and routing lines based on the master data defined in the assigned production BOM and routing, according to the order quantity and due date on the production order's header.;
                                 ENG=Calculate changes made to the production order header without involving production BOM levels. The function calculates and initiates the values of the component lines and routing lines based on the master data defined in the assigned production BOM and routing, according to the order quantity and due date on the production order's header.];
                      ApplicationArea=#Manufacturing;
                      Promoted=Yes;
                      Image=Refresh;
                      PromotedCategory=Process;
                      OnAction=VAR
                                 ProdOrder@1001 : Record 5405;
                               BEGIN
                                 ProdOrder.SETRANGE(Status,Status);
                                 ProdOrder.SETRANGE("No.","No.");
                                 REPORT.RUNMODAL(REPORT::"Refresh Production Order",TRUE,TRUE,ProdOrder);
                               END;
                                }
      { 75      ;2   ;Action    ;
                      Ellipsis=Yes;
                      CaptionML=[ENU=Re&plan;
                                 ENG=Re&plan];
                      ToolTipML=[ENU=Calculate changes made to components and routings lines including items on lower production BOM levels for which it may generate new production orders.;
                                 ENG=Calculate changes made to components and routings lines including items on lower production BOM levels for which it may generate new production orders.];
                      ApplicationArea=#Planning;
                      Promoted=Yes;
                      Image=Replan;
                      PromotedCategory=Process;
                      OnAction=VAR
                                 ProdOrder@1001 : Record 5405;
                               BEGIN
                                 ProdOrder.SETRANGE(Status,Status);
                                 ProdOrder.SETRANGE("No.","No.");
                                 REPORT.RUNMODAL(REPORT::"Replan Production Order",TRUE,TRUE,ProdOrder);
                               END;
                                }
      { 21      ;2   ;Action    ;
                      CaptionML=[ENU=Change &Status;
                                 ENG=Change &Status];
                      ToolTipML=[ENU=Change the production order to another status, such as Released.;
                                 ENG=Change the production order to another status, such as Released.];
                      ApplicationArea=#Manufacturing;
                      Promoted=Yes;
                      Image=ChangeStatus;
                      PromotedCategory=Process;
                      OnAction=BEGIN
                                 CurrPage.UPDATE;
                                 CODEUNIT.RUN(CODEUNIT::"Prod. Order Status Management",Rec);
                               END;
                                }
      { 17      ;2   ;Action    ;
                      Ellipsis=Yes;
                      CaptionML=[ENU=&Update Unit Cost;
                                 ENG=&Update Unit Cost];
                      ToolTipML=[ENU=Update the cost of the parent item per changes to the production BOM or routing.;
                                 ENG=Update the cost of the parent item per changes to the production BOM or routing.];
                      ApplicationArea=#Manufacturing;
                      Image=UpdateUnitCost;
                      OnAction=VAR
                                 ProdOrder@1001 : Record 5405;
                               BEGIN
                                 ProdOrder.SETRANGE(Status,Status);
                                 ProdOrder.SETRANGE("No.","No.");

                                 REPORT.RUNMODAL(REPORT::"Update Unit Cost",TRUE,TRUE,ProdOrder);
                               END;
                                }
      { 62      ;2   ;Action    ;
                      Ellipsis=Yes;
                      CaptionML=[ENU=C&opy Prod. Order Document;
                                 ENG=C&opy Prod. Order Document];
                      ToolTipML=[ENU=Copy information from an existing production order record to a new one. This can be done regardless of the status type of the production order. You can, for example, copy from a released production order to a new planned production order. Note that before you start to copy, you have to create the new record.;
                                 ENG=Copy information from an existing production order record to a new one. This can be done regardless of the status type of the production order. You can, for example, copy from a released production order to a new planned production order. Note that before you start to copy, you have to create the new record.];
                      ApplicationArea=#Manufacturing;
                      Image=CopyDocument;
                      OnAction=BEGIN
                                 CopyProdOrderDoc.SetProdOrder(Rec);
                                 CopyProdOrderDoc.RUNMODAL;
                                 CLEAR(CopyProdOrderDoc);
                               END;
                                }
    }
  }
  CONTROLS
  {
    { 1900000001;0;Container;
                ContainerType=ContentArea }

    { 1   ;1   ;Group     ;
                CaptionML=[ENU=General;
                           ENG=General] }

    { 2   ;2   ;Field     ;
                Lookup=No;
                ToolTipML=[ENU=Specifies the number of the involved entry or record, according to the specified number series.;
                           ENG=Specifies the number of the involved entry or record, according to the specified number series.];
                ApplicationArea=#Manufacturing;
                SourceExpr="No.";
                Importance=Promoted;
                OnAssistEdit=BEGIN
                               IF AssistEdit(xRec) THEN
                                 CurrPage.UPDATE;
                             END;
                              }

    { 10  ;2   ;Field     ;
                ToolTipML=[ENU=Specifies the description of the production order.;
                           ENG=Specifies the description of the production order.];
                ApplicationArea=#Manufacturing;
                SourceExpr=Description;
                Importance=Promoted }

    { 14  ;2   ;Field     ;
                ToolTipML=[ENU=Specifies an additional part of the production order description.;
                           ENG=Specifies an additional part of the production order description.];
                ApplicationArea=#Manufacturing;
                SourceExpr="Description 2" }

    { 4   ;2   ;Field     ;
                ToolTipML=[ENU=Specifies the source type of the production order.;
                           ENG=Specifies the source type of the production order.];
                ApplicationArea=#Manufacturing;
                SourceExpr="Source Type";
                OnValidate=BEGIN
                             IF xRec."Source Type" <> "Source Type" THEN
                               "Source No." := '';
                           END;
                            }

    { 8   ;2   ;Field     ;
                ToolTipML=[ENU=Specifies the number of the source document that the entry originates from.;
                           ENG=Specifies the number of the source document that the entry originates from.];
                ApplicationArea=#Manufacturing;
                SourceExpr="Source No." }

    { 12  ;2   ;Field     ;
                ToolTipML=[ENU=Specifies the search description.;
                           ENG=Specifies the search description.];
                ApplicationArea=#Manufacturing;
                SourceExpr="Search Description" }

    { 68  ;2   ;Field     ;
                ToolTipML=[ENU=Specifies how many units of the item or the family to produce (production quantity).;
                           ENG=Specifies how many units of the item or the family to produce (production quantity).];
                ApplicationArea=#Manufacturing;
                SourceExpr=Quantity;
                Importance=Promoted }

    { 36  ;2   ;Field     ;
                ToolTipML=[ENU=Specifies the due date of the production order.;
                           ENG=Specifies the due date of the production order.];
                ApplicationArea=#Manufacturing;
                SourceExpr="Due Date" }

    { 57  ;2   ;Field     ;
                ToolTipML=[ENU=Specifies the ID of the user who is responsible for the document.;
                           ENG=Specifies the ID of the user who is responsible for the document.];
                ApplicationArea=#Manufacturing;
                SourceExpr="Assigned User ID" }

    { 58  ;2   ;Field     ;
                ToolTipML=[ENU=Specifies when the production order card was last modified.;
                           ENG=Specifies when the production order card was last modified.];
                ApplicationArea=#Manufacturing;
                SourceExpr="Last Date Modified" }

    { 26  ;1   ;Part      ;
                Name=ProdOrderLines;
                ApplicationArea=#Manufacturing;
                SubPageLink=Prod. Order No.=FIELD(No.);
                PagePartID=Page99000913;
                PartType=Page }

    { 1907170701;1;Group  ;
                CaptionML=[ENU=Schedule;
                           ENG=Schedule] }

    { 28  ;2   ;Field     ;
                ToolTipML=[ENU=Specifies the starting time of the production order.;
                           ENG=Specifies the starting time of the production order.];
                ApplicationArea=#Manufacturing;
                SourceExpr="Starting Time";
                Importance=Promoted }

    { 30  ;2   ;Field     ;
                ToolTipML=[ENU=Specifies the starting date of the production order.;
                           ENG=Specifies the starting date of the production order.];
                ApplicationArea=#Manufacturing;
                SourceExpr="Starting Date";
                Importance=Promoted }

    { 32  ;2   ;Field     ;
                ToolTipML=[ENU=Specifies the ending time of the production order.;
                           ENG=Specifies the ending time of the production order.];
                ApplicationArea=#Manufacturing;
                SourceExpr="Ending Time";
                Importance=Promoted }

    { 34  ;2   ;Field     ;
                ToolTipML=[ENU=Specifies the ending date of the production order.;
                           ENG=Specifies the ending date of the production order.];
                ApplicationArea=#Manufacturing;
                SourceExpr="Ending Date";
                Importance=Promoted }

    { 1904784501;1;Group  ;
                CaptionML=[ENU=Posting;
                           ENG=Posting] }

    { 81  ;2   ;Field     ;
                ToolTipML=[ENU=Specifies links between business transactions made for the item and an inventory account in the general ledger, to group amounts for that item type.;
                           ENG=Specifies links between business transactions made for the item and an inventory account in the general ledger, to group amounts for that item type.];
                ApplicationArea=#Manufacturing;
                SourceExpr="Inventory Posting Group";
                Importance=Promoted }

    { 83  ;2   ;Field     ;
                ToolTipML=[ENU=Specifies the item's product type to link transactions made for this item with the appropriate general ledger account according to the general posting setup.;
                           ENG=Specifies the item's product type to link transactions made for this item with the appropriate general ledger account according to the general posting setup.];
                ApplicationArea=#Manufacturing;
                SourceExpr="Gen. Prod. Posting Group" }

    { 85  ;2   ;Field     ;
                ToolTipML=[ENU=Specifies the vendor's or customer's trade type to link transactions made for this business partner with the appropriate general ledger account according to the general posting setup.;
                           ENG=Specifies the vendor's or customer's trade type to link transactions made for this business partner with the appropriate general ledger account according to the general posting setup.];
                ApplicationArea=#Manufacturing;
                SourceExpr="Gen. Bus. Posting Group" }

    { 38  ;2   ;Field     ;
                ToolTipML=[ENU=Specifies the code for Shortcut Dimension 1, which is one of two global dimension codes that you set up in the General Ledger Setup window.;
                           ENG=Specifies the code for Shortcut Dimension 1, which is one of two global dimension codes that you set up in the General Ledger Setup window.];
                ApplicationArea=#Dimensions;
                SourceExpr="Shortcut Dimension 1 Code";
                OnValidate=BEGIN
                             ShortcutDimension1CodeOnAfterV;
                           END;
                            }

    { 40  ;2   ;Field     ;
                ToolTipML=[ENU=Specifies the code for Shortcut Dimension 2, which is one of two global dimension codes that you set up in the General Ledger Setup window.;
                           ENG=Specifies the code for Shortcut Dimension 2, which is one of two global dimension codes that you set up in the General Ledger Setup window.];
                ApplicationArea=#Dimensions;
                SourceExpr="Shortcut Dimension 2 Code";
                OnValidate=BEGIN
                             ShortcutDimension2CodeOnAfterV;
                           END;
                            }

    { 42  ;2   ;Field     ;
                ToolTipML=[ENU=Specifies the location code to which you want to post the finished product from this production order.;
                           ENG=Specifies the location code to which you want to post the finished product from this production order.];
                ApplicationArea=#Location;
                SourceExpr="Location Code";
                Importance=Promoted }

    { 49  ;2   ;Field     ;
                ToolTipML=[ENU=Specifies a bin to which you want to post the finished items.;
                           ENG=Specifies a bin to which you want to post the finished items.];
                ApplicationArea=#Warehouse;
                SourceExpr="Bin Code";
                Importance=Promoted }

    { 1900000007;0;Container;
                ContainerType=FactBoxArea }

    { 1900383207;1;Part   ;
                Visible=FALSE;
                PartType=System;
                SystemPartID=RecordLinks }

    { 1905767507;1;Part   ;
                Visible=TRUE;
                PartType=System;
                SystemPartID=Notes }

  }
  CODE
  {
    VAR
      CopyProdOrderDoc@1000 : Report 99003802;

    LOCAL PROCEDURE ShortcutDimension1CodeOnAfterV@19029405();
    BEGIN
      CurrPage.ProdOrderLines.PAGE.UpdateForm(TRUE);
    END;

    LOCAL PROCEDURE ShortcutDimension2CodeOnAfterV@19008725();
    BEGIN
      CurrPage.ProdOrderLines.PAGE.UpdateForm(TRUE);
    END;

    BEGIN
    END.
  }
}

