OBJECT Page 9227 Sales Analysis by Dim Matrix
{
  OBJECT-PROPERTIES
  {
    Date=22/11/17;
    Time=12:00:00;
    Version List=NAVW111.00;
  }
  PROPERTIES
  {
    Editable=No;
    CaptionML=[ENU=Sales Analysis by Dim Matrix;
               ENG=Sales Analysis by Dim Matrix];
    LinksAllowed=No;
    SourceTable=Table367;
    PageType=List;
    OnInit=BEGIN
             Field32Visible := TRUE;
             Field31Visible := TRUE;
             Field30Visible := TRUE;
             Field29Visible := TRUE;
             Field28Visible := TRUE;
             Field27Visible := TRUE;
             Field26Visible := TRUE;
             Field25Visible := TRUE;
             Field24Visible := TRUE;
             Field23Visible := TRUE;
             Field22Visible := TRUE;
             Field21Visible := TRUE;
             Field20Visible := TRUE;
             Field19Visible := TRUE;
             Field18Visible := TRUE;
             Field17Visible := TRUE;
             Field16Visible := TRUE;
             Field15Visible := TRUE;
             Field14Visible := TRUE;
             Field13Visible := TRUE;
             Field12Visible := TRUE;
             Field11Visible := TRUE;
             Field10Visible := TRUE;
             Field9Visible := TRUE;
             Field8Visible := TRUE;
             Field7Visible := TRUE;
             Field6Visible := TRUE;
             Field5Visible := TRUE;
             Field4Visible := TRUE;
             Field3Visible := TRUE;
             Field2Visible := TRUE;
             Field1Visible := TRUE;
             TotalInvtValueVisible := TRUE;
             TotalQuantityVisible := TRUE;
           END;

    OnOpenPage=BEGIN
                 Field1Visible := 1 <= NoOfRecords;
                 Field2Visible := 2 <= NoOfRecords;
                 Field3Visible := 3 <= NoOfRecords;
                 Field4Visible := 4 <= NoOfRecords;
                 Field5Visible := 5 <= NoOfRecords;
                 Field6Visible := 6 <= NoOfRecords;
                 Field7Visible := 7 <= NoOfRecords;
                 Field8Visible := 8 <= NoOfRecords;
                 Field9Visible := 9 <= NoOfRecords;
                 Field10Visible := 10 <= NoOfRecords;
                 Field11Visible := 11 <= NoOfRecords;
                 Field12Visible := 12 <= NoOfRecords;
                 Field13Visible := 13 <= NoOfRecords;
                 Field14Visible := 14 <= NoOfRecords;
                 Field15Visible := 15 <= NoOfRecords;
                 Field16Visible := 16 <= NoOfRecords;
                 Field17Visible := 17 <= NoOfRecords;
                 Field18Visible := 18 <= NoOfRecords;
                 Field19Visible := 19 <= NoOfRecords;
                 Field20Visible := 20 <= NoOfRecords;
                 Field21Visible := 21 <= NoOfRecords;
                 Field22Visible := 22 <= NoOfRecords;
                 Field23Visible := 23 <= NoOfRecords;
                 Field24Visible := 24 <= NoOfRecords;
                 Field25Visible := 25 <= NoOfRecords;
                 Field26Visible := 26 <= NoOfRecords;
                 Field27Visible := 27 <= NoOfRecords;
                 Field28Visible := 28 <= NoOfRecords;
                 Field29Visible := 29 <= NoOfRecords;
                 Field30Visible := 30 <= NoOfRecords;
                 Field31Visible := 31 <= NoOfRecords;
                 Field32Visible := 32 <= NoOfRecords;
               END;

    OnFindRecord=BEGIN
                   EXIT(
                     ItemAnalysisMgt.FindRec(
                       ItemAnalysisView,LineDimOption,Rec,Which,
                       ItemFilter,LocationFilter,PeriodType,DateFilter,PeriodInitialized,InternalDateFilter,
                       Dim1Filter,Dim2Filter,Dim3Filter));
                 END;

    OnNextRecord=BEGIN
                   EXIT(
                     ItemAnalysisMgt.NextRec(
                       ItemAnalysisView,LineDimOption,Rec,Steps,
                       ItemFilter,LocationFilter,PeriodType,DateFilter,
                       Dim1Filter,Dim2Filter,Dim3Filter));
                 END;

    OnAfterGetRecord=BEGIN
                       CalcAmounts;

                       FormatLine;
                     END;

    OnAfterGetCurrRecord=BEGIN
                           CalcAmounts;
                         END;

    ActionList=ACTIONS
    {
      { 1900000003;0 ;ActionContainer;
                      ActionContainerType=RelatedInformation }
      { 77      ;1   ;ActionGroup;
                      CaptionML=[ENU=&Actions;
                                 ENG=&Actions];
                      Image=Action }
      { 79      ;2   ;Action    ;
                      CaptionML=[ENU=Export to Excel;
                                 ENG=Export to Excel];
                      ToolTipML=[ENU=Export the information in the analysis report to Excel.;
                                 ENG=Export the information in the analysis report to Excel.];
                      ApplicationArea=#Dimensions;
                      Image=ExportToExcel;
                      OnAction=VAR
                                 ItemAnalysisViewEntry@1000 : Record 7154;
                                 ItemAnalysisViewToExcel@1001 : Codeunit 7152;
                               BEGIN
                                 ItemAnalysisViewToExcel.SetCommonFilters(
                                   CurrentAnalysisArea,CurrentItemAnalysisViewCode,
                                   ItemAnalysisViewEntry,DateFilter,ItemFilter,Dim1Filter,Dim2Filter,Dim3Filter,LocationFilter);
                                 ItemAnalysisViewEntry.FINDFIRST;
                                 ItemAnalysisViewToExcel.ExportData(
                                   ItemAnalysisViewEntry,LineDimCode,ColumnDimCode,ValueType,
                                   PeriodType,ShowColumnName,DateFilter,ItemFilter,BudgetFilter,
                                   Dim1Filter,Dim2Filter,Dim3Filter,ShowActualBudget,LocationFilter,ShowOppositeSign);
                               END;
                                }
    }
  }
  CONTROLS
  {
    { 1900000001;0;Container;
                ContainerType=ContentArea }

    { 1   ;1   ;Group     ;
                IndentationColumnName=Indentation;
                IndentationControls=Name;
                GroupType=Repeater }

    { 2   ;2   ;Field     ;
                ToolTipML=[ENU=Specifies the code of the record.;
                           ENG=Specifies the code of the record.];
                ApplicationArea=#Dimensions;
                SourceExpr=Code;
                StyleExpr='Strong' }

    { 4   ;2   ;Field     ;
                ToolTipML=[ENU=Specifies the name of the record.;
                           ENG=Specifies the name of the record.];
                ApplicationArea=#Dimensions;
                SourceExpr=Name;
                StyleExpr='Strong' }

    { 6   ;2   ;Field     ;
                Name=TotalQuantity;
                CaptionML=[ENU=Total Quantity;
                           ENG=Total Quantity];
                ToolTipML=[ENU=Specifies the total value for the amount type that you select in the Show field.;
                           ENG=Specifies the total value for the amount type that you select in the Show field.];
                ApplicationArea=#All;
                BlankZero=Yes;
                SourceExpr=+Quantity;
                AutoFormatType=10;
                AutoFormatExpr=FormatStr;
                Visible=TotalQuantityVisible;
                StyleExpr='Strong';
                OnDrillDown=BEGIN
                              ItemAnalysisMgt.DrillDown(
                                CurrentAnalysisArea,ItemStatisticsBuffer,CurrentItemAnalysisViewCode,
                                ItemFilter,LocationFilter,DateFilter,
                                Dim1Filter,Dim2Filter,Dim3Filter,BudgetFilter,
                                LineDimOption,Rec,
                                ColumnDimOption,DimCodeBufferColumn,
                                FALSE,2,ShowActualBudget);
                            END;
                             }

    { 8   ;2   ;Field     ;
                Name=TotalInvtValue;
                CaptionML=[ENU=Total Sales Amount;
                           ENG=Total Sales Amount];
                ToolTipML=[ENU=Specifies the total value for the amount type that you select in the Show field.;
                           ENG=Specifies the total value for the amount type that you select in the Show field.];
                ApplicationArea=#All;
                BlankZero=Yes;
                SourceExpr=+Amount;
                AutoFormatType=10;
                AutoFormatExpr=FormatStr;
                Visible=TotalInvtValueVisible;
                StyleExpr='Strong';
                OnDrillDown=BEGIN
                              ItemAnalysisMgt.DrillDown(
                                CurrentAnalysisArea,ItemStatisticsBuffer,CurrentItemAnalysisViewCode,
                                ItemFilter,LocationFilter,DateFilter,
                                Dim1Filter,Dim2Filter,Dim3Filter,BudgetFilter,
                                LineDimOption,Rec,
                                ColumnDimOption,DimCodeBufferColumn,
                                FALSE,1,ShowActualBudget);
                            END;
                             }

    { 13  ;2   ;Field     ;
                Name=Field1;
                ApplicationArea=#Dimensions;
                BlankZero=Yes;
                SourceExpr=MatrixData[1];
                AutoFormatType=10;
                AutoFormatExpr=FormatStr;
                CaptionClass='3,' + MatrixColumnCaptions[1];
                Visible=Field1Visible;
                Style=Strong;
                StyleExpr=Emphasize;
                OnDrillDown=BEGIN
                              FieldDrillDown(1);
                            END;
                             }

    { 15  ;2   ;Field     ;
                Name=Field2;
                ApplicationArea=#Dimensions;
                BlankZero=Yes;
                SourceExpr=MatrixData[2];
                AutoFormatType=10;
                AutoFormatExpr=FormatStr;
                CaptionClass='3,' + MatrixColumnCaptions[2];
                Visible=Field2Visible;
                Style=Strong;
                StyleExpr=Emphasize;
                OnDrillDown=BEGIN
                              FieldDrillDown(2);
                            END;
                             }

    { 17  ;2   ;Field     ;
                Name=Field3;
                ApplicationArea=#Dimensions;
                BlankZero=Yes;
                SourceExpr=MatrixData[3];
                AutoFormatType=10;
                AutoFormatExpr=FormatStr;
                CaptionClass='3,' + MatrixColumnCaptions[3];
                Visible=Field3Visible;
                Style=Strong;
                StyleExpr=Emphasize;
                OnDrillDown=BEGIN
                              FieldDrillDown(3);
                            END;
                             }

    { 25  ;2   ;Field     ;
                Name=Field4;
                ApplicationArea=#Dimensions;
                BlankZero=Yes;
                SourceExpr=MatrixData[4];
                AutoFormatType=10;
                AutoFormatExpr=FormatStr;
                CaptionClass='3,' + MatrixColumnCaptions[4];
                Visible=Field4Visible;
                Style=Strong;
                StyleExpr=Emphasize;
                OnDrillDown=BEGIN
                              FieldDrillDown(4);
                            END;
                             }

    { 23  ;2   ;Field     ;
                Name=Field5;
                ApplicationArea=#Dimensions;
                BlankZero=Yes;
                SourceExpr=MatrixData[5];
                AutoFormatType=10;
                AutoFormatExpr=FormatStr;
                CaptionClass='3,' + MatrixColumnCaptions[5];
                Visible=Field5Visible;
                Style=Strong;
                StyleExpr=Emphasize;
                OnDrillDown=BEGIN
                              FieldDrillDown(5);
                            END;
                             }

    { 21  ;2   ;Field     ;
                Name=Field6;
                ApplicationArea=#Dimensions;
                BlankZero=Yes;
                SourceExpr=MatrixData[6];
                AutoFormatType=10;
                AutoFormatExpr=FormatStr;
                CaptionClass='3,' + MatrixColumnCaptions[6];
                Visible=Field6Visible;
                Style=Strong;
                StyleExpr=Emphasize;
                OnDrillDown=BEGIN
                              FieldDrillDown(6);
                            END;
                             }

    { 19  ;2   ;Field     ;
                Name=Field7;
                ApplicationArea=#Dimensions;
                BlankZero=Yes;
                SourceExpr=MatrixData[7];
                AutoFormatType=10;
                AutoFormatExpr=FormatStr;
                CaptionClass='3,' + MatrixColumnCaptions[7];
                Visible=Field7Visible;
                Style=Strong;
                StyleExpr=Emphasize;
                OnDrillDown=BEGIN
                              FieldDrillDown(7);
                            END;
                             }

    { 31  ;2   ;Field     ;
                Name=Field8;
                ApplicationArea=#Dimensions;
                BlankZero=Yes;
                SourceExpr=MatrixData[8];
                AutoFormatType=10;
                AutoFormatExpr=FormatStr;
                CaptionClass='3,' + MatrixColumnCaptions[8];
                Visible=Field8Visible;
                Style=Strong;
                StyleExpr=Emphasize;
                OnDrillDown=BEGIN
                              FieldDrillDown(8);
                            END;
                             }

    { 39  ;2   ;Field     ;
                Name=Field9;
                ApplicationArea=#Dimensions;
                BlankZero=Yes;
                SourceExpr=MatrixData[9];
                AutoFormatType=10;
                AutoFormatExpr=FormatStr;
                CaptionClass='3,' + MatrixColumnCaptions[9];
                Visible=Field9Visible;
                Style=Strong;
                StyleExpr=Emphasize;
                OnDrillDown=BEGIN
                              FieldDrillDown(9);
                            END;
                             }

    { 41  ;2   ;Field     ;
                Name=Field10;
                ApplicationArea=#Dimensions;
                BlankZero=Yes;
                SourceExpr=MatrixData[10];
                AutoFormatType=10;
                AutoFormatExpr=FormatStr;
                CaptionClass='3,' + MatrixColumnCaptions[10];
                Visible=Field10Visible;
                Style=Strong;
                StyleExpr=Emphasize;
                OnDrillDown=BEGIN
                              FieldDrillDown(10);
                            END;
                             }

    { 45  ;2   ;Field     ;
                Name=Field11;
                ApplicationArea=#Dimensions;
                BlankZero=Yes;
                SourceExpr=MatrixData[11];
                AutoFormatType=10;
                AutoFormatExpr=FormatStr;
                CaptionClass='3,' + MatrixColumnCaptions[11];
                Visible=Field11Visible;
                Style=Strong;
                StyleExpr=Emphasize;
                OnDrillDown=BEGIN
                              FieldDrillDown(11);
                            END;
                             }

    { 27  ;2   ;Field     ;
                Name=Field12;
                ApplicationArea=#Dimensions;
                BlankZero=Yes;
                SourceExpr=MatrixData[12];
                AutoFormatType=10;
                AutoFormatExpr=FormatStr;
                CaptionClass='3,' + MatrixColumnCaptions[12];
                Visible=Field12Visible;
                Style=Strong;
                StyleExpr=Emphasize;
                OnDrillDown=BEGIN
                              FieldDrillDown(12);
                            END;
                             }

    { 29  ;2   ;Field     ;
                Name=Field13;
                ApplicationArea=#Dimensions;
                BlankZero=Yes;
                SourceExpr=MatrixData[13];
                AutoFormatType=10;
                AutoFormatExpr=FormatStr;
                CaptionClass='3,' + MatrixColumnCaptions[13];
                Visible=Field13Visible;
                Style=Strong;
                StyleExpr=Emphasize;
                OnDrillDown=BEGIN
                              FieldDrillDown(13);
                            END;
                             }

    { 33  ;2   ;Field     ;
                Name=Field14;
                ApplicationArea=#Dimensions;
                BlankZero=Yes;
                SourceExpr=MatrixData[14];
                AutoFormatType=10;
                AutoFormatExpr=FormatStr;
                CaptionClass='3,' + MatrixColumnCaptions[14];
                Visible=Field14Visible;
                Style=Strong;
                StyleExpr=Emphasize;
                OnDrillDown=BEGIN
                              FieldDrillDown(14);
                            END;
                             }

    { 35  ;2   ;Field     ;
                Name=Field15;
                ApplicationArea=#Dimensions;
                BlankZero=Yes;
                SourceExpr=MatrixData[15];
                AutoFormatType=10;
                AutoFormatExpr=FormatStr;
                CaptionClass='3,' + MatrixColumnCaptions[15];
                Visible=Field15Visible;
                Style=Strong;
                StyleExpr=Emphasize;
                OnDrillDown=BEGIN
                              FieldDrillDown(15);
                            END;
                             }

    { 37  ;2   ;Field     ;
                Name=Field16;
                ApplicationArea=#Dimensions;
                BlankZero=Yes;
                SourceExpr=MatrixData[16];
                AutoFormatType=10;
                AutoFormatExpr=FormatStr;
                CaptionClass='3,' + MatrixColumnCaptions[16];
                Visible=Field16Visible;
                Style=Strong;
                StyleExpr=Emphasize;
                OnDrillDown=BEGIN
                              FieldDrillDown(16);
                            END;
                             }

    { 43  ;2   ;Field     ;
                Name=Field17;
                ApplicationArea=#Dimensions;
                BlankZero=Yes;
                SourceExpr=MatrixData[17];
                AutoFormatType=10;
                AutoFormatExpr=FormatStr;
                CaptionClass='3,' + MatrixColumnCaptions[17];
                Visible=Field17Visible;
                Style=Strong;
                StyleExpr=Emphasize;
                OnDrillDown=BEGIN
                              FieldDrillDown(17);
                            END;
                             }

    { 47  ;2   ;Field     ;
                Name=Field18;
                ApplicationArea=#Dimensions;
                BlankZero=Yes;
                SourceExpr=MatrixData[18];
                AutoFormatType=10;
                AutoFormatExpr=FormatStr;
                CaptionClass='3,' + MatrixColumnCaptions[18];
                Visible=Field18Visible;
                Style=Strong;
                StyleExpr=Emphasize;
                OnDrillDown=BEGIN
                              FieldDrillDown(18);
                            END;
                             }

    { 49  ;2   ;Field     ;
                Name=Field19;
                ApplicationArea=#Dimensions;
                BlankZero=Yes;
                SourceExpr=MatrixData[19];
                AutoFormatType=10;
                AutoFormatExpr=FormatStr;
                CaptionClass='3,' + MatrixColumnCaptions[19];
                Visible=Field19Visible;
                Style=Strong;
                StyleExpr=Emphasize;
                OnDrillDown=BEGIN
                              FieldDrillDown(19);
                            END;
                             }

    { 51  ;2   ;Field     ;
                Name=Field20;
                ApplicationArea=#Dimensions;
                BlankZero=Yes;
                SourceExpr=MatrixData[20];
                AutoFormatType=10;
                AutoFormatExpr=FormatStr;
                CaptionClass='3,' + MatrixColumnCaptions[20];
                Visible=Field20Visible;
                Style=Strong;
                StyleExpr=Emphasize;
                OnDrillDown=BEGIN
                              FieldDrillDown(20);
                            END;
                             }

    { 53  ;2   ;Field     ;
                Name=Field21;
                ApplicationArea=#Dimensions;
                BlankZero=Yes;
                SourceExpr=MatrixData[21];
                AutoFormatType=10;
                AutoFormatExpr=FormatStr;
                CaptionClass='3,' + MatrixColumnCaptions[21];
                Visible=Field21Visible;
                Style=Strong;
                StyleExpr=Emphasize;
                OnDrillDown=BEGIN
                              FieldDrillDown(21);
                            END;
                             }

    { 55  ;2   ;Field     ;
                Name=Field22;
                ApplicationArea=#Dimensions;
                BlankZero=Yes;
                SourceExpr=MatrixData[22];
                AutoFormatType=10;
                AutoFormatExpr=FormatStr;
                CaptionClass='3,' + MatrixColumnCaptions[22];
                Visible=Field22Visible;
                Style=Strong;
                StyleExpr=Emphasize;
                OnDrillDown=BEGIN
                              FieldDrillDown(22);
                            END;
                             }

    { 57  ;2   ;Field     ;
                Name=Field23;
                ApplicationArea=#Dimensions;
                BlankZero=Yes;
                SourceExpr=MatrixData[23];
                AutoFormatType=10;
                AutoFormatExpr=FormatStr;
                CaptionClass='3,' + MatrixColumnCaptions[23];
                Visible=Field23Visible;
                Style=Strong;
                StyleExpr=Emphasize;
                OnDrillDown=BEGIN
                              FieldDrillDown(23);
                            END;
                             }

    { 59  ;2   ;Field     ;
                Name=Field24;
                ApplicationArea=#Dimensions;
                BlankZero=Yes;
                SourceExpr=MatrixData[24];
                AutoFormatType=10;
                AutoFormatExpr=FormatStr;
                CaptionClass='3,' + MatrixColumnCaptions[24];
                Visible=Field24Visible;
                Style=Strong;
                StyleExpr=Emphasize;
                OnDrillDown=BEGIN
                              FieldDrillDown(24);
                            END;
                             }

    { 61  ;2   ;Field     ;
                Name=Field25;
                ApplicationArea=#Dimensions;
                BlankZero=Yes;
                SourceExpr=MatrixData[25];
                AutoFormatType=10;
                AutoFormatExpr=FormatStr;
                CaptionClass='3,' + MatrixColumnCaptions[25];
                Visible=Field25Visible;
                Style=Strong;
                StyleExpr=Emphasize;
                OnDrillDown=BEGIN
                              FieldDrillDown(25);
                            END;
                             }

    { 63  ;2   ;Field     ;
                Name=Field26;
                ApplicationArea=#Dimensions;
                BlankZero=Yes;
                SourceExpr=MatrixData[26];
                AutoFormatType=10;
                AutoFormatExpr=FormatStr;
                CaptionClass='3,' + MatrixColumnCaptions[26];
                Visible=Field26Visible;
                Style=Strong;
                StyleExpr=Emphasize;
                OnDrillDown=BEGIN
                              FieldDrillDown(26);
                            END;
                             }

    { 65  ;2   ;Field     ;
                Name=Field27;
                ApplicationArea=#Dimensions;
                BlankZero=Yes;
                SourceExpr=MatrixData[27];
                AutoFormatType=10;
                AutoFormatExpr=FormatStr;
                CaptionClass='3,' + MatrixColumnCaptions[27];
                Visible=Field27Visible;
                Style=Strong;
                StyleExpr=Emphasize;
                OnDrillDown=BEGIN
                              FieldDrillDown(27);
                            END;
                             }

    { 67  ;2   ;Field     ;
                Name=Field28;
                ApplicationArea=#Dimensions;
                BlankZero=Yes;
                SourceExpr=MatrixData[28];
                AutoFormatType=10;
                AutoFormatExpr=FormatStr;
                CaptionClass='3,' + MatrixColumnCaptions[28];
                Visible=Field28Visible;
                Style=Strong;
                StyleExpr=Emphasize;
                OnDrillDown=BEGIN
                              FieldDrillDown(28);
                            END;
                             }

    { 69  ;2   ;Field     ;
                Name=Field29;
                ApplicationArea=#Dimensions;
                BlankZero=Yes;
                SourceExpr=MatrixData[29];
                AutoFormatType=10;
                AutoFormatExpr=FormatStr;
                CaptionClass='3,' + MatrixColumnCaptions[29];
                Visible=Field29Visible;
                Style=Strong;
                StyleExpr=Emphasize;
                OnDrillDown=BEGIN
                              FieldDrillDown(29);
                            END;
                             }

    { 71  ;2   ;Field     ;
                Name=Field30;
                ApplicationArea=#Dimensions;
                BlankZero=Yes;
                SourceExpr=MatrixData[30];
                AutoFormatType=10;
                AutoFormatExpr=FormatStr;
                CaptionClass='3,' + MatrixColumnCaptions[30];
                Visible=Field30Visible;
                Style=Strong;
                StyleExpr=Emphasize;
                OnDrillDown=BEGIN
                              FieldDrillDown(30);
                            END;
                             }

    { 73  ;2   ;Field     ;
                Name=Field31;
                ApplicationArea=#Dimensions;
                BlankZero=Yes;
                SourceExpr=MatrixData[31];
                AutoFormatType=10;
                AutoFormatExpr=FormatStr;
                CaptionClass='3,' + MatrixColumnCaptions[31];
                Visible=Field31Visible;
                Style=Strong;
                StyleExpr=Emphasize;
                OnDrillDown=BEGIN
                              FieldDrillDown(31);
                            END;
                             }

    { 75  ;2   ;Field     ;
                Name=Field32;
                ApplicationArea=#Dimensions;
                BlankZero=Yes;
                SourceExpr=MatrixData[32];
                AutoFormatType=10;
                AutoFormatExpr=FormatStr;
                CaptionClass='3,' + MatrixColumnCaptions[32];
                Visible=Field32Visible;
                Style=Strong;
                StyleExpr=Emphasize;
                OnDrillDown=BEGIN
                              FieldDrillDown(32);
                            END;
                             }

  }
  CODE
  {
    VAR
      ItemAnalysisView@1011 : Record 7152;
      AVBreakdownBuffer@1013 : TEMPORARY Record 375;
      DimCodeBufferColumn@1014 : Record 367;
      DimCodeBufferColumn3@1034 : Record 367;
      ItemStatisticsBuffer@1019 : Record 5821;
      ItemAnalysisMgt@1012 : Codeunit 7153;
      MatrixMgt@1038 : Codeunit 9200;
      RoundingFactor@1033 : 'None,1,1000,1000000';
      ValueType@1003 : 'Sales Amount,COGS Amount,Sales Quantity';
      LineDimOption@1002 : 'Item,Period,Location,Dimension 1,Dimension 2,Dimension 3';
      ColumnDimOption@1001 : 'Item,Period,Location,Dimension 1,Dimension 2,Dimension 3';
      LineDimCode@1036 : Text[30];
      ColumnDimCode@1035 : Text[30];
      PeriodType@1008 : 'Day,Week,Month,Quarter,Year,Accounting Period';
      ShowActualBudget@1015 : 'Actual Amounts,Budgeted Amounts,Variance,Variance%,Index%';
      CurrentAnalysisArea@1018 : 'Sales,Purchase,Inventory';
      CurrentItemAnalysisViewCode@1017 : Code[10];
      LocationFilter@1009 : Code[250];
      ItemFilter@1010 : Code[250];
      Dim1Filter@1007 : Code[250];
      Dim2Filter@1006 : Code[250];
      Dim3Filter@1005 : Code[250];
      CodeRange@1040 : Code[250];
      BudgetFilter@1016 : Code[250];
      DateFilter@1004 : Text[30];
      MatrixColumnCaptions@1024 : ARRAY [32] OF Text[1024];
      InternalDateFilter@1025 : Text[30];
      Which@1026 : Text[250];
      RoundingFactorFormatString@1039 : Text;
      ShowOppositeSign@1020 : Boolean;
      PeriodInitialized@1021 : Boolean;
      i@1022 : Integer;
      Steps@1023 : Integer;
      NoOfRecords@1028 : Integer;
      MatrixData@1000 : ARRAY [32] OF Decimal;
      ShowColumnName@1027 : Boolean;
      TotalQuantityVisible@19074073 : Boolean INDATASET;
      TotalInvtValueVisible@19006309 : Boolean INDATASET;
      Field1Visible@19069335 : Boolean INDATASET;
      Field2Visible@19014807 : Boolean INDATASET;
      Field3Visible@19062679 : Boolean INDATASET;
      Field4Visible@19074839 : Boolean INDATASET;
      Field5Visible@19043543 : Boolean INDATASET;
      Field6Visible@19067287 : Boolean INDATASET;
      Field7Visible@19067863 : Boolean INDATASET;
      Field8Visible@19039959 : Boolean INDATASET;
      Field9Visible@19008663 : Boolean INDATASET;
      Field10Visible@19006501 : Boolean INDATASET;
      Field11Visible@19052468 : Boolean INDATASET;
      Field12Visible@19013039 : Boolean INDATASET;
      Field13Visible@19079726 : Boolean INDATASET;
      Field14Visible@19077225 : Boolean INDATASET;
      Field15Visible@19035896 : Boolean INDATASET;
      Field16Visible@19003763 : Boolean INDATASET;
      Field17Visible@19049730 : Boolean INDATASET;
      Field18Visible@19007213 : Boolean INDATASET;
      Field19Visible@19053180 : Boolean INDATASET;
      Field20Visible@19014629 : Boolean INDATASET;
      Field21Visible@19060596 : Boolean INDATASET;
      Field22Visible@19021167 : Boolean INDATASET;
      Field23Visible@19047854 : Boolean INDATASET;
      Field24Visible@19045353 : Boolean INDATASET;
      Field25Visible@19004024 : Boolean INDATASET;
      Field26Visible@19011891 : Boolean INDATASET;
      Field27Visible@19057858 : Boolean INDATASET;
      Field28Visible@19015341 : Boolean INDATASET;
      Field29Visible@19061308 : Boolean INDATASET;
      Field30Visible@19010597 : Boolean INDATASET;
      Field31Visible@19056564 : Boolean INDATASET;
      Field32Visible@19017135 : Boolean INDATASET;
      Emphasize@1037 : Boolean;

    [External]
    PROCEDURE LoadVariables@1(ItemAnalysisView1@1000 : Record 7152;CurrentItemAnalysisViewCode1@1005 : Code[10];CurrentAnalysisArea1@1003 : 'Sales,Purchase,Inventory';LineDimOption1@1010 : 'Item,Period,Location,Dimension 1,Dimension 2,Dimension 3';ColumnDimOption1@1002 : 'Item,Period,Location,Dimension 1,Dimension 2,Dimension 3';LineDimCode1@1016 : Text[30];ColumnDimCode1@1015 : Text[30];PeriodType1@1007 : 'Day,Week,Month,Quarter,Year,Accounting Period';ValueType1@1009 : 'Sales Amount,Inventory Value,Sales Quantity';RoundingFactor1@1011 : 'None,1,1000,1000000';ShowActualBudget1@1012 : 'Actual Amounts,Budgeted Amounts,Variance,Variance%,Index%';MatrixColumnCaptions1@1001 : ARRAY [32] OF Text[1024];ShowOppositeSign1@1006 : Boolean;PeriodInitialized1@1008 : Boolean;ShowColumnName1@1017 : Boolean;NoOfRecordsLocal@1018 : Integer);
    BEGIN
      CLEAR(MatrixColumnCaptions);
      ItemAnalysisView.COPY(ItemAnalysisView1);

      CurrentItemAnalysisViewCode := CurrentItemAnalysisViewCode1;
      CurrentAnalysisArea := CurrentAnalysisArea1;

      LineDimOption := LineDimOption1;
      ColumnDimOption := ColumnDimOption1;

      LineDimCode := LineDimCode1;
      ColumnDimCode := ColumnDimCode1;

      PeriodType := PeriodType1;
      ShowOppositeSign := ShowOppositeSign1;

      COPYARRAY(MatrixColumnCaptions,MatrixColumnCaptions1,1);

      PeriodInitialized := PeriodInitialized1;
      PeriodType := PeriodType1;
      ValueType := ValueType1;
      RoundingFactor := RoundingFactor1;
      ShowActualBudget := ShowActualBudget1;
      ShowColumnName := ShowColumnName1;

      NoOfRecords := NoOfRecordsLocal;
      RoundingFactorFormatString := MatrixMgt.GetFormatString(RoundingFactor,FALSE);
    END;

    [External]
    PROCEDURE LoadFilters@2(ItemFilter1@1006 : Code[250];LocationFilter1@1005 : Code[250];Dim1Filter1@1004 : Code[250];Dim2Filter1@1003 : Code[250];Dim3Filter1@1002 : Code[250];DateFilter2@1001 : Text[30];BudgetFilter1@1000 : Code[250];InternalDateFilter1@1007 : Text[30]);
    BEGIN
      ItemFilter := ItemFilter1;
      LocationFilter := LocationFilter1;
      Dim1Filter := Dim1Filter1;
      Dim2Filter := Dim2Filter1;
      Dim3Filter := Dim3Filter1;
      DateFilter := DateFilter2;
      BudgetFilter := BudgetFilter1;
      InternalDateFilter := InternalDateFilter1;
    END;

    PROCEDURE LoadCodeRange@7(NewCodeRange@1006 : Code[250]);
    BEGIN
      CodeRange := NewCodeRange;
    END;

    LOCAL PROCEDURE CalcAmounts@10();
    BEGIN
      IF TotalQuantityVisible THEN
        Quantity := CalcAmt(DimCodeBufferColumn,2,FALSE);
      IF TotalInvtValueVisible THEN
        Amount := CalcAmt(DimCodeBufferColumn,0,FALSE);
      Steps := 1;
      Which := '-';

      ItemAnalysisMgt.FindRec(
        ItemAnalysisView,ColumnDimOption,DimCodeBufferColumn3,Which,
        GetFieldItemFilter,GetFieldLocationFilter,PeriodType,DateFilter,PeriodInitialized,InternalDateFilter,
        GetFieldDim1Filter,GetFieldDim2Filter,GetFieldDim3Filter);

      i := 1;
      WHILE (i <= NoOfRecords) AND (i <= ARRAYLEN(MatrixColumnCaptions)) DO BEGIN
        MatrixData[i] := CalcAmt(DimCodeBufferColumn3,ValueType,TRUE);
        ItemAnalysisMgt.NextRec(
          ItemAnalysisView,ColumnDimOption,DimCodeBufferColumn3,Steps,
          GetFieldItemFilter,GetFieldLocationFilter,PeriodType,DateFilter,
          GetFieldDim1Filter,GetFieldDim2Filter,GetFieldDim3Filter);
        i := i + 1;
      END;
    END;

    LOCAL PROCEDURE CalcAmt@3(DimCodeBufferColumn1@1004 : Record 367;ValueType@1001 : Integer;SetColFilter@1000 : Boolean) : Decimal;
    VAR
      Amt@1002 : Decimal;
      AmtFromBuffer@1003 : Boolean;
    BEGIN
      IF SetColFilter THEN
        IF AVBreakdownBuffer.GET(Code,DimCodeBufferColumn1.Code) THEN BEGIN
          Amt := AVBreakdownBuffer.Amount;
          AmtFromBuffer := TRUE;
        END;

      IF NOT AmtFromBuffer THEN BEGIN
        Amt := ItemAnalysisMgt.CalcAmount(
            ValueType,SetColFilter,
            CurrentAnalysisArea,ItemStatisticsBuffer,CurrentItemAnalysisViewCode,
            ItemFilter,LocationFilter,DateFilter,BudgetFilter,
            Dim1Filter,Dim2Filter,Dim3Filter,
            LineDimOption,Rec,
            ColumnDimOption,DimCodeBufferColumn1,
            ShowActualBudget);

        IF SetColFilter THEN BEGIN
          AVBreakdownBuffer."Line Code" := Code;
          AVBreakdownBuffer."Column Code" := DimCodeBufferColumn1.Code;
          AVBreakdownBuffer.Amount := Amt;
          AVBreakdownBuffer.INSERT;
        END;
      END;

      IF ShowOppositeSign THEN
        Amt := -Amt;

      Amt := MatrixMgt.RoundValue(Amt,RoundingFactor);

      EXIT(Amt);
    END;

    LOCAL PROCEDURE FieldDrillDown@4(Ordinal@1000 : Integer);
    BEGIN
      CLEAR(DimCodeBufferColumn3);
      Which := '-';

      ItemAnalysisMgt.FindRec(
        ItemAnalysisView,ColumnDimOption,DimCodeBufferColumn3,Which,
        GetFieldItemFilter,GetFieldLocationFilter,PeriodType,DateFilter,PeriodInitialized,InternalDateFilter,
        GetFieldDim1Filter,GetFieldDim2Filter,GetFieldDim3Filter);

      Steps := Ordinal - 1;
      ItemAnalysisMgt.NextRec(
        ItemAnalysisView,ColumnDimOption,DimCodeBufferColumn3,Steps,
        GetFieldItemFilter,GetFieldLocationFilter,PeriodType,DateFilter,
        GetFieldDim1Filter,GetFieldDim2Filter,GetFieldDim3Filter);

      ItemAnalysisMgt.DrillDown(
        CurrentAnalysisArea,ItemStatisticsBuffer,CurrentItemAnalysisViewCode,
        GetFieldItemFilter,GetFieldLocationFilter,DateFilter,
        GetFieldDim1Filter,GetFieldDim2Filter,GetFieldDim3Filter,BudgetFilter,
        LineDimOption,Rec,
        ColumnDimOption,DimCodeBufferColumn3,
        TRUE,ValueType,ShowActualBudget);
    END;

    LOCAL PROCEDURE FormatLine@5();
    BEGIN
      Emphasize := "Show in Bold";
    END;

    [External]
    PROCEDURE GetMatrixDimension@6() : Integer;
    BEGIN
      EXIT(ARRAYLEN(MatrixColumnCaptions));
    END;

    LOCAL PROCEDURE FormatStr@8() : Text;
    BEGIN
      EXIT(RoundingFactorFormatString);
    END;

    LOCAL PROCEDURE GetFieldItemFilter@12() : Code[250];
    BEGIN
      EXIT(GetFieldFilter(ColumnDimOption::Item,ItemFilter));
    END;

    LOCAL PROCEDURE GetFieldLocationFilter@14() : Code[250];
    BEGIN
      EXIT(GetFieldFilter(ColumnDimOption::Location,LocationFilter));
    END;

    LOCAL PROCEDURE GetFieldDim1Filter@15() : Code[250];
    BEGIN
      EXIT(GetFieldFilter(ColumnDimOption::"Dimension 1",Dim1Filter));
    END;

    LOCAL PROCEDURE GetFieldDim2Filter@16() : Code[250];
    BEGIN
      EXIT(GetFieldFilter(ColumnDimOption::"Dimension 2",Dim2Filter));
    END;

    LOCAL PROCEDURE GetFieldDim3Filter@17() : Code[250];
    BEGIN
      EXIT(GetFieldFilter(ColumnDimOption::"Dimension 3",Dim3Filter));
    END;

    LOCAL PROCEDURE GetFieldFilter@23(RequiredColumnDimOption@1000 : Option;DefaultFilter@1001 : Code[250]) : Code[250];
    BEGIN
      IF (ColumnDimOption = RequiredColumnDimOption) AND (CodeRange <> '') THEN
        EXIT(CodeRange);

      EXIT(DefaultFilter);
    END;

    BEGIN
    END.
  }
}

