OBJECT Page 9305 Sales Order List
{
  OBJECT-PROPERTIES
  {
    Date=21/12/17;
    Time=12:00:00;
    Version List=NAVW111.00.00.19846;
  }
  PROPERTIES
  {
    Editable=No;
    CaptionML=[ENU=Sales Orders;
               ENG=Sales Orders];
    SourceTable=Table36;
    SourceTableView=WHERE(Document Type=CONST(Order));
    DataCaptionFields=Sell-to Customer No.;
    PageType=List;
    CardPageID=Sales Order;
    RefreshOnActivate=Yes;
    PromotedActionCategoriesML=[ENU=New,Process,Report,Request Approval,Order;
                                ENG=New,Process,Report,Request Approval,Order];
    OnOpenPage=VAR
                 SalesSetup@1000 : Record 311;
                 CRMIntegrationManagement@1001 : Codeunit 5330;
                 OfficeMgt@1002 : Codeunit 1630;
               BEGIN
                 IF UserMgt.GetSalesFilter <> '' THEN BEGIN
                   FILTERGROUP(2);
                   SETRANGE("Responsibility Center",UserMgt.GetSalesFilter);
                   FILTERGROUP(0);
                 END;

                 SETRANGE("Date Filter",0D,WORKDATE - 1);

                 JobQueueActive := SalesSetup.JobQueueActive;
                 CRMIntegrationEnabled := CRMIntegrationManagement.IsCRMIntegrationEnabled;
                 IsOfficeAddin := OfficeMgt.IsAvailable;

                 CopySellToCustomerFilter;

                 // Contextual Power BI FactBox: filtering available reports, setting context, loading Power BI related user settings
                 CurrPage."Power BI Report FactBox".PAGE.SetNameFilter(CurrPage.CAPTION);
                 CurrPage."Power BI Report FactBox".PAGE.SetContext(CurrPage.OBJECTID(FALSE));
                 PowerBIVisible := SetPowerBIUserConfig.SetUserConfig(PowerBIUserConfiguration,CurrPage.OBJECTID(FALSE));
               END;

    OnFindRecord=BEGIN
                   EXIT(FIND(Which) AND ShowHeader);
                 END;

    OnNextRecord=VAR
                   NewStepCount@1000 : Integer;
                 BEGIN
                   REPEAT
                     NewStepCount := NEXT(Steps);
                   UNTIL (NewStepCount = 0) OR ShowHeader;

                   EXIT(NewStepCount);
                 END;

    OnAfterGetCurrRecord=BEGIN
                           SetControlVisibility;
                           CurrPage.IncomingDocAttachFactBox.PAGE.LoadDataFromRecord(Rec);

                           // Contextual Power BI FactBox: send data to filter the report in the FactBox
                           CurrPage."Power BI Report FactBox".PAGE.SetCurrentListSelection("No.",FALSE);
                         END;

    ActionList=ACTIONS
    {
      { 1900000003;0 ;ActionContainer;
                      ActionContainerType=RelatedInformation }
      { 1102601000;1 ;ActionGroup;
                      CaptionML=[ENU=O&rder;
                                 ENG=O&rder];
                      Image=Order }
      { 1102601013;2 ;Action    ;
                      AccessByPermission=TableData 348=R;
                      ShortCutKey=Shift+Ctrl+D;
                      CaptionML=[ENU=Dimensions;
                                 ENG=Dimensions];
                      ToolTipML=[ENU=View or edit dimensions, such as area, project, or department, that you can assign to sales and purchase documents to distribute costs and analyze transaction history.;
                                 ENG=View or edit dimensions, such as area, project, or department, that you can assign to sales and purchase documents to distribute costs and analyse transaction history.];
                      ApplicationArea=#Suite;
                      Image=Dimensions;
                      OnAction=BEGIN
                                 ShowDocDim;
                               END;
                                }
      { 1102601006;2 ;Action    ;
                      Name=Statistics;
                      ShortCutKey=F7;
                      CaptionML=[ENU=Statistics;
                                 ENG=Statistics];
                      ToolTipML=[ENU=View statistical information, such as the value of posted entries, for the record.;
                                 ENG=View statistical information, such as the value of posted entries, for the record.];
                      ApplicationArea=#Advanced;
                      Promoted=Yes;
                      Image=Statistics;
                      PromotedCategory=Process;
                      OnAction=BEGIN
                                 OpenSalesOrderStatistics;
                               END;
                                }
      { 1102601014;2 ;Action    ;
                      Name=Approvals;
                      CaptionML=[ENU=Approvals;
                                 ENG=Approvals];
                      ToolTipML=[ENU=View a list of the records that are waiting to be approved. For example, you can see who requested the record to be approved, when it was sent, and when it is due to be approved.;
                                 ENG=View a list of the records that are waiting to be approved. For example, you can see who requested the record to be approved, when it was sent, and when it is due to be approved.];
                      ApplicationArea=#Suite;
                      Promoted=Yes;
                      Image=Approvals;
                      PromotedCategory=Category5;
                      PromotedOnly=Yes;
                      OnAction=VAR
                                 WorkflowsEntriesBuffer@1000 : Record 832;
                               BEGIN
                                 WorkflowsEntriesBuffer.RunWorkflowEntriesPage(RECORDID,DATABASE::"Sales Header","Document Type","No.");
                               END;
                                }
      { 1102601008;2 ;Action    ;
                      CaptionML=[ENU=Co&mments;
                                 ENG=Co&mments];
                      ToolTipML=[ENU=View or add comments for the record.;
                                 ENG=View or add comments for the record.];
                      ApplicationArea=#Advanced;
                      RunObject=Page 67;
                      RunPageLink=Document Type=FIELD(Document Type),
                                  No.=FIELD(No.),
                                  Document Line No.=CONST(0);
                      Image=ViewComments }
      { 9       ;1   ;ActionGroup;
                      CaptionML=[ENU=Documents;
                                 ENG=Documents];
                      Image=Documents }
      { 1102601009;2 ;Action    ;
                      CaptionML=[ENU=S&hipments;
                                 ENG=S&hipments];
                      ToolTipML=[ENU=View related posted sales shipments.;
                                 ENG=View related posted sales shipments.];
                      ApplicationArea=#Basic,#Suite;
                      RunObject=Page 142;
                      RunPageView=SORTING(Order No.);
                      RunPageLink=Order No.=FIELD(No.);
                      Image=Shipment }
      { 1102601010;2 ;Action    ;
                      Name=PostedSalesInvoices;
                      CaptionML=[ENU=Invoices;
                                 ENG=Invoices];
                      ToolTipML=[ENU=View a list of ongoing sales invoices for the order.;
                                 ENG=View a list of ongoing sales invoices for the order.];
                      ApplicationArea=#Basic,#Suite;
                      RunObject=Page 143;
                      RunPageView=SORTING(Order No.);
                      RunPageLink=Order No.=FIELD(No.);
                      Image=Invoice }
      { 1102601011;2 ;Action    ;
                      Name=PostedSalesPrepmtInvoices;
                      CaptionML=[ENU=Prepa&yment Invoices;
                                 ENG=Prepa&yment Invoices];
                      ToolTipML=[ENU="View related posted sales invoices that involve a prepayment. ";
                                 ENG="View related posted sales invoices that involve a prepayment. "];
                      ApplicationArea=#Prepayments;
                      RunObject=Page 143;
                      RunPageView=SORTING(Prepayment Order No.);
                      RunPageLink=Prepayment Order No.=FIELD(No.);
                      Image=PrepaymentInvoice }
      { 1102601012;2 ;Action    ;
                      CaptionML=[ENU=Prepayment Credi&t Memos;
                                 ENG=Prepayment Credi&t Memos];
                      ToolTipML=[ENU="View related posted sales credit memos that involve a prepayment. ";
                                 ENG="View related posted sales credit memos that involve a prepayment. "];
                      ApplicationArea=#Prepayments;
                      RunObject=Page 144;
                      RunPageView=SORTING(Prepayment Order No.);
                      RunPageLink=Prepayment Order No.=FIELD(No.);
                      Image=PrepaymentCreditMemo }
      { 10      ;1   ;ActionGroup;
                      CaptionML=[ENU=Warehouse;
                                 ENG=Warehouse];
                      Image=Warehouse }
      { 1102601016;2 ;Action    ;
                      CaptionML=[ENU=Whse. Shipment Lines;
                                 ENG=Whse. Shipment Lines];
                      ToolTipML=[ENU=View ongoing warehouse shipments for the document, in advanced warehouse configurations.;
                                 ENG=View ongoing warehouse shipments for the document, in advanced warehouse configurations.];
                      ApplicationArea=#Warehouse;
                      RunObject=Page 7341;
                      RunPageView=SORTING(Source Type,Source Subtype,Source No.,Source Line No.);
                      RunPageLink=Source Type=CONST(37),
                                  Source Subtype=FIELD(Document Type),
                                  Source No.=FIELD(No.);
                      Image=ShipmentLines }
      { 1102601017;2 ;Action    ;
                      CaptionML=[ENU=In&vt. Put-away/Pick Lines;
                                 ENG=In&vt. Put-away/Pick Lines];
                      ToolTipML=[ENU=View items that are inbound or outbound on inventory put-away or inventory pick documents for the transfer order.;
                                 ENG=View items that are inbound or outbound on inventory put-away or inventory pick documents for the transfer order.];
                      ApplicationArea=#Warehouse;
                      RunObject=Page 5774;
                      RunPageView=SORTING(Source Document,Source No.,Location Code);
                      RunPageLink=Source Document=CONST(Sales Order),
                                  Source No.=FIELD(No.);
                      Image=PickLines }
      { 32      ;1   ;ActionGroup;
                      Name=ActionGroupCRM;
                      CaptionML=[ENU=Dynamics 365 for Sales;
                                 ENG=Dynamics 365 for Sales];
                      Visible=CRMIntegrationEnabled }
      { 31      ;2   ;Action    ;
                      Name=CRMGoToSalesOrderListInNAV;
                      CaptionML=[ENU=Sales Order List;
                                 ENG=Sales Order List];
                      ToolTipML=[ENU=Open the Sales Order List - Dynamics 365 for Sales page in Dynamics NAV;
                                 ENG=Open the Sales Order List - Dynamics 365 for Sales page in Dynamics NAV];
                      ApplicationArea=#Basic,#Suite;
                      Visible=CRMIntegrationEnabled;
                      Enabled=CRMIntegrationEnabled;
                      Image=Order;
                      OnAction=VAR
                                 CRMSalesorder@1000 : Record 5353;
                               BEGIN
                                 PAGE.RUN(PAGE::"CRM Sales Order List",CRMSalesorder);
                               END;
                                }
      { 1900000004;0 ;ActionContainer;
                      ActionContainerType=ActionItems }
      { 12      ;1   ;ActionGroup;
                      CaptionML=[ENU=Release;
                                 ENG=Release];
                      Image=ReleaseDoc }
      { 1102601049;2 ;Action    ;
                      Name=Release;
                      ShortCutKey=Ctrl+F9;
                      CaptionML=[ENU=Re&lease;
                                 ENG=Re&lease];
                      ToolTipML=[ENU=Release the document to the next stage of processing. When a document is released, it will be included in all availability calculations from the expected receipt date of the items. You must reopen the document before you can make changes to it.;
                                 ENG=Release the document to the next stage of processing. When a document is released, it will be included in all availability calculations from the expected receipt date of the items. You must reopen the document before you can make changes to it.];
                      ApplicationArea=#Advanced;
                      Promoted=Yes;
                      Image=ReleaseDoc;
                      PromotedCategory=Process;
                      OnAction=VAR
                                 ReleaseSalesDoc@1000 : Codeunit 414;
                               BEGIN
                                 ReleaseSalesDoc.PerformManualRelease(Rec);
                               END;
                                }
      { 1102601050;2 ;Action    ;
                      Name=Reopen;
                      CaptionML=[ENU=Re&open;
                                 ENG=Re&open];
                      ToolTipML=[ENU=Reopen the document to change it after it has been approved. Approved documents have the Released status and must be opened before they can be changed.;
                                 ENG=Reopen the document to change it after it has been approved. Approved documents have the Released status and must be opened before they can be changed.];
                      ApplicationArea=#Advanced;
                      Promoted=Yes;
                      Image=ReOpen;
                      PromotedCategory=Process;
                      OnAction=VAR
                                 ReleaseSalesDoc@1001 : Codeunit 414;
                               BEGIN
                                 ReleaseSalesDoc.PerformManualReopen(Rec);
                               END;
                                }
      { 1102601001;1 ;ActionGroup;
                      CaptionML=[ENU=F&unctions;
                                 ENG=F&unctions];
                      Image=Action }
      { 102     ;2   ;Action    ;
                      CaptionML=[ENU=Pla&nning;
                                 ENG=Pla&nning];
                      ToolTipML=[ENU=Open a tool for manual supply planning that displays all new demand along with availability information and suggestions for supply. It provides the visibility and tools needed to plan for demand from sales lines and component lines and then create different types of supply orders directly.;
                                 ENG=Open a tool for manual supply planning that displays all new demand along with availability information and suggestions for supply. It provides the visibility and tools needed to plan for demand from sales lines and component lines and then create different types of supply orders directly.];
                      ApplicationArea=#Planning;
                      Image=Planning;
                      OnAction=VAR
                                 SalesOrderPlanningForm@1001 : Page 99000883;
                               BEGIN
                                 SalesOrderPlanningForm.SetSalesOrder("No.");
                                 SalesOrderPlanningForm.RUNMODAL;
                               END;
                                }
      { 1102601020;2 ;Action    ;
                      AccessByPermission=TableData 99000880=R;
                      CaptionML=[ENU=Order &Promising;
                                 ENG=Order &Promising];
                      ToolTipML=[ENU=Calculate the shipment and delivery dates based on the item's known and expected availability dates, and then promise the dates to the customer.;
                                 ENG=Calculate the shipment and delivery dates based on the item's known and expected availability dates, and then promise the dates to the customer.];
                      ApplicationArea=#Planning;
                      Image=OrderPromising;
                      OnAction=VAR
                                 OrderPromisingLine@1000 : TEMPORARY Record 99000880;
                               BEGIN
                                 OrderPromisingLine.SETRANGE("Source Type","Document Type");
                                 OrderPromisingLine.SETRANGE("Source ID","No.");
                                 PAGE.RUNMODAL(PAGE::"Order Promising Lines",OrderPromisingLine);
                               END;
                                }
      { 1102601053;2 ;Action    ;
                      AccessByPermission=TableData 410=R;
                      CaptionML=[ENU=Send IC Sales Order Cnfmn.;
                                 ENG=Send IC Sales Order Cnfmn.];
                      ToolTipML=[ENU=Send the document to the intercompany outbox or directly to the intercompany partner if automatic transaction sending is enabled.;
                                 ENG=Send the document to the intercompany outbox or directly to the intercompany partner if automatic transaction sending is enabled.];
                      ApplicationArea=#Intercompany;
                      Image=IntercompanyOrder;
                      OnAction=VAR
                                 ICInOutboxMgt@1000 : Codeunit 427;
                                 ApprovalsMgmt@1003 : Codeunit 1535;
                               BEGIN
                                 IF ApprovalsMgmt.PrePostApprovalCheckSales(Rec) THEN
                                   ICInOutboxMgt.SendSalesDoc(Rec,FALSE);
                               END;
                                }
      { 24      ;1   ;ActionGroup;
                      CaptionML=[ENU=Request Approval;
                                 ENG=Request Approval] }
      { 1102601046;2 ;Action    ;
                      Name=SendApprovalRequest;
                      CaptionML=[ENU=Send A&pproval Request;
                                 ENG=Send A&pproval Request];
                      ToolTipML=[ENU=Request approval of the document.;
                                 ENG=Request approval of the document.];
                      ApplicationArea=#Advanced;
                      Promoted=Yes;
                      Enabled=NOT OpenApprovalEntriesExist AND CanRequestApprovalForFlow;
                      PromotedIsBig=Yes;
                      Image=SendApprovalRequest;
                      PromotedCategory=Category4;
                      PromotedOnly=Yes;
                      OnAction=VAR
                                 ApprovalsMgmt@1001 : Codeunit 1535;
                               BEGIN
                                 IF ApprovalsMgmt.CheckSalesApprovalPossible(Rec) THEN
                                   ApprovalsMgmt.OnSendSalesDocForApproval(Rec);
                               END;
                                }
      { 1102601047;2 ;Action    ;
                      Name=CancelApprovalRequest;
                      CaptionML=[ENU=Cancel Approval Re&quest;
                                 ENG=Cancel Approval Re&quest];
                      ToolTipML=[ENU=Cancel the approval request.;
                                 ENG=Cancel the approval request.];
                      ApplicationArea=#Advanced;
                      Promoted=Yes;
                      Enabled=CanCancelApprovalForRecord OR CanCancelApprovalForFlow;
                      PromotedIsBig=Yes;
                      Image=CancelApprovalRequest;
                      PromotedCategory=Category4;
                      PromotedOnly=Yes;
                      OnAction=VAR
                                 ApprovalsMgmt@1001 : Codeunit 1535;
                                 WorkflowWebhookManagement@1000 : Codeunit 1543;
                               BEGIN
                                 ApprovalsMgmt.OnCancelSalesApprovalRequest(Rec);
                                 WorkflowWebhookManagement.FindAndCancel(RECORDID);
                               END;
                                }
      { 3       ;1   ;ActionGroup;
                      CaptionML=[ENU=Warehouse;
                                 ENG=Warehouse];
                      Image=Warehouse }
      { 100     ;2   ;Action    ;
                      AccessByPermission=TableData 7342=R;
                      Ellipsis=Yes;
                      CaptionML=[ENU=Create Inventor&y Put-away/Pick;
                                 ENG=Create Inventor&y Put-away/Pick];
                      ToolTipML=[ENU=Create an inventory put-away or inventory pick to handle items on the document according to a basic warehouse configuration that does not require warehouse receipt or shipment documents.;
                                 ENG=Create an inventory put-away or inventory pick to handle items on the document according to a basic warehouse configuration that does not require warehouse receipt or shipment documents.];
                      ApplicationArea=#Warehouse;
                      Image=CreatePutawayPick;
                      OnAction=BEGIN
                                 CreateInvtPutAwayPick;

                                 IF NOT FIND('=><') THEN
                                   INIT;
                               END;
                                }
      { 1102601043;2 ;Action    ;
                      AccessByPermission=TableData 7320=R;
                      CaptionML=[ENU=Create &Whse. Shipment;
                                 ENG=Create &Whse. Shipment];
                      ToolTipML=[ENU=Create a warehouse shipment to start a pick a ship process according to an advanced warehouse configuration.;
                                 ENG=Create a warehouse shipment to start a pick a ship process according to an advanced warehouse configuration.];
                      ApplicationArea=#Warehouse;
                      Image=NewShipment;
                      OnAction=VAR
                                 GetSourceDocOutbound@1001 : Codeunit 5752;
                               BEGIN
                                 GetSourceDocOutbound.CreateFromSalesOrder(Rec);

                                 IF NOT FIND('=><') THEN
                                   INIT;
                               END;
                                }
      { 49      ;1   ;ActionGroup;
                      CaptionML=[ENU=P&osting;
                                 ENG=P&osting];
                      Image=Post }
      { 1102601003;2 ;Action    ;
                      Name=Post;
                      ShortCutKey=F9;
                      Ellipsis=Yes;
                      CaptionML=[ENU=P&ost;
                                 ENG=P&ost];
                      ToolTipML=[ENU=Finalize the document or journal by posting the amounts and quantities to the related accounts in your company books.;
                                 ENG=Finalise the document or journal by posting the amounts and quantities to the related accounts in your company books.];
                      ApplicationArea=#Advanced;
                      Promoted=Yes;
                      PromotedIsBig=Yes;
                      Image=PostOrder;
                      PromotedCategory=Process;
                      OnAction=VAR
                                 SalesHeader@1003 : Record 36;
                                 SalesBatchPostMgt@1002 : Codeunit 1371;
                                 BatchProcessingMgt@1001 : Codeunit 1380;
                                 BatchPostParameterTypes@1000 : Codeunit 1370;
                               BEGIN
                                 CurrPage.SETSELECTIONFILTER(SalesHeader);
                                 IF SalesHeader.COUNT > 1 THEN BEGIN
                                   BatchProcessingMgt.AddParameter(BatchPostParameterTypes.Invoice,TRUE);
                                   BatchProcessingMgt.AddParameter(BatchPostParameterTypes.Ship,TRUE);

                                   SalesBatchPostMgt.SetBatchProcessor(BatchProcessingMgt);
                                   SalesBatchPostMgt.RunWithUI(SalesHeader,COUNT,ReadyToPostQst);
                                 END ELSE
                                   Post(CODEUNIT::"Sales-Post (Yes/No)");
                               END;
                                }
      { 25      ;2   ;Action    ;
                      Name=PostAndSend;
                      Ellipsis=Yes;
                      CaptionML=[ENU=Post and Send;
                                 ENG=Post and Send];
                      ToolTipML=[ENU=Finalize and prepare to send the document according to the customer's sending profile, such as attached to an email. The Send document to window opens where you can confirm or select a sending profile.;
                                 ENG=Finalise and prepare to send the document according to the customer's sending profile, such as attached to an email. The Send document to window opens where you can confirm or select a sending profile.];
                      ApplicationArea=#Advanced;
                      Promoted=Yes;
                      PromotedIsBig=Yes;
                      Image=PostMail;
                      PromotedCategory=Process;
                      OnAction=BEGIN
                                 Post(CODEUNIT::"Sales-Post and Send");
                               END;
                                }
      { 1102601002;2 ;Action    ;
                      Ellipsis=Yes;
                      CaptionML=[ENU=Test Report;
                                 ENG=Test Report];
                      ToolTipML=[ENU=View a test report so that you can find and correct any errors before you perform the actual posting of the journal or document.;
                                 ENG=View a test report so that you can find and correct any errors before you perform the actual posting of the journal or document.];
                      ApplicationArea=#Advanced;
                      Image=TestReport;
                      OnAction=BEGIN
                                 ReportPrint.PrintSalesHeader(Rec);
                               END;
                                }
      { 50      ;2   ;Action    ;
                      Ellipsis=Yes;
                      CaptionML=[ENU=Post &Batch;
                                 ENG=Post &Batch];
                      ToolTipML=[ENU=Post several documents at once. A report request window opens where you can specify which documents to post.;
                                 ENG=Post several documents at once. A report request window opens where you can specify which documents to post.];
                      ApplicationArea=#Advanced;
                      Promoted=Yes;
                      Image=PostBatch;
                      PromotedCategory=Process;
                      OnAction=BEGIN
                                 REPORT.RUNMODAL(REPORT::"Batch Post Sales Orders",TRUE,TRUE,Rec);
                                 CurrPage.UPDATE(FALSE);
                               END;
                                }
      { 8       ;2   ;Action    ;
                      CaptionML=[ENU=Remove From Job Queue;
                                 ENG=Remove From Job Queue];
                      ToolTipML=[ENU=Remove the scheduled processing of this record from the job queue.;
                                 ENG=Remove the scheduled processing of this record from the job queue.];
                      ApplicationArea=#All;
                      Visible=JobQueueActive;
                      Image=RemoveLine;
                      OnAction=BEGIN
                                 CancelBackgroundPosting;
                               END;
                                }
      { 22      ;2   ;Action    ;
                      CaptionML=[ENU=Preview Posting;
                                 ENG=Preview Posting];
                      ToolTipML=[ENU=Review the different types of entries that will be created when you post the document or journal.;
                                 ENG=Review the different types of entries that will be created when you post the document or journal.];
                      ApplicationArea=#Advanced;
                      Image=ViewPostedOrder;
                      OnAction=BEGIN
                                 ShowPreview
                               END;
                                }
      { 150     ;1   ;ActionGroup;
                      CaptionML=[ENU=&Print;
                                 ENG=&Print];
                      Image=Print }
      { 152     ;2   ;Action    ;
                      Ellipsis=Yes;
                      CaptionML=[ENU=Work Order;
                                 ENG=Work Order];
                      ToolTipML=[ENU=Prepare to registers actual item quantities or time used in connection with the sales order. For example, the document can be used by staff who perform any kind of processing work in connection with the sales order. It can also be exported to Excel if you need to process the sales line data further.;
                                 ENG=Prepare to registers actual item quantities or time used in connection with the sales order. For example, the document can be used by staff who perform any kind of processing work in connection with the sales order. It can also be exported to Excel if you need to process the sales line data further.];
                      ApplicationArea=#Advanced;
                      Image=Print;
                      OnAction=BEGIN
                                 DocPrint.PrintSalesOrder(Rec,Usage::"Work Order");
                               END;
                                }
      { 7       ;2   ;Action    ;
                      CaptionML=[ENU=Pick Instruction;
                                 ENG=Pick Instruction];
                      ToolTipML=[ENU=Print a picking list that shows which items to pick and ship for the sales order. If an item is assembled to order, then the report includes rows for the assembly components that must be picked. Use this report as a pick instruction to employees in charge of picking sales items or assembly components for the sales order.;
                                 ENG=Print a picking list that shows which items to pick and ship for the sales order. If an item is assembled to order, then the report includes rows for the assembly components that must be picked. Use this report as a pick instruction to employees in charge of picking sales items or assembly components for the sales order.];
                      ApplicationArea=#Warehouse;
                      Image=Print;
                      OnAction=BEGIN
                                 DocPrint.PrintSalesOrder(Rec,Usage::"Pick Instruction");
                               END;
                                }
      { 19      ;1   ;ActionGroup;
                      CaptionML=[ENU=&Order Confirmation;
                                 ENG=&Order Confirmation];
                      Image=Email }
      { 18      ;2   ;Action    ;
                      Ellipsis=Yes;
                      CaptionML=[ENU=Email Confirmation;
                                 ENG=Email Confirmation];
                      ToolTipML=[ENU=Send an order confirmation by email. The Send Email window opens prefilled for the customer so you can add or change information before you send the email.;
                                 ENG=Send an order confirmation by email. The Send Email window opens prefilled for the customer so you can add or change information before you send the email.];
                      ApplicationArea=#Advanced;
                      Image=Email;
                      OnAction=BEGIN
                                 DocPrint.EmailSalesHeader(Rec);
                               END;
                                }
      { 151     ;2   ;Action    ;
                      Ellipsis=Yes;
                      CaptionML=[ENU=Print Confirmation;
                                 ENG=Print Confirmation];
                      ToolTipML=[ENU=Print an order confirmation. A report request window opens where you can specify what to include on the print-out.;
                                 ENG=Print an order confirmation. A report request window opens where you can specify what to include on the print-out.];
                      ApplicationArea=#Advanced;
                      Promoted=Yes;
                      Visible=NOT IsOfficeAddin;
                      Image=Print;
                      PromotedCategory=Process;
                      OnAction=BEGIN
                                 DocPrint.PrintSalesOrder(Rec,Usage::"Order Confirmation");
                               END;
                                }
      { 40      ;1   ;ActionGroup;
                      CaptionML=[ENU=Display;
                                 ENG=Display] }
      { 38      ;2   ;Action    ;
                      Name=ReportFactBoxVisibility;
                      CaptionML=[ENU=Show/Hide Power BI Reports;
                                 ENG=Show/Hide Power BI Reports];
                      ToolTipML=[ENU=Select if the Power BI FactBox is visible or not.;
                                 ENG=Select if the Power BI FactBox is visible or not.];
                      ApplicationArea=#Basic,#Suite;
                      Image=Report;
                      OnAction=BEGIN
                                 IF PowerBIVisible THEN
                                   PowerBIVisible := FALSE
                                 ELSE
                                   PowerBIVisible := TRUE;
                                 // save visibility value into the table
                                 CurrPage."Power BI Report FactBox".PAGE.SetFactBoxVisibility(PowerBIVisible);
                               END;
                                }
      { 1900000006;0 ;ActionContainer;
                      ActionContainerType=Reports }
      { 1904702706;1 ;Action    ;
                      CaptionML=[ENU=Sales Reservation Avail.;
                                 ENG=Sales Reservation Avail.];
                      ToolTipML=[ENU=View, print, or save an overview of availability of items for shipment on sales documents, filtered on shipment status.;
                                 ENG=View, print, or save an overview of availability of items for shipment on sales documents, filtered on shipment status.];
                      ApplicationArea=#Advanced;
                      RunObject=Report 209;
                      Promoted=Yes;
                      Image=Report;
                      PromotedCategory=Report }
    }
  }
  CONTROLS
  {
    { 1900000001;0;Container;
                ContainerType=ContentArea }

    { 1   ;1   ;Group     ;
                GroupType=Repeater }

    { 2   ;2   ;Field     ;
                ToolTipML=[ENU=Specifies the number of the involved entry or record, according to the specified number series.;
                           ENG=Specifies the number of the involved entry or record, according to the specified number series.];
                ApplicationArea=#Basic,#Suite;
                SourceExpr="No." }

    { 4   ;2   ;Field     ;
                ToolTipML=[ENU=Specifies the number of the customer.;
                           ENG=Specifies the number of the customer.];
                ApplicationArea=#Advanced;
                SourceExpr="Sell-to Customer No." }

    { 6   ;2   ;Field     ;
                ToolTipML=[ENU=Specifies the name of the customer.;
                           ENG=Specifies the name of the customer.];
                ApplicationArea=#Basic,#Suite;
                SourceExpr="Sell-to Customer Name" }

    { 17  ;2   ;Field     ;
                ToolTipML=[ENU=Specifies a document number that refers to the customer's or vendor's numbering system.;
                           ENG=Specifies a document number that refers to the customer's or vendor's numbering system.];
                ApplicationArea=#Basic,#Suite;
                SourceExpr="External Document No." }

    { 33  ;2   ;Field     ;
                ToolTipML=[ENU=Specifies the postal code of the customer's main address.;
                           ENG=Specifies the postcode of the customer's main address.];
                ApplicationArea=#Advanced;
                SourceExpr="Sell-to Post Code";
                Visible=FALSE }

    { 29  ;2   ;Field     ;
                ToolTipML=[ENU=Specifies the country/region code of the customer's main address.;
                           ENG=Specifies the country/region code of the customer's main address.];
                ApplicationArea=#Advanced;
                SourceExpr="Sell-to Country/Region Code";
                Visible=FALSE }

    { 41  ;2   ;Field     ;
                ToolTipML=[ENU=Specifies the name of the contact person at the customer's main address.;
                           ENG=Specifies the name of the contact person at the customer's main address.];
                ApplicationArea=#Advanced;
                SourceExpr="Sell-to Contact";
                Visible=FALSE }

    { 13  ;2   ;Field     ;
                ToolTipML=[ENU=Specifies the number of the customer that you send or sent the invoice or credit memo to.;
                           ENG=Specifies the number of the customer that you send or sent the invoice or credit memo to.];
                ApplicationArea=#Advanced;
                SourceExpr="Bill-to Customer No.";
                Visible=FALSE }

    { 15  ;2   ;Field     ;
                ToolTipML=[ENU=Specifies the name of the customer that you send or sent the invoice or credit memo to.;
                           ENG=Specifies the name of the customer that you send or sent the invoice or credit memo to.];
                ApplicationArea=#Advanced;
                SourceExpr="Bill-to Name";
                Visible=FALSE }

    { 39  ;2   ;Field     ;
                ToolTipML=[ENU=Specifies the postal code of the customer's billing address.;
                           ENG=Specifies the postcode of the customer's billing address.];
                ApplicationArea=#Advanced;
                SourceExpr="Bill-to Post Code";
                Visible=FALSE }

    { 35  ;2   ;Field     ;
                ToolTipML=[ENU=Specifies the country/region code of the customer's billing address.;
                           ENG=Specifies the country/region code of the customer's billing address.];
                ApplicationArea=#Advanced;
                SourceExpr="Bill-to Country/Region Code";
                Visible=FALSE }

    { 159 ;2   ;Field     ;
                ToolTipML=[ENU=Specifies the name of the contact person at the customer's billing address.;
                           ENG=Specifies the name of the contact person at the customer's billing address.];
                ApplicationArea=#Advanced;
                SourceExpr="Bill-to Contact";
                Visible=FALSE }

    { 155 ;2   ;Field     ;
                ToolTipML=[ENU=Specifies a code for an alternate shipment address if you want to ship to another address than the one that has been entered automatically. This field is also used in case of drop shipment.;
                           ENG=Specifies a code for an alternate shipment address if you want to ship to another address than the one that has been entered automatically. This field is also used in case of drop shipment.];
                ApplicationArea=#Advanced;
                SourceExpr="Ship-to Code";
                Visible=FALSE }

    { 153 ;2   ;Field     ;
                ToolTipML=[ENU=Specifies the name of the customer at the address that the items are shipped to.;
                           ENG=Specifies the name of the customer at the address that the items are shipped to.];
                ApplicationArea=#Advanced;
                SourceExpr="Ship-to Name";
                Visible=FALSE }

    { 27  ;2   ;Field     ;
                ToolTipML=[ENU=Specifies the postal code of the address that the items are shipped to.;
                           ENG=Specifies the postcode of the address that the items are shipped to.];
                ApplicationArea=#Advanced;
                SourceExpr="Ship-to Post Code";
                Visible=FALSE }

    { 23  ;2   ;Field     ;
                ToolTipML=[ENU=Specifies the country/region code of the address that the items are shipped to.;
                           ENG=Specifies the country/region code of the address that the items are shipped to.];
                ApplicationArea=#Advanced;
                SourceExpr="Ship-to Country/Region Code";
                Visible=FALSE }

    { 143 ;2   ;Field     ;
                ToolTipML=[ENU=Specifies the name of the contact person at the address that the items are shipped to.;
                           ENG=Specifies the name of the contact person at the address that the items are shipped to.];
                ApplicationArea=#Advanced;
                SourceExpr="Ship-to Contact";
                Visible=FALSE }

    { 139 ;2   ;Field     ;
                ToolTipML=[ENU=Specifies the date when the posting of the sales document will be recorded.;
                           ENG=Specifies the date when the posting of the sales document will be recorded.];
                ApplicationArea=#Basic,#Suite;
                SourceExpr="Posting Date";
                Visible=FALSE }

    { 121 ;2   ;Field     ;
                ToolTipML=[ENU=Specifies the code for Shortcut Dimension 1, which is one of two global dimension codes that you set up in the General Ledger Setup window.;
                           ENG=Specifies the code for Shortcut Dimension 1, which is one of two global dimension codes that you set up in the General Ledger Setup window.];
                ApplicationArea=#Suite;
                SourceExpr="Shortcut Dimension 1 Code";
                Visible=FALSE }

    { 119 ;2   ;Field     ;
                ToolTipML=[ENU=Specifies the code for Shortcut Dimension 2, which is one of two global dimension codes that you set up in the General Ledger Setup window.;
                           ENG=Specifies the code for Shortcut Dimension 2, which is one of two global dimension codes that you set up in the General Ledger Setup window.];
                ApplicationArea=#Suite;
                SourceExpr="Shortcut Dimension 2 Code";
                Visible=FALSE }

    { 123 ;2   ;Field     ;
                ToolTipML=[ENU=Specifies the location from where inventory items to the customer on the sales document are to be shipped by default.;
                           ENG=Specifies the location from where inventory items to the customer on the sales document are to be shipped by default.];
                ApplicationArea=#Location;
                SourceExpr="Location Code" }

    { 99  ;2   ;Field     ;
                ToolTipML=[ENU=Specifies the name of the salesperson who is assigned to the customer.;
                           ENG=Specifies the name of the salesperson who is assigned to the customer.];
                ApplicationArea=#Suite;
                SourceExpr="Salesperson Code";
                Visible=FALSE }

    { 21  ;2   ;Field     ;
                ToolTipML=[ENU=Specifies the ID of the user who is responsible for the document.;
                           ENG=Specifies the ID of the user who is responsible for the document.];
                ApplicationArea=#Advanced;
                SourceExpr="Assigned User ID" }

    { 11  ;2   ;Field     ;
                ToolTipML=[ENU=Specifies the currency of amounts on the sales document.;
                           ENG=Specifies the currency of amounts on the sales document.];
                ApplicationArea=#Suite;
                SourceExpr="Currency Code";
                Visible=FALSE }

    { 1102601025;2;Field  ;
                ToolTipML=[ENU=Specifies the date when the related document was created.;
                           ENG=Specifies the date when the related document was created.];
                ApplicationArea=#Basic,#Suite;
                SourceExpr="Document Date" }

    { 1102601027;2;Field  ;
                ToolTipML=[ENU=Specifies the date that the customer has asked for the order to be delivered.;
                           ENG=Specifies the date that the customer has asked for the order to be delivered.];
                ApplicationArea=#Basic,#Suite;
                SourceExpr="Requested Delivery Date";
                Visible=FALSE }

    { 1102601005;2;Field  ;
                ToolTipML=[ENU=Specifies the campaign number the document is linked to.;
                           ENG=Specifies the campaign number the document is linked to.];
                ApplicationArea=#RelationshipMgmt;
                SourceExpr="Campaign No.";
                Visible=FALSE }

    { 1102601029;2;Field  ;
                ToolTipML=[ENU=Specifies whether the document is open, waiting to be approved, has been invoiced for prepayment, or has been released to the next stage of processing.;
                           ENG=Specifies whether the document is open, waiting to be approved, has been invoiced for prepayment, or has been released to the next stage of processing.];
                ApplicationArea=#Advanced;
                SourceExpr=Status }

    { 1102601039;2;Field  ;
                ToolTipML=[ENU=Specifies a formula that calculates the payment due date, payment discount date, and payment discount amount.;
                           ENG=Specifies a formula that calculates the payment due date, payment discount date, and payment discount amount.];
                ApplicationArea=#Basic,#Suite;
                SourceExpr="Payment Terms Code";
                Visible=FALSE }

    { 1102601041;2;Field  ;
                ToolTipML=[ENU=Specifies when the sales invoice must be paid.;
                           ENG=Specifies when the sales invoice must be paid.];
                ApplicationArea=#Basic,#Suite;
                SourceExpr="Due Date";
                Visible=FALSE }

    { 1102601054;2;Field  ;
                ToolTipML=[ENU=Specifies the payment discount percentage that is granted if the customer pays on or before the date entered in the Pmt. Discount Date field. The discount percentage is specified in the Payment Terms Code field.;
                           ENG=Specifies the payment discount percentage that is granted if the customer pays on or before the date entered in the Pmt. Discount Date field. The discount percentage is specified in the Payment Terms Code field.];
                ApplicationArea=#Basic,#Suite;
                SourceExpr="Payment Discount %";
                Visible=FALSE }

    { 1102601035;2;Field  ;
                ToolTipML=[ENU=Specifies the delivery conditions of the related shipment, such as free on board (FOB).;
                           ENG=Specifies the delivery conditions of the related shipment, such as free on board (FOB).];
                ApplicationArea=#Basic,#Suite;
                SourceExpr="Shipment Method Code";
                Visible=FALSE }

    { 1102601033;2;Field  ;
                ToolTipML=[ENU=Specifies the code for the shipping agent who is transporting the items.;
                           ENG=Specifies the code for the shipping agent who is transporting the items.];
                ApplicationArea=#Suite;
                SourceExpr="Shipping Agent Code";
                Visible=FALSE }

    { 14  ;2   ;Field     ;
                ToolTipML=[ENU=Specifies the code for the service, such as a one-day delivery, that is offered by the shipping agent.;
                           ENG=Specifies the code for the service, such as a one-day delivery, that is offered by the shipping agent.];
                ApplicationArea=#Suite;
                SourceExpr="Shipping Agent Service Code";
                Visible=FALSE }

    { 26  ;2   ;Field     ;
                ToolTipML=[ENU=Specifies the shipping agent's package number.;
                           ENG=Specifies the shipping agent's package number.];
                ApplicationArea=#Suite;
                SourceExpr="Package Tracking No.";
                Visible=FALSE }

    { 1102601031;2;Field  ;
                ToolTipML=[ENU=Specifies when items on the document are shipped or were shipped. A shipment date is usually calculated from a requested delivery date plus lead time.;
                           ENG=Specifies when items on the document are shipped or were shipped. A shipment date is usually calculated from a requested delivery date plus lead time.];
                ApplicationArea=#Advanced;
                SourceExpr="Shipment Date";
                Visible=FALSE }

    { 1102601037;2;Field  ;
                ToolTipML=[ENU=Specifies if the customer accepts partial shipment of orders.;
                           ENG=Specifies if the customer accepts partial shipment of orders.];
                ApplicationArea=#Advanced;
                SourceExpr="Shipping Advice";
                Visible=FALSE }

    { 16  ;2   ;Field     ;
                ToolTipML=[ENU=Specifies whether all the items on the order have been shipped or, in the case of inbound items, completely received.;
                           ENG=Specifies whether all the items on the order have been shipped or, in the case of inbound items, completely received.];
                ApplicationArea=#Basic,#Suite;
                SourceExpr="Completely Shipped" }

    { 5   ;2   ;Field     ;
                ToolTipML=[ENU=Specifies the status of a job queue entry or task that handles the posting of sales orders.;
                           ENG=Specifies the status of a job queue entry or task that handles the posting of sales orders.];
                ApplicationArea=#All;
                SourceExpr="Job Queue Status";
                Visible=JobQueueActive }

    { 34  ;2   ;Field     ;
                ToolTipML=[ENU=Specifies the sum, in LCY, for items that have been shipped but not yet been invoiced. The amount is calculated as Amount Including VAT x Qty. Shipped Not Invoiced / Quantity.;
                           ENG=Specifies the sum, in LCY, for items that have been shipped but not yet been invoiced. The amount is calculated as Amount Including VAT x Qty. Shipped Not Invoiced / Quantity.];
                ApplicationArea=#Basic,#Suite;
                SourceExpr="Amt. Ship. Not Inv. (LCY) Base" }

    { 36  ;2   ;Field     ;
                ToolTipML=[ENU=Specifies the sum, in LCY, for items that have been shipped but not yet been invoiced. The amount is calculated as Amount Including VAT x Qty. Shipped Not Invoiced / Quantity.;
                           ENG=Specifies the sum, in LCY, for items that have been shipped but not yet been invoiced. The amount is calculated as Amount Including VAT x Qty. Shipped Not Invoiced / Quantity.];
                ApplicationArea=#Basic,#Suite;
                SourceExpr="Amt. Ship. Not Inv. (LCY)" }

    { 28  ;2   ;Field     ;
                ToolTipML=[ENU=Specifies the sum of amounts in the Line Amount field on the sales order lines.;
                           ENG=Specifies the sum of amounts in the Line Amount field on the sales order lines.];
                ApplicationArea=#Basic,#Suite;
                SourceExpr=Amount }

    { 30  ;2   ;Field     ;
                ToolTipML=[ENU=Specifies the total of the amounts, including VAT, on all the lines on the document.;
                           ENG=Specifies the total of the amounts, including VAT, on all the lines on the document.];
                ApplicationArea=#Basic,#Suite;
                SourceExpr="Amount Including VAT" }

    { 1900000007;0;Container;
                ContainerType=FactBoxArea }

    { 37  ;1   ;Part      ;
                Name=Power BI Report FactBox;
                CaptionML=[ENU=Power BI Reports;
                           ENG=Power BI Reports];
                ApplicationArea=#Basic,#Suite;
                PagePartID=Page6306;
                Visible=PowerBIVisible;
                PartType=Page }

    { 1902018507;1;Part   ;
                ApplicationArea=#Basic,#Suite;
                SubPageLink=No.=FIELD(Bill-to Customer No.),
                            Date Filter=FIELD(Date Filter);
                PagePartID=Page9082;
                PartType=Page }

    { 1900316107;1;Part   ;
                ApplicationArea=#Basic,#Suite;
                SubPageLink=No.=FIELD(Bill-to Customer No.),
                            Date Filter=FIELD(Date Filter);
                PagePartID=Page9084;
                PartType=Page }

    { 20  ;1   ;Part      ;
                Name=IncomingDocAttachFactBox;
                ApplicationArea=#Basic,#Suite;
                PagePartID=Page193;
                Visible=FALSE;
                PartType=Page;
                ShowFilter=No }

    { 1900383207;1;Part   ;
                Visible=FALSE;
                PartType=System;
                SystemPartID=RecordLinks }

    { 1905767507;1;Part   ;
                PartType=System;
                SystemPartID=Notes }

  }
  CODE
  {
    VAR
      ApplicationAreaSetup@1007 : Record 9178;
      PowerBIUserConfiguration@1011 : Record 6304;
      SetPowerBIUserConfig@1010 : Codeunit 6305;
      DocPrint@1013 : Codeunit 229;
      ReportPrint@1012 : Codeunit 228;
      UserMgt@1009 : Codeunit 5700;
      Usage@1008 : 'Order Confirmation,Work Order,Pick Instruction';
      JobQueueActive@1006 : Boolean INDATASET;
      OpenApprovalEntriesExist@1005 : Boolean;
      CRMIntegrationEnabled@1004 : Boolean;
      IsOfficeAddin@1003 : Boolean;
      CanCancelApprovalForRecord@1002 : Boolean;
      SkipLinesWithoutVAT@1001 : Boolean;
      PowerBIVisible@1014 : Boolean;
      ReadyToPostQst@1000 : TextConst '@@@=%1 - selected count, %2 - total count;ENU=%1 out of %2 selected orders are ready for post. \Do you want to continue and post them?;ENG=%1 out of %2 selected orders are ready for post. \Do you want to continue and post them?';
      CanRequestApprovalForFlow@1015 : Boolean;
      CanCancelApprovalForFlow@1016 : Boolean;

    [Internal]
    PROCEDURE ShowPreview@1();
    VAR
      SalesPostYesNo@1001 : Codeunit 81;
    BEGIN
      SalesPostYesNo.Preview(Rec);
    END;

    LOCAL PROCEDURE SetControlVisibility@5();
    VAR
      ApprovalsMgmt@1000 : Codeunit 1535;
      WorkflowWebhookManagement@1001 : Codeunit 1543;
    BEGIN
      OpenApprovalEntriesExist := ApprovalsMgmt.HasOpenApprovalEntries(RECORDID);

      CanCancelApprovalForRecord := ApprovalsMgmt.CanCancelApprovalForRecord(RECORDID);

      WorkflowWebhookManagement.GetCanRequestAndCanCancel(RECORDID,CanRequestApprovalForFlow,CanCancelApprovalForFlow);
    END;

    LOCAL PROCEDURE Post@4(PostingCodeunitID@1000 : Integer);
    VAR
      LinesInstructionMgt@1002 : Codeunit 1320;
    BEGIN
      IF ApplicationAreaSetup.IsFoundationEnabled THEN
        LinesInstructionMgt.SalesCheckAllLinesHaveQuantityAssigned(Rec);

      SendToPosting(PostingCodeunitID);

      CurrPage.UPDATE(FALSE);
    END;

    [External]
    PROCEDURE SkipShowingLinesWithoutVAT@2();
    BEGIN
      SkipLinesWithoutVAT := TRUE;
    END;

    LOCAL PROCEDURE ShowHeader@6() : Boolean;
    VAR
      CashFlowManagement@1000 : Codeunit 841;
    BEGIN
      IF NOT SkipLinesWithoutVAT THEN
        EXIT(TRUE);

      EXIT(CashFlowManagement.GetTaxAmountFromSalesOrder(Rec) <> 0);
    END;

    BEGIN
    END.
  }
}

