OBJECT Page 9259 Contr. Gain/Loss (Grps) Matrix
{
  OBJECT-PROPERTIES
  {
    Date=22/11/17;
    Time=12:00:00;
    Version List=NAVW111.00;
  }
  PROPERTIES
  {
    Editable=No;
    CaptionML=[ENU=Contr. Gain/Loss (Groups) Matrix;
               ENG=Contr. Gain/Loss (Groups) Matrix];
    LinksAllowed=No;
    SourceTable=Table2000000007;
    PageType=List;
    OnInit=BEGIN
             Field32Visible := TRUE;
             Field31Visible := TRUE;
             Field30Visible := TRUE;
             Field29Visible := TRUE;
             Field28Visible := TRUE;
             Field27Visible := TRUE;
             Field26Visible := TRUE;
             Field25Visible := TRUE;
             Field24Visible := TRUE;
             Field23Visible := TRUE;
             Field22Visible := TRUE;
             Field21Visible := TRUE;
             Field20Visible := TRUE;
             Field19Visible := TRUE;
             Field18Visible := TRUE;
             Field17Visible := TRUE;
             Field16Visible := TRUE;
             Field15Visible := TRUE;
             Field14Visible := TRUE;
             Field13Visible := TRUE;
             Field12Visible := TRUE;
             Field11Visible := TRUE;
             Field10Visible := TRUE;
             Field9Visible := TRUE;
             Field8Visible := TRUE;
             Field7Visible := TRUE;
             Field6Visible := TRUE;
             Field5Visible := TRUE;
             Field4Visible := TRUE;
             Field3Visible := TRUE;
             Field2Visible := TRUE;
             Field1Visible := TRUE;
           END;

    OnOpenPage=BEGIN
                 StartFilter := FORMAT(PeriodStart) + '..';
                 SETFILTER("Period Start",StartFilter);
                 MATRIX_CurrentNoOfMatrixColumn := 32;
               END;

    OnFindRecord=BEGIN
                   EXIT(PeriodFormMgt.FindDate(Which,Rec,PeriodType));
                 END;

    OnNextRecord=BEGIN
                   EXIT(PeriodFormMgt.NextDate(Steps,Rec,PeriodType));
                 END;

    OnAfterGetRecord=VAR
                       MATRIX_CurrentColumnOrdinal@1043 : Integer;
                     BEGIN
                       SetDateFilter;
                       CalculateTotals;
                       MATRIX_CurrentColumnOrdinal := 0;
                       WHILE MATRIX_CurrentColumnOrdinal < MATRIX_CurrentNoOfMatrixColumn DO BEGIN
                         MATRIX_CurrentColumnOrdinal := MATRIX_CurrentColumnOrdinal + 1;
                         MATRIX_OnAfterGetRecord(MATRIX_CurrentColumnOrdinal);
                       END;
                     END;

    OnAfterGetCurrRecord=BEGIN
                           SetDateFilter;
                           CalculateTotals;
                         END;

  }
  CONTROLS
  {
    { 1900000001;0;Container;
                ContainerType=ContentArea }

    { 1   ;1   ;Group     ;
                GroupType=Repeater }

    { 6   ;2   ;Field     ;
                CaptionML=[ENU=Period Start;
                           ENG=Period Start];
                ToolTipML=[ENU=Specifies the starting date of the period that you want to view.;
                           ENG=Specifies the starting date of the period that you want to view.];
                ApplicationArea=#Service;
                SourceExpr="Period Start" }

    { 2   ;2   ;Field     ;
                CaptionML=[ENU=Period Name;
                           ENG=Period Name];
                ToolTipML=[ENU=Specifies the name of the period shown in the line.;
                           ENG=Specifies the name of the period shown in the line.];
                ApplicationArea=#Service;
                SourceExpr="Period Name" }

    { 12  ;2   ;Field     ;
                CaptionML=[ENU=Total Movement;
                           ENG=Total Movement];
                ToolTipML=[ENU=Specifies the total change in annual amount on the service contract.;
                           ENG=Specifies the total change in annual amount on the service contract.];
                ApplicationArea=#Service;
                BlankZero=Yes;
                SourceExpr=TotalGainLoss;
                OnDrillDown=BEGIN
                              CLEAR(ContractGainLossEntry);
                              ContractGainLossEntry.SETCURRENTKEY("Contract Group Code","Change Date");
                              IF GroupFilter <> '' THEN
                                ContractGainLossEntry.SETRANGE("Contract Group Code",GroupFilter);
                              IF AmountType = AmountType::"Net Change" THEN
                                ContractGainLossEntry.SETRANGE("Change Date","Period Start","Period End")
                              ELSE
                                ContractGainLossEntry.SETRANGE("Change Date",0D,"Period End");
                              PAGE.RUN(0,ContractGainLossEntry);
                            END;
                             }

    { 1011;2   ;Field     ;
                Name=Field1;
                DrillDown=Yes;
                ApplicationArea=#Service;
                SourceExpr=MATRIX_CellData[1];
                CaptionClass='3,' + MATRIX_CaptionSet[1];
                Visible=Field1Visible;
                OnDrillDown=BEGIN
                              MATRIX_OnDrillDown(1);
                            END;
                             }

    { 1012;2   ;Field     ;
                Name=Field2;
                DrillDown=Yes;
                ApplicationArea=#Service;
                SourceExpr=MATRIX_CellData[2];
                CaptionClass='3,' + MATRIX_CaptionSet[2];
                Visible=Field2Visible;
                OnDrillDown=BEGIN
                              MATRIX_OnDrillDown(2);
                            END;
                             }

    { 1013;2   ;Field     ;
                Name=Field3;
                DrillDown=Yes;
                ApplicationArea=#Service;
                SourceExpr=MATRIX_CellData[3];
                CaptionClass='3,' + MATRIX_CaptionSet[3];
                Visible=Field3Visible;
                OnDrillDown=BEGIN
                              MATRIX_OnDrillDown(3);
                            END;
                             }

    { 1014;2   ;Field     ;
                Name=Field4;
                DrillDown=Yes;
                ApplicationArea=#Service;
                SourceExpr=MATRIX_CellData[4];
                CaptionClass='3,' + MATRIX_CaptionSet[4];
                Visible=Field4Visible;
                OnDrillDown=BEGIN
                              MATRIX_OnDrillDown(4);
                            END;
                             }

    { 1015;2   ;Field     ;
                Name=Field5;
                DrillDown=Yes;
                ApplicationArea=#Service;
                SourceExpr=MATRIX_CellData[5];
                CaptionClass='3,' + MATRIX_CaptionSet[5];
                Visible=Field5Visible;
                OnDrillDown=BEGIN
                              MATRIX_OnDrillDown(5);
                            END;
                             }

    { 1016;2   ;Field     ;
                Name=Field6;
                DrillDown=Yes;
                ApplicationArea=#Service;
                SourceExpr=MATRIX_CellData[6];
                CaptionClass='3,' + MATRIX_CaptionSet[6];
                Visible=Field6Visible;
                OnDrillDown=BEGIN
                              MATRIX_OnDrillDown(6);
                            END;
                             }

    { 1017;2   ;Field     ;
                Name=Field7;
                DrillDown=Yes;
                ApplicationArea=#Service;
                SourceExpr=MATRIX_CellData[7];
                CaptionClass='3,' + MATRIX_CaptionSet[7];
                Visible=Field7Visible;
                OnDrillDown=BEGIN
                              MATRIX_OnDrillDown(7);
                            END;
                             }

    { 1018;2   ;Field     ;
                Name=Field8;
                DrillDown=Yes;
                ApplicationArea=#Service;
                SourceExpr=MATRIX_CellData[8];
                CaptionClass='3,' + MATRIX_CaptionSet[8];
                Visible=Field8Visible;
                OnDrillDown=BEGIN
                              MATRIX_OnDrillDown(8);
                            END;
                             }

    { 1019;2   ;Field     ;
                Name=Field9;
                DrillDown=Yes;
                ApplicationArea=#Service;
                SourceExpr=MATRIX_CellData[9];
                CaptionClass='3,' + MATRIX_CaptionSet[9];
                Visible=Field9Visible;
                OnDrillDown=BEGIN
                              MATRIX_OnDrillDown(9);
                            END;
                             }

    { 1020;2   ;Field     ;
                Name=Field10;
                DrillDown=Yes;
                ApplicationArea=#Service;
                SourceExpr=MATRIX_CellData[10];
                CaptionClass='3,' + MATRIX_CaptionSet[10];
                Visible=Field10Visible;
                OnDrillDown=BEGIN
                              MATRIX_OnDrillDown(10);
                            END;
                             }

    { 1021;2   ;Field     ;
                Name=Field11;
                DrillDown=Yes;
                ApplicationArea=#Service;
                SourceExpr=MATRIX_CellData[11];
                CaptionClass='3,' + MATRIX_CaptionSet[11];
                Visible=Field11Visible;
                OnDrillDown=BEGIN
                              MATRIX_OnDrillDown(11);
                            END;
                             }

    { 1022;2   ;Field     ;
                Name=Field12;
                DrillDown=Yes;
                ApplicationArea=#Service;
                SourceExpr=MATRIX_CellData[12];
                CaptionClass='3,' + MATRIX_CaptionSet[12];
                Visible=Field12Visible;
                OnDrillDown=BEGIN
                              MATRIX_OnDrillDown(12);
                            END;
                             }

    { 1023;2   ;Field     ;
                Name=Field13;
                DrillDown=Yes;
                ApplicationArea=#Service;
                SourceExpr=MATRIX_CellData[13];
                CaptionClass='3,' + MATRIX_CaptionSet[13];
                Visible=Field13Visible;
                OnDrillDown=BEGIN
                              MATRIX_OnDrillDown(13);
                            END;
                             }

    { 1024;2   ;Field     ;
                Name=Field14;
                DrillDown=Yes;
                ApplicationArea=#Service;
                SourceExpr=MATRIX_CellData[14];
                CaptionClass='3,' + MATRIX_CaptionSet[14];
                Visible=Field14Visible;
                OnDrillDown=BEGIN
                              MATRIX_OnDrillDown(14);
                            END;
                             }

    { 1025;2   ;Field     ;
                Name=Field15;
                DrillDown=Yes;
                ApplicationArea=#Service;
                SourceExpr=MATRIX_CellData[15];
                CaptionClass='3,' + MATRIX_CaptionSet[15];
                Visible=Field15Visible;
                OnDrillDown=BEGIN
                              MATRIX_OnDrillDown(15);
                            END;
                             }

    { 1026;2   ;Field     ;
                Name=Field16;
                DrillDown=Yes;
                ApplicationArea=#Service;
                SourceExpr=MATRIX_CellData[16];
                CaptionClass='3,' + MATRIX_CaptionSet[16];
                Visible=Field16Visible;
                OnDrillDown=BEGIN
                              MATRIX_OnDrillDown(16);
                            END;
                             }

    { 1027;2   ;Field     ;
                Name=Field17;
                DrillDown=Yes;
                ApplicationArea=#Service;
                SourceExpr=MATRIX_CellData[17];
                CaptionClass='3,' + MATRIX_CaptionSet[17];
                Visible=Field17Visible;
                OnDrillDown=BEGIN
                              MATRIX_OnDrillDown(17);
                            END;
                             }

    { 1028;2   ;Field     ;
                Name=Field18;
                DrillDown=Yes;
                ApplicationArea=#Service;
                SourceExpr=MATRIX_CellData[18];
                CaptionClass='3,' + MATRIX_CaptionSet[18];
                Visible=Field18Visible;
                OnDrillDown=BEGIN
                              MATRIX_OnDrillDown(18);
                            END;
                             }

    { 1029;2   ;Field     ;
                Name=Field19;
                DrillDown=Yes;
                ApplicationArea=#Service;
                SourceExpr=MATRIX_CellData[19];
                CaptionClass='3,' + MATRIX_CaptionSet[19];
                Visible=Field19Visible;
                OnDrillDown=BEGIN
                              MATRIX_OnDrillDown(19);
                            END;
                             }

    { 1030;2   ;Field     ;
                Name=Field20;
                DrillDown=Yes;
                ApplicationArea=#Service;
                SourceExpr=MATRIX_CellData[20];
                CaptionClass='3,' + MATRIX_CaptionSet[20];
                Visible=Field20Visible;
                OnDrillDown=BEGIN
                              MATRIX_OnDrillDown(20);
                            END;
                             }

    { 1031;2   ;Field     ;
                Name=Field21;
                DrillDown=Yes;
                ApplicationArea=#Service;
                SourceExpr=MATRIX_CellData[21];
                CaptionClass='3,' + MATRIX_CaptionSet[21];
                Visible=Field21Visible;
                OnDrillDown=BEGIN
                              MATRIX_OnDrillDown(21);
                            END;
                             }

    { 1032;2   ;Field     ;
                Name=Field22;
                DrillDown=Yes;
                ApplicationArea=#Service;
                SourceExpr=MATRIX_CellData[22];
                CaptionClass='3,' + MATRIX_CaptionSet[22];
                Visible=Field22Visible;
                OnDrillDown=BEGIN
                              MATRIX_OnDrillDown(22);
                            END;
                             }

    { 1033;2   ;Field     ;
                Name=Field23;
                DrillDown=Yes;
                ApplicationArea=#Service;
                SourceExpr=MATRIX_CellData[23];
                CaptionClass='3,' + MATRIX_CaptionSet[23];
                Visible=Field23Visible;
                OnDrillDown=BEGIN
                              MATRIX_OnDrillDown(23);
                            END;
                             }

    { 1034;2   ;Field     ;
                Name=Field24;
                DrillDown=Yes;
                ApplicationArea=#Service;
                SourceExpr=MATRIX_CellData[24];
                CaptionClass='3,' + MATRIX_CaptionSet[24];
                Visible=Field24Visible;
                OnDrillDown=BEGIN
                              MATRIX_OnDrillDown(24);
                            END;
                             }

    { 1035;2   ;Field     ;
                Name=Field25;
                DrillDown=Yes;
                ApplicationArea=#Service;
                SourceExpr=MATRIX_CellData[25];
                CaptionClass='3,' + MATRIX_CaptionSet[25];
                Visible=Field25Visible;
                OnDrillDown=BEGIN
                              MATRIX_OnDrillDown(25);
                            END;
                             }

    { 1036;2   ;Field     ;
                Name=Field26;
                DrillDown=Yes;
                ApplicationArea=#Service;
                SourceExpr=MATRIX_CellData[26];
                CaptionClass='3,' + MATRIX_CaptionSet[26];
                Visible=Field26Visible;
                OnDrillDown=BEGIN
                              MATRIX_OnDrillDown(26);
                            END;
                             }

    { 1037;2   ;Field     ;
                Name=Field27;
                DrillDown=Yes;
                ApplicationArea=#Service;
                SourceExpr=MATRIX_CellData[27];
                CaptionClass='3,' + MATRIX_CaptionSet[27];
                Visible=Field27Visible;
                OnDrillDown=BEGIN
                              MATRIX_OnDrillDown(27);
                            END;
                             }

    { 1038;2   ;Field     ;
                Name=Field28;
                DrillDown=Yes;
                ApplicationArea=#Service;
                SourceExpr=MATRIX_CellData[28];
                CaptionClass='3,' + MATRIX_CaptionSet[28];
                Visible=Field28Visible;
                OnDrillDown=BEGIN
                              MATRIX_OnDrillDown(28);
                            END;
                             }

    { 1039;2   ;Field     ;
                Name=Field29;
                DrillDown=Yes;
                ApplicationArea=#Service;
                SourceExpr=MATRIX_CellData[29];
                CaptionClass='3,' + MATRIX_CaptionSet[29];
                Visible=Field29Visible;
                OnDrillDown=BEGIN
                              MATRIX_OnDrillDown(29);
                            END;
                             }

    { 1040;2   ;Field     ;
                Name=Field30;
                DrillDown=Yes;
                ApplicationArea=#Service;
                SourceExpr=MATRIX_CellData[30];
                CaptionClass='3,' + MATRIX_CaptionSet[30];
                Visible=Field30Visible;
                OnDrillDown=BEGIN
                              MATRIX_OnDrillDown(30);
                            END;
                             }

    { 1041;2   ;Field     ;
                Name=Field31;
                DrillDown=Yes;
                ApplicationArea=#Service;
                SourceExpr=MATRIX_CellData[31];
                CaptionClass='3,' + MATRIX_CaptionSet[31];
                Visible=Field31Visible;
                OnDrillDown=BEGIN
                              MATRIX_OnDrillDown(31);
                            END;
                             }

    { 1042;2   ;Field     ;
                Name=Field32;
                DrillDown=Yes;
                ApplicationArea=#Service;
                SourceExpr=MATRIX_CellData[32];
                CaptionClass='3,' + MATRIX_CaptionSet[32];
                Visible=Field32Visible;
                OnDrillDown=BEGIN
                              MATRIX_OnDrillDown(32);
                            END;
                             }

  }
  CODE
  {
    VAR
      ContractGr@1079 : Record 5966;
      ContractGainLossEntry@1080 : Record 5969;
      MatrixRecords@1002 : ARRAY [32] OF Record 5966;
      PeriodFormMgt@1081 : Codeunit 359;
      AmountType@1083 : 'Net Change,Balance at Date';
      PeriodType@1084 : 'Day,Week,Month,Quarter,Year,Accounting Period';
      GroupFilter@1085 : Text[250];
      TotalGainLoss@1086 : Decimal;
      PeriodStart@1087 : Date;
      MATRIX_CurrentNoOfMatrixColumn@1089 : Integer;
      MATRIX_CellData@1090 : ARRAY [32] OF Text[80];
      MATRIX_CaptionSet@1091 : ARRAY [32] OF Text[80];
      StartFilter@1000 : Text[1024];
      Text000@1001 : TextConst 'ENU=<Sign><Integer Thousand><Decimals,3>;ENG=<Sign><Integer Thousand><Decimals,3>';
      Field1Visible@19069335 : Boolean INDATASET;
      Field2Visible@19014807 : Boolean INDATASET;
      Field3Visible@19062679 : Boolean INDATASET;
      Field4Visible@19074839 : Boolean INDATASET;
      Field5Visible@19043543 : Boolean INDATASET;
      Field6Visible@19067287 : Boolean INDATASET;
      Field7Visible@19067863 : Boolean INDATASET;
      Field8Visible@19039959 : Boolean INDATASET;
      Field9Visible@19008663 : Boolean INDATASET;
      Field10Visible@19006501 : Boolean INDATASET;
      Field11Visible@19052468 : Boolean INDATASET;
      Field12Visible@19013039 : Boolean INDATASET;
      Field13Visible@19079726 : Boolean INDATASET;
      Field14Visible@19077225 : Boolean INDATASET;
      Field15Visible@19035896 : Boolean INDATASET;
      Field16Visible@19003763 : Boolean INDATASET;
      Field17Visible@19049730 : Boolean INDATASET;
      Field18Visible@19007213 : Boolean INDATASET;
      Field19Visible@19053180 : Boolean INDATASET;
      Field20Visible@19014629 : Boolean INDATASET;
      Field21Visible@19060596 : Boolean INDATASET;
      Field22Visible@19021167 : Boolean INDATASET;
      Field23Visible@19047854 : Boolean INDATASET;
      Field24Visible@19045353 : Boolean INDATASET;
      Field25Visible@19004024 : Boolean INDATASET;
      Field26Visible@19011891 : Boolean INDATASET;
      Field27Visible@19057858 : Boolean INDATASET;
      Field28Visible@19015341 : Boolean INDATASET;
      Field29Visible@19061308 : Boolean INDATASET;
      Field30Visible@19010597 : Boolean INDATASET;
      Field31Visible@19056564 : Boolean INDATASET;
      Field32Visible@19017135 : Boolean INDATASET;

    LOCAL PROCEDURE SetDateFilter@1092();
    BEGIN
      IF AmountType = AmountType::"Net Change" THEN
        ContractGr.SETRANGE("Date Filter","Period Start","Period End")
      ELSE
        ContractGr.SETRANGE("Date Filter",PeriodStart,"Period End");
    END;

    LOCAL PROCEDURE CalculateMovement@1093(GroupCode@1000 : Code[10]) : Decimal;
    BEGIN
      IF ContractGr.GET(GroupCode) THEN BEGIN
        SetDateFilter;
        ContractGr.CALCFIELDS("Contract Gain/Loss Amount");
        EXIT(ContractGr."Contract Gain/Loss Amount");
      END;
      EXIT(0);
    END;

    LOCAL PROCEDURE CalculateTotals@1094();
    BEGIN
      ContractGainLossEntry.RESET;
      ContractGainLossEntry.SETCURRENTKEY("Contract Group Code","Change Date");
      ContractGainLossEntry.SETFILTER("Contract Group Code",GroupFilter);
      IF AmountType = AmountType::"Net Change" THEN
        ContractGainLossEntry.SETRANGE("Change Date","Period Start","Period End")
      ELSE
        ContractGainLossEntry.SETRANGE("Change Date",PeriodStart,"Period End");
      ContractGainLossEntry.CALCSUMS(Amount);
      TotalGainLoss := ContractGainLossEntry.Amount;
    END;

    [External]
    PROCEDURE Load@1095(MatrixColumns1@1005 : ARRAY [32] OF Text[1024];VAR MatrixRecords1@1006 : ARRAY [32] OF Record 5966;CurrentNoOfMatrixColumns@1007 : Integer;AmountTypeLocal@1008 : 'Net Change,Balance at Date';PeriodTypeLocal@1004 : 'Day,Week,Month,Quarter,Year';GroupFilterLocal@1003 : Text[250];PeriodStartLocal@1000 : Date);
    BEGIN
      COPYARRAY(MATRIX_CaptionSet,MatrixColumns1,1);
      COPYARRAY(MatrixRecords,MatrixRecords1,1);
      MATRIX_CurrentNoOfMatrixColumn := CurrentNoOfMatrixColumns;
      PeriodType := PeriodTypeLocal;
      AmountType := AmountTypeLocal;
      GroupFilter := GroupFilterLocal;
      PeriodStart := PeriodStartLocal;
    END;

    LOCAL PROCEDURE MATRIX_OnDrillDown@1096(MATRIX_ColumnOrdinal@1008 : Integer);
    BEGIN
      ContractGainLossEntry.RESET;
      ContractGainLossEntry.SETCURRENTKEY("Contract Group Code","Change Date");
      ContractGainLossEntry.SETRANGE("Contract Group Code",MatrixRecords[MATRIX_ColumnOrdinal].Code);
      IF AmountType = AmountType::"Net Change" THEN
        ContractGainLossEntry.SETRANGE("Change Date","Period Start","Period End")
      ELSE
        ContractGainLossEntry.SETRANGE("Change Date",0D,"Period End");

      PAGE.RUN(0,ContractGainLossEntry);
    END;

    LOCAL PROCEDURE MATRIX_OnAfterGetRecord@1(Ordinal@1000 : Integer);
    VAR
      Amount@1002 : Decimal;
    BEGIN
      Amount := CalculateMovement(MatrixRecords[Ordinal].Code);

      IF Amount = 0 THEN
        MATRIX_CellData[Ordinal] := ''
      ELSE
        MATRIX_CellData[Ordinal] := FORMAT(Amount,0,Text000);
      SetVisible;
    END;

    [External]
    PROCEDURE SetVisible@6();
    BEGIN
      Field1Visible := MATRIX_CaptionSet[1] <> '';
      Field2Visible := MATRIX_CaptionSet[2] <> '';
      Field3Visible := MATRIX_CaptionSet[3] <> '';
      Field4Visible := MATRIX_CaptionSet[4] <> '';
      Field5Visible := MATRIX_CaptionSet[5] <> '';
      Field6Visible := MATRIX_CaptionSet[6] <> '';
      Field7Visible := MATRIX_CaptionSet[7] <> '';
      Field8Visible := MATRIX_CaptionSet[8] <> '';
      Field9Visible := MATRIX_CaptionSet[9] <> '';
      Field10Visible := MATRIX_CaptionSet[10] <> '';
      Field11Visible := MATRIX_CaptionSet[11] <> '';
      Field12Visible := MATRIX_CaptionSet[12] <> '';
      Field13Visible := MATRIX_CaptionSet[13] <> '';
      Field14Visible := MATRIX_CaptionSet[14] <> '';
      Field15Visible := MATRIX_CaptionSet[15] <> '';
      Field16Visible := MATRIX_CaptionSet[16] <> '';
      Field17Visible := MATRIX_CaptionSet[17] <> '';
      Field18Visible := MATRIX_CaptionSet[18] <> '';
      Field19Visible := MATRIX_CaptionSet[19] <> '';
      Field20Visible := MATRIX_CaptionSet[20] <> '';
      Field21Visible := MATRIX_CaptionSet[21] <> '';
      Field22Visible := MATRIX_CaptionSet[22] <> '';
      Field23Visible := MATRIX_CaptionSet[23] <> '';
      Field24Visible := MATRIX_CaptionSet[24] <> '';
      Field25Visible := MATRIX_CaptionSet[25] <> '';
      Field26Visible := MATRIX_CaptionSet[26] <> '';
      Field27Visible := MATRIX_CaptionSet[27] <> '';
      Field28Visible := MATRIX_CaptionSet[28] <> '';
      Field29Visible := MATRIX_CaptionSet[29] <> '';
      Field30Visible := MATRIX_CaptionSet[30] <> '';
      Field31Visible := MATRIX_CaptionSet[31] <> '';
      Field32Visible := MATRIX_CaptionSet[32] <> '';
    END;

    BEGIN
    END.
  }
}

