OBJECT Page 9277 FA Posting Types Overv. Matrix
{
  OBJECT-PROPERTIES
  {
    Date=21/12/17;
    Time=12:00:00;
    Version List=NAVW111.00.00.19846;
  }
  PROPERTIES
  {
    Editable=No;
    CaptionML=[ENU=FA Posting Types Overv. Matrix;
               ENG=FA Posting Types Overv. Matrix];
    LinksAllowed=No;
    SourceTable=Table5612;
    PageType=List;
    OnInit=BEGIN
             Field32Visible := TRUE;
             Field31Visible := TRUE;
             Field30Visible := TRUE;
             Field29Visible := TRUE;
             Field28Visible := TRUE;
             Field27Visible := TRUE;
             Field26Visible := TRUE;
             Field25Visible := TRUE;
             Field24Visible := TRUE;
             Field23Visible := TRUE;
             Field22Visible := TRUE;
             Field21Visible := TRUE;
             Field20Visible := TRUE;
             Field19Visible := TRUE;
             Field18Visible := TRUE;
             Field17Visible := TRUE;
             Field16Visible := TRUE;
             Field15Visible := TRUE;
             Field14Visible := TRUE;
             Field13Visible := TRUE;
             Field12Visible := TRUE;
             Field11Visible := TRUE;
             Field10Visible := TRUE;
             Field9Visible := TRUE;
             Field8Visible := TRUE;
             Field7Visible := TRUE;
             Field6Visible := TRUE;
             Field5Visible := TRUE;
             Field4Visible := TRUE;
             Field3Visible := TRUE;
             Field2Visible := TRUE;
             Field1Visible := TRUE;
           END;

    OnOpenPage=BEGIN
                 MATRIX_CurrentNoOfMatrixColumn := 32;
               END;

    OnAfterGetRecord=VAR
                       MATRIX_CurrentColumnOrdinal@1044 : Integer;
                     BEGIN
                       MATRIX_CurrentColumnOrdinal := 0;
                       WHILE MATRIX_CurrentColumnOrdinal < MATRIX_CurrentNoOfMatrixColumn DO BEGIN
                         MATRIX_CurrentColumnOrdinal := MATRIX_CurrentColumnOrdinal + 1;
                         MATRIX_OnAfterGetRecord(MATRIX_CurrentColumnOrdinal);
                       END;
                     END;

    ActionList=ACTIONS
    {
      { 1900000003;0 ;ActionContainer;
                      ActionContainerType=RelatedInformation }
      { 7       ;1   ;ActionGroup;
                      CaptionML=[ENU=&Related Information;
                                 ENG=&Related Information];
                      Image=RelatedInformation }
      { 8       ;2   ;Action    ;
                      ShortCutKey=Ctrl+F7;
                      CaptionML=[ENU=Ledger E&ntries;
                                 ENG=Ledger E&ntries];
                      ToolTipML=[ENU=View the history of transactions that have been posted for the selected record.;
                                 ENG=View the history of transactions that have been posted for the selected record.];
                      ApplicationArea=#FixedAssets;
                      Promoted=No;
                      Image=FixedAssetLedger;
                      OnAction=VAR
                                 FALedgEntry@1001 : Record 5601;
                               BEGIN
                                 FALedgEntry.SETRANGE("FA No.","FA No.");
                                 FALedgEntry.SETRANGE("Depreciation Book Code","Depreciation Book Code");
                                 FALedgEntry.SETCURRENTKEY("FA No.","Depreciation Book Code");

                                 PAGE.RUN(PAGE::"FA Ledger Entries",FALedgEntry);
                               END;
                                }
      { 9       ;2   ;Action    ;
                      CaptionML=[ENU=Error Ledger Entries;
                                 ENG=Error Ledger Entries];
                      ToolTipML=[ENU=View the entries that have been posted as a result of you using the cancel function to cancel an entry.;
                                 ENG=View the entries that have been posted as a result of you using the cancel function to cancel an entry.];
                      ApplicationArea=#FixedAssets;
                      Image=ErrorFALedgerEntries;
                      OnAction=VAR
                                 FALedgEntry@1000 : Record 5601;
                               BEGIN
                                 FALedgEntry.SETRANGE("Canceled from FA No.","FA No.");
                                 FALedgEntry.SETRANGE("Depreciation Book Code","Depreciation Book Code");
                                 FALedgEntry.SETCURRENTKEY("Canceled from FA No.","Depreciation Book Code");

                                 PAGE.RUN(PAGE::"FA Error Ledger Entries",FALedgEntry);
                               END;
                                }
      { 10      ;2   ;Action    ;
                      CaptionML=[ENU=Maintenance Ledger Entries;
                                 ENG=Maintenance Ledger Entries];
                      ToolTipML=[ENU=View the maintenance ledger entries for the selected fixed asset.;
                                 ENG=View the maintenance ledger entries for the selected fixed asset.];
                      ApplicationArea=#FixedAssets;
                      Image=MaintenanceLedgerEntries;
                      OnAction=VAR
                                 MaintLedgEntry@1000 : Record 5625;
                               BEGIN
                                 MaintLedgEntry.SETRANGE("FA No.","FA No.");
                                 MaintLedgEntry.SETRANGE("Depreciation Book Code","Depreciation Book Code");
                                 MaintLedgEntry.SETCURRENTKEY("FA No.","Depreciation Book Code");

                                 PAGE.RUN(PAGE::"Maintenance Ledger Entries",MaintLedgEntry);
                               END;
                                }
      { 11      ;2   ;Separator  }
      { 12      ;2   ;Action    ;
                      ShortCutKey=F7;
                      CaptionML=[ENU=Statistics;
                                 ENG=Statistics];
                      ToolTipML=[ENU=View detailed historical information about the fixed asset.;
                                 ENG=View detailed historical information about the fixed asset.];
                      ApplicationArea=#FixedAssets;
                      Promoted=Yes;
                      Image=Statistics;
                      PromotedCategory=Process;
                      OnAction=VAR
                                 FADeprBook@1000 : Record 5612;
                               BEGIN
                                 FADeprBook.SETRANGE("FA No.","FA No.");
                                 FADeprBook.SETRANGE("Depreciation Book Code","Depreciation Book Code");

                                 PAGE.RUN(PAGE::"Fixed Asset Statistics",FADeprBook);
                               END;
                                }
      { 13      ;2   ;Action    ;
                      CaptionML=[ENU=Main &Asset Statistics;
                                 ENG=Main &Asset Statistics];
                      ToolTipML=[ENU=View statistics for all the components that make up the main asset for the selected book. The left side of the General FastTab displays the main asset's book value, depreciable basis and any maintenance expenses posted to the components that comprise the main asset. The right side shows the number of components for the main asset, the first date on which an acquisition and/or disposal entry was posted to one of the assets that comprise the main asset.;
                                 ENG=View statistics for all the components that make up the main asset for the selected book. The left side of the General FastTab displays the main asset's book value, depreciable basis and any maintenance expenses posted to the components that comprise the main asset. The right side shows the number of components for the main asset, the first date on which an acquisition and/or disposal entry was posted to one of the assets that comprise the main asset.];
                      ApplicationArea=#FixedAssets;
                      Image=StatisticsDocument;
                      OnAction=VAR
                                 FADeprBook@1000 : Record 5612;
                               BEGIN
                                 FADeprBook.SETRANGE("FA No.","FA No.");
                                 FADeprBook.SETRANGE("Depreciation Book Code","Depreciation Book Code");

                                 PAGE.RUN(PAGE::"Main Asset Statistics",FADeprBook);
                               END;
                                }
    }
  }
  CONTROLS
  {
    { 1900000001;0;Container;
                ContainerType=ContentArea }

    { 1   ;1   ;Group     ;
                GroupType=Repeater }

    { 6   ;2   ;Field     ;
                ToolTipML=[ENU="Specifies the number of the related fixed asset. ";
                           ENG="Specifies the number of the related fixed asset. "];
                ApplicationArea=#FixedAssets;
                SourceExpr="FA No." }

    { 2   ;2   ;Field     ;
                CaptionML=[ENU=Depreciation Book Code;
                           ENG=Depreciation Book Code];
                ToolTipML=[ENU=Specifies a depreciation book to assign to the fixed asset you have entered in the FA No. field.;
                           ENG=Specifies a depreciation book to assign to the fixed asset you have entered in the FA No. field.];
                ApplicationArea=#FixedAssets;
                SourceExpr="Depreciation Book Code" }

    { 4   ;2   ;Field     ;
                ToolTipML=[ENU=Specifies the value in the Description field on the fixed asset card.;
                           ENG=Specifies the value in the Description field on the fixed asset card.];
                ApplicationArea=#FixedAssets;
                SourceExpr=Description }

    { 1012;2   ;Field     ;
                Name=Field1;
                DrillDown=Yes;
                ApplicationArea=#All;
                BlankZero=Yes;
                SourceExpr=MATRIX_CellData[1];
                AutoFormatType=10;
                AutoFormatExpr=FormatStr;
                CaptionClass='3,' + MATRIX_CaptionSet[1];
                Visible=Field1Visible;
                OnDrillDown=BEGIN
                              MATRIX_OnDrillDown(1);
                            END;
                             }

    { 1013;2   ;Field     ;
                Name=Field2;
                DrillDown=Yes;
                ApplicationArea=#All;
                BlankZero=Yes;
                SourceExpr=MATRIX_CellData[2];
                AutoFormatType=10;
                AutoFormatExpr=FormatStr;
                CaptionClass='3,' + MATRIX_CaptionSet[2];
                Visible=Field2Visible;
                OnDrillDown=BEGIN
                              MATRIX_OnDrillDown(2);
                            END;
                             }

    { 1014;2   ;Field     ;
                Name=Field3;
                DrillDown=Yes;
                ApplicationArea=#All;
                BlankZero=Yes;
                SourceExpr=MATRIX_CellData[3];
                AutoFormatType=10;
                AutoFormatExpr=FormatStr;
                CaptionClass='3,' + MATRIX_CaptionSet[3];
                Visible=Field3Visible;
                OnDrillDown=BEGIN
                              MATRIX_OnDrillDown(3);
                            END;
                             }

    { 1015;2   ;Field     ;
                Name=Field4;
                DrillDown=Yes;
                ApplicationArea=#All;
                BlankZero=Yes;
                SourceExpr=MATRIX_CellData[4];
                AutoFormatType=10;
                AutoFormatExpr=FormatStr;
                CaptionClass='3,' + MATRIX_CaptionSet[4];
                Visible=Field4Visible;
                OnDrillDown=BEGIN
                              MATRIX_OnDrillDown(4);
                            END;
                             }

    { 1016;2   ;Field     ;
                Name=Field5;
                DrillDown=Yes;
                ApplicationArea=#All;
                BlankZero=Yes;
                SourceExpr=MATRIX_CellData[5];
                AutoFormatType=10;
                AutoFormatExpr=FormatStr;
                CaptionClass='3,' + MATRIX_CaptionSet[5];
                Visible=Field5Visible;
                OnDrillDown=BEGIN
                              MATRIX_OnDrillDown(5);
                            END;
                             }

    { 1017;2   ;Field     ;
                Name=Field6;
                DrillDown=Yes;
                ApplicationArea=#All;
                BlankZero=Yes;
                SourceExpr=MATRIX_CellData[6];
                AutoFormatType=10;
                AutoFormatExpr=FormatStr;
                CaptionClass='3,' + MATRIX_CaptionSet[6];
                Visible=Field6Visible;
                OnDrillDown=BEGIN
                              MATRIX_OnDrillDown(6);
                            END;
                             }

    { 1018;2   ;Field     ;
                Name=Field7;
                DrillDown=Yes;
                ApplicationArea=#All;
                BlankZero=Yes;
                SourceExpr=MATRIX_CellData[7];
                AutoFormatType=10;
                AutoFormatExpr=FormatStr;
                CaptionClass='3,' + MATRIX_CaptionSet[7];
                Visible=Field7Visible;
                OnDrillDown=BEGIN
                              MATRIX_OnDrillDown(7);
                            END;
                             }

    { 1019;2   ;Field     ;
                Name=Field8;
                DrillDown=Yes;
                ApplicationArea=#All;
                BlankZero=Yes;
                SourceExpr=MATRIX_CellData[8];
                AutoFormatType=10;
                AutoFormatExpr=FormatStr;
                CaptionClass='3,' + MATRIX_CaptionSet[8];
                Visible=Field8Visible;
                OnDrillDown=BEGIN
                              MATRIX_OnDrillDown(8);
                            END;
                             }

    { 1020;2   ;Field     ;
                Name=Field9;
                DrillDown=Yes;
                ApplicationArea=#All;
                BlankZero=Yes;
                SourceExpr=MATRIX_CellData[9];
                AutoFormatType=10;
                AutoFormatExpr=FormatStr;
                CaptionClass='3,' + MATRIX_CaptionSet[9];
                Visible=Field9Visible;
                OnDrillDown=BEGIN
                              MATRIX_OnDrillDown(9);
                            END;
                             }

    { 1021;2   ;Field     ;
                Name=Field10;
                DrillDown=Yes;
                ApplicationArea=#All;
                BlankZero=Yes;
                SourceExpr=MATRIX_CellData[10];
                AutoFormatType=10;
                AutoFormatExpr=FormatStr;
                CaptionClass='3,' + MATRIX_CaptionSet[10];
                Visible=Field10Visible;
                OnDrillDown=BEGIN
                              MATRIX_OnDrillDown(10);
                            END;
                             }

    { 1022;2   ;Field     ;
                Name=Field11;
                DrillDown=Yes;
                ApplicationArea=#All;
                BlankZero=Yes;
                SourceExpr=MATRIX_CellData[11];
                AutoFormatType=10;
                AutoFormatExpr=FormatStr;
                CaptionClass='3,' + MATRIX_CaptionSet[11];
                Visible=Field11Visible;
                OnDrillDown=BEGIN
                              MATRIX_OnDrillDown(11);
                            END;
                             }

    { 1023;2   ;Field     ;
                Name=Field12;
                DrillDown=Yes;
                ApplicationArea=#All;
                BlankZero=Yes;
                SourceExpr=MATRIX_CellData[12];
                AutoFormatType=10;
                AutoFormatExpr=FormatStr;
                CaptionClass='3,' + MATRIX_CaptionSet[12];
                Visible=Field12Visible;
                OnDrillDown=BEGIN
                              MATRIX_OnDrillDown(12);
                            END;
                             }

    { 1024;2   ;Field     ;
                Name=Field13;
                DrillDown=Yes;
                ApplicationArea=#All;
                BlankZero=Yes;
                SourceExpr=MATRIX_CellData[13];
                AutoFormatType=10;
                AutoFormatExpr=FormatStr;
                CaptionClass='3,' + MATRIX_CaptionSet[13];
                Visible=Field13Visible;
                OnDrillDown=BEGIN
                              MATRIX_OnDrillDown(13);
                            END;
                             }

    { 1025;2   ;Field     ;
                Name=Field14;
                DrillDown=Yes;
                ApplicationArea=#All;
                BlankZero=Yes;
                SourceExpr=MATRIX_CellData[14];
                AutoFormatType=10;
                AutoFormatExpr=FormatStr;
                CaptionClass='3,' + MATRIX_CaptionSet[14];
                Visible=Field14Visible;
                OnDrillDown=BEGIN
                              MATRIX_OnDrillDown(14);
                            END;
                             }

    { 1026;2   ;Field     ;
                Name=Field15;
                DrillDown=Yes;
                ApplicationArea=#All;
                BlankZero=Yes;
                SourceExpr=MATRIX_CellData[15];
                AutoFormatType=10;
                AutoFormatExpr=FormatStr;
                CaptionClass='3,' + MATRIX_CaptionSet[15];
                Visible=Field15Visible;
                OnDrillDown=BEGIN
                              MATRIX_OnDrillDown(15);
                            END;
                             }

    { 1027;2   ;Field     ;
                Name=Field16;
                DrillDown=Yes;
                ApplicationArea=#All;
                BlankZero=Yes;
                SourceExpr=MATRIX_CellData[16];
                AutoFormatType=10;
                AutoFormatExpr=FormatStr;
                CaptionClass='3,' + MATRIX_CaptionSet[16];
                Visible=Field16Visible;
                OnDrillDown=BEGIN
                              MATRIX_OnDrillDown(16);
                            END;
                             }

    { 1028;2   ;Field     ;
                Name=Field17;
                DrillDown=Yes;
                ApplicationArea=#All;
                BlankZero=Yes;
                SourceExpr=MATRIX_CellData[17];
                AutoFormatType=10;
                AutoFormatExpr=FormatStr;
                CaptionClass='3,' + MATRIX_CaptionSet[17];
                Visible=Field17Visible;
                OnDrillDown=BEGIN
                              MATRIX_OnDrillDown(17);
                            END;
                             }

    { 1029;2   ;Field     ;
                Name=Field18;
                DrillDown=Yes;
                ApplicationArea=#All;
                BlankZero=Yes;
                SourceExpr=MATRIX_CellData[18];
                AutoFormatType=10;
                AutoFormatExpr=FormatStr;
                CaptionClass='3,' + MATRIX_CaptionSet[18];
                Visible=Field18Visible;
                OnDrillDown=BEGIN
                              MATRIX_OnDrillDown(18);
                            END;
                             }

    { 1030;2   ;Field     ;
                Name=Field19;
                DrillDown=Yes;
                ApplicationArea=#All;
                BlankZero=Yes;
                SourceExpr=MATRIX_CellData[19];
                AutoFormatType=10;
                AutoFormatExpr=FormatStr;
                CaptionClass='3,' + MATRIX_CaptionSet[19];
                Visible=Field19Visible;
                OnDrillDown=BEGIN
                              MATRIX_OnDrillDown(19);
                            END;
                             }

    { 1031;2   ;Field     ;
                Name=Field20;
                DrillDown=Yes;
                ApplicationArea=#All;
                BlankZero=Yes;
                SourceExpr=MATRIX_CellData[20];
                AutoFormatType=10;
                AutoFormatExpr=FormatStr;
                CaptionClass='3,' + MATRIX_CaptionSet[20];
                Visible=Field20Visible;
                OnDrillDown=BEGIN
                              MATRIX_OnDrillDown(20);
                            END;
                             }

    { 1032;2   ;Field     ;
                Name=Field21;
                DrillDown=Yes;
                ApplicationArea=#All;
                BlankZero=Yes;
                SourceExpr=MATRIX_CellData[21];
                AutoFormatType=10;
                AutoFormatExpr=FormatStr;
                CaptionClass='3,' + MATRIX_CaptionSet[21];
                Visible=Field21Visible;
                OnDrillDown=BEGIN
                              MATRIX_OnDrillDown(21);
                            END;
                             }

    { 1033;2   ;Field     ;
                Name=Field22;
                DrillDown=Yes;
                ApplicationArea=#All;
                BlankZero=Yes;
                SourceExpr=MATRIX_CellData[22];
                AutoFormatType=10;
                AutoFormatExpr=FormatStr;
                CaptionClass='3,' + MATRIX_CaptionSet[22];
                Visible=Field22Visible;
                OnDrillDown=BEGIN
                              MATRIX_OnDrillDown(22);
                            END;
                             }

    { 1034;2   ;Field     ;
                Name=Field23;
                DrillDown=Yes;
                ApplicationArea=#All;
                BlankZero=Yes;
                SourceExpr=MATRIX_CellData[23];
                AutoFormatType=10;
                AutoFormatExpr=FormatStr;
                CaptionClass='3,' + MATRIX_CaptionSet[23];
                Visible=Field23Visible;
                OnDrillDown=BEGIN
                              MATRIX_OnDrillDown(23);
                            END;
                             }

    { 1035;2   ;Field     ;
                Name=Field24;
                DrillDown=Yes;
                ApplicationArea=#All;
                BlankZero=Yes;
                SourceExpr=MATRIX_CellData[24];
                AutoFormatType=10;
                AutoFormatExpr=FormatStr;
                CaptionClass='3,' + MATRIX_CaptionSet[24];
                Visible=Field24Visible;
                OnDrillDown=BEGIN
                              MATRIX_OnDrillDown(24);
                            END;
                             }

    { 1036;2   ;Field     ;
                Name=Field25;
                DrillDown=Yes;
                ApplicationArea=#All;
                BlankZero=Yes;
                SourceExpr=MATRIX_CellData[25];
                AutoFormatType=10;
                AutoFormatExpr=FormatStr;
                CaptionClass='3,' + MATRIX_CaptionSet[25];
                Visible=Field25Visible;
                OnDrillDown=BEGIN
                              MATRIX_OnDrillDown(25);
                            END;
                             }

    { 1037;2   ;Field     ;
                Name=Field26;
                DrillDown=Yes;
                ApplicationArea=#All;
                BlankZero=Yes;
                SourceExpr=MATRIX_CellData[26];
                AutoFormatType=10;
                AutoFormatExpr=FormatStr;
                CaptionClass='3,' + MATRIX_CaptionSet[26];
                Visible=Field26Visible;
                OnDrillDown=BEGIN
                              MATRIX_OnDrillDown(26);
                            END;
                             }

    { 1038;2   ;Field     ;
                Name=Field27;
                DrillDown=Yes;
                ApplicationArea=#All;
                BlankZero=Yes;
                SourceExpr=MATRIX_CellData[27];
                AutoFormatType=10;
                AutoFormatExpr=FormatStr;
                CaptionClass='3,' + MATRIX_CaptionSet[27];
                Visible=Field27Visible;
                OnDrillDown=BEGIN
                              MATRIX_OnDrillDown(27);
                            END;
                             }

    { 1039;2   ;Field     ;
                Name=Field28;
                DrillDown=Yes;
                ApplicationArea=#All;
                BlankZero=Yes;
                SourceExpr=MATRIX_CellData[28];
                AutoFormatType=10;
                AutoFormatExpr=FormatStr;
                CaptionClass='3,' + MATRIX_CaptionSet[28];
                Visible=Field28Visible;
                OnDrillDown=BEGIN
                              MATRIX_OnDrillDown(28);
                            END;
                             }

    { 1040;2   ;Field     ;
                Name=Field29;
                DrillDown=Yes;
                ApplicationArea=#All;
                BlankZero=Yes;
                SourceExpr=MATRIX_CellData[29];
                AutoFormatType=10;
                AutoFormatExpr=FormatStr;
                CaptionClass='3,' + MATRIX_CaptionSet[29];
                Visible=Field29Visible;
                OnDrillDown=BEGIN
                              MATRIX_OnDrillDown(29);
                            END;
                             }

    { 1041;2   ;Field     ;
                Name=Field30;
                DrillDown=Yes;
                ApplicationArea=#All;
                BlankZero=Yes;
                SourceExpr=MATRIX_CellData[30];
                AutoFormatType=10;
                AutoFormatExpr=FormatStr;
                CaptionClass='3,' + MATRIX_CaptionSet[30];
                Visible=Field30Visible;
                OnDrillDown=BEGIN
                              MATRIX_OnDrillDown(30);
                            END;
                             }

    { 1042;2   ;Field     ;
                Name=Field31;
                DrillDown=Yes;
                ApplicationArea=#All;
                BlankZero=Yes;
                SourceExpr=MATRIX_CellData[31];
                AutoFormatType=10;
                AutoFormatExpr=FormatStr;
                CaptionClass='3,' + MATRIX_CaptionSet[31];
                Visible=Field31Visible;
                OnDrillDown=BEGIN
                              MATRIX_OnDrillDown(31);
                            END;
                             }

    { 1043;2   ;Field     ;
                Name=Field32;
                DrillDown=Yes;
                ApplicationArea=#All;
                BlankZero=Yes;
                SourceExpr=MATRIX_CellData[32];
                AutoFormatType=10;
                AutoFormatExpr=FormatStr;
                CaptionClass='3,' + MATRIX_CaptionSet[32];
                Visible=Field32Visible;
                OnDrillDown=BEGIN
                              MATRIX_OnDrillDown(32);
                            END;
                             }

  }
  CODE
  {
    VAR
      MatrixRecords@1007 : ARRAY [32] OF Record 5647;
      FALedgerEntry@1000 : Record 5601;
      DP_Book2@1006 : Record 5612;
      FADeprBook@1001 : Record 5612;
      MatrixMgt@1004 : Codeunit 9200;
      RoundingFactor@1082 : 'None,1,1000,1000000';
      MATRIX_CurrentNoOfMatrixColumn@1085 : Integer;
      MATRIX_CellData@1086 : ARRAY [32] OF Decimal;
      MATRIX_CaptionSet@1087 : ARRAY [32] OF Text[80];
      DateFilter@1003 : Text;
      RoundingFactorFormatString@1005 : Text;
      Field1Visible@19069335 : Boolean INDATASET;
      Field2Visible@19014807 : Boolean INDATASET;
      Field3Visible@19062679 : Boolean INDATASET;
      Field4Visible@19074839 : Boolean INDATASET;
      Field5Visible@19043543 : Boolean INDATASET;
      Field6Visible@19067287 : Boolean INDATASET;
      Field7Visible@19067863 : Boolean INDATASET;
      Field8Visible@19039959 : Boolean INDATASET;
      Field9Visible@19008663 : Boolean INDATASET;
      Field10Visible@19006501 : Boolean INDATASET;
      Field11Visible@19052468 : Boolean INDATASET;
      Field12Visible@19013039 : Boolean INDATASET;
      Field13Visible@19079726 : Boolean INDATASET;
      Field14Visible@19077225 : Boolean INDATASET;
      Field15Visible@19035896 : Boolean INDATASET;
      Field16Visible@19003763 : Boolean INDATASET;
      Field17Visible@19049730 : Boolean INDATASET;
      Field18Visible@19007213 : Boolean INDATASET;
      Field19Visible@19053180 : Boolean INDATASET;
      Field20Visible@19014629 : Boolean INDATASET;
      Field21Visible@19060596 : Boolean INDATASET;
      Field22Visible@19021167 : Boolean INDATASET;
      Field23Visible@19047854 : Boolean INDATASET;
      Field24Visible@19045353 : Boolean INDATASET;
      Field25Visible@19004024 : Boolean INDATASET;
      Field26Visible@19011891 : Boolean INDATASET;
      Field27Visible@19057858 : Boolean INDATASET;
      Field28Visible@19015341 : Boolean INDATASET;
      Field29Visible@19061308 : Boolean INDATASET;
      Field30Visible@19010597 : Boolean INDATASET;
      Field31Visible@19056564 : Boolean INDATASET;
      Field32Visible@19017135 : Boolean INDATASET;

    [External]
    PROCEDURE Load@1093(MatrixColumns1@1005 : ARRAY [32] OF Text[80];VAR MatrixRecords1@1006 : ARRAY [32] OF Record 5647;CurrentNoOfMatrixColumns@1007 : Integer;DateFilterLocal@1003 : Text;RoundingFactorLocal@1001 : 'None,1,1000,1000000');
    VAR
      i@1004 : Integer;
    BEGIN
      FOR i := 1 TO CurrentNoOfMatrixColumns DO BEGIN
        MATRIX_CaptionSet[i] := MatrixColumns1[i];
        MatrixRecords[i] := MatrixRecords1[i];
      END;
      MATRIX_CurrentNoOfMatrixColumn := CurrentNoOfMatrixColumns;
      DateFilter := DateFilterLocal;
      RoundingFactor := RoundingFactorLocal;
      RoundingFactorFormatString := MatrixMgt.GetFormatString(RoundingFactor,FALSE);
    END;

    LOCAL PROCEDURE MATRIX_OnDrillDown@1094(MATRIX_ColumnOrdinal@1008 : Integer);
    BEGIN
      DP_Book2.SETRANGE("FA No.","FA No.");
      DP_Book2.SETRANGE("Depreciation Book Code","Depreciation Book Code");

      IF DP_Book2.FINDFIRST THEN
        FALedgerEntry.SETRANGE("Depreciation Book Code",DP_Book2."Depreciation Book Code")
      ELSE
        FALedgerEntry.SETRANGE("Depreciation Book Code");
      FALedgerEntry.SETFILTER("FA Posting Date",DateFilter);
      FALedgerEntry.SETRANGE("FA No.","FA No.");

      CASE MatrixRecords[MATRIX_ColumnOrdinal]."Entry No." OF
        1:// 'Book Value'
          BEGIN
            FALedgerEntry.SETRANGE("Part of Book Value",TRUE);
            PAGE.RUN(0,FALedgerEntry);
          END;
        2:// 'Acquisition Cost'
          BEGIN
            FALedgerEntry.SETRANGE("FA Posting Type",FALedgerEntry."FA Posting Type"::"Acquisition Cost");
            PAGE.RUN(0,FALedgerEntry);
          END;
        3:// 'Depreciation'
          BEGIN
            FALedgerEntry.SETRANGE("FA Posting Type",FALedgerEntry."FA Posting Type"::Depreciation);
            PAGE.RUN(0,FALedgerEntry);
          END;
        4:// 'Write-Down'
          BEGIN
            FALedgerEntry.SETRANGE("FA Posting Type",FALedgerEntry."FA Posting Type"::"Write-Down");
            PAGE.RUN(0,FALedgerEntry);
          END;
        5:// 'Appreciation'
          BEGIN
            FALedgerEntry.SETRANGE("FA Posting Type",FALedgerEntry."FA Posting Type"::Appreciation);
            PAGE.RUN(0,FALedgerEntry);
          END;
        6:// 'Custom 1'
          BEGIN
            FALedgerEntry.SETRANGE("FA Posting Type",FALedgerEntry."FA Posting Type"::"Custom 1");
            PAGE.RUN(0,FALedgerEntry);
          END;
        7:// 'Custom 2'
          BEGIN
            FALedgerEntry.SETRANGE("FA Posting Type",FALedgerEntry."FA Posting Type"::"Custom 2");
            PAGE.RUN(0,FALedgerEntry);
          END;
        8:// 'Proceeds on Disposal'
          BEGIN
            FALedgerEntry.SETRANGE("FA Posting Type",FALedgerEntry."FA Posting Type"::"Proceeds on Disposal");
            PAGE.RUN(0,FALedgerEntry);
          END;
        9:// 'Gain/Loss'
          BEGIN
            FALedgerEntry.SETRANGE("FA Posting Type",FALedgerEntry."FA Posting Type"::"Gain/Loss");
            PAGE.RUN(0,FALedgerEntry);
          END;
        10:// 'Depreciable Basis'
          BEGIN
            FALedgerEntry.SETRANGE("Part of Depreciable Basis",TRUE);
            PAGE.RUN(0,FALedgerEntry);
          END;
        11:// 'Salvage Value'
          BEGIN
            FALedgerEntry.SETRANGE("FA Posting Type",FALedgerEntry."FA Posting Type"::"Salvage Value");
            PAGE.RUN(0,FALedgerEntry);
          END;
      END;
    END;

    LOCAL PROCEDURE MATRIX_OnAfterGetRecord@1096(MATRIX_ColumnOrdinal@1010 : Integer);
    BEGIN
      WITH FADeprBook DO BEGIN
        SETFILTER("FA Posting Date Filter",DateFilter);
        SETRANGE("FA No.",Rec."FA No.");
        SETRANGE("Depreciation Book Code",Rec."Depreciation Book Code");
        CASE MatrixRecords[MATRIX_ColumnOrdinal]."Entry No." OF
          1:// 'Book Value'
            BEGIN
              IF FINDFIRST THEN
                CalcBookValue;
              MATRIX_CellData[MATRIX_ColumnOrdinal] := MatrixMgt.RoundValue("Book Value",RoundingFactor);
            END;
          10:// 'Depreciable Basis'
            BEGIN
              IF FINDFIRST THEN
                CALCFIELDS("Depreciable Basis");
              MATRIX_CellData[MATRIX_ColumnOrdinal] := MatrixMgt.RoundValue("Depreciable Basis",RoundingFactor);
            END;
          2:// 'Acquisition Cost'
            BEGIN
              IF FINDFIRST THEN
                CALCFIELDS("Acquisition Cost");
              MATRIX_CellData[MATRIX_ColumnOrdinal] := MatrixMgt.RoundValue("Acquisition Cost",RoundingFactor);
            END;
          3:// 'Depreciation'
            BEGIN
              IF FINDFIRST THEN
                CALCFIELDS(Depreciation);
              MATRIX_CellData[MATRIX_ColumnOrdinal] := MatrixMgt.RoundValue(Depreciation,RoundingFactor);
            END;
          4:// 'Write-Down'
            BEGIN
              IF FINDFIRST THEN
                CALCFIELDS("Write-Down");
              MATRIX_CellData[MATRIX_ColumnOrdinal] := MatrixMgt.RoundValue("Write-Down",RoundingFactor);
            END;
          5:// 'Appreciation'
            BEGIN
              IF FINDFIRST THEN
                CALCFIELDS(Appreciation);
              MATRIX_CellData[MATRIX_ColumnOrdinal] := MatrixMgt.RoundValue(Appreciation,RoundingFactor);
            END;
          6:// 'Custom 1'
            BEGIN
              IF FINDFIRST THEN
                CALCFIELDS("Custom 1");
              MATRIX_CellData[MATRIX_ColumnOrdinal] := MatrixMgt.RoundValue("Custom 1",RoundingFactor);
            END;
          7:// 'Custom 2'
            BEGIN
              IF FINDFIRST THEN
                CALCFIELDS("Custom 2");
              MATRIX_CellData[MATRIX_ColumnOrdinal] := MatrixMgt.RoundValue("Custom 2",RoundingFactor);
            END;
          9:// 'Gain/Loss'
            BEGIN
              IF FINDFIRST THEN
                CALCFIELDS("Gain/Loss");
              MATRIX_CellData[MATRIX_ColumnOrdinal] := MatrixMgt.RoundValue("Gain/Loss",RoundingFactor);
            END;
          8:// 'Proceeds on Disposal'
            BEGIN
              IF FINDFIRST THEN
                CALCFIELDS("Proceeds on Disposal");
              MATRIX_CellData[MATRIX_ColumnOrdinal] := MatrixMgt.RoundValue("Proceeds on Disposal",RoundingFactor);
            END;
          11:// 'Salvage Value'
            BEGIN
              IF FINDFIRST THEN
                CALCFIELDS("Salvage Value");
              MATRIX_CellData[MATRIX_ColumnOrdinal] := MatrixMgt.RoundValue("Salvage Value",RoundingFactor);
            END;
        END;
      END;

      SetVisible;
    END;

    [External]
    PROCEDURE SetVisible@6();
    BEGIN
      Field1Visible := MATRIX_CaptionSet[1] <> '';
      Field2Visible := MATRIX_CaptionSet[2] <> '';
      Field3Visible := MATRIX_CaptionSet[3] <> '';
      Field4Visible := MATRIX_CaptionSet[4] <> '';
      Field5Visible := MATRIX_CaptionSet[5] <> '';
      Field6Visible := MATRIX_CaptionSet[6] <> '';
      Field7Visible := MATRIX_CaptionSet[7] <> '';
      Field8Visible := MATRIX_CaptionSet[8] <> '';
      Field9Visible := MATRIX_CaptionSet[9] <> '';
      Field10Visible := MATRIX_CaptionSet[10] <> '';
      Field11Visible := MATRIX_CaptionSet[11] <> '';
      Field12Visible := MATRIX_CaptionSet[12] <> '';
      Field13Visible := MATRIX_CaptionSet[13] <> '';
      Field14Visible := MATRIX_CaptionSet[14] <> '';
      Field15Visible := MATRIX_CaptionSet[15] <> '';
      Field16Visible := MATRIX_CaptionSet[16] <> '';
      Field17Visible := MATRIX_CaptionSet[17] <> '';
      Field18Visible := MATRIX_CaptionSet[18] <> '';
      Field19Visible := MATRIX_CaptionSet[19] <> '';
      Field20Visible := MATRIX_CaptionSet[20] <> '';
      Field21Visible := MATRIX_CaptionSet[21] <> '';
      Field22Visible := MATRIX_CaptionSet[22] <> '';
      Field23Visible := MATRIX_CaptionSet[23] <> '';
      Field24Visible := MATRIX_CaptionSet[24] <> '';
      Field25Visible := MATRIX_CaptionSet[25] <> '';
      Field26Visible := MATRIX_CaptionSet[26] <> '';
      Field27Visible := MATRIX_CaptionSet[27] <> '';
      Field28Visible := MATRIX_CaptionSet[28] <> '';
      Field29Visible := MATRIX_CaptionSet[29] <> '';
      Field30Visible := MATRIX_CaptionSet[30] <> '';
      Field31Visible := MATRIX_CaptionSet[31] <> '';
      Field32Visible := MATRIX_CaptionSet[32] <> '';
    END;

    LOCAL PROCEDURE FormatStr@8() : Text;
    BEGIN
      EXIT(RoundingFactorFormatString);
    END;

    BEGIN
    END.
  }
}

