OBJECT Page 9209 Invt. Analys by Dim. Matrix
{
  OBJECT-PROPERTIES
  {
    Date=22/11/17;
    Time=12:00:00;
    Version List=NAVW111.00;
  }
  PROPERTIES
  {
    Editable=No;
    CaptionML=[ENU=Invt. Analys by Dim. Matrix;
               ENG=Invt. Analys by Dim. Matrix];
    LinksAllowed=No;
    SourceTable=Table367;
    DataCaptionExpr=CurrentItemAnalysisViewCode;
    PageType=List;
    OnOpenPage=BEGIN
                 CurrentAnalysisArea := CurrentAnalysisArea::Inventory;

                 GLSetup.GET;
                 ItemAnalysisMgt.AnalysisViewSelection(
                   CurrentAnalysisArea,CurrentItemAnalysisViewCode,ItemAnalysisView,ItemStatisticsBuffer,
                   Dim1Filter,Dim2Filter,Dim3Filter);
               END;

    OnFindRecord=BEGIN
                   EXIT(
                     ItemAnalysisMgt.FindRec(
                       ItemAnalysisView,LineDimOption,Rec,Which,
                       ItemFilter,LocationFilter,PeriodType,DateFilter,PeriodInitialized,InternalDateFilter,
                       Dim1Filter,Dim2Filter,Dim3Filter));
                 END;

    OnNextRecord=BEGIN
                   EXIT(
                     ItemAnalysisMgt.NextRec(
                       ItemAnalysisView,LineDimOption,Rec,Steps,
                       ItemFilter,LocationFilter,PeriodType,DateFilter,
                       Dim1Filter,Dim2Filter,Dim3Filter));
                 END;

    OnAfterGetRecord=VAR
                       MATRIX_CurrentColumnOrdinal@1044 : Integer;
                     BEGIN
                       NameIndent := 0;
                       // IF CurrForm.TotalQuantity.VISIBLE THEN
                       Quantity := CalcAmt(2,FALSE);
                       // IF CurrForm.TotalQuantity.VISIBLE THEN
                       Amount := CalcAmt(1,FALSE);
                       MATRIX_CurrentColumnOrdinal := 0;
                       WHILE MATRIX_CurrentColumnOrdinal < MATRIX_CurrentNoOfMatrixColumn DO BEGIN
                         MATRIX_CurrentColumnOrdinal := MATRIX_CurrentColumnOrdinal + 1;
                         MATRIX_OnAfterGetRecord(MATRIX_CurrentColumnOrdinal);
                       END;

                       FormatLine;
                       QuantityOnFormat(FORMAT(+Quantity));
                       AmountOnFormat(FORMAT(+Amount));
                     END;

    OnAfterGetCurrRecord=BEGIN
                           // IF CurrForm.TotalQuantity.VISIBLE THEN
                           Quantity := CalcAmt(2,FALSE);
                           // IF CurrForm.TotalInvtValue.VISIBLE THEN
                           Amount := CalcAmt(1,FALSE);
                         END;

  }
  CONTROLS
  {
    { 1900000001;0;Container;
                ContainerType=ContentArea }

    { 1   ;1   ;Group     ;
                IndentationColumnName=NameIndent;
                IndentationControls=Name;
                GroupType=Repeater }

    { 20  ;2   ;Field     ;
                ToolTipML=[ENU=Specifies the code of the record.;
                           ENG=Specifies the code of the record.];
                ApplicationArea=#Suite;
                SourceExpr=Code;
                StyleExpr='Strong';
                OnLookup=BEGIN
                           ItemAnalysisMgt.LookUpCode(LineDimOption,LineDimCode,Code);
                         END;
                          }

    { 22  ;2   ;Field     ;
                ToolTipML=[ENU=Specifies the name of the record.;
                           ENG=Specifies the name of the record.];
                ApplicationArea=#Suite;
                SourceExpr=Name;
                StyleExpr='Strong' }

    { 45  ;2   ;Field     ;
                Name=TotalQuantity;
                CaptionML=[ENU=Total Quantity;
                           ENG=Total Quantity];
                ToolTipML=[ENU="Specifies the total quantity of the item that is currently in inventory. The Total Quantity field is used to calculate the Available Inventory field as follows: Available Inventory = Total Quantity - Reserved Quantity.";
                           ENG="Specifies the total quantity of the item that is currently in inventory. The Total Quantity field is used to calculate the Available Inventory field as follows: Available Inventory = Total Quantity - Reserved Quantity."];
                ApplicationArea=#Suite;
                BlankZero=Yes;
                SourceExpr=+Quantity;
                StyleExpr='Strong';
                OnDrillDown=BEGIN
                              ItemAnalysisMgt.DrillDown(
                                CurrentAnalysisArea,ItemStatisticsBuffer,CurrentItemAnalysisViewCode,
                                ItemFilter,LocationFilter,DateFilter,
                                Dim1Filter,Dim2Filter,Dim3Filter,BudgetFilter,
                                LineDimOption,Rec,
                                ColumnDimOption,MatrixRecord,
                                FALSE,2,ShowActualBudget);
                              // Line with .. ColumnDimOption,MatrixRecord, might be wrong...
                            END;
                             }

    { 24  ;2   ;Field     ;
                Name=TotalInvtValue;
                CaptionML=[ENU=Total Inventory Value;
                           ENG=Total Inventory Value];
                ToolTipML=[ENU=Specifies the value of the total quantity in inventory.;
                           ENG=Specifies the value of the total quantity in inventory.];
                ApplicationArea=#Suite;
                BlankZero=Yes;
                SourceExpr=+Amount;
                StyleExpr='Strong';
                OnDrillDown=BEGIN
                              ItemAnalysisMgt.DrillDown(
                                CurrentAnalysisArea,ItemStatisticsBuffer,CurrentItemAnalysisViewCode,
                                ItemFilter,LocationFilter,DateFilter,
                                Dim1Filter,Dim2Filter,Dim3Filter,BudgetFilter,
                                LineDimOption,Rec,
                                ColumnDimOption,Rec,
                                FALSE,1,ShowActualBudget);

                              // Line with might be wrong... ColumnDimOption,Rec,
                            END;
                             }

    { 1012;2   ;Field     ;
                Name=Field1;
                ApplicationArea=#Suite;
                BlankZero=Yes;
                SourceExpr=MATRIX_CellData[1];
                CaptionClass='3,' + MATRIX_CaptionSet[1];
                StyleExpr='Strong';
                OnDrillDown=BEGIN
                              MATRIX_OnDrillDown(1);
                            END;
                             }

    { 1013;2   ;Field     ;
                Name=Field2;
                ApplicationArea=#Suite;
                BlankZero=Yes;
                SourceExpr=MATRIX_CellData[2];
                CaptionClass='3,' + MATRIX_CaptionSet[2];
                StyleExpr='Strong';
                OnDrillDown=BEGIN
                              MATRIX_OnDrillDown(2);
                            END;
                             }

    { 1014;2   ;Field     ;
                Name=Field3;
                ApplicationArea=#Suite;
                BlankZero=Yes;
                SourceExpr=MATRIX_CellData[3];
                CaptionClass='3,' + MATRIX_CaptionSet[3];
                StyleExpr='Strong';
                OnDrillDown=BEGIN
                              MATRIX_OnDrillDown(3);
                            END;
                             }

    { 1015;2   ;Field     ;
                Name=Field4;
                ApplicationArea=#Suite;
                BlankZero=Yes;
                SourceExpr=MATRIX_CellData[4];
                CaptionClass='3,' + MATRIX_CaptionSet[4];
                StyleExpr='Strong';
                OnDrillDown=BEGIN
                              MATRIX_OnDrillDown(4);
                            END;
                             }

    { 1016;2   ;Field     ;
                Name=Field5;
                ApplicationArea=#Suite;
                BlankZero=Yes;
                SourceExpr=MATRIX_CellData[5];
                CaptionClass='3,' + MATRIX_CaptionSet[5];
                StyleExpr='Strong';
                OnDrillDown=BEGIN
                              MATRIX_OnDrillDown(5);
                            END;
                             }

    { 1017;2   ;Field     ;
                Name=Field6;
                ApplicationArea=#Suite;
                BlankZero=Yes;
                SourceExpr=MATRIX_CellData[6];
                CaptionClass='3,' + MATRIX_CaptionSet[6];
                StyleExpr='Strong';
                OnDrillDown=BEGIN
                              MATRIX_OnDrillDown(6);
                            END;
                             }

    { 1018;2   ;Field     ;
                Name=Field7;
                ApplicationArea=#Suite;
                BlankZero=Yes;
                SourceExpr=MATRIX_CellData[7];
                CaptionClass='3,' + MATRIX_CaptionSet[7];
                StyleExpr='Strong';
                OnDrillDown=BEGIN
                              MATRIX_OnDrillDown(7);
                            END;
                             }

    { 1019;2   ;Field     ;
                Name=Field8;
                ApplicationArea=#Suite;
                BlankZero=Yes;
                SourceExpr=MATRIX_CellData[8];
                CaptionClass='3,' + MATRIX_CaptionSet[8];
                StyleExpr='Strong';
                OnDrillDown=BEGIN
                              MATRIX_OnDrillDown(8);
                            END;
                             }

    { 1020;2   ;Field     ;
                Name=Field9;
                ApplicationArea=#Suite;
                BlankZero=Yes;
                SourceExpr=MATRIX_CellData[9];
                CaptionClass='3,' + MATRIX_CaptionSet[9];
                StyleExpr='Strong';
                OnDrillDown=BEGIN
                              MATRIX_OnDrillDown(9);
                            END;
                             }

    { 1021;2   ;Field     ;
                Name=Field10;
                ApplicationArea=#Suite;
                BlankZero=Yes;
                SourceExpr=MATRIX_CellData[10];
                CaptionClass='3,' + MATRIX_CaptionSet[10];
                StyleExpr='Strong';
                OnDrillDown=BEGIN
                              MATRIX_OnDrillDown(10);
                            END;
                             }

    { 1022;2   ;Field     ;
                Name=Field11;
                ApplicationArea=#Suite;
                BlankZero=Yes;
                SourceExpr=MATRIX_CellData[11];
                CaptionClass='3,' + MATRIX_CaptionSet[11];
                StyleExpr='Strong';
                OnDrillDown=BEGIN
                              MATRIX_OnDrillDown(11);
                            END;
                             }

    { 1023;2   ;Field     ;
                Name=Field12;
                ApplicationArea=#Suite;
                BlankZero=Yes;
                SourceExpr=MATRIX_CellData[12];
                CaptionClass='3,' + MATRIX_CaptionSet[12];
                StyleExpr='Strong';
                OnDrillDown=BEGIN
                              MATRIX_OnDrillDown(12);
                            END;
                             }

    { 1024;2   ;Field     ;
                Name=Field13;
                ApplicationArea=#Suite;
                BlankZero=Yes;
                SourceExpr=MATRIX_CellData[13];
                CaptionClass='3,' + MATRIX_CaptionSet[13];
                StyleExpr='Strong';
                OnDrillDown=BEGIN
                              MATRIX_OnDrillDown(13);
                            END;
                             }

    { 1025;2   ;Field     ;
                Name=Field14;
                ApplicationArea=#Suite;
                BlankZero=Yes;
                SourceExpr=MATRIX_CellData[14];
                CaptionClass='3,' + MATRIX_CaptionSet[14];
                StyleExpr='Strong';
                OnDrillDown=BEGIN
                              MATRIX_OnDrillDown(14);
                            END;
                             }

    { 1026;2   ;Field     ;
                Name=Field15;
                ApplicationArea=#Suite;
                BlankZero=Yes;
                SourceExpr=MATRIX_CellData[15];
                CaptionClass='3,' + MATRIX_CaptionSet[15];
                StyleExpr='Strong';
                OnDrillDown=BEGIN
                              MATRIX_OnDrillDown(15);
                            END;
                             }

    { 1027;2   ;Field     ;
                Name=Field16;
                ApplicationArea=#Suite;
                BlankZero=Yes;
                SourceExpr=MATRIX_CellData[16];
                CaptionClass='3,' + MATRIX_CaptionSet[16];
                StyleExpr='Strong';
                OnDrillDown=BEGIN
                              MATRIX_OnDrillDown(16);
                            END;
                             }

    { 1028;2   ;Field     ;
                Name=Field17;
                ApplicationArea=#Suite;
                BlankZero=Yes;
                SourceExpr=MATRIX_CellData[17];
                CaptionClass='3,' + MATRIX_CaptionSet[17];
                StyleExpr='Strong';
                OnDrillDown=BEGIN
                              MATRIX_OnDrillDown(17);
                            END;
                             }

    { 1029;2   ;Field     ;
                Name=Field18;
                ApplicationArea=#Suite;
                BlankZero=Yes;
                SourceExpr=MATRIX_CellData[18];
                CaptionClass='3,' + MATRIX_CaptionSet[18];
                StyleExpr='Strong';
                OnDrillDown=BEGIN
                              MATRIX_OnDrillDown(18);
                            END;
                             }

    { 1030;2   ;Field     ;
                Name=Field19;
                ApplicationArea=#Suite;
                BlankZero=Yes;
                SourceExpr=MATRIX_CellData[19];
                CaptionClass='3,' + MATRIX_CaptionSet[19];
                StyleExpr='Strong';
                OnDrillDown=BEGIN
                              MATRIX_OnDrillDown(19);
                            END;
                             }

    { 1031;2   ;Field     ;
                Name=Field20;
                ApplicationArea=#Suite;
                BlankZero=Yes;
                SourceExpr=MATRIX_CellData[20];
                CaptionClass='3,' + MATRIX_CaptionSet[20];
                StyleExpr='Strong';
                OnDrillDown=BEGIN
                              MATRIX_OnDrillDown(20);
                            END;
                             }

    { 1032;2   ;Field     ;
                Name=Field21;
                ApplicationArea=#Suite;
                BlankZero=Yes;
                SourceExpr=MATRIX_CellData[21];
                CaptionClass='3,' + MATRIX_CaptionSet[21];
                StyleExpr='Strong';
                OnDrillDown=BEGIN
                              MATRIX_OnDrillDown(21);
                            END;
                             }

    { 1033;2   ;Field     ;
                Name=Field22;
                ApplicationArea=#Suite;
                BlankZero=Yes;
                SourceExpr=MATRIX_CellData[22];
                CaptionClass='3,' + MATRIX_CaptionSet[22];
                StyleExpr='Strong';
                OnDrillDown=BEGIN
                              MATRIX_OnDrillDown(22);
                            END;
                             }

    { 1034;2   ;Field     ;
                Name=Field23;
                ApplicationArea=#Suite;
                BlankZero=Yes;
                SourceExpr=MATRIX_CellData[23];
                CaptionClass='3,' + MATRIX_CaptionSet[23];
                StyleExpr='Strong';
                OnDrillDown=BEGIN
                              MATRIX_OnDrillDown(23);
                            END;
                             }

    { 1035;2   ;Field     ;
                Name=Field24;
                ApplicationArea=#Suite;
                BlankZero=Yes;
                SourceExpr=MATRIX_CellData[24];
                CaptionClass='3,' + MATRIX_CaptionSet[24];
                StyleExpr='Strong';
                OnDrillDown=BEGIN
                              MATRIX_OnDrillDown(24);
                            END;
                             }

    { 1036;2   ;Field     ;
                Name=Field25;
                ApplicationArea=#Suite;
                BlankZero=Yes;
                SourceExpr=MATRIX_CellData[25];
                CaptionClass='3,' + MATRIX_CaptionSet[25];
                StyleExpr='Strong';
                OnDrillDown=BEGIN
                              MATRIX_OnDrillDown(25);
                            END;
                             }

    { 1037;2   ;Field     ;
                Name=Field26;
                ApplicationArea=#Suite;
                BlankZero=Yes;
                SourceExpr=MATRIX_CellData[26];
                CaptionClass='3,' + MATRIX_CaptionSet[26];
                StyleExpr='Strong';
                OnDrillDown=BEGIN
                              MATRIX_OnDrillDown(26);
                            END;
                             }

    { 1038;2   ;Field     ;
                Name=Field27;
                ApplicationArea=#Suite;
                BlankZero=Yes;
                SourceExpr=MATRIX_CellData[27];
                CaptionClass='3,' + MATRIX_CaptionSet[27];
                StyleExpr='Strong';
                OnDrillDown=BEGIN
                              MATRIX_OnDrillDown(27);
                            END;
                             }

    { 1039;2   ;Field     ;
                Name=Field28;
                ApplicationArea=#Suite;
                BlankZero=Yes;
                SourceExpr=MATRIX_CellData[28];
                CaptionClass='3,' + MATRIX_CaptionSet[28];
                StyleExpr='Strong';
                OnDrillDown=BEGIN
                              MATRIX_OnDrillDown(28);
                            END;
                             }

    { 1040;2   ;Field     ;
                Name=Field29;
                ApplicationArea=#Suite;
                BlankZero=Yes;
                SourceExpr=MATRIX_CellData[29];
                CaptionClass='3,' + MATRIX_CaptionSet[29];
                StyleExpr='Strong';
                OnDrillDown=BEGIN
                              MATRIX_OnDrillDown(29);
                            END;
                             }

    { 1041;2   ;Field     ;
                Name=Field30;
                ApplicationArea=#Suite;
                BlankZero=Yes;
                SourceExpr=MATRIX_CellData[30];
                CaptionClass='3,' + MATRIX_CaptionSet[30];
                StyleExpr='Strong';
                OnDrillDown=BEGIN
                              MATRIX_OnDrillDown(30);
                            END;
                             }

    { 1042;2   ;Field     ;
                Name=Field31;
                ApplicationArea=#Suite;
                BlankZero=Yes;
                SourceExpr=MATRIX_CellData[31];
                CaptionClass='3,' + MATRIX_CaptionSet[31];
                StyleExpr='Strong';
                OnDrillDown=BEGIN
                              MATRIX_OnDrillDown(31);
                            END;
                             }

    { 1043;2   ;Field     ;
                Name=Field32;
                ApplicationArea=#Suite;
                BlankZero=Yes;
                SourceExpr=MATRIX_CellData[32];
                CaptionClass='3,' + MATRIX_CaptionSet[32];
                StyleExpr='Strong';
                OnDrillDown=BEGIN
                              MATRIX_OnDrillDown(32);
                            END;
                             }

  }
  CODE
  {
    VAR
      GLSetup@1081 : Record 98;
      ItemAnalysisView@1082 : Record 7152;
      ItemStatisticsBuffer@1083 : Record 5821;
      MatrixRecords@1001 : ARRAY [32] OF Record 367;
      MatrixRecord@1000 : Record 367;
      ItemAnalysisMgt@1085 : Codeunit 7153;
      CurrentAnalysisArea@1086 : 'Sales,Purchase,Inventory';
      CurrentItemAnalysisViewCode@1087 : Code[10];
      ItemFilter@1088 : Code[250];
      LocationFilter@1089 : Code[250];
      BudgetFilter@1090 : Code[250];
      ValueType@1091 : 'Sales Amount,Inventory Value,Sales Quantity';
      ShowActualBudget@1092 : 'Actual Amounts,Budgeted Amounts,Variance,Variance%,Index%';
      RoundingFactor@1093 : 'None,1,1000,1000000';
      LineDimOption@1094 : 'Item,Period,Location,Dimension 1,Dimension 2,Dimension 3';
      ColumnDimOption@1095 : 'Item,Period,Location,Dimension 1,Dimension 2,Dimension 3';
      PeriodType@1096 : 'Day,Week,Month,Quarter,Year,Accounting Period';
      Dim1Filter@1097 : Code[250];
      Dim2Filter@1098 : Code[250];
      Dim3Filter@1099 : Code[250];
      LineDimCode@1100 : Text[30];
      DateFilter@1102 : Text[30];
      InternalDateFilter@1103 : Text[30];
      PeriodInitialized@1104 : Boolean;
      AnalysisValue@1105 : Decimal;
      ShowOppositeSign@1108 : Boolean;
      MATRIX_CurrentNoOfMatrixColumn@1113 : Integer;
      MATRIX_CellData@1114 : ARRAY [32] OF Decimal;
      MATRIX_CaptionSet@1115 : ARRAY [32] OF Text[80];
      NameIndent@19079073 : Integer INDATASET;

    LOCAL PROCEDURE CalcAmt@1120(ValueType@1001 : Integer;SetColFilter@1000 : Boolean) : Decimal;
    VAR
      Amt@1121 : Decimal;
    BEGIN
      Amt := ItemAnalysisMgt.CalcAmount(
          ValueType,SetColFilter,
          CurrentAnalysisArea,ItemStatisticsBuffer,CurrentItemAnalysisViewCode,
          ItemFilter,LocationFilter,DateFilter,BudgetFilter,
          Dim1Filter,Dim2Filter,Dim3Filter,
          LineDimOption,Rec,
          ColumnDimOption,MatrixRecord,
          ShowActualBudget);
      IF ShowOppositeSign THEN
        Amt := -Amt;
      EXIT(Amt);
    END;

    [Internal]
    PROCEDURE Load@1125(MatrixColumns1@1005 : ARRAY [32] OF Text[1024];VAR MatrixRecords1@1006 : ARRAY [32] OF Record 367;CurrentNoOfMatrixColumns@1007 : Integer;_LineDimOption@1000 : Integer;_ColumnDimOption@1001 : Integer;_RoundingFactor@1002 : Integer;_DateFilter@1003 : Text[30];_ValueType@1004 : Integer;_ItemAnalysisView@1008 : Record 7152;_CurrentItemAnalysisViewCode@1010 : Code[10];_ItemFilter@1011 : Code[250];_LocationFilter@1012 : Code[250];_BudgetFilter@1013 : Code[250];_Dim1Filter@1014 : Code[250];_Dim2Filter@1015 : Code[250];_Dim3Filter@1016 : Code[250];ShowOppSign@1017 : Boolean);
    VAR
      ApplicationManagement@1021 : Codeunit 1;
      i@1009 : Integer;
    BEGIN
      COPYARRAY(MATRIX_CaptionSet,MatrixColumns1,1);
      FOR i := 1 TO ARRAYLEN(MatrixRecords) DO
        MatrixRecords[i].COPY(MatrixRecords1[i]);
      MATRIX_CurrentNoOfMatrixColumn := CurrentNoOfMatrixColumns;
      LineDimOption := _LineDimOption;
      ColumnDimOption := _ColumnDimOption;
      RoundingFactor := _RoundingFactor;
      ValueType := _ValueType;
      ItemAnalysisView := _ItemAnalysisView;
      CurrentItemAnalysisViewCode := _CurrentItemAnalysisViewCode;
      IF ApplicationManagement.MakeDateFilter(_DateFilter) = 0 THEN;
      ItemStatisticsBuffer.SETFILTER("Date Filter",_DateFilter);
      DateFilter := ItemStatisticsBuffer.GETFILTER("Date Filter");
      ItemFilter := _ItemFilter;
      LocationFilter := _LocationFilter;
      BudgetFilter := _BudgetFilter;
      Dim1Filter := _Dim1Filter;
      Dim2Filter := _Dim2Filter;
      Dim3Filter := _Dim3Filter;
      InternalDateFilter := DateFilter;
      ShowOppositeSign := ShowOppSign;
    END;

    LOCAL PROCEDURE MATRIX_OnDrillDown@1126(MATRIX_ColumnOrdinal@1008 : Integer);
    BEGIN
      ItemAnalysisMgt.DrillDown(
        CurrentAnalysisArea,ItemStatisticsBuffer,CurrentItemAnalysisViewCode,
        ItemFilter,LocationFilter,DateFilter,
        Dim1Filter,Dim2Filter,Dim3Filter,BudgetFilter,
        LineDimOption,Rec,
        ColumnDimOption,MatrixRecords[MATRIX_ColumnOrdinal],
        TRUE,ValueType,ShowActualBudget);
    END;

    LOCAL PROCEDURE MATRIX_OnAfterGetRecord@1128(MATRIX_ColumnOrdinal@1010 : Integer);
    BEGIN
      MatrixRecord := MatrixRecords[MATRIX_ColumnOrdinal];
      AnalysisValue := CalcAmt(ValueType,TRUE);
      MATRIX_CellData[MATRIX_ColumnOrdinal] := AnalysisValue;
    END;

    LOCAL PROCEDURE FormatLine@19039177();
    BEGIN
      NameIndent := Indentation;
    END;

    LOCAL PROCEDURE QuantityOnFormat@19071269(Text@19015373 : Text[1024]);
    BEGIN
      ItemAnalysisMgt.FormatAmount(Text,RoundingFactor);
    END;

    LOCAL PROCEDURE AmountOnFormat@19014598(Text@19024947 : Text[1024]);
    BEGIN
      ItemAnalysisMgt.FormatAmount(Text,RoundingFactor);
    END;

    BEGIN
    END.
  }
}

