OBJECT Page 9221 Res. Gr. Avail. (Serv.) Matrix
{
  OBJECT-PROPERTIES
  {
    Date=21/12/17;
    Time=12:00:00;
    Version List=NAVW111.00.00.19846;
  }
  PROPERTIES
  {
    CaptionML=[ENU=Res.Gr. Availability (Service);
               ENG=Res.Gr. Availability (Service)];
    InsertAllowed=No;
    DeleteAllowed=No;
    LinksAllowed=No;
    SourceTable=Table152;
    PageType=List;
    OnInit=BEGIN
             QtytoallocateEnable := TRUE;
             Field32Visible := TRUE;
             Field31Visible := TRUE;
             Field30Visible := TRUE;
             Field29Visible := TRUE;
             Field28Visible := TRUE;
             Field27Visible := TRUE;
             Field26Visible := TRUE;
             Field25Visible := TRUE;
             Field24Visible := TRUE;
             Field23Visible := TRUE;
             Field22Visible := TRUE;
             Field21Visible := TRUE;
             Field20Visible := TRUE;
             Field19Visible := TRUE;
             Field18Visible := TRUE;
             Field17Visible := TRUE;
             Field16Visible := TRUE;
             Field15Visible := TRUE;
             Field14Visible := TRUE;
             Field13Visible := TRUE;
             Field12Visible := TRUE;
             Field11Visible := TRUE;
             Field10Visible := TRUE;
             Field9Visible := TRUE;
             Field8Visible := TRUE;
             Field7Visible := TRUE;
             Field6Visible := TRUE;
             Field5Visible := TRUE;
             Field4Visible := TRUE;
             Field3Visible := TRUE;
             Field2Visible := TRUE;
             Field1Visible := TRUE;
           END;

    OnOpenPage=BEGIN
                 ServMgtSetup.GET;
               END;

    OnAfterGetRecord=BEGIN
                       MatrixOnAfterGetRecord;
                     END;

    ActionList=ACTIONS
    {
      { 1900000004;0 ;ActionContainer;
                      ActionContainerType=ActionItems }
      { 9       ;1   ;ActionGroup;
                      CaptionML=[ENU=F&unctions;
                                 ENG=F&unctions];
                      Image=Action }
      { 15      ;2   ;Action    ;
                      Name=Allocate;
                      CaptionML=[ENU=&Allocate;
                                 ENG=&Allocate];
                      ToolTipML=[ENU=Specifies the resource groups available to be allocated.;
                                 ENG=Specifies the resource groups available to be allocated.];
                      ApplicationArea=#Service;
                      Image=Allocate;
                      OnAction=BEGIN
                                 IF PeriodType <> PeriodType::Day THEN
                                   ERROR(Text000,SELECTSTR(PeriodType + 1,Text001));

                                 CLEAR(ServOrderAllocMgt);
                                 ServOrderAllocMgt.AllocateDate(
                                   CurrentDocumentType,CurrentDocumentNo,CurrentEntryNo,'',"No.",SelectedDate,QtytoAllocate);
                                 CurrPage.CLOSE;
                               END;
                                }
    }
  }
  CONTROLS
  {
    { 1900000001;0;Container;
                ContainerType=ContentArea }

    { 1102601000;1;Group  ;
                CaptionML=[ENU=General;
                           ENG=General] }

    { 13  ;2   ;Field     ;
                Name=Qtytoallocate;
                CaptionML=[ENU=Qty. To Allocate;
                           ENG=Qty. To Allocate];
                ToolTipML=[ENU=Specifies the quantity to allocate for the resource group.;
                           ENG=Specifies the quantity to allocate for the resource group.];
                ApplicationArea=#Service;
                SourceExpr=QtytoAllocate;
                MinValue=0;
                Enabled=QtytoallocateEnable }

    { 30  ;2   ;Field     ;
                Name=SelectDate;
                CaptionML=[ENU=Selected Day;
                           ENG=Selected Day];
                ToolTipML=[ENU=Specifies the exact date you select for the resource group availability.;
                           ENG=Specifies the exact date you select for the resource group availability.];
                ApplicationArea=#Service;
                SourceExpr=SelectedDate }

    { 1   ;1   ;Group     ;
                Editable=FALSE;
                GroupType=Repeater }

    { 2   ;2   ;Field     ;
                Name=No.;
                ToolTipML=[ENU=Specifies the number of the involved entry or record, according to the specified number series.;
                           ENG=Specifies the number of the involved entry or record, according to the specified number series.];
                ApplicationArea=#Service;
                SourceExpr="No." }

    { 6   ;2   ;Field     ;
                Name=Name;
                ToolTipML=[ENU=Specifies a short description of the resource group.;
                           ENG=Specifies a short description of the resource group.];
                ApplicationArea=#Service;
                SourceExpr=Name }

    { 1011;2   ;Field     ;
                Name=Field1;
                ApplicationArea=#Service;
                SourceExpr=MATRIX_CellData[1];
                CaptionClass='3,' + MatrixColumnCaptions[1];
                Visible=Field1Visible;
                OnDrillDown=BEGIN
                              MatrixOnDrillDown(1);
                            END;
                             }

    { 1012;2   ;Field     ;
                Name=Field2;
                ApplicationArea=#Service;
                SourceExpr=MATRIX_CellData[2];
                CaptionClass='3,' + MatrixColumnCaptions[2];
                Visible=Field2Visible;
                OnDrillDown=BEGIN
                              MatrixOnDrillDown(2);
                            END;
                             }

    { 1013;2   ;Field     ;
                Name=Field3;
                ApplicationArea=#Service;
                SourceExpr=MATRIX_CellData[3];
                CaptionClass='3,' + MatrixColumnCaptions[3];
                Visible=Field3Visible;
                OnDrillDown=BEGIN
                              MatrixOnDrillDown(3);
                            END;
                             }

    { 1014;2   ;Field     ;
                Name=Field4;
                ApplicationArea=#Service;
                SourceExpr=MATRIX_CellData[4];
                CaptionClass='3,' + MatrixColumnCaptions[4];
                Visible=Field4Visible;
                OnDrillDown=BEGIN
                              MatrixOnDrillDown(4);
                            END;
                             }

    { 1015;2   ;Field     ;
                Name=Field5;
                ApplicationArea=#Service;
                SourceExpr=MATRIX_CellData[5];
                CaptionClass='3,' + MatrixColumnCaptions[5];
                Visible=Field5Visible;
                OnDrillDown=BEGIN
                              MatrixOnDrillDown(5);
                            END;
                             }

    { 1016;2   ;Field     ;
                Name=Field6;
                ApplicationArea=#Service;
                SourceExpr=MATRIX_CellData[6];
                CaptionClass='3,' + MatrixColumnCaptions[6];
                Visible=Field6Visible;
                OnDrillDown=BEGIN
                              MatrixOnDrillDown(6);
                            END;
                             }

    { 1017;2   ;Field     ;
                Name=Field7;
                ApplicationArea=#Service;
                SourceExpr=MATRIX_CellData[7];
                CaptionClass='3,' + MatrixColumnCaptions[7];
                Visible=Field7Visible;
                OnDrillDown=BEGIN
                              MatrixOnDrillDown(7);
                            END;
                             }

    { 1018;2   ;Field     ;
                Name=Field8;
                ApplicationArea=#Service;
                SourceExpr=MATRIX_CellData[8];
                CaptionClass='3,' + MatrixColumnCaptions[8];
                Visible=Field8Visible;
                OnDrillDown=BEGIN
                              MatrixOnDrillDown(8);
                            END;
                             }

    { 1019;2   ;Field     ;
                Name=Field9;
                ApplicationArea=#Service;
                SourceExpr=MATRIX_CellData[9];
                CaptionClass='3,' + MatrixColumnCaptions[9];
                Visible=Field9Visible;
                OnDrillDown=BEGIN
                              MatrixOnDrillDown(9);
                            END;
                             }

    { 1020;2   ;Field     ;
                Name=Field10;
                ApplicationArea=#Service;
                SourceExpr=MATRIX_CellData[10];
                CaptionClass='3,' + MatrixColumnCaptions[10];
                Visible=Field10Visible;
                OnDrillDown=BEGIN
                              MatrixOnDrillDown(10);
                            END;
                             }

    { 1021;2   ;Field     ;
                Name=Field11;
                ApplicationArea=#Service;
                SourceExpr=MATRIX_CellData[11];
                CaptionClass='3,' + MatrixColumnCaptions[11];
                Visible=Field11Visible;
                OnDrillDown=BEGIN
                              MatrixOnDrillDown(11);
                            END;
                             }

    { 1022;2   ;Field     ;
                Name=Field12;
                ApplicationArea=#Service;
                SourceExpr=MATRIX_CellData[12];
                CaptionClass='3,' + MatrixColumnCaptions[12];
                Visible=Field12Visible;
                OnDrillDown=BEGIN
                              MatrixOnDrillDown(12);
                            END;
                             }

    { 1023;2   ;Field     ;
                Name=Field13;
                ApplicationArea=#Service;
                SourceExpr=MATRIX_CellData[13];
                CaptionClass='3,' + MatrixColumnCaptions[13];
                Visible=Field13Visible;
                OnDrillDown=BEGIN
                              MatrixOnDrillDown(13);
                            END;
                             }

    { 1024;2   ;Field     ;
                Name=Field14;
                ApplicationArea=#Service;
                SourceExpr=MATRIX_CellData[14];
                CaptionClass='3,' + MatrixColumnCaptions[14];
                Visible=Field14Visible;
                OnDrillDown=BEGIN
                              MatrixOnDrillDown(14);
                            END;
                             }

    { 1025;2   ;Field     ;
                Name=Field15;
                ApplicationArea=#Service;
                SourceExpr=MATRIX_CellData[15];
                CaptionClass='3,' + MatrixColumnCaptions[15];
                Visible=Field15Visible;
                OnDrillDown=BEGIN
                              MatrixOnDrillDown(15);
                            END;
                             }

    { 1026;2   ;Field     ;
                Name=Field16;
                ApplicationArea=#Service;
                SourceExpr=MATRIX_CellData[16];
                CaptionClass='3,' + MatrixColumnCaptions[16];
                Visible=Field16Visible;
                OnDrillDown=BEGIN
                              MatrixOnDrillDown(16);
                            END;
                             }

    { 1027;2   ;Field     ;
                Name=Field17;
                ApplicationArea=#Service;
                SourceExpr=MATRIX_CellData[17];
                CaptionClass='3,' + MatrixColumnCaptions[17];
                Visible=Field17Visible;
                OnDrillDown=BEGIN
                              MatrixOnDrillDown(17);
                            END;
                             }

    { 1028;2   ;Field     ;
                Name=Field18;
                ApplicationArea=#Service;
                SourceExpr=MATRIX_CellData[18];
                CaptionClass='3,' + MatrixColumnCaptions[18];
                Visible=Field18Visible;
                OnDrillDown=BEGIN
                              MatrixOnDrillDown(18);
                            END;
                             }

    { 1029;2   ;Field     ;
                Name=Field19;
                ApplicationArea=#Service;
                SourceExpr=MATRIX_CellData[19];
                CaptionClass='3,' + MatrixColumnCaptions[19];
                Visible=Field19Visible;
                OnDrillDown=BEGIN
                              MatrixOnDrillDown(19);
                            END;
                             }

    { 1030;2   ;Field     ;
                Name=Field20;
                ApplicationArea=#Service;
                SourceExpr=MATRIX_CellData[20];
                CaptionClass='3,' + MatrixColumnCaptions[20];
                Visible=Field20Visible;
                OnDrillDown=BEGIN
                              MatrixOnDrillDown(20);
                            END;
                             }

    { 1031;2   ;Field     ;
                Name=Field21;
                ApplicationArea=#Service;
                SourceExpr=MATRIX_CellData[21];
                CaptionClass='3,' + MatrixColumnCaptions[21];
                Visible=Field21Visible;
                OnDrillDown=BEGIN
                              MatrixOnDrillDown(21);
                            END;
                             }

    { 1032;2   ;Field     ;
                Name=Field22;
                ApplicationArea=#Service;
                SourceExpr=MATRIX_CellData[22];
                CaptionClass='3,' + MatrixColumnCaptions[22];
                Visible=Field22Visible;
                OnDrillDown=BEGIN
                              MatrixOnDrillDown(22);
                            END;
                             }

    { 1033;2   ;Field     ;
                Name=Field23;
                ApplicationArea=#Service;
                SourceExpr=MATRIX_CellData[23];
                CaptionClass='3,' + MatrixColumnCaptions[23];
                Visible=Field23Visible;
                OnDrillDown=BEGIN
                              MatrixOnDrillDown(23);
                            END;
                             }

    { 1034;2   ;Field     ;
                Name=Field24;
                ApplicationArea=#Service;
                SourceExpr=MATRIX_CellData[24];
                CaptionClass='3,' + MatrixColumnCaptions[24];
                Visible=Field24Visible;
                OnDrillDown=BEGIN
                              MatrixOnDrillDown(24);
                            END;
                             }

    { 1035;2   ;Field     ;
                Name=Field25;
                ApplicationArea=#Service;
                SourceExpr=MATRIX_CellData[25];
                CaptionClass='3,' + MatrixColumnCaptions[25];
                Visible=Field25Visible;
                OnDrillDown=BEGIN
                              MatrixOnDrillDown(25);
                            END;
                             }

    { 1036;2   ;Field     ;
                Name=Field26;
                ApplicationArea=#Service;
                SourceExpr=MATRIX_CellData[26];
                CaptionClass='3,' + MatrixColumnCaptions[26];
                Visible=Field26Visible;
                OnDrillDown=BEGIN
                              MatrixOnDrillDown(26);
                            END;
                             }

    { 1037;2   ;Field     ;
                Name=Field27;
                ApplicationArea=#Service;
                SourceExpr=MATRIX_CellData[27];
                CaptionClass='3,' + MatrixColumnCaptions[27];
                Visible=Field27Visible;
                OnDrillDown=BEGIN
                              MatrixOnDrillDown(27);
                            END;
                             }

    { 1038;2   ;Field     ;
                Name=Field28;
                ApplicationArea=#Service;
                SourceExpr=MATRIX_CellData[28];
                CaptionClass='3,' + MatrixColumnCaptions[28];
                Visible=Field28Visible;
                OnDrillDown=BEGIN
                              MatrixOnDrillDown(28);
                            END;
                             }

    { 1039;2   ;Field     ;
                Name=Field29;
                ApplicationArea=#Service;
                SourceExpr=MATRIX_CellData[29];
                CaptionClass='3,' + MatrixColumnCaptions[29];
                Visible=Field29Visible;
                OnDrillDown=BEGIN
                              MatrixOnDrillDown(29);
                            END;
                             }

    { 1040;2   ;Field     ;
                Name=Field30;
                ApplicationArea=#Service;
                SourceExpr=MATRIX_CellData[30];
                CaptionClass='3,' + MatrixColumnCaptions[30];
                Visible=Field30Visible;
                OnDrillDown=BEGIN
                              MatrixOnDrillDown(30);
                            END;
                             }

    { 1041;2   ;Field     ;
                Name=Field31;
                ApplicationArea=#Service;
                SourceExpr=MATRIX_CellData[31];
                CaptionClass='3,' + MatrixColumnCaptions[31];
                Visible=Field31Visible;
                OnDrillDown=BEGIN
                              MatrixOnDrillDown(31);
                            END;
                             }

    { 1042;2   ;Field     ;
                Name=Field32;
                ApplicationArea=#Service;
                SourceExpr=MATRIX_CellData[32];
                CaptionClass='3,' + MatrixColumnCaptions[32];
                Visible=Field32Visible;
                OnDrillDown=BEGIN
                              MatrixOnDrillDown(32);
                            END;
                             }

  }
  CODE
  {
    VAR
      Text000@1084 : TextConst 'ENU=You cannot allocate a resource when selected period is %1.;ENG=You cannot allocate a resource when selected period is %1.';
      MatrixColumnDateFilters@1001 : ARRAY [32] OF Record 2000000007;
      MatrixRec@1002 : Record 152;
      ServMgtSetup@1085 : Record 5911;
      ServOrderAllocMgt@1090 : Codeunit 5930;
      CurrentDocumentType@1091 : Integer;
      CurrentDocumentNo@1092 : Code[20];
      CurrentEntryNo@1094 : Integer;
      SelectedDate@1095 : Date;
      PeriodType@1097 : 'Day,Week,Month,Quarter,Year,Accounting Period';
      QtytoAllocate@1099 : Decimal;
      Text001@1103 : TextConst 'ENU=Day,Week,Month,Quarter,Year,Accounting Period;ENG=Day,Week,Month,Quarter,Year,Accounting Period';
      MATRIX_CellData@1107 : ARRAY [32] OF Text[1024];
      MatrixColumnCaptions@1000 : ARRAY [32] OF Text[100];
      Field1Visible@19069335 : Boolean INDATASET;
      Field2Visible@19014807 : Boolean INDATASET;
      Field3Visible@19062679 : Boolean INDATASET;
      Field4Visible@19074839 : Boolean INDATASET;
      Field5Visible@19043543 : Boolean INDATASET;
      Field6Visible@19067287 : Boolean INDATASET;
      Field7Visible@19067863 : Boolean INDATASET;
      Field8Visible@19039959 : Boolean INDATASET;
      Field9Visible@19008663 : Boolean INDATASET;
      Field10Visible@19006501 : Boolean INDATASET;
      Field11Visible@19052468 : Boolean INDATASET;
      Field12Visible@19013039 : Boolean INDATASET;
      Field13Visible@19079726 : Boolean INDATASET;
      Field14Visible@19077225 : Boolean INDATASET;
      Field15Visible@19035896 : Boolean INDATASET;
      Field16Visible@19003763 : Boolean INDATASET;
      Field17Visible@19049730 : Boolean INDATASET;
      Field18Visible@19007213 : Boolean INDATASET;
      Field19Visible@19053180 : Boolean INDATASET;
      Field20Visible@19014629 : Boolean INDATASET;
      Field21Visible@19060596 : Boolean INDATASET;
      Field22Visible@19021167 : Boolean INDATASET;
      Field23Visible@19047854 : Boolean INDATASET;
      Field24Visible@19045353 : Boolean INDATASET;
      Field25Visible@19004024 : Boolean INDATASET;
      Field26Visible@19011891 : Boolean INDATASET;
      Field27Visible@19057858 : Boolean INDATASET;
      Field28Visible@19015341 : Boolean INDATASET;
      Field29Visible@19061308 : Boolean INDATASET;
      Field30Visible@19010597 : Boolean INDATASET;
      Field31Visible@19056564 : Boolean INDATASET;
      Field32Visible@19017135 : Boolean INDATASET;
      QtytoallocateEnable@19054467 : Boolean INDATASET;

    [Internal]
    PROCEDURE SetData@1109(DocumentType@1003 : Integer;DocumentNo@1000 : Code[20];EntryNo@1002 : Integer;NewMatrixColumnCaptions@1004 : ARRAY [32] OF Text[100];VAR NewMatrixDateFilters@1006 : ARRAY [32] OF Record 2000000007;Period@1007 : 'Day,Week,Month,Quarter,Year,Accounting Period');
    BEGIN
      CurrentDocumentType := DocumentType;
      CurrentDocumentNo := DocumentNo;
      CurrentEntryNo := EntryNo;
      COPYARRAY(MatrixColumnCaptions,NewMatrixColumnCaptions,1);
      COPYARRAY(MatrixColumnDateFilters,NewMatrixDateFilters,1);
      PeriodType := Period;
      SelectedDate := NewMatrixDateFilters[1]."Period Start";
    END;

    LOCAL PROCEDURE MatrixOnAfterGetRecord@4();
    VAR
      I@1000 : Integer;
    BEGIN
      MatrixRec.RESET;

      MatrixRec.SETRANGE("No.","No.");

      FOR I := 1 TO ARRAYLEN(MatrixColumnDateFilters) DO BEGIN
        MATRIX_CellData[I] := '';
        MatrixRec.SETRANGE("Date Filter",MatrixColumnDateFilters[I]."Period Start",
          MatrixColumnDateFilters[I]."Period End");
        IF MatrixRec.FIND('-') THEN
          REPEAT
            MatrixRec.CALCFIELDS(Capacity,"Qty. on Service Order");
            IF MatrixRec.Capacity <> 0 THEN
              MATRIX_CellData[I] := FORMAT(MatrixRec.Capacity - MatrixRec."Qty. on Service Order")
            ELSE
              MATRIX_CellData[I] := '';
          UNTIL MatrixRec.NEXT = 0;
      END;
      SetVisible;
    END;

    LOCAL PROCEDURE MatrixOnDrillDown@7(Column@1000 : Integer);
    VAR
      ResGr@1004 : Record 152;
      ResGrAvailOverview@1003 : Page 6011;
    BEGIN
      CLEAR(ResGr);
      CLEAR(ResGrAvailOverview);
      ResGr.SETRANGE("No.","No.");
      ResGr.SETRANGE("Date Filter",MatrixColumnDateFilters[Column]."Period Start",
        MatrixColumnDateFilters[Column]."Period End");
      ResGrAvailOverview.SETTABLEVIEW(ResGr);
      ResGrAvailOverview.SETRECORD(ResGr);
      ResGrAvailOverview.RUNMODAL;
    END;

    [External]
    PROCEDURE SetVisible@6();
    BEGIN
      Field1Visible := MatrixColumnCaptions[1] <> '';
      Field2Visible := MatrixColumnCaptions[2] <> '';
      Field3Visible := MatrixColumnCaptions[3] <> '';
      Field4Visible := MatrixColumnCaptions[4] <> '';
      Field5Visible := MatrixColumnCaptions[5] <> '';
      Field6Visible := MatrixColumnCaptions[6] <> '';
      Field7Visible := MatrixColumnCaptions[7] <> '';
      Field8Visible := MatrixColumnCaptions[8] <> '';
      Field9Visible := MatrixColumnCaptions[9] <> '';
      Field10Visible := MatrixColumnCaptions[10] <> '';
      Field11Visible := MatrixColumnCaptions[11] <> '';
      Field12Visible := MatrixColumnCaptions[12] <> '';
      Field13Visible := MatrixColumnCaptions[13] <> '';
      Field14Visible := MatrixColumnCaptions[14] <> '';
      Field15Visible := MatrixColumnCaptions[15] <> '';
      Field16Visible := MatrixColumnCaptions[16] <> '';
      Field17Visible := MatrixColumnCaptions[17] <> '';
      Field18Visible := MatrixColumnCaptions[18] <> '';
      Field19Visible := MatrixColumnCaptions[19] <> '';
      Field20Visible := MatrixColumnCaptions[20] <> '';
      Field21Visible := MatrixColumnCaptions[21] <> '';
      Field22Visible := MatrixColumnCaptions[22] <> '';
      Field23Visible := MatrixColumnCaptions[23] <> '';
      Field24Visible := MatrixColumnCaptions[24] <> '';
      Field25Visible := MatrixColumnCaptions[25] <> '';
      Field26Visible := MatrixColumnCaptions[26] <> '';
      Field27Visible := MatrixColumnCaptions[27] <> '';
      Field28Visible := MatrixColumnCaptions[28] <> '';
      Field29Visible := MatrixColumnCaptions[29] <> '';
      Field30Visible := MatrixColumnCaptions[30] <> '';
      Field31Visible := MatrixColumnCaptions[31] <> '';
      Field32Visible := MatrixColumnCaptions[32] <> '';
    END;

    BEGIN
    END.
  }
}

