OBJECT Page 99000793 Family Line List
{
  OBJECT-PROPERTIES
  {
    Date=22/11/17;
    Time=12:00:00;
    Version List=NAVW111.00;
  }
  PROPERTIES
  {
    Editable=No;
    CaptionML=[ENU=Family Line List;
               ENG=Family Line List];
    SourceTable=Table99000774;
    PageType=List;
  }
  CONTROLS
  {
    { 1900000001;0;Container;
                ContainerType=ContentArea }

    { 1   ;1   ;Group     ;
                GroupType=Repeater }

    { 4   ;2   ;Field     ;
                ToolTipML=[ENU=Specifies the line number of the product family line.;
                           ENG=Specifies the line number of the product family line.];
                ApplicationArea=#Manufacturing;
                SourceExpr="Line No.";
                Visible=FALSE }

    { 15  ;2   ;Field     ;
                ToolTipML=[ENU=Specifies which items belong to a family.;
                           ENG=Specifies which items belong to a family.];
                ApplicationArea=#Manufacturing;
                SourceExpr="Item No." }

    { 2   ;2   ;Field     ;
                ToolTipML=[ENU=Specifies a description for the product family line.;
                           ENG=Specifies a description for the product family line.];
                ApplicationArea=#Manufacturing;
                SourceExpr=Description }

    { 6   ;2   ;Field     ;
                ToolTipML=[ENU=Specifies an extended description if there is not enough space in the Description field.;
                           ENG=Specifies an extended description if there is not enough space in the Description field.];
                ApplicationArea=#Manufacturing;
                SourceExpr="Description 2";
                Visible=FALSE }

    { 8   ;2   ;Field     ;
                ToolTipML=[ENU=Specifies how each unit of the item or resource is measured, such as in pieces or hours. By default, the value in the Base Unit of Measure field on the item or resource card is inserted.;
                           ENG=Specifies how each unit of the item or resource is measured, such as in pieces or hours. By default, the value in the Base Unit of Measure field on the item or resource card is inserted.];
                ApplicationArea=#Manufacturing;
                SourceExpr="Unit of Measure Code" }

    { 10  ;2   ;Field     ;
                ToolTipML=[ENU=Specifies the quantity for the item in this family line.;
                           ENG=Specifies the quantity for the item in this family line.];
                ApplicationArea=#Manufacturing;
                SourceExpr=Quantity }

    { 1900000007;0;Container;
                ContainerType=FactBoxArea }

    { 1900383207;1;Part   ;
                Visible=FALSE;
                PartType=System;
                SystemPartID=RecordLinks }

    { 1905767507;1;Part   ;
                Visible=FALSE;
                PartType=System;
                SystemPartID=Notes }

  }
  CODE
  {

    BEGIN
    END.
  }
}

