OBJECT Page 9313 Warehouse Picks
{
  OBJECT-PROPERTIES
  {
    Date=21/12/17;
    Time=12:00:00;
    Version List=NAVW111.00.00.19846;
  }
  PROPERTIES
  {
    Editable=No;
    CaptionML=[ENU=Warehouse Picks;
               ENG=Warehouse Picks];
    SourceTable=Table5766;
    SourceTableView=WHERE(Type=CONST(Pick));
    PageType=List;
    CardPageID=Warehouse Pick;
    OnOpenPage=BEGIN
                 ErrorIfUserIsNotWhseEmployee;
               END;

    OnFindRecord=BEGIN
                   EXIT(FindFirstAllowedRec(Which));
                 END;

    OnNextRecord=BEGIN
                   EXIT(FindNextAllowedRec(Steps));
                 END;

    ActionList=ACTIONS
    {
      { 1900000003;0 ;ActionContainer;
                      ActionContainerType=RelatedInformation }
      { 1102601010;1 ;ActionGroup;
                      CaptionML=[ENU=P&ick;
                                 ENG=P&ick];
                      Image=CreateInventoryPickup }
      { 1102601012;2 ;Action    ;
                      CaptionML=[ENU=Co&mments;
                                 ENG=Co&mments];
                      ToolTipML=[ENU=View or add comments for the record.;
                                 ENG=View or add comments for the record.];
                      ApplicationArea=#Warehouse;
                      RunObject=Page 5776;
                      RunPageLink=Table Name=CONST(Whse. Activity Header),
                                  Type=FIELD(Type),
                                  No.=FIELD(No.);
                      Image=ViewComments }
      { 1102601013;2 ;Action    ;
                      CaptionML=[ENU=Registered Picks;
                                 ENG=Registered Picks];
                      ToolTipML=[ENU=View the quantities that have already been picked.;
                                 ENG=View the quantities that have already been picked.];
                      ApplicationArea=#Warehouse;
                      RunObject=Page 5797;
                      RunPageView=SORTING(Whse. Activity No.);
                      RunPageLink=Type=FIELD(Type),
                                  Whse. Activity No.=FIELD(No.);
                      Image=RegisteredDocs }
    }
  }
  CONTROLS
  {
    { 1900000001;0;Container;
                ContainerType=ContentArea }

    { 1   ;1   ;Group     ;
                GroupType=Repeater }

    { 2   ;2   ;Field     ;
                ToolTipML=[ENU=Specifies the number of the involved entry or record, according to the specified number series.;
                           ENG=Specifies the number of the involved entry or record, according to the specified number series.];
                ApplicationArea=#Warehouse;
                SourceExpr="No." }

    { 25  ;2   ;Field     ;
                ToolTipML=[ENU=Specifies the type of document that the line relates to.;
                           ENG=Specifies the type of document that the line relates to.];
                ApplicationArea=#Warehouse;
                SourceExpr="Source Document" }

    { 27  ;2   ;Field     ;
                ToolTipML=[ENU=Specifies the number of the source document that the entry originates from.;
                           ENG=Specifies the number of the source document that the entry originates from.];
                ApplicationArea=#Warehouse;
                SourceExpr="Source No." }

    { 15  ;2   ;Field     ;
                ToolTipML=[ENU=Specifies the type of activity, such as Put-away, that the warehouse performs on the lines that are attached to the header.;
                           ENG=Specifies the type of activity, such as Put-away, that the warehouse performs on the lines that are attached to the header.];
                ApplicationArea=#Warehouse;
                SourceExpr=Type;
                Visible=FALSE }

    { 4   ;2   ;Field     ;
                ToolTipML=[ENU=Specifies the code for the location where the warehouse activity takes place.;
                           ENG=Specifies the code for the location where the warehouse activity takes place.];
                ApplicationArea=#Warehouse;
                SourceExpr="Location Code" }

    { 8   ;2   ;Field     ;
                ToolTipML=[ENU=Specifies information about the type of destination, such as customer or vendor, associated with the warehouse activity.;
                           ENG=Specifies information about the type of destination, such as customer or vendor, associated with the warehouse activity.];
                ApplicationArea=#Warehouse;
                SourceExpr="Destination Type" }

    { 10  ;2   ;Field     ;
                ToolTipML=[ENU=Specifies the number or the code of the customer or vendor that the line is linked to.;
                           ENG=Specifies the number or the code of the customer or vendor that the line is linked to.];
                ApplicationArea=#Warehouse;
                SourceExpr="Destination No." }

    { 23  ;2   ;Field     ;
                ToolTipML=[ENU=Specifies a document number that refers to the customer's or vendor's numbering system.;
                           ENG=Specifies a document number that refers to the customer's or vendor's numbering system.];
                ApplicationArea=#Warehouse;
                SourceExpr="External Document No." }

    { 19  ;2   ;Field     ;
                ToolTipML=[ENU=Specifies the ID of the user who is responsible for the document.;
                           ENG=Specifies the ID of the user who is responsible for the document.];
                ApplicationArea=#Warehouse;
                SourceExpr="Assigned User ID";
                Visible=FALSE }

    { 21  ;2   ;Field     ;
                ToolTipML=[ENU=Specifies the number of lines in the warehouse activity document.;
                           ENG=Specifies the number of lines in the warehouse activity document.];
                ApplicationArea=#Warehouse;
                SourceExpr="No. of Lines" }

    { 6   ;2   ;Field     ;
                ToolTipML=[ENU=Specifies the method by which the lines are sorted on the warehouse header, such as Item or Document.;
                           ENG=Specifies the method by which the lines are sorted on the warehouse header, such as Item or Document.];
                ApplicationArea=#Warehouse;
                SourceExpr="Sorting Method";
                Visible=FALSE }

    { 1102601000;2;Field  ;
                ToolTipML=[ENU=Specifies the date when the user was assigned the activity.;
                           ENG=Specifies the date when the user was assigned the activity.];
                ApplicationArea=#Warehouse;
                SourceExpr="Assignment Date";
                Visible=FALSE }

    { 1900000007;0;Container;
                ContainerType=FactBoxArea }

    { 1900383207;1;Part   ;
                Visible=FALSE;
                PartType=System;
                SystemPartID=RecordLinks }

    { 1905767507;1;Part   ;
                Visible=TRUE;
                PartType=System;
                SystemPartID=Notes }

  }
  CODE
  {

    BEGIN
    END.
  }
}

