OBJECT Page 9505 Debugger Breakpoint List
{
  OBJECT-PROPERTIES
  {
    Date=22/11/17;
    Time=12:00:00;
    Version List=NAVW111.00;
  }
  PROPERTIES
  {
    CaptionML=[ENU=Debugger Breakpoint List;
               ENG=Debugger Breakpoint List];
    LinksAllowed=No;
    SourceTable=Table2000000100;
    DelayedInsert=Yes;
    SourceTableView=SORTING(Object Type,Object ID,Line No.,Column No.)
                    ORDER(Ascending);
    PageType=List;
    RefreshOnActivate=Yes;
    PromotedActionCategoriesML=[ENU=New,Process,Report,Conditions For Break;
                                ENG=New,Process,Report,Conditions For Break];
    ActionList=ACTIONS
    {
      { 13      ;    ;ActionContainer;
                      Name=Breakpoint Actions;
                      ActionContainerType=ActionItems }
      { 3       ;1   ;Separator  }
      { 19      ;1   ;ActionGroup;
                      Name=Breakpoint;
                      CaptionML=[ENU=Breakpoint;
                                 ENG=Breakpoint] }
      { 4       ;2   ;Action    ;
                      Name=Enable;
                      CaptionML=[ENU=Enable;
                                 ENG=Enable];
                      ToolTipML=[ENU=Enable the selected breakpoints.;
                                 ENG=Enable the selected breakpoints.];
                      ApplicationArea=#All;
                      Promoted=Yes;
                      PromotedIsBig=Yes;
                      Image=EnableBreakpoint;
                      PromotedCategory=Process;
                      OnAction=VAR
                                 DebuggerBreakpoint@1000 : Record 2000000100;
                               BEGIN
                                 CurrPage.SETSELECTIONFILTER(DebuggerBreakpoint);
                                 DebuggerBreakpoint.MODIFYALL(Enabled,TRUE,TRUE);
                               END;
                                }
      { 8       ;2   ;Action    ;
                      Name=Disable;
                      CaptionML=[ENU=Disable;
                                 ENG=Disable];
                      ToolTipML=[ENU=Disable the selected breakpoints.;
                                 ENG=Disable the selected breakpoints.];
                      ApplicationArea=#All;
                      Promoted=Yes;
                      PromotedIsBig=Yes;
                      Image=DisableBreakpoint;
                      PromotedCategory=Process;
                      OnAction=VAR
                                 DebuggerBreakpoint@1000 : Record 2000000100;
                               BEGIN
                                 CurrPage.SETSELECTIONFILTER(DebuggerBreakpoint);
                                 DebuggerBreakpoint.MODIFYALL(Enabled,FALSE,TRUE);
                               END;
                                }
      { 10      ;2   ;Action    ;
                      Name=Enable All;
                      CaptionML=[ENU=Enable All;
                                 ENG=Enable All];
                      ToolTipML=[ENU=Enable all breakpoints in the breakpoint list.;
                                 ENG=Enable all breakpoints in the breakpoint list.];
                      ApplicationArea=#All;
                      Promoted=Yes;
                      Image=EnableAllBreakpoints;
                      PromotedCategory=Process;
                      OnAction=BEGIN
                                 MODIFYALL(Enabled,TRUE,TRUE);
                               END;
                                }
      { 9       ;2   ;Action    ;
                      Name=Disable All;
                      CaptionML=[ENU=Disable All;
                                 ENG=Disable All];
                      ToolTipML=[ENU=Disable all breakpoints in the breakpoint list.;
                                 ENG=Disable all breakpoints in the breakpoint list.];
                      ApplicationArea=#All;
                      Promoted=Yes;
                      Image=DisableAllBreakpoints;
                      PromotedCategory=Process;
                      OnAction=BEGIN
                                 MODIFYALL(Enabled,FALSE,TRUE);
                               END;
                                }
      { 11      ;2   ;Action    ;
                      Name=Delete All;
                      CaptionML=[ENU=Delete All;
                                 ENG=Delete All];
                      ToolTipML=[ENU=Delete all breakpoints in the breakpoint list.;
                                 ENG=Delete all breakpoints in the breakpoint list.];
                      ApplicationArea=#All;
                      Promoted=Yes;
                      Image=DeleteAllBreakpoints;
                      PromotedCategory=Process;
                      OnAction=VAR
                                 DebuggerBreakpoint@1001 : Record 2000000100;
                               BEGIN
                                 IF NOT CONFIRM(Text000,FALSE) THEN
                                   EXIT;

                                 DebuggerBreakpoint.DELETEALL(TRUE);
                               END;
                                }
    }
  }
  CONTROLS
  {
    { 1   ;0   ;Container ;
                ContainerType=ContentArea }

    { 2   ;1   ;Group     ;
                Name=Group;
                GroupType=Repeater }

    { 5   ;2   ;Field     ;
                CaptionML=[ENU=Object Type;
                           ENG=Object Type];
                ToolTipML=[ENU=Specifies the type of the object where the breakpoint is set.;
                           ENG=Specifies the type of the object where the breakpoint is set.];
                ApplicationArea=#All;
                SourceExpr="Object Type" }

    { 6   ;2   ;Field     ;
                CaptionML=[ENU=Object ID;
                           ENG=Object ID];
                ToolTipML=[ENU=Specifies the ID of the object on which the breakpoint is set.;
                           ENG=Specifies the ID of the object on which the breakpoint is set.];
                ApplicationArea=#All;
                SourceExpr="Object ID" }

    { 12  ;2   ;Field     ;
                CaptionML=[ENU=Object Name;
                           ENG=Object Name];
                ToolTipML=[ENU=Specifies the name of the object in which the breakpoint is set.;
                           ENG=Specifies the name of the object in which the breakpoint is set.];
                ApplicationArea=#All;
                SourceExpr="Object Name";
                Editable=FALSE }

    { 7   ;2   ;Field     ;
                CaptionML=[ENU=Line No.;
                           ENG=Line No.];
                ToolTipML=[ENU=Specifies the line of code within the object on which the breakpoint is set. This is the absolute line number for lines of code in the object.;
                           ENG=Specifies the line of code within the object on which the breakpoint is set. This is the absolute line number for lines of code in the object.];
                ApplicationArea=#All;
                SourceExpr="Line No." }

    { 21  ;2   ;Field     ;
                CaptionML=[ENU=Function Name;
                           ENG=Function Name];
                ToolTipML=[ENU=Specifies the name of the function.;
                           ENG=Specifies the name of the function.];
                ApplicationArea=#All;
                SourceExpr="Function Name";
                Editable=FALSE }

    { 14  ;2   ;Field     ;
                CaptionML=[ENU=Enabled;
                           ENG=Enabled];
                ToolTipML=[ENU=Specifies if the breakpoint is enabled.;
                           ENG=Specifies if the breakpoint is enabled.];
                ApplicationArea=#All;
                SourceExpr=Enabled }

    { 18  ;2   ;Field     ;
                CaptionML=[ENU=Condition;
                           ENG=Condition];
                ToolTipML=[ENU=Specifies the condition that is set on the breakpoint.;
                           ENG=Specifies the condition that is set on the breakpoint.];
                ApplicationArea=#All;
                SourceExpr=Condition }

  }
  CODE
  {
    VAR
      Text000@1000 : TextConst '@@@=Asked when choosing the Delete All action for breakpoints.;ENU=Are you sure that you want to delete all breakpoints?;ENG=Are you sure that you want to delete all breakpoints?';

    BEGIN
    END.
  }
}

