OBJECT Page 9823 User Plan Members FactBox
{
  OBJECT-PROPERTIES
  {
    Date=25/10/16;
    Time=12:00:00;
    Version List=NAVW110.00;
  }
  PROPERTIES
  {
    Editable=No;
    CaptionML=[ENU=Users in Plan;
               ENG=Users in Plan];
    SourceTable=Table9005;
    PageType=ListPart;
  }
  CONTROLS
  {
    { 1   ;0   ;Container ;
                ContainerType=ContentArea }

    { 2   ;1   ;Group     ;
                Name=Group;
                GroupType=Repeater }

    { 3   ;2   ;Field     ;
                ToolTipML=[ENU=Specifies the short name for the user.;
                           ENG=Specifies the short name for the user.];
                ApplicationArea=#All;
                SourceExpr="User Name" }

    { 5   ;2   ;Field     ;
                ToolTipML=[ENU=Specifies the subscription plan.;
                           ENG=Specifies the subscription plan.];
                ApplicationArea=#Basic,#Suite;
                SourceExpr="Plan Name" }

  }
  CODE
  {

    BEGIN
    END.
  }
}

