OBJECT Page 99000815 Production Order List
{
  OBJECT-PROPERTIES
  {
    Date=21/12/17;
    Time=12:00:00;
    Version List=NAVW111.00.00.19846;
  }
  PROPERTIES
  {
    Editable=No;
    CaptionML=[ENU=Production Order List;
               ENG=Production Order List];
    SourceTable=Table5405;
    DataCaptionFields=Status;
    PageType=List;
    ActionList=ACTIONS
    {
      { 1900000003;0 ;ActionContainer;
                      ActionContainerType=RelatedInformation }
      { 10      ;1   ;ActionGroup;
                      CaptionML=[ENU=Pro&d. Order;
                                 ENG=Pro&d. Order];
                      Image=Order }
      { 11      ;2   ;Action    ;
                      ShortCutKey=Shift+F7;
                      CaptionML=[ENU=Card;
                                 ENG=Card];
                      ToolTipML=[ENU=View or change detailed information about the record on the document or journal line.;
                                 ENG=View or change detailed information about the record on the document or journal line.];
                      ApplicationArea=#Manufacturing;
                      Image=EditLines;
                      OnAction=BEGIN
                                 CASE Status OF
                                   Status::Simulated:
                                     PAGE.RUN(PAGE::"Simulated Production Order",Rec);
                                   Status::Planned:
                                     PAGE.RUN(PAGE::"Planned Production Order",Rec);
                                   Status::"Firm Planned":
                                     PAGE.RUN(PAGE::"Firm Planned Prod. Order",Rec);
                                   Status::Released:
                                     PAGE.RUN(PAGE::"Released Production Order",Rec);
                                   Status::Finished:
                                     PAGE.RUN(PAGE::"Finished Production Order",Rec);
                                 END;
                               END;
                                }
      { 12      ;2   ;ActionGroup;
                      CaptionML=[ENU=E&ntries;
                                 ENG=E&ntries];
                      Image=Entries }
      { 13      ;3   ;Action    ;
                      ShortCutKey=Ctrl+F7;
                      CaptionML=[ENU=Item Ledger E&ntries;
                                 ENG=Item Ledger E&ntries];
                      ToolTipML=[ENU=View the item ledger entries of the item on the document or journal line.;
                                 ENG=View the item ledger entries of the item on the document or journal line.];
                      ApplicationArea=#Manufacturing;
                      RunObject=Page 38;
                      RunPageView=SORTING(Order Type,Order No.);
                      RunPageLink=Order Type=CONST(Production),
                                  Order No.=FIELD(No.);
                      Image=ItemLedger }
      { 27      ;3   ;Action    ;
                      CaptionML=[ENU=Capacity Ledger Entries;
                                 ENG=Capacity Ledger Entries];
                      ToolTipML=[ENU=View the capacity ledger entries of the involved production order. Capacity is recorded either as time (run time, stop time, or setup time) or as quantity (scrap quantity or output quantity).;
                                 ENG=View the capacity ledger entries of the involved production order. Capacity is recorded either as time (run time, stop time, or setup time) or as quantity (scrap quantity or output quantity).];
                      ApplicationArea=#Manufacturing;
                      RunObject=Page 5832;
                      RunPageView=SORTING(Order Type,Order No.);
                      RunPageLink=Order Type=CONST(Production),
                                  Order No.=FIELD(No.);
                      Image=CapacityLedger }
      { 28      ;3   ;Action    ;
                      CaptionML=[ENU=Value Entries;
                                 ENG=Value Entries];
                      ToolTipML=[ENU=View the value entries of the item on the document or journal line.;
                                 ENG=View the value entries of the item on the document or journal line.];
                      ApplicationArea=#Manufacturing;
                      RunObject=Page 5802;
                      RunPageView=SORTING(Order Type,Order No.);
                      RunPageLink=Order Type=CONST(Production),
                                  Order No.=FIELD(No.);
                      Image=ValueLedger }
      { 33      ;3   ;Action    ;
                      CaptionML=[ENU=&Warehouse Entries;
                                 ENG=&Warehouse Entries];
                      ToolTipML=[ENU="View the history of quantities that are registered for the item in warehouse activities. ";
                                 ENG="View the history of quantities that are registered for the item in warehouse activities. "];
                      ApplicationArea=#Warehouse;
                      RunObject=Page 7318;
                      RunPageView=SORTING(Source Type,Source Subtype,Source No.);
                      RunPageLink=Source Type=FILTER(83|5407),
                                  Source Subtype=FILTER(3|4|5),
                                  Source No.=FIELD(No.);
                      Image=BinLedger }
      { 29      ;2   ;Action    ;
                      CaptionML=[ENU=Co&mments;
                                 ENG=Co&mments];
                      ToolTipML=[ENU=View or add comments for the record.;
                                 ENG=View or add comments for the record.];
                      ApplicationArea=#Manufacturing;
                      RunObject=Page 99000838;
                      RunPageLink=Status=FIELD(Status),
                                  Prod. Order No.=FIELD(No.);
                      Image=ViewComments }
      { 30      ;2   ;Action    ;
                      AccessByPermission=TableData 348=R;
                      ShortCutKey=Shift+Ctrl+D;
                      CaptionML=[ENU=Dimensions;
                                 ENG=Dimensions];
                      ToolTipML=[ENU=View or edit dimensions, such as area, project, or department, that you can assign to sales and purchase documents to distribute costs and analyze transaction history.;
                                 ENG=View or edit dimensions, such as area, project, or department, that you can assign to sales and purchase documents to distribute costs and analyse transaction history.];
                      ApplicationArea=#Dimensions;
                      Image=Dimensions;
                      OnAction=BEGIN
                                 ShowDocDim;
                                 CurrPage.SAVERECORD;
                               END;
                                }
      { 32      ;2   ;Action    ;
                      ShortCutKey=F7;
                      CaptionML=[ENU=Statistics;
                                 ENG=Statistics];
                      ToolTipML=[ENU=View statistical information, such as the value of posted entries, for the record.;
                                 ENG=View statistical information, such as the value of posted entries, for the record.];
                      ApplicationArea=#Manufacturing;
                      RunObject=Page 99000816;
                      RunPageLink=Status=FIELD(Status),
                                  No.=FIELD(No.),
                                  Date Filter=FIELD(Date Filter);
                      Promoted=Yes;
                      Image=Statistics;
                      PromotedCategory=Process }
    }
  }
  CONTROLS
  {
    { 1900000001;0;Container;
                ContainerType=ContentArea }

    { 1   ;1   ;Group     ;
                GroupType=Repeater }

    { 2   ;2   ;Field     ;
                Lookup=No;
                ToolTipML=[ENU=Specifies the number of the involved entry or record, according to the specified number series.;
                           ENG=Specifies the number of the involved entry or record, according to the specified number series.];
                ApplicationArea=#Manufacturing;
                SourceExpr="No." }

    { 4   ;2   ;Field     ;
                ToolTipML=[ENU=Specifies the description of the production order.;
                           ENG=Specifies the description of the production order.];
                ApplicationArea=#Manufacturing;
                SourceExpr=Description }

    { 6   ;2   ;Field     ;
                ToolTipML=[ENU=Specifies the number of the source document that the entry originates from.;
                           ENG=Specifies the number of the source document that the entry originates from.];
                ApplicationArea=#Manufacturing;
                SourceExpr="Source No." }

    { 8   ;2   ;Field     ;
                ToolTipML=[ENU=Specifies the routing number used for this production order.;
                           ENG=Specifies the routing number used for this production order.];
                ApplicationArea=#Manufacturing;
                SourceExpr="Routing No." }

    { 45  ;2   ;Field     ;
                ToolTipML=[ENU=Specifies how many units of the item or the family to produce (production quantity).;
                           ENG=Specifies how many units of the item or the family to produce (production quantity).];
                ApplicationArea=#Manufacturing;
                SourceExpr=Quantity }

    { 49  ;2   ;Field     ;
                ToolTipML=[ENU=Specifies the code for Shortcut Dimension 1, which is one of two global dimension codes that you set up in the General Ledger Setup window.;
                           ENG=Specifies the code for Shortcut Dimension 1, which is one of two global dimension codes that you set up in the General Ledger Setup window.];
                ApplicationArea=#Dimensions;
                SourceExpr="Shortcut Dimension 1 Code";
                Visible=FALSE }

    { 51  ;2   ;Field     ;
                ToolTipML=[ENU=Specifies the code for Shortcut Dimension 2, which is one of two global dimension codes that you set up in the General Ledger Setup window.;
                           ENG=Specifies the code for Shortcut Dimension 2, which is one of two global dimension codes that you set up in the General Ledger Setup window.];
                ApplicationArea=#Dimensions;
                SourceExpr="Shortcut Dimension 2 Code";
                Visible=FALSE }

    { 53  ;2   ;Field     ;
                ToolTipML=[ENU=Specifies the location code to which you want to post the finished product from this production order.;
                           ENG=Specifies the location code to which you want to post the finished product from this production order.];
                ApplicationArea=#Location;
                SourceExpr="Location Code";
                Visible=FALSE }

    { 14  ;2   ;Field     ;
                ToolTipML=[ENU=Specifies the starting time of the production order.;
                           ENG=Specifies the starting time of the production order.];
                ApplicationArea=#Manufacturing;
                SourceExpr="Starting Time";
                Visible=FALSE }

    { 16  ;2   ;Field     ;
                ToolTipML=[ENU=Specifies the starting date of the production order.;
                           ENG=Specifies the starting date of the production order.];
                ApplicationArea=#Manufacturing;
                SourceExpr="Starting Date" }

    { 18  ;2   ;Field     ;
                ToolTipML=[ENU=Specifies the ending time of the production order.;
                           ENG=Specifies the ending time of the production order.];
                ApplicationArea=#Manufacturing;
                SourceExpr="Ending Time";
                Visible=FALSE }

    { 20  ;2   ;Field     ;
                ToolTipML=[ENU=Specifies the ending date of the production order.;
                           ENG=Specifies the ending date of the production order.];
                ApplicationArea=#Manufacturing;
                SourceExpr="Ending Date" }

    { 22  ;2   ;Field     ;
                ToolTipML=[ENU=Specifies the due date of the production order.;
                           ENG=Specifies the due date of the production order.];
                ApplicationArea=#Manufacturing;
                SourceExpr="Due Date" }

    { 34  ;2   ;Field     ;
                ToolTipML=[ENU=Specifies the ID of the user who is responsible for the document.;
                           ENG=Specifies the ID of the user who is responsible for the document.];
                ApplicationArea=#Manufacturing;
                SourceExpr="Assigned User ID" }

    { 41  ;2   ;Field     ;
                ToolTipML=[ENU=Specifies the actual finishing date of a finished production order.;
                           ENG=Specifies the actual finishing date of a finished production order.];
                ApplicationArea=#Manufacturing;
                SourceExpr="Finished Date";
                Visible=FALSE }

    { 43  ;2   ;Field     ;
                ToolTipML=[ENU=Specifies the status of the production order.;
                           ENG=Specifies the status of the production order.];
                ApplicationArea=#Manufacturing;
                SourceExpr=Status }

    { 65  ;2   ;Field     ;
                ToolTipML=[ENU=Specifies the search description.;
                           ENG=Specifies the search description.];
                ApplicationArea=#Manufacturing;
                SourceExpr="Search Description" }

    { 1900000007;0;Container;
                ContainerType=FactBoxArea }

    { 1900383207;1;Part   ;
                Visible=FALSE;
                PartType=System;
                SystemPartID=RecordLinks }

    { 1905767507;1;Part   ;
                Visible=FALSE;
                PartType=System;
                SystemPartID=Notes }

  }
  CODE
  {

    BEGIN
    END.
  }
}

