OBJECT Page 9304 Sales Return Order List
{
  OBJECT-PROPERTIES
  {
    Date=21/12/17;
    Time=12:00:00;
    Version List=NAVW111.00.00.19846;
  }
  PROPERTIES
  {
    Editable=No;
    CaptionML=[ENU=Sales Return Orders;
               ENG=Sales Return Orders];
    SourceTable=Table36;
    SourceTableView=WHERE(Document Type=CONST(Return Order));
    DataCaptionFields=Sell-to Customer No.;
    PageType=List;
    CardPageID=Sales Return Order;
    RefreshOnActivate=Yes;
    PromotedActionCategoriesML=[ENU=New,Process,Report,Request Approval,Release;
                                ENG=New,Process,Report,Request Approval,Release];
    OnOpenPage=VAR
                 SalesSetup@1000 : Record 311;
               BEGIN
                 SetSecurityFilterOnRespCenter;

                 JobQueueActive := SalesSetup.JobQueueActive;

                 CopySellToCustomerFilter;
               END;

    OnAfterGetCurrRecord=BEGIN
                           SetControlAppearance;
                         END;

    ActionList=ACTIONS
    {
      { 1900000003;0 ;ActionContainer;
                      ActionContainerType=RelatedInformation }
      { 1102601026;1 ;ActionGroup;
                      CaptionML=[ENU=&Return Order;
                                 ENG=&Return Order];
                      Image=Return }
      { 1102601028;2 ;Action    ;
                      Name=Statistics;
                      ShortCutKey=F7;
                      CaptionML=[ENU=Statistics;
                                 ENG=Statistics];
                      ToolTipML=[ENU=View statistical information, such as the value of posted entries, for the record.;
                                 ENG=View statistical information, such as the value of posted entries, for the record.];
                      ApplicationArea=#SalesReturnOrder;
                      Promoted=Yes;
                      PromotedIsBig=Yes;
                      Image=Statistics;
                      PromotedCategory=Process;
                      PromotedOnly=Yes;
                      OnAction=BEGIN
                                 OpenSalesOrderStatistics;
                               END;
                                }
      { 1102601033;2 ;Action    ;
                      AccessByPermission=TableData 348=R;
                      ShortCutKey=Shift+Ctrl+D;
                      CaptionML=[ENU=Dimensions;
                                 ENG=Dimensions];
                      ToolTipML=[ENU=View or edit dimensions, such as area, project, or department, that you can assign to sales and purchase documents to distribute costs and analyze transaction history.;
                                 ENG=View or edit dimensions, such as area, project, or department, that you can assign to sales and purchase documents to distribute costs and analyse transaction history.];
                      ApplicationArea=#Dimensions;
                      Promoted=No;
                      PromotedIsBig=No;
                      Image=Dimensions;
                      OnAction=BEGIN
                                 ShowDocDim;
                               END;
                                }
      { 1102601034;2 ;Action    ;
                      Name=Approvals;
                      AccessByPermission=TableData 454=R;
                      CaptionML=[ENU=Approvals;
                                 ENG=Approvals];
                      ToolTipML=[ENU=View a list of the records that are waiting to be approved. For example, you can see who requested the record to be approved, when it was sent, and when it is due to be approved.;
                                 ENG=View a list of the records that are waiting to be approved. For example, you can see who requested the record to be approved, when it was sent, and when it is due to be approved.];
                      ApplicationArea=#Suite;
                      Image=Approvals;
                      OnAction=VAR
                                 WorkflowsEntriesBuffer@1000 : Record 832;
                               BEGIN
                                 WorkflowsEntriesBuffer.RunWorkflowEntriesPage(RECORDID,DATABASE::"Sales Header","Document Type","No.");
                               END;
                                }
      { 1102601030;2 ;Action    ;
                      CaptionML=[ENU=Co&mments;
                                 ENG=Co&mments];
                      ToolTipML=[ENU=View or add comments for the record.;
                                 ENG=View or add comments for the record.];
                      ApplicationArea=#Advanced;
                      RunObject=Page 67;
                      RunPageLink=Document Type=CONST(Return Order),
                                  No.=FIELD(No.),
                                  Document Line No.=CONST(0);
                      Promoted=No;
                      PromotedIsBig=No;
                      Image=ViewComments }
      { 9       ;1   ;ActionGroup;
                      CaptionML=[ENU=Documents;
                                 ENG=Documents];
                      Image=Documents }
      { 1102601031;2 ;Action    ;
                      CaptionML=[ENU=Return Receipts;
                                 ENG=Return Receipts];
                      ToolTipML=[ENU=View a list of posted return receipts for the order.;
                                 ENG=View a list of posted return receipts for the order.];
                      ApplicationArea=#SalesReturnOrder;
                      RunObject=Page 6662;
                      RunPageView=SORTING(Return Order No.);
                      RunPageLink=Return Order No.=FIELD(No.);
                      Image=ReturnReceipt }
      { 1102601032;2 ;Action    ;
                      CaptionML=[ENU=Cred&it Memos;
                                 ENG=Cred&it Memos];
                      ToolTipML=[ENU=View a list of ongoing credit memos for the order.;
                                 ENG=View a list of ongoing credit memos for the order.];
                      ApplicationArea=#SalesReturnOrder;
                      RunObject=Page 144;
                      RunPageView=SORTING(Return Order No.);
                      RunPageLink=Return Order No.=FIELD(No.);
                      Image=CreditMemo }
      { 10      ;1   ;ActionGroup;
                      CaptionML=[ENU=Warehouse;
                                 ENG=Warehouse];
                      Image=Warehouse }
      { 1102601037;2 ;Action    ;
                      CaptionML=[ENU=In&vt. Put-away/Pick Lines;
                                 ENG=In&vt. Put-away/Pick Lines];
                      ToolTipML=[ENU=View items that are inbound or outbound on inventory put-away or inventory pick documents for the transfer order.;
                                 ENG=View items that are inbound or outbound on inventory put-away or inventory pick documents for the transfer order.];
                      ApplicationArea=#Warehouse;
                      RunObject=Page 5774;
                      RunPageView=SORTING(Source Document,Source No.,Location Code);
                      RunPageLink=Source Document=CONST(Sales Return Order),
                                  Source No.=FIELD(No.);
                      Image=PickLines }
      { 1102601036;2 ;Action    ;
                      CaptionML=[ENU=Whse. Receipt Lines;
                                 ENG=Whse. Receipt Lines];
                      ToolTipML=[ENU=View ongoing warehouse receipts for the document, in advanced warehouse configurations.;
                                 ENG=View ongoing warehouse receipts for the document, in advanced warehouse configurations.];
                      ApplicationArea=#Warehouse;
                      RunObject=Page 7342;
                      RunPageView=SORTING(Source Type,Source Subtype,Source No.,Source Line No.);
                      RunPageLink=Source Type=CONST(37),
                                  Source Subtype=FIELD(Document Type),
                                  Source No.=FIELD(No.);
                      Image=ReceiptLines }
      { 1900000004;0 ;ActionContainer;
                      ActionContainerType=ActionItems }
      { 48      ;1   ;Action    ;
                      Ellipsis=Yes;
                      CaptionML=[ENU=&Print;
                                 ENG=&Print];
                      ToolTipML=[ENU=Prepare to print the document. A report request window for the document opens where you can specify what to include on the print-out.;
                                 ENG=Prepare to print the document. A report request window for the document opens where you can specify what to include on the print-out.];
                      ApplicationArea=#SalesReturnOrder;
                      Promoted=Yes;
                      Image=Print;
                      PromotedCategory=Process;
                      PromotedOnly=Yes;
                      OnAction=BEGIN
                                 DocPrint.PrintSalesHeader(Rec);
                               END;
                                }
      { 7       ;1   ;ActionGroup;
                      CaptionML=[ENU=Release;
                                 ENG=Release];
                      Image=ReleaseDoc }
      { 1102601022;2 ;Action    ;
                      Name=Release;
                      ShortCutKey=Ctrl+F9;
                      CaptionML=[ENU=Re&lease;
                                 ENG=Re&lease];
                      ToolTipML=[ENU=Release the document to the next stage of processing. When a document is released, it will be included in all availability calculations from the expected receipt date of the items. You must reopen the document before you can make changes to it.;
                                 ENG=Release the document to the next stage of processing. When a document is released, it will be included in all availability calculations from the expected receipt date of the items. You must reopen the document before you can make changes to it.];
                      ApplicationArea=#SalesReturnOrder;
                      Promoted=Yes;
                      Image=ReleaseDoc;
                      PromotedCategory=Category5;
                      PromotedOnly=Yes;
                      OnAction=VAR
                                 ReleaseSalesDoc@1000 : Codeunit 414;
                               BEGIN
                                 ReleaseSalesDoc.PerformManualRelease(Rec);
                               END;
                                }
      { 1102601023;2 ;Action    ;
                      Name=Reopen;
                      CaptionML=[ENU=Re&open;
                                 ENG=Re&open];
                      ToolTipML=[ENU=Reopen the document to change it after it has been approved. Approved documents have the Released status and must be opened before they can be changed;
                                 ENG=Reopen the document to change it after it has been approved. Approved documents have the Released status and must be opened before they can be changed];
                      ApplicationArea=#SalesReturnOrder;
                      Promoted=Yes;
                      Image=ReOpen;
                      PromotedCategory=Category5;
                      PromotedOnly=Yes;
                      OnAction=VAR
                                 ReleaseSalesDoc@1001 : Codeunit 414;
                               BEGIN
                                 ReleaseSalesDoc.PerformManualReopen(Rec);
                               END;
                                }
      { 1102601000;1 ;ActionGroup;
                      CaptionML=[ENU=F&unctions;
                                 ENG=F&unctions];
                      Image=Action }
      { 1102601014;2 ;Action    ;
                      Ellipsis=Yes;
                      CaptionML=[ENU=Get Posted Doc&ument Lines to Reverse;
                                 ENG=Get Posted Doc&ument Lines to Reverse];
                      ToolTipML=[ENU=Copy one or more posted sales document lines in order to reverse the original order.;
                                 ENG=Copy one or more posted sales document lines in order to reverse the original order.];
                      ApplicationArea=#SalesReturnOrder;
                      Promoted=Yes;
                      Image=ReverseLines;
                      PromotedCategory=Process;
                      PromotedOnly=Yes;
                      OnAction=BEGIN
                                 GetPstdDocLinesToRevere;
                               END;
                                }
      { 1102601021;2 ;Separator  }
      { 1102601025;2 ;Action    ;
                      AccessByPermission=TableData 410=R;
                      CaptionML=[ENU=Send IC Return Order Cnfmn.;
                                 ENG=Send IC Return Order Cnfmn.];
                      ToolTipML=[ENU=Send the document to the intercompany outbox or directly to the intercompany partner if automatic transaction sending is enabled.;
                                 ENG=Send the document to the intercompany outbox or directly to the intercompany partner if automatic transaction sending is enabled.];
                      ApplicationArea=#Intercompany;
                      Image=IntercompanyOrder;
                      OnAction=VAR
                                 ICInboxOutboxMgt@1000 : Codeunit 427;
                                 ApprovalsMgmt@1003 : Codeunit 1535;
                               BEGIN
                                 IF ApprovalsMgmt.PrePostApprovalCheckSales(Rec) THEN
                                   ICInboxOutboxMgt.SendSalesDoc(Rec,FALSE);
                               END;
                                }
      { 16      ;1   ;ActionGroup;
                      CaptionML=[ENU=Request Approval;
                                 ENG=Request Approval] }
      { 1102601019;2 ;Action    ;
                      Name=SendApprovalRequest;
                      CaptionML=[ENU=Send A&pproval Request;
                                 ENG=Send A&pproval Request];
                      ToolTipML=[ENU=Request approval of the document.;
                                 ENG=Request approval of the document.];
                      ApplicationArea=#SalesReturnOrder;
                      Promoted=Yes;
                      Enabled=NOT OpenApprovalEntriesExist;
                      PromotedIsBig=Yes;
                      Image=SendApprovalRequest;
                      PromotedCategory=Category4;
                      PromotedOnly=Yes;
                      OnAction=VAR
                                 ApprovalsMgmt@1000 : Codeunit 1535;
                               BEGIN
                                 IF ApprovalsMgmt.CheckSalesApprovalPossible(Rec) THEN
                                   ApprovalsMgmt.OnSendSalesDocForApproval(Rec);
                               END;
                                }
      { 1102601020;2 ;Action    ;
                      Name=CancelApprovalRequest;
                      CaptionML=[ENU=Cancel Approval Re&quest;
                                 ENG=Cancel Approval Re&quest];
                      ToolTipML=[ENU=Cancel the approval request.;
                                 ENG=Cancel the approval request.];
                      ApplicationArea=#SalesReturnOrder;
                      Promoted=Yes;
                      Enabled=CanCancelApprovalForRecord;
                      PromotedIsBig=Yes;
                      Image=CancelApprovalRequest;
                      PromotedCategory=Category4;
                      PromotedOnly=Yes;
                      OnAction=VAR
                                 ApprovalsMgmt@1000 : Codeunit 1535;
                               BEGIN
                                 ApprovalsMgmt.OnCancelSalesApprovalRequest(Rec);
                               END;
                                }
      { 8       ;1   ;ActionGroup;
                      CaptionML=[ENU=Warehouse;
                                 ENG=Warehouse];
                      Image=Warehouse }
      { 1102601017;2 ;Action    ;
                      AccessByPermission=TableData 7340=R;
                      Ellipsis=Yes;
                      CaptionML=[ENU=Create Inventor&y Put-away/Pick;
                                 ENG=Create Inventor&y Put-away/Pick];
                      ToolTipML=[ENU=Create an inventory put-away or inventory pick to handle items on the document according to a basic warehouse configuration that does not require warehouse receipt or shipment documents.;
                                 ENG=Create an inventory put-away or inventory pick to handle items on the document according to a basic warehouse configuration that does not require warehouse receipt or shipment documents.];
                      ApplicationArea=#Warehouse;
                      Image=CreatePutawayPick;
                      OnAction=BEGIN
                                 CreateInvtPutAwayPick;
                               END;
                                }
      { 1102601016;2 ;Action    ;
                      AccessByPermission=TableData 7316=R;
                      CaptionML=[ENU=Create &Whse. Receipt;
                                 ENG=Create &Whse. Receipt];
                      ToolTipML=[ENU=Create a warehouse receipt to start a receive and put-away process according to an advanced warehouse configuration.;
                                 ENG=Create a warehouse receipt to start a receive and put-away process according to an advanced warehouse configuration.];
                      ApplicationArea=#Warehouse;
                      Image=NewReceipt;
                      OnAction=VAR
                                 GetSourceDocInbound@1000 : Codeunit 5751;
                               BEGIN
                                 GetSourceDocInbound.CreateFromSalesReturnOrder(Rec);
                               END;
                                }
      { 49      ;1   ;ActionGroup;
                      CaptionML=[ENU=P&osting;
                                 ENG=P&osting];
                      Image=Post }
      { 54      ;2   ;Action    ;
                      Ellipsis=Yes;
                      CaptionML=[ENU=Test Report;
                                 ENG=Test Report];
                      ToolTipML=[ENU=View a test report so that you can find and correct any errors before you perform the actual posting of the journal or document.;
                                 ENG=View a test report so that you can find and correct any errors before you perform the actual posting of the journal or document.];
                      ApplicationArea=#SalesReturnOrder;
                      Image=TestReport;
                      OnAction=BEGIN
                                 ReportPrint.PrintSalesHeader(Rec);
                               END;
                                }
      { 52      ;2   ;Action    ;
                      Name=Post;
                      ShortCutKey=F9;
                      Ellipsis=Yes;
                      CaptionML=[ENU=P&ost;
                                 ENG=P&ost];
                      ToolTipML=[ENU=Finalize the document or journal by posting the amounts and quantities to the related accounts in your company books.;
                                 ENG=Finalise the document or journal by posting the amounts and quantities to the related accounts in your company books.];
                      ApplicationArea=#All;
                      Promoted=Yes;
                      PromotedIsBig=Yes;
                      Image=PostOrder;
                      PromotedCategory=Process;
                      PromotedOnly=Yes;
                      OnAction=VAR
                                 SalesHeader@1003 : Record 36;
                                 SalesBatchPostMgt@1002 : Codeunit 1371;
                                 BatchProcessingMgt@1001 : Codeunit 1380;
                                 BatchPostParameterTypes@1000 : Codeunit 1370;
                               BEGIN
                                 CurrPage.SETSELECTIONFILTER(SalesHeader);
                                 IF SalesHeader.COUNT > 1 THEN BEGIN
                                   BatchProcessingMgt.AddParameter(BatchPostParameterTypes.Invoice,TRUE);
                                   BatchProcessingMgt.AddParameter(BatchPostParameterTypes.Receive,TRUE);

                                   SalesBatchPostMgt.SetBatchProcessor(BatchProcessingMgt);
                                   SalesBatchPostMgt.RunWithUI(SalesHeader,COUNT,ReadyToPostQst);
                                 END ELSE
                                   SendToPosting(CODEUNIT::"Sales-Post (Yes/No)");
                               END;
                                }
      { 14      ;2   ;Action    ;
                      CaptionML=[ENU=Preview Posting;
                                 ENG=Preview Posting];
                      ToolTipML=[ENU=Review the different types of entries that will be created when you post the document or journal.;
                                 ENG=Review the different types of entries that will be created when you post the document or journal.];
                      ApplicationArea=#SalesReturnOrder;
                      Image=ViewPostedOrder;
                      OnAction=VAR
                                 SalesPostYesNo@1001 : Codeunit 81;
                               BEGIN
                                 SalesPostYesNo.Preview(Rec);
                               END;
                                }
      { 51      ;2   ;Action    ;
                      ShortCutKey=Shift+F9;
                      Ellipsis=Yes;
                      CaptionML=[ENU=Post and &Print;
                                 ENG=Post and &Print];
                      ToolTipML=[ENU=Finalize and prepare to print the document or journal. The values and quantities are posted to the related accounts. A report request window where you can specify what to include on the print-out.;
                                 ENG=Finalise and prepare to print the document or journal. The values and quantities are posted to the related accounts. A report request window where you can specify what to include on the print-out.];
                      ApplicationArea=#SalesReturnOrder;
                      Promoted=Yes;
                      PromotedIsBig=Yes;
                      Image=PostPrint;
                      PromotedCategory=Process;
                      PromotedOnly=Yes;
                      OnAction=BEGIN
                                 SendToPosting(CODEUNIT::"Sales-Post + Print");
                               END;
                                }
      { 12      ;2   ;Action    ;
                      Ellipsis=Yes;
                      CaptionML=[ENU=Post and Email;
                                 ENG=Post and Email];
                      ToolTipML=[ENU=Post the sales document and attach it to an email addressed to the customer.;
                                 ENG=Post the sales document and attach it to an email addressed to the customer.];
                      ApplicationArea=#SalesReturnOrder;
                      Promoted=Yes;
                      Image=PostMail;
                      PromotedCategory=Process;
                      PromotedOnly=Yes;
                      OnAction=VAR
                                 SalesPostPrint@1000 : Codeunit 82;
                               BEGIN
                                 SalesPostPrint.PostAndEmail(Rec);
                               END;
                                }
      { 50      ;2   ;Action    ;
                      Ellipsis=Yes;
                      CaptionML=[ENU=Post &Batch;
                                 ENG=Post &Batch];
                      ToolTipML=[ENU=Post several documents at once. A report request window opens where you can specify which documents to post.;
                                 ENG=Post several documents at once. A report request window opens where you can specify which documents to post.];
                      ApplicationArea=#SalesReturnOrder;
                      Promoted=Yes;
                      Image=PostBatch;
                      PromotedCategory=Process;
                      OnAction=BEGIN
                                 REPORT.RUNMODAL(REPORT::"Batch Post Sales Return Orders",TRUE,TRUE,Rec);
                                 CurrPage.UPDATE(FALSE);
                               END;
                                }
      { 3       ;2   ;Action    ;
                      CaptionML=[ENU=Remove From Job Queue;
                                 ENG=Remove From Job Queue];
                      ToolTipML=[ENU=Remove the scheduled processing of this record from the job queue.;
                                 ENG=Remove the scheduled processing of this record from the job queue.];
                      ApplicationArea=#SalesReturnOrder;
                      Visible=JobQueueActive;
                      Image=RemoveLine;
                      OnAction=BEGIN
                                 CancelBackgroundPosting;
                               END;
                                }
    }
  }
  CONTROLS
  {
    { 1900000001;0;Container;
                ContainerType=ContentArea }

    { 1   ;1   ;Group     ;
                GroupType=Repeater }

    { 2   ;2   ;Field     ;
                ToolTipML=[ENU=Specifies the number of the involved entry or record, according to the specified number series.;
                           ENG=Specifies the number of the involved entry or record, according to the specified number series.];
                ApplicationArea=#SalesReturnOrder;
                SourceExpr="No." }

    { 4   ;2   ;Field     ;
                ToolTipML=[ENU=Specifies the number of the customer.;
                           ENG=Specifies the number of the customer.];
                ApplicationArea=#SalesReturnOrder;
                SourceExpr="Sell-to Customer No." }

    { 6   ;2   ;Field     ;
                ToolTipML=[ENU=Specifies the name of the customer.;
                           ENG=Specifies the name of the customer.];
                ApplicationArea=#SalesReturnOrder;
                SourceExpr="Sell-to Customer Name" }

    { 17  ;2   ;Field     ;
                ToolTipML=[ENU=Specifies a document number that refers to the customer's or vendor's numbering system.;
                           ENG=Specifies a document number that refers to the customer's or vendor's numbering system.];
                ApplicationArea=#SalesReturnOrder;
                SourceExpr="External Document No." }

    { 33  ;2   ;Field     ;
                ToolTipML=[ENU=Specifies the postal code of the customer's main address.;
                           ENG=Specifies the postcode of the customer's main address.];
                ApplicationArea=#SalesReturnOrder;
                SourceExpr="Sell-to Post Code";
                Visible=FALSE }

    { 29  ;2   ;Field     ;
                ToolTipML=[ENU=Specifies the country/region code of the customer's main address.;
                           ENG=Specifies the country/region code of the customer's main address.];
                ApplicationArea=#SalesReturnOrder;
                SourceExpr="Sell-to Country/Region Code";
                Visible=FALSE }

    { 41  ;2   ;Field     ;
                ToolTipML=[ENU=Specifies the name of the contact person at the customer's main address.;
                           ENG=Specifies the name of the contact person at the customer's main address.];
                ApplicationArea=#SalesReturnOrder;
                SourceExpr="Sell-to Contact";
                Visible=FALSE }

    { 13  ;2   ;Field     ;
                ToolTipML=[ENU=Specifies the number of the customer that you send or sent the invoice or credit memo to.;
                           ENG=Specifies the number of the customer that you send or sent the invoice or credit memo to.];
                ApplicationArea=#SalesReturnOrder;
                SourceExpr="Bill-to Customer No.";
                Visible=FALSE }

    { 15  ;2   ;Field     ;
                ToolTipML=[ENU=Specifies the name of the customer that you send or sent the invoice or credit memo to.;
                           ENG=Specifies the name of the customer that you send or sent the invoice or credit memo to.];
                ApplicationArea=#SalesReturnOrder;
                SourceExpr="Bill-to Name";
                Visible=FALSE }

    { 39  ;2   ;Field     ;
                ToolTipML=[ENU=Specifies the postal code of the customer's billing address.;
                           ENG=Specifies the postcode of the customer's billing address.];
                ApplicationArea=#SalesReturnOrder;
                SourceExpr="Bill-to Post Code";
                Visible=FALSE }

    { 35  ;2   ;Field     ;
                ToolTipML=[ENU=Specifies the country/region code of the customer's billing address.;
                           ENG=Specifies the country/region code of the customer's billing address.];
                ApplicationArea=#SalesReturnOrder;
                SourceExpr="Bill-to Country/Region Code";
                Visible=FALSE }

    { 159 ;2   ;Field     ;
                ToolTipML=[ENU=Specifies the name of the contact person at the customer's billing address.;
                           ENG=Specifies the name of the contact person at the customer's billing address.];
                ApplicationArea=#SalesReturnOrder;
                SourceExpr="Bill-to Contact";
                Visible=FALSE }

    { 155 ;2   ;Field     ;
                ToolTipML=[ENU=Specifies a code for an alternate shipment address if you want to ship to another address than the one that has been entered automatically. This field is also used in case of drop shipment.;
                           ENG=Specifies a code for an alternate shipment address if you want to ship to another address than the one that has been entered automatically. This field is also used in case of drop shipment.];
                ApplicationArea=#SalesReturnOrder;
                SourceExpr="Ship-to Code";
                Visible=FALSE }

    { 153 ;2   ;Field     ;
                ToolTipML=[ENU=Specifies the name of the customer at the address that the items are shipped to.;
                           ENG=Specifies the name of the customer at the address that the items are shipped to.];
                ApplicationArea=#SalesReturnOrder;
                SourceExpr="Ship-to Name";
                Visible=FALSE }

    { 27  ;2   ;Field     ;
                ToolTipML=[ENU=Specifies the postal code of the address that the items are shipped to.;
                           ENG=Specifies the postcode of the address that the items are shipped to.];
                ApplicationArea=#SalesReturnOrder;
                SourceExpr="Ship-to Post Code";
                Visible=FALSE }

    { 23  ;2   ;Field     ;
                ToolTipML=[ENU=Specifies the country/region code of the address that the items are shipped to.;
                           ENG=Specifies the country/region code of the address that the items are shipped to.];
                ApplicationArea=#SalesReturnOrder;
                SourceExpr="Ship-to Country/Region Code";
                Visible=FALSE }

    { 143 ;2   ;Field     ;
                ToolTipML=[ENU=Specifies the name of the contact person at the address that the items are shipped to.;
                           ENG=Specifies the name of the contact person at the address that the items are shipped to.];
                ApplicationArea=#SalesReturnOrder;
                SourceExpr="Ship-to Contact";
                Visible=FALSE }

    { 139 ;2   ;Field     ;
                ToolTipML=[ENU=Specifies the entry's posting date.;
                           ENG=Specifies the entry's posting date.];
                ApplicationArea=#SalesReturnOrder;
                SourceExpr="Posting Date";
                Visible=FALSE }

    { 121 ;2   ;Field     ;
                ToolTipML=[ENU=Specifies the code for Shortcut Dimension 1, which is one of two global dimension codes that you set up in the General Ledger Setup window.;
                           ENG=Specifies the code for Shortcut Dimension 1, which is one of two global dimension codes that you set up in the General Ledger Setup window.];
                ApplicationArea=#Dimensions;
                SourceExpr="Shortcut Dimension 1 Code";
                Visible=FALSE }

    { 119 ;2   ;Field     ;
                ToolTipML=[ENU=Specifies the code for Shortcut Dimension 2, which is one of two global dimension codes that you set up in the General Ledger Setup window.;
                           ENG=Specifies the code for Shortcut Dimension 2, which is one of two global dimension codes that you set up in the General Ledger Setup window.];
                ApplicationArea=#Dimensions;
                SourceExpr="Shortcut Dimension 2 Code";
                Visible=FALSE }

    { 123 ;2   ;Field     ;
                ToolTipML=[ENU=Specifies the location from where inventory items to the customer on the sales document are to be shipped by default.;
                           ENG=Specifies the location from where inventory items to the customer on the sales document are to be shipped by default.];
                ApplicationArea=#SalesReturnOrder;
                SourceExpr="Location Code" }

    { 99  ;2   ;Field     ;
                ToolTipML=[ENU=Specifies which salesperson is associated with the shipment.;
                           ENG=Specifies which salesperson is associated with the shipment.];
                ApplicationArea=#SalesReturnOrder;
                SourceExpr="Salesperson Code";
                Visible=FALSE }

    { 21  ;2   ;Field     ;
                ToolTipML=[ENU=Specifies the ID of the user who is responsible for the document.;
                           ENG=Specifies the ID of the user who is responsible for the document.];
                ApplicationArea=#SalesReturnOrder;
                SourceExpr="Assigned User ID" }

    { 11  ;2   ;Field     ;
                ToolTipML=[ENU=Specifies the currency that is used on the entry.;
                           ENG=Specifies the currency that is used on the entry.];
                ApplicationArea=#SalesReturnOrder;
                SourceExpr="Currency Code";
                Visible=FALSE }

    { 1102601001;2;Field  ;
                ToolTipML=[ENU=Specifies the date when the related document was created.;
                           ENG=Specifies the date when the related document was created.];
                ApplicationArea=#SalesReturnOrder;
                SourceExpr="Document Date";
                Visible=FALSE }

    { 18  ;2   ;Field     ;
                ToolTipML=[ENU=Specifies if the document is open, waiting to be approved, has been invoiced for prepayment, or has been released to the next stage of processing.;
                           ENG=Specifies if the document is open, waiting to be approved, has been invoiced for prepayment, or has been released to the next stage of processing.];
                ApplicationArea=#SalesReturnOrder;
                SourceExpr=Status }

    { 22  ;2   ;Field     ;
                ToolTipML=[ENU=Specifies a formula that calculates the payment due date, payment discount date, and payment discount amount.;
                           ENG=Specifies a formula that calculates the payment due date, payment discount date, and payment discount amount.];
                ApplicationArea=#SalesReturnOrder;
                SourceExpr="Payment Terms Code";
                Visible=FALSE }

    { 28  ;2   ;Field     ;
                ToolTipML=[ENU=Specifies when the sales return order must be paid.;
                           ENG=Specifies when the sales return order must be paid.];
                ApplicationArea=#SalesReturnOrder;
                SourceExpr="Due Date";
                Visible=FALSE }

    { 30  ;2   ;Field     ;
                ToolTipML=[ENU=Specifies the payment discount percentage that is granted if the customer pays on or before the date entered in the Pmt. Discount Date field. The discount percentage is specified in the Payment Terms Code field.;
                           ENG=Specifies the payment discount percentage that is granted if the customer pays on or before the date entered in the Pmt. Discount Date field. The discount percentage is specified in the Payment Terms Code field.];
                ApplicationArea=#SalesReturnOrder;
                SourceExpr="Payment Discount %";
                Visible=FALSE }

    { 24  ;2   ;Field     ;
                ToolTipML=[ENU=Specifies the code for the shipping agent who is transporting the items.;
                           ENG=Specifies the code for the shipping agent who is transporting the items.];
                ApplicationArea=#SalesReturnOrder;
                SourceExpr="Shipping Agent Code";
                Visible=FALSE }

    { 25  ;2   ;Field     ;
                ToolTipML=[ENU=Specifies the code for the service, such as a one-day delivery, that is offered by the shipping agent.;
                           ENG=Specifies the code for the service, such as a one-day delivery, that is offered by the shipping agent.];
                ApplicationArea=#SalesReturnOrder;
                SourceExpr="Shipping Agent Service Code";
                Visible=FALSE }

    { 26  ;2   ;Field     ;
                ToolTipML=[ENU=Specifies the shipping agent's package number.;
                           ENG=Specifies the shipping agent's package number.];
                ApplicationArea=#SalesReturnOrder;
                SourceExpr="Package Tracking No.";
                Visible=FALSE }

    { 1102601007;2;Field  ;
                ToolTipML=[ENU=Specifies when items on the document are shipped or were shipped. A shipment date is usually calculated from a requested delivery date plus lead time.;
                           ENG=Specifies when items on the document are shipped or were shipped. A shipment date is usually calculated from a requested delivery date plus lead time.];
                ApplicationArea=#SalesReturnOrder;
                SourceExpr="Shipment Date";
                Visible=FALSE }

    { 31  ;2   ;Field     ;
                ToolTipML=[ENU=Specifies if the customer accepts partial shipment of orders.;
                           ENG=Specifies if the customer accepts partial shipment of orders.];
                ApplicationArea=#SalesReturnOrder;
                SourceExpr="Shipping Advice";
                Visible=FALSE }

    { 32  ;2   ;Field     ;
                ToolTipML=[ENU=Specifies if all the items on the order have been shipped or, in the case of inbound items, completely received.;
                           ENG=Specifies if all the items on the order have been shipped or, in the case of inbound items, completely received.];
                ApplicationArea=#SalesReturnOrder;
                SourceExpr="Completely Shipped";
                Visible=FALSE }

    { 5   ;2   ;Field     ;
                ToolTipML=[ENU=Specifies the status of a job queue entry or task that handles the posting of sales return orders.;
                           ENG=Specifies the status of a job queue entry or task that handles the posting of sales return orders.];
                ApplicationArea=#SalesReturnOrder;
                SourceExpr="Job Queue Status";
                Visible=JobQueueActive }

    { 1102601003;2;Field  ;
                ToolTipML=[ENU=Specifies the campaign number that the document is linked to.;
                           ENG=Specifies the campaign number that the document is linked to.];
                ApplicationArea=#SalesReturnOrder;
                SourceExpr="Campaign No.";
                Visible=FALSE }

    { 1102601005;2;Field  ;
                ToolTipML=[ENU=Specifies the type of the posted document that this document or journal line will be applied to when you post, for example to register payment.;
                           ENG=Specifies the type of the posted document that this document or journal line will be applied to when you post, for example to register payment.];
                ApplicationArea=#SalesReturnOrder;
                SourceExpr="Applies-to Doc. Type";
                Visible=FALSE }

    { 19  ;2   ;Field     ;
                ToolTipML=[ENU=Specifies the sum of amounts in the Line Amount field on the document lines.;
                           ENG=Specifies the sum of amounts in the Line Amount field on the document lines.];
                ApplicationArea=#SalesReturnOrder;
                SourceExpr=Amount }

    { 20  ;2   ;Field     ;
                ToolTipML=[ENU=Specifies the total of the amounts, including VAT, on all the lines in the document.;
                           ENG=Specifies the total of the amounts, including VAT, on all the lines in the document.];
                ApplicationArea=#SalesReturnOrder;
                SourceExpr="Amount Including VAT" }

    { 1900000007;0;Container;
                ContainerType=FactBoxArea }

    { 1902018507;1;Part   ;
                ApplicationArea=#SalesReturnOrder;
                SubPageLink=No.=FIELD(Bill-to Customer No.),
                            Date Filter=FIELD(Date Filter);
                PagePartID=Page9082;
                PartType=Page }

    { 1900316107;1;Part   ;
                ApplicationArea=#SalesReturnOrder;
                SubPageLink=No.=FIELD(Bill-to Customer No.),
                            Date Filter=FIELD(Date Filter);
                PagePartID=Page9084;
                PartType=Page }

    { 1900383207;1;Part   ;
                Visible=FALSE;
                PartType=System;
                SystemPartID=RecordLinks }

    { 1905767507;1;Part   ;
                Visible=FALSE;
                PartType=System;
                SystemPartID=Notes }

  }
  CODE
  {
    VAR
      ReportPrint@1102601001 : Codeunit 228;
      DocPrint@1102601000 : Codeunit 229;
      JobQueueActive@1000 : Boolean INDATASET;
      OpenApprovalEntriesExist@1004 : Boolean;
      CanCancelApprovalForRecord@1001 : Boolean;
      ReadyToPostQst@1002 : TextConst '@@@=%1 - selected count, %2 - total count;ENU=%1 out of %2 selected return orders are ready for post. \Do you want to continue and post them?;ENG=%1 out of %2 selected return orders are ready for post. \Do you want to continue and post them?';

    LOCAL PROCEDURE SetControlAppearance@5();
    VAR
      ApprovalsMgmt@1000 : Codeunit 1535;
    BEGIN
      OpenApprovalEntriesExist := ApprovalsMgmt.HasOpenApprovalEntries(RECORDID);

      CanCancelApprovalForRecord := ApprovalsMgmt.CanCancelApprovalForRecord(RECORDID);
    END;

    BEGIN
    END.
  }
}

