OBJECT Page 99000920 Registered Absences
{
  OBJECT-PROPERTIES
  {
    Date=21/12/17;
    Time=12:00:00;
    Version List=NAVW111.00.00.19846;
  }
  PROPERTIES
  {
    CaptionML=[ENU=Registered Absences;
               ENG=Registered Absences];
    SourceTable=Table99000848;
    DelayedInsert=Yes;
    PageType=List;
    ActionList=ACTIONS
    {
      { 1900000004;0 ;ActionContainer;
                      ActionContainerType=ActionItems }
      { 1900173204;1 ;Action    ;
                      CaptionML=[ENU=Implement Registered Absence;
                                 ENG=Implement Registered Absence];
                      ToolTipML=[ENU=Implement the absence entries that you have made in the Reg. Abs. (from Machine Ctr.), Reg. Abs. (from Work Center), and Capacity Absence windows.;
                                 ENG=Implement the absence entries that you have made in the Reg. Abs. (from Machine Ctr.), Reg. Abs. (from Work Centre), and Capacity Absence windows.];
                      ApplicationArea=#Manufacturing;
                      RunObject=Report 99003801;
                      Promoted=Yes;
                      Image=ImplementRegAbsence;
                      PromotedCategory=Process }
      { 1904735304;1 ;Action    ;
                      CaptionML=[ENU=Reg. Abs. (from Machine Ctr.);
                                 ENG=Reg. Abs. (from Machine Ctr.)];
                      ToolTipML=[ENU=Register planned absences at a machine center. The planned absence can be registered for both human and machine resources. You can register changes in the available resources in the Registered Absence table. When the batch job has been completed, you can see the result in the Registered Absences window.;
                                 ENG=Register planned absences at a machine centre. The planned absence can be registered for both human and machine resources. You can register changes in the available resources in the Registered Absence table. When the batch job has been completed, you can see the result in the Registered Absences window.];
                      ApplicationArea=#Manufacturing;
                      RunObject=Report 99003800;
                      Promoted=Yes;
                      Image=CalendarMachine;
                      PromotedCategory=Process }
      { 1901636904;1 ;Action    ;
                      CaptionML=[ENU=Reg. Abs. (from Work Ctr.);
                                 ENG=Reg. Abs. (from Work Ctr.)];
                      ToolTipML=[ENU=Register planned absences at a machine center. The planned absence can be registered for both human and machine resources. You can register changes in the available resources in the Registered Absence table. When the batch job has been completed, you can see the result in the Registered Absences window.;
                                 ENG=Register planned absences at a machine centre. The planned absence can be registered for both human and machine resources. You can register changes in the available resources in the Registered Absence table. When the batch job has been completed, you can see the result in the Registered Absences window.];
                      ApplicationArea=#Manufacturing;
                      RunObject=Report 99003805;
                      Promoted=Yes;
                      Image=CalendarWorkcenter;
                      PromotedCategory=Process }
    }
  }
  CONTROLS
  {
    { 1900000001;0;Container;
                ContainerType=ContentArea }

    { 1   ;1   ;Group     ;
                GroupType=Repeater }

    { 2   ;2   ;Field     ;
                ToolTipML=[ENU=Specifies if the absence entry is related to a machine center or a work center.;
                           ENG=Specifies if the absence entry is related to a machine centre or a work centre.];
                ApplicationArea=#Manufacturing;
                SourceExpr="Capacity Type" }

    { 4   ;2   ;Field     ;
                ToolTipML=[ENU=Specifies the number of the involved entry or record, according to the specified number series.;
                           ENG=Specifies the number of the involved entry or record, according to the specified number series.];
                ApplicationArea=#Manufacturing;
                SourceExpr="No." }

    { 6   ;2   ;Field     ;
                ToolTipML=[ENU=Specifies the date of the absence. If the absence covers several days, there will be an entry line for each day.;
                           ENG=Specifies the date of the absence. If the absence covers several days, there will be an entry line for each day.];
                ApplicationArea=#Manufacturing;
                SourceExpr=Date }

    { 16  ;2   ;Field     ;
                ToolTipML=[ENU=Specifies a short description of the reason for the absence.;
                           ENG=Specifies a short description of the reason for the absence.];
                ApplicationArea=#Manufacturing;
                SourceExpr=Description }

    { 12  ;2   ;Field     ;
                ToolTipML=[ENU=Specifies the date and the starting time, which are combined in a format called "starting date-time".;
                           ENG=Specifies the date and the starting time, which are combined in a format called "starting date-time".];
                ApplicationArea=#Manufacturing;
                SourceExpr="Starting Date-Time" }

    { 8   ;2   ;Field     ;
                ToolTipML=[ENU=Specifies the starting time of the absence, such as the time the employee normally starts to work or the time the machine starts to operate.;
                           ENG=Specifies the starting time of the absence, such as the time the employee normally starts to work or the time the machine starts to operate.];
                ApplicationArea=#Manufacturing;
                SourceExpr="Starting Time";
                Visible=FALSE }

    { 21  ;2   ;Field     ;
                ToolTipML=[ENU=Specifies the date and the ending time, which are combined in a format called "ending date-time".;
                           ENG=Specifies the date and the ending time, which are combined in a format called "ending date-time".];
                ApplicationArea=#Manufacturing;
                SourceExpr="Ending Date-Time";
                Visible=FALSE }

    { 10  ;2   ;Field     ;
                ToolTipML=[ENU=Specifies the ending time of day of the absence, such as the time the employee normally leaves, or the time the machine stops operating.;
                           ENG=Specifies the ending time of day of the absence, such as the time the employee normally leaves, or the time the machine stops operating.];
                ApplicationArea=#Manufacturing;
                SourceExpr="Ending Time" }

    { 14  ;2   ;Field     ;
                ToolTipML=[ENU=Specifies the amount of capacity, which cannot be used during the absence period.;
                           ENG=Specifies the amount of capacity, which cannot be used during the absence period.];
                ApplicationArea=#Manufacturing;
                SourceExpr=Capacity }

    { 1900000007;0;Container;
                ContainerType=FactBoxArea }

    { 1900383207;1;Part   ;
                Visible=FALSE;
                PartType=System;
                SystemPartID=RecordLinks }

    { 1905767507;1;Part   ;
                Visible=FALSE;
                PartType=System;
                SystemPartID=Notes }

  }
  CODE
  {

    BEGIN
    END.
  }
}

