OBJECT Query 265 Item Ledger Entries
{
  OBJECT-PROPERTIES
  {
    Date=22/11/17;
    Time=12:00:00;
    Version List=NAVW111.00;
  }
  PROPERTIES
  {
    CaptionML=[ENU=Item Ledger Entries;
               ENG=Item Ledger Entries];
  }
  ELEMENTS
  {
    { 1   ;    ;DataItem;                    ;
               DataItemTable=Table32 }

    { 2   ;1   ;Column  ;                    ;
               DataSource=Entry No. }

    { 7   ;1   ;Column  ;                    ;
               DataSource=Entry Type }

    { 3   ;1   ;Column  ;                    ;
               DataSource=Item No. }

    { 19  ;1   ;Column  ;                    ;
               DataSource=Cross-Reference No. }

    { 31  ;1   ;Column  ;                    ;
               DataSource=Lot No. }

    { 15  ;1   ;Column  ;                    ;
               DataSource=Item Category Code }

    { 16  ;1   ;Column  ;                    ;
               DataSource=Product Group Code }

    { 4   ;1   ;Column  ;                    ;
               DataSource=Posting Date }

    { 25  ;1   ;Column  ;                    ;
               DataSource=Expiration Date }

    { 26  ;1   ;Column  ;                    ;
               DataSource=Warranty Date }

    { 12  ;1   ;Column  ;                    ;
               DataSource=Document Date }

    { 5   ;1   ;Column  ;                    ;
               DataSource=Document No. }

    { 13  ;1   ;Column  ;                    ;
               DataSource=Document Type }

    { 6   ;1   ;Column  ;                    ;
               DataSource=Location Code }

    { 32  ;1   ;Column  ;                    ;
               DataSource=Job No. }

    { 33  ;1   ;Column  ;                    ;
               DataSource=Job Task No. }

    { 11  ;1   ;Column  ;                    ;
               DataSource=Open }

    { 8   ;1   ;Column  ;                    ;
               DataSource=Quantity }

    { 29  ;1   ;Column  ;                    ;
               DataSource=Unit of Measure Code }

    { 30  ;1   ;Column  ;                    ;
               DataSource=Qty. per Unit of Measure }

    { 9   ;1   ;Column  ;                    ;
               DataSource=Remaining Quantity }

    { 10  ;1   ;Column  ;                    ;
               DataSource=Invoiced Quantity }

    { 17  ;1   ;Column  ;                    ;
               DataSource=Cost Amount (Expected) }

    { 18  ;1   ;Column  ;                    ;
               DataSource=Cost Amount (Actual) }

    { 20  ;1   ;Column  ;                    ;
               DataSource=Cost Amount (Non-Invtbl.) }

    { 21  ;1   ;Column  ;                    ;
               DataSource=Purchase Amount (Expected) }

    { 22  ;1   ;Column  ;                    ;
               DataSource=Purchase Amount (Actual) }

    { 23  ;1   ;Column  ;                    ;
               DataSource=Sales Amount (Expected) }

    { 24  ;1   ;Column  ;                    ;
               DataSource=Sales Amount (Actual) }

    { 14  ;1   ;Column  ;                    ;
               DataSource=Dimension Set ID }

    { 27  ;1   ;DataItem;                    ;
               DataItemTable=Table27;
               DataItemLink=No.=Item_Ledger_Entry."Item No." }

    { 28  ;2   ;Column  ;Item_Description    ;
               DataSource=Description }

  }
  CODE
  {

    BEGIN
    END.
  }
}

