OBJECT Query 5502 Tax Groups For Tax Areas
{
  OBJECT-PROPERTIES
  {
    Date=22/11/17;
    Time=12:00:00;
    Version List=NAVW111.00;
  }
  PROPERTIES
  {
    CaptionML=[ENU=Tax Groups For Tax Areas;
               ENG=Tax Groups For Tax Areas];
  }
  ELEMENTS
  {
    { 1   ;    ;DataItem;                    ;
               DataItemTable=Table318 }

    { 2   ;1   ;Column  ;Tax_Area_Code       ;
               DataSource=Code }

    { 3   ;1   ;DataItem;                    ;
               DataItemTable=Table319;
               DataItemLink=Tax Area=Tax_Area.Code;
               DataItemLinkType=Exclude Row If No Match }

    { 4   ;2   ;Column  ;                    ;
               DataSource=Tax Jurisdiction Code }

    { 6   ;2   ;DataItem;                    ;
               DataItemTable=Table322;
               DataItemLink=Tax Jurisdiction Code=Tax_Area_Line."Tax Jurisdiction Code";
               DataItemLinkType=Exclude Row If No Match }

    { 5   ;3   ;Column  ;                    ;
               DataSource=Tax Group Code }

  }
  CODE
  {

    BEGIN
    END.
  }
}

