OBJECT Query 57 Power BI Item Sales List
{
  OBJECT-PROPERTIES
  {
    Date=22/11/17;
    Time=12:00:00;
    Version List=NAVW111.00;
  }
  PROPERTIES
  {
    CaptionML=[ENU=Power BI Item Sales List;
               ENG=Power BI Item Sales List];
  }
  ELEMENTS
  {
    { 1   ;    ;DataItem;                    ;
               DataItemTable=Table27 }

    { 2   ;1   ;Column  ;Item_No             ;
               DataSource=No. }

    { 3   ;1   ;Column  ;                    ;
               DataSource=Search Description }

    { 4   ;1   ;DataItem;                    ;
               DataItemTable=Table5802;
               DataItemTableFilter=Item Ledger Entry Type=CONST(Sale);
               DataItemLink=Item No.=Item."No." }

    { 5   ;2   ;Column  ;Sales_Post_Date     ;
               DataSource=Posting Date }

    { 6   ;2   ;Column  ;Sold_Quantity       ;
               DataSource=Invoiced Quantity;
               ReverseSign=Yes }

    { 7   ;2   ;Column  ;Sales_Entry_No      ;
               DataSource=Entry No. }

  }
  CODE
  {

    BEGIN
    END.
  }
}

