OBJECT Query 771 Analysis Column Header Count
{
  OBJECT-PROPERTIES
  {
    Date=07/09/12;
    Time=12:00:00;
    Version List=NAVW17.00;
  }
  PROPERTIES
  {
    CaptionML=[ENU=Analysis Column Header Count;
               ENG=Analysis Column Header Count];
  }
  ELEMENTS
  {
    { 1   ;    ;DataItem;                    ;
               DataItemTable=Table7118 }

    { 2   ;1   ;Column  ;                    ;
               DataSource=Analysis Area }

    { 3   ;1   ;Column  ;                    ;
               DataSource=Analysis Column Template }

    { 4   ;1   ;Column  ;                    ;
               DataSource=Column Header }

    { 5   ;1   ;Column  ;                    ;
               ColumnFilter=Count_=FILTER(>1);
               MethodType=Totals;
               Method=Count }

  }
  CODE
  {

    BEGIN
    END.
  }
}

