OBJECT Query 7150 Item Analysis View Source
{
  OBJECT-PROPERTIES
  {
    Date=07/09/12;
    Time=12:00:00;
    Version List=NAVW17.00;
  }
  PROPERTIES
  {
    CaptionML=[ENU=Item Analysis View Source;
               ENG=Item Analysis View Source];
  }
  ELEMENTS
  {
    { 6   ;    ;DataItem;ItemAnalysisView    ;
               DataItemTable=Table7152 }

    { 23  ;1   ;Filter  ;AnalysisArea        ;
               DataSource=Analysis Area }

    { 15  ;1   ;Filter  ;AnalysisViewCode    ;
               DataSource=Code }

    { 1   ;1   ;DataItem;ValueEntry          ;
               DataItemTable=Table5802;
               DataItemLinkType=SQL Advanced Options;
               SQLJoinType=Cross Join }

    { 17  ;2   ;Filter  ;EntryNo             ;
               DataSource=Entry No. }

    { 2   ;2   ;Column  ;ItemNo              ;
               DataSource=Item No. }

    { 16  ;2   ;Column  ;SourceType          ;
               DataSource=Source Type }

    { 24  ;2   ;Column  ;SourceNo            ;
               DataSource=Source No. }

    { 25  ;2   ;Column  ;EntryType           ;
               DataSource=Entry Type }

    { 26  ;2   ;Column  ;ItemLedgerEntryType ;
               DataSource=Item Ledger Entry Type }

    { 13  ;2   ;Column  ;ItemLedgerEntryNo   ;
               DataSource=Item Ledger Entry No. }

    { 28  ;2   ;Column  ;ItemChargeNo        ;
               DataSource=Item Charge No. }

    { 27  ;2   ;Column  ;LocationCode        ;
               DataSource=Location Code }

    { 3   ;2   ;Column  ;PostingDate         ;
               DataSource=Posting Date }

    { 4   ;2   ;Column  ;DimensionSetID      ;
               DataSource=Dimension Set ID }

    { 5   ;2   ;Column  ;ILEQuantity         ;
               DataSource=Item Ledger Entry Quantity;
               MethodType=Totals;
               Method=Sum }

    { 19  ;2   ;Column  ;InvoicedQuantity    ;
               DataSource=Invoiced Quantity;
               MethodType=Totals;
               Method=Sum }

    { 20  ;2   ;Column  ;SalesAmountActual   ;
               DataSource=Sales Amount (Actual);
               MethodType=Totals;
               Method=Sum }

    { 29  ;2   ;Column  ;SalesAmountExpected ;
               DataSource=Sales Amount (Expected);
               MethodType=Totals;
               Method=Sum }

    { 18  ;2   ;Column  ;CostAmountActual    ;
               DataSource=Cost Amount (Actual);
               MethodType=Totals;
               Method=Sum }

    { 21  ;2   ;Column  ;CostAmountNonInvtbl ;
               DataSource=Cost Amount (Non-Invtbl.);
               MethodType=Totals;
               Method=Sum }

    { 22  ;2   ;Column  ;CostAmountExpected  ;
               DataSource=Cost Amount (Expected);
               MethodType=Totals;
               Method=Sum }

    { 7   ;2   ;DataItem;DimSet1             ;
               DataItemTable=Table480;
               DataItemLink=Dimension Set ID=ValueEntry."Dimension Set ID",
                            Dimension Code=ItemAnalysisView."Dimension 1 Code" }

    { 8   ;3   ;Column  ;DimVal1             ;
               DataSource=Dimension Value Code }

    { 10  ;3   ;DataItem;DimSet2             ;
               DataItemTable=Table480;
               DataItemLink=Dimension Set ID=ValueEntry."Dimension Set ID",
                            Dimension Code=ItemAnalysisView."Dimension 2 Code" }

    { 9   ;4   ;Column  ;DimVal2             ;
               DataSource=Dimension Value Code }

    { 12  ;4   ;DataItem;DimSet3             ;
               DataItemTable=Table480;
               DataItemLink=Dimension Set ID=ValueEntry."Dimension Set ID",
                            Dimension Code=ItemAnalysisView."Dimension 3 Code" }

    { 11  ;5   ;Column  ;DimVal3             ;
               DataSource=Dimension Value Code }

  }
  CODE
  {

    BEGIN
    END.
  }
}

