OBJECT Query 770 Analysis Line Desc. Count
{
  OBJECT-PROPERTIES
  {
    Date=07/09/12;
    Time=12:00:00;
    Version List=NAVW17.00;
  }
  PROPERTIES
  {
    CaptionML=[ENU=Analysis Line Desc. Count;
               ENG=Analysis Line Desc. Count];
  }
  ELEMENTS
  {
    { 1   ;    ;DataItem;                    ;
               DataItemTable=Table7114 }

    { 2   ;1   ;Column  ;                    ;
               DataSource=Analysis Area }

    { 3   ;1   ;Column  ;                    ;
               DataSource=Analysis Line Template Name }

    { 4   ;1   ;Column  ;                    ;
               DataSource=Description }

    { 5   ;1   ;Column  ;                    ;
               ColumnFilter=Count_=FILTER(>1);
               MethodType=Totals;
               Method=Count }

  }
  CODE
  {

    BEGIN
    END.
  }
}

