OBJECT Report 1115 Resource - Price List
{
  OBJECT-PROPERTIES
  {
    Date=22/11/17;
    Time=12:00:00;
    Version List=NAVW111.00;
  }
  PROPERTIES
  {
    CaptionML=[ENU=Resource - Price List;
               ENG=Resource - Price List];
    OnPreReport=BEGIN
                  CompanyInfo.GET;
                  FormatAddr.Company(CompanyAddr,CompanyInfo);
                  IF Currency.Code <> '' THEN
                    CurrencyText := ' (' + Currency.Code + ')';
                END;

  }
  DATASET
  {
    { 5508;    ;DataItem;                    ;
               DataItemTable=Table156;
               OnPreDataItem=BEGIN
                               ResPrice.SETFILTER("Currency Code",'%1|%2',Currency.Code,'');

                               ResPriceBuffer.INIT;
                               ResPrice.SETRANGE(Type,ResPrice.Type::All);
                               IF ResPrice.FIND('-') THEN
                                 REPEAT
                                   ResPriceBuffer.Type := ResPrice.Type;
                                   ResPriceBuffer."Work Type Code" := ResPrice."Work Type Code";
                                   Ok := ResPriceBuffer.INSERT;
                                 UNTIL ResPrice.NEXT = 0;
                             END;

               OnAfterGetRecord=BEGIN
                                  PriceInCurrency := FALSE;
                                  ResPrice."Currency Code" := Currency.Code;
                                  ResPrice.Code := "No.";
                                  ResPrice."Work Type Code" := '';
                                  CODEUNIT.RUN(CODEUNIT::"Resource-Find Price",ResPrice);
                                  "Unit Price" := ResPrice."Unit Price";
                                  PriceInCurrency := ResPrice."Currency Code" <> '';
                                  IF (Currency.Code <> '') AND (NOT PriceInCurrency) THEN
                                    "Unit Price" :=
                                      ROUND(
                                        CurrExchRate.ExchangeAmtLCYToFCY(
                                          WORKDATE,Currency.Code,"Unit Price",
                                          CurrExchRate.ExchangeRate(
                                            WORKDATE,Currency.Code)),
                                        Currency."Unit-Amount Rounding Precision");

                                  ResPrice.SETRANGE(Type,ResPrice.Type::Resource);
                                  ResPrice.SETRANGE(Code,"No.");
                                  FindWorkTypes;
                                  ResPrice.SETRANGE(Type,ResPrice.Type::"Group(Resource)");
                                  ResPrice.SETRANGE(Code,"Resource Group No.");
                                  FindWorkTypes;
                                END;

               ReqFilterFields=Type,No. }

    { 2   ;1   ;Column  ;StrsubsnoFormatRepPageNo;
               SourceExpr=STRSUBSTNO(Text003,FORMAT(CurrReport.PAGENO)) }

    { 3   ;1   ;Column  ;CompanyAddr1        ;
               SourceExpr=CompanyAddr[1] }

    { 4   ;1   ;Column  ;CompanyAddr2        ;
               SourceExpr=CompanyAddr[2] }

    { 5   ;1   ;Column  ;CompanyAddr3        ;
               SourceExpr=CompanyAddr[3] }

    { 6   ;1   ;Column  ;CompanyAddr4        ;
               SourceExpr=CompanyAddr[4] }

    { 7   ;1   ;Column  ;CompanyAddr5        ;
               SourceExpr=CompanyAddr[5] }

    { 8   ;1   ;Column  ;CompanyAddr6        ;
               SourceExpr=CompanyAddr[6] }

    { 21  ;1   ;Column  ;StrsubsnoAsofFormatWorkDt;
               SourceExpr=STRSUBSTNO(Text004,FORMAT(WORKDATE,0,4)) }

    { 15  ;1   ;Column  ;PhoneNo_CompanyInfo ;
               SourceExpr=CompanyInfo."Phone No." }

    { 17  ;1   ;Column  ;VATResgNo_CompanyInfo;
               SourceExpr=CompanyInfo."VAT Registration No." }

    { 18  ;1   ;Column  ;GiroNo_CompanyInfo  ;
               SourceExpr=CompanyInfo."Giro No." }

    { 19  ;1   ;Column  ;BankName_CompanyInfo;
               SourceExpr=CompanyInfo."Bank Name" }

    { 20  ;1   ;Column  ;BankAccNo_CompanyInfo;
               SourceExpr=CompanyInfo."Bank Account No." }

    { 30  ;1   ;Column  ;ResFldCaptUnitPriceCurrTxt;
               SourceExpr=ResPrice.FIELDCAPTION("Unit Price") + CurrencyText }

    { 22  ;1   ;Column  ;No_Resource         ;
               SourceExpr="No." }

    { 24  ;1   ;Column  ;Type_Resource       ;
               IncludeCaption=Yes;
               SourceExpr=Type }

    { 27  ;1   ;Column  ;UnitPrice_Resource  ;
               SourceExpr="Unit Price" }

    { 10  ;1   ;Column  ;HomePage_CompanyInfo;
               SourceExpr=CompanyInfo."Home Page" }

    { 25  ;1   ;Column  ;Email_CompanyInfo   ;
               SourceExpr=CompanyInfo."E-Mail" }

    { 34  ;1   ;Column  ;ResourceName        ;
               SourceExpr=Name }

    { 1   ;1   ;Column  ;ResourcePriceListCaption;
               SourceExpr=ResourcePriceListCaptionLbl }

    { 9   ;1   ;Column  ;CompanyInfoPhoneNoCaption;
               SourceExpr=CompanyInfoPhoneNoCaptionLbl }

    { 11  ;1   ;Column  ;CompanyInfoVATRegistrationNoCaption;
               SourceExpr=CompanyInfoVATRegistrationNoCaptionLbl }

    { 12  ;1   ;Column  ;CompanyInfoGiroNoCaption;
               SourceExpr=CompanyInfoGiroNoCaptionLbl }

    { 13  ;1   ;Column  ;CompanyInfoBankNameCaption;
               SourceExpr=CompanyInfoBankNameCaptionLbl }

    { 14  ;1   ;Column  ;CompanyInfoBankAccountNoCaption;
               SourceExpr=CompanyInfoBankAccountNoCaptionLbl }

    { 23  ;1   ;Column  ;ResourceNoCaption   ;
               SourceExpr=ResourceNoCaptionLbl }

    { 33  ;1   ;Column  ;WorkTypeCaption     ;
               SourceExpr=WorkTypeCaptionLbl }

    { 35  ;1   ;Column  ;ResourceNameCaption ;
               SourceExpr=ResourceNameCaptionLbl }

    { 37  ;1   ;Column  ;WorkTypeDescriptionCaption;
               SourceExpr=WorkTypeDescriptionCaptionLbl }

    { 5444;1   ;DataItem;                    ;
               DataItemTable=Table2000000026;
               DataItemTableView=SORTING(Number)
                                 WHERE(Number=FILTER(1..));
               OnPreDataItem=BEGIN
                               ResPrice.SETFILTER(Code,'%1|%2',Resource."No.",'');
                               ResPriceBuffer.RESET;
                             END;

               OnAfterGetRecord=BEGIN
                                  PriceInCurrency := FALSE;

                                  IF Number = 1 THEN
                                    Ok := ResPriceBuffer.FIND('-')
                                  ELSE
                                    Ok := ResPriceBuffer.NEXT <> 0;
                                  IF NOT Ok THEN
                                    CurrReport.BREAK;
                                  IF ResPriceBuffer."Work Type Code" = '' THEN
                                    CurrReport.SKIP;

                                  ResPrice.Type := ResPrice.Type::Resource;
                                  ResPrice.Code := Resource."No.";
                                  ResPrice."Work Type Code" := ResPriceBuffer."Work Type Code";
                                  ResPrice."Currency Code" := Currency.Code;
                                  CODEUNIT.RUN(CODEUNIT::"Resource-Find Price",ResPrice);
                                  WorkType.GET(ResPrice."Work Type Code");
                                  PriceInCurrency := ResPrice."Currency Code" <> '';

                                  IF (Currency.Code <> '') AND (NOT PriceInCurrency) THEN
                                    ResPrice."Unit Price" :=
                                      ROUND(
                                        CurrExchRate.ExchangeAmtLCYToFCY(
                                          WORKDATE,Currency.Code,ResPrice."Unit Price",
                                          CurrExchRate.ExchangeRate(
                                            WORKDATE,Currency.Code)),
                                        Currency."Unit-Amount Rounding Precision");
                                END;

               OnPostDataItem=BEGIN
                                ResPriceBuffer.SETRANGE(Type,ResPriceBuffer.Type::Resource,ResPriceBuffer.Type::"Group(Resource)");
                                ResPriceBuffer.DELETEALL;
                              END;
                               }

    { 36  ;2   ;Column  ;UnitPrice_ResPrice  ;
               SourceExpr=ResPrice."Unit Price";
               AutoFormatType=2 }

    { 28  ;2   ;Column  ;WorkTypeCode_ResPrice;
               SourceExpr=ResPrice."Work Type Code" }

    { 29  ;2   ;Column  ;Description_WorkType;
               SourceExpr=WorkType.Description }

  }
  REQUESTPAGE
  {
    PROPERTIES
    {
    }
    CONTROLS
    {
      { 1900000001;0;Container;
                  ContainerType=ContentArea }

      { 1900000002;1;Group  ;
                  CaptionML=[ENU=Options;
                             ENG=Options] }

      { 5   ;2   ;Field     ;
                  CaptionML=[ENU=Currency Code;
                             ENG=Currency Code];
                  ToolTipML=[ENU=Specifies the code for the currency that amounts are shown in.;
                             ENG=Specifies the code for the currency that amounts are shown in.];
                  ApplicationArea=#Jobs;
                  SourceExpr=Currency.Code;
                  TableRelation=Currency }

    }
  }
  LABELS
  {
    { 32  ;EMailIdCaption      ;CaptionML=[ENU=EMail;
                                           ENG=EMail] }
    { 38  ;HomePageCaption     ;CaptionML=[ENU=Home Page;
                                           ENG=Home Page] }
  }
  CODE
  {
    VAR
      Text003@1003 : TextConst 'ENU=Page %1;ENG=Page %1';
      Text004@1004 : TextConst 'ENU=As of %1;ENG=As of %1';
      CompanyInfo@1005 : Record 79;
      Currency@1006 : Record 4;
      CurrExchRate@1007 : Record 330;
      ResPrice@1008 : Record 201;
      ResPriceBuffer@1009 : TEMPORARY Record 201;
      WorkType@1011 : Record 200;
      FormatAddr@1013 : Codeunit 365;
      CompanyAddr@1014 : ARRAY [8] OF Text[50];
      PriceInCurrency@1016 : Boolean;
      Ok@1017 : Boolean;
      CurrencyText@1018 : Text[30];
      ResourcePriceListCaptionLbl@6678 : TextConst 'ENU=Resource - Price List;ENG=Resource - Price List';
      CompanyInfoPhoneNoCaptionLbl@6373 : TextConst 'ENU=Phone No.;ENG=Phone No.';
      CompanyInfoVATRegistrationNoCaptionLbl@5770 : TextConst 'ENU=VAT Reg. No.;ENG=VAT Reg. No.';
      CompanyInfoGiroNoCaptionLbl@9182 : TextConst 'ENU=Giro No.;ENG=Giro No.';
      CompanyInfoBankNameCaptionLbl@9342 : TextConst 'ENU=Bank;ENG=Bank';
      CompanyInfoBankAccountNoCaptionLbl@9929 : TextConst 'ENU=Account No.;ENG=Account No.';
      ResourceNoCaptionLbl@9853 : TextConst 'ENU=Resource No.;ENG=Resource No.';
      WorkTypeCaptionLbl@3243 : TextConst 'ENU=Work Type;ENG=Work Type';
      ResourceNameCaptionLbl@3768 : TextConst 'ENU=Resource Name;ENG=Resource Name';
      WorkTypeDescriptionCaptionLbl@6399 : TextConst 'ENU=Work Type Description;ENG=Work Type Description';

    LOCAL PROCEDURE FindWorkTypes@1();
    BEGIN
      IF ResPrice.FIND('-') THEN
        REPEAT
          ResPriceBuffer.SETRANGE("Work Type Code",ResPrice."Work Type Code");
          IF NOT ResPriceBuffer.FIND('-') THEN BEGIN
            ResPriceBuffer.Type := ResPrice.Type;
            ResPriceBuffer."Work Type Code" := ResPrice."Work Type Code";
            Ok := ResPriceBuffer.INSERT;
          END;
        UNTIL ResPrice.NEXT = 0;
    END;

    PROCEDURE InitializeRequest@4(CurrencyCodeFrom@1000 : Code[10]);
    BEGIN
      Currency.Code := CurrencyCodeFrom;
    END;

    BEGIN
    END.
  }
  RDLDATA
  {
    <?xml version="1.0" encoding="utf-8"?>
<Report xmlns="http://schemas.microsoft.com/sqlserver/reporting/2016/01/reportdefinition" xmlns:rd="http://schemas.microsoft.com/SQLServer/reporting/reportdesigner">
  <AutoRefresh>0</AutoRefresh>
  <DataSources>
    <DataSource Name="DataSource">
      <ConnectionProperties>
        <DataProvider>SQL</DataProvider>
        <ConnectString />
      </ConnectionProperties>
      <rd:SecurityType>None</rd:SecurityType>
      <rd:DataSourceID>f361a1bf-b026-4f5e-b24b-8809a411d578</rd:DataSourceID>
    </DataSource>
  </DataSources>
  <DataSets>
    <DataSet Name="DataSet_Result">
      <Query>
        <DataSourceName>DataSource</DataSourceName>
        <CommandText />
      </Query>
      <Fields>
        <Field Name="StrsubsnoFormatRepPageNo">
          <DataField>StrsubsnoFormatRepPageNo</DataField>
        </Field>
        <Field Name="CompanyAddr1">
          <DataField>CompanyAddr1</DataField>
        </Field>
        <Field Name="CompanyAddr2">
          <DataField>CompanyAddr2</DataField>
        </Field>
        <Field Name="CompanyAddr3">
          <DataField>CompanyAddr3</DataField>
        </Field>
        <Field Name="CompanyAddr4">
          <DataField>CompanyAddr4</DataField>
        </Field>
        <Field Name="CompanyAddr5">
          <DataField>CompanyAddr5</DataField>
        </Field>
        <Field Name="CompanyAddr6">
          <DataField>CompanyAddr6</DataField>
        </Field>
        <Field Name="StrsubsnoAsofFormatWorkDt">
          <DataField>StrsubsnoAsofFormatWorkDt</DataField>
        </Field>
        <Field Name="PhoneNo_CompanyInfo">
          <DataField>PhoneNo_CompanyInfo</DataField>
        </Field>
        <Field Name="VATResgNo_CompanyInfo">
          <DataField>VATResgNo_CompanyInfo</DataField>
        </Field>
        <Field Name="GiroNo_CompanyInfo">
          <DataField>GiroNo_CompanyInfo</DataField>
        </Field>
        <Field Name="BankName_CompanyInfo">
          <DataField>BankName_CompanyInfo</DataField>
        </Field>
        <Field Name="BankAccNo_CompanyInfo">
          <DataField>BankAccNo_CompanyInfo</DataField>
        </Field>
        <Field Name="ResFldCaptUnitPriceCurrTxt">
          <DataField>ResFldCaptUnitPriceCurrTxt</DataField>
        </Field>
        <Field Name="No_Resource">
          <DataField>No_Resource</DataField>
        </Field>
        <Field Name="Type_Resource">
          <DataField>Type_Resource</DataField>
        </Field>
        <Field Name="UnitPrice_Resource">
          <DataField>UnitPrice_Resource</DataField>
        </Field>
        <Field Name="UnitPrice_ResourceFormat">
          <DataField>UnitPrice_ResourceFormat</DataField>
        </Field>
        <Field Name="HomePage_CompanyInfo">
          <DataField>HomePage_CompanyInfo</DataField>
        </Field>
        <Field Name="Email_CompanyInfo">
          <DataField>Email_CompanyInfo</DataField>
        </Field>
        <Field Name="ResourceName">
          <DataField>ResourceName</DataField>
        </Field>
        <Field Name="ResourcePriceListCaption">
          <DataField>ResourcePriceListCaption</DataField>
        </Field>
        <Field Name="CompanyInfoPhoneNoCaption">
          <DataField>CompanyInfoPhoneNoCaption</DataField>
        </Field>
        <Field Name="CompanyInfoVATRegistrationNoCaption">
          <DataField>CompanyInfoVATRegistrationNoCaption</DataField>
        </Field>
        <Field Name="CompanyInfoGiroNoCaption">
          <DataField>CompanyInfoGiroNoCaption</DataField>
        </Field>
        <Field Name="CompanyInfoBankNameCaption">
          <DataField>CompanyInfoBankNameCaption</DataField>
        </Field>
        <Field Name="CompanyInfoBankAccountNoCaption">
          <DataField>CompanyInfoBankAccountNoCaption</DataField>
        </Field>
        <Field Name="ResourceNoCaption">
          <DataField>ResourceNoCaption</DataField>
        </Field>
        <Field Name="WorkTypeCaption">
          <DataField>WorkTypeCaption</DataField>
        </Field>
        <Field Name="ResourceNameCaption">
          <DataField>ResourceNameCaption</DataField>
        </Field>
        <Field Name="WorkTypeDescriptionCaption">
          <DataField>WorkTypeDescriptionCaption</DataField>
        </Field>
        <Field Name="UnitPrice_ResPrice">
          <DataField>UnitPrice_ResPrice</DataField>
        </Field>
        <Field Name="UnitPrice_ResPriceFormat">
          <DataField>UnitPrice_ResPriceFormat</DataField>
        </Field>
        <Field Name="WorkTypeCode_ResPrice">
          <DataField>WorkTypeCode_ResPrice</DataField>
        </Field>
        <Field Name="Description_WorkType">
          <DataField>Description_WorkType</DataField>
        </Field>
      </Fields>
      <rd:DataSetInfo>
        <rd:DataSetName>DataSet</rd:DataSetName>
        <rd:SchemaPath>Report.xsd</rd:SchemaPath>
        <rd:TableName>Result</rd:TableName>
      </rd:DataSetInfo>
    </DataSet>
  </DataSets>
  <ReportSections>
    <ReportSection>
      <Body>
        <ReportItems>
          <Tablix Name="ResourcePriceTable">
            <TablixBody>
              <TablixColumns>
                <TablixColumn>
                  <Width>1.04527in</Width>
                </TablixColumn>
                <TablixColumn>
                  <Width>1.04527in</Width>
                </TablixColumn>
                <TablixColumn>
                  <Width>1.51771in</Width>
                </TablixColumn>
                <TablixColumn>
                  <Width>1.04527in</Width>
                </TablixColumn>
                <TablixColumn>
                  <Width>1.24212in</Width>
                </TablixColumn>
                <TablixColumn>
                  <Width>1.24212in</Width>
                </TablixColumn>
              </TablixColumns>
              <TablixRows>
                <TablixRow>
                  <Height>0.13889in</Height>
                  <TablixCells>
                    <TablixCell>
                      <CellContents>
                        <Textbox Name="ResourceTypeCaption">
                          <CanGrow>true</CanGrow>
                          <KeepTogether>true</KeepTogether>
                          <Paragraphs>
                            <Paragraph>
                              <TextRuns>
                                <TextRun>
                                  <Value>=Parameters!Type_ResourceCaption.Value</Value>
                                  <Style>
                                    <FontStyle>Normal</FontStyle>
                                    <FontFamily>Segoe UI</FontFamily>
                                    <FontSize>8pt</FontSize>
                                    <FontWeight>Bold</FontWeight>
                                  </Style>
                                </TextRun>
                              </TextRuns>
                              <Style>
                                <TextAlign>Left</TextAlign>
                              </Style>
                            </Paragraph>
                          </Paragraphs>
                          <ZIndex>38</ZIndex>
                          <Style>
                            <VerticalAlign>Bottom</VerticalAlign>
                            <PaddingRight>5pt</PaddingRight>
                          </Style>
                        </Textbox>
                      </CellContents>
                    </TablixCell>
                    <TablixCell>
                      <CellContents>
                        <Textbox Name="ResourceNoCaption">
                          <CanGrow>true</CanGrow>
                          <KeepTogether>true</KeepTogether>
                          <Paragraphs>
                            <Paragraph>
                              <TextRuns>
                                <TextRun>
                                  <Value>=First(Fields!ResourceNoCaption.Value)</Value>
                                  <Style>
                                    <FontStyle>Normal</FontStyle>
                                    <FontFamily>Segoe UI</FontFamily>
                                    <FontSize>8pt</FontSize>
                                    <FontWeight>Bold</FontWeight>
                                  </Style>
                                </TextRun>
                              </TextRuns>
                              <Style>
                                <TextAlign>Left</TextAlign>
                              </Style>
                            </Paragraph>
                          </Paragraphs>
                          <ZIndex>37</ZIndex>
                          <Style>
                            <VerticalAlign>Bottom</VerticalAlign>
                            <PaddingLeft>5pt</PaddingLeft>
                            <PaddingRight>5pt</PaddingRight>
                          </Style>
                        </Textbox>
                      </CellContents>
                    </TablixCell>
                    <TablixCell>
                      <CellContents>
                        <Textbox Name="ResourceNameCaption">
                          <CanGrow>true</CanGrow>
                          <KeepTogether>true</KeepTogether>
                          <Paragraphs>
                            <Paragraph>
                              <TextRuns>
                                <TextRun>
                                  <Value>=First(Fields!ResourceNameCaption.Value)</Value>
                                  <Style>
                                    <FontStyle>Normal</FontStyle>
                                    <FontFamily>Segoe UI</FontFamily>
                                    <FontSize>8pt</FontSize>
                                    <FontWeight>Bold</FontWeight>
                                  </Style>
                                </TextRun>
                              </TextRuns>
                              <Style>
                                <TextAlign>Left</TextAlign>
                              </Style>
                            </Paragraph>
                          </Paragraphs>
                          <ZIndex>36</ZIndex>
                          <Style>
                            <VerticalAlign>Bottom</VerticalAlign>
                            <PaddingLeft>5pt</PaddingLeft>
                            <PaddingRight>5pt</PaddingRight>
                          </Style>
                        </Textbox>
                      </CellContents>
                    </TablixCell>
                    <TablixCell>
                      <CellContents>
                        <Textbox Name="WorkTypeCaption">
                          <CanGrow>true</CanGrow>
                          <KeepTogether>true</KeepTogether>
                          <Paragraphs>
                            <Paragraph>
                              <TextRuns>
                                <TextRun>
                                  <Value>=First(Fields!WorkTypeCaption.Value)</Value>
                                  <Style>
                                    <FontStyle>Normal</FontStyle>
                                    <FontFamily>Segoe UI</FontFamily>
                                    <FontSize>8pt</FontSize>
                                    <FontWeight>Bold</FontWeight>
                                  </Style>
                                </TextRun>
                              </TextRuns>
                              <Style>
                                <TextAlign>Left</TextAlign>
                              </Style>
                            </Paragraph>
                          </Paragraphs>
                          <ZIndex>35</ZIndex>
                          <Style>
                            <VerticalAlign>Bottom</VerticalAlign>
                            <PaddingLeft>5pt</PaddingLeft>
                            <PaddingRight>5pt</PaddingRight>
                          </Style>
                        </Textbox>
                      </CellContents>
                    </TablixCell>
                    <TablixCell>
                      <CellContents>
                        <Textbox Name="WorkTypeDescriptionCaption">
                          <CanGrow>true</CanGrow>
                          <KeepTogether>true</KeepTogether>
                          <Paragraphs>
                            <Paragraph>
                              <TextRuns>
                                <TextRun>
                                  <Value>=First(Fields!WorkTypeDescriptionCaption.Value)</Value>
                                  <Style>
                                    <FontStyle>Normal</FontStyle>
                                    <FontFamily>Segoe UI</FontFamily>
                                    <FontSize>8pt</FontSize>
                                    <FontWeight>Bold</FontWeight>
                                  </Style>
                                </TextRun>
                              </TextRuns>
                              <Style>
                                <TextAlign>Left</TextAlign>
                              </Style>
                            </Paragraph>
                          </Paragraphs>
                          <ZIndex>34</ZIndex>
                          <Style>
                            <VerticalAlign>Bottom</VerticalAlign>
                            <PaddingLeft>5pt</PaddingLeft>
                            <PaddingRight>5pt</PaddingRight>
                          </Style>
                        </Textbox>
                      </CellContents>
                    </TablixCell>
                    <TablixCell>
                      <CellContents>
                        <Textbox Name="ResPriceFIELDCAPTIONUnitPriceCurrencyText">
                          <CanGrow>true</CanGrow>
                          <KeepTogether>true</KeepTogether>
                          <Paragraphs>
                            <Paragraph>
                              <TextRuns>
                                <TextRun>
                                  <Value>=First(Fields!ResFldCaptUnitPriceCurrTxt.Value)</Value>
                                  <Style>
                                    <FontStyle>Normal</FontStyle>
                                    <FontFamily>Segoe UI</FontFamily>
                                    <FontSize>8pt</FontSize>
                                    <FontWeight>Bold</FontWeight>
                                  </Style>
                                </TextRun>
                              </TextRuns>
                              <Style>
                                <TextAlign>Right</TextAlign>
                              </Style>
                            </Paragraph>
                          </Paragraphs>
                          <ZIndex>33</ZIndex>
                          <Style>
                            <VerticalAlign>Bottom</VerticalAlign>
                            <PaddingLeft>5pt</PaddingLeft>
                          </Style>
                        </Textbox>
                      </CellContents>
                    </TablixCell>
                  </TablixCells>
                </TablixRow>
                <TablixRow>
                  <Height>0.0625in</Height>
                  <TablixCells>
                    <TablixCell>
                      <CellContents>
                        <Textbox Name="textbox30">
                          <KeepTogether>true</KeepTogether>
                          <Paragraphs>
                            <Paragraph>
                              <TextRuns>
                                <TextRun>
                                  <Value />
                                  <Style>
                                    <FontStyle>Normal</FontStyle>
                                    <FontFamily>Segoe UI</FontFamily>
                                    <FontSize>8pt</FontSize>
                                    <FontWeight>Bold</FontWeight>
                                  </Style>
                                </TextRun>
                              </TextRuns>
                              <Style />
                            </Paragraph>
                          </Paragraphs>
                          <rd:DefaultName>textbox30</rd:DefaultName>
                          <ZIndex>32</ZIndex>
                          <Style>
                            <Border />
                            <VerticalAlign>Bottom</VerticalAlign>
                          </Style>
                        </Textbox>
                        <ColSpan>6</ColSpan>
                      </CellContents>
                    </TablixCell>
                    <TablixCell />
                    <TablixCell />
                    <TablixCell />
                    <TablixCell />
                    <TablixCell />
                  </TablixCells>
                </TablixRow>
                <TablixRow>
                  <Height>0.0625in</Height>
                  <TablixCells>
                    <TablixCell>
                      <CellContents>
                        <Textbox Name="Textbox1217">
                          <CanGrow>true</CanGrow>
                          <KeepTogether>true</KeepTogether>
                          <Paragraphs>
                            <Paragraph>
                              <TextRuns>
                                <TextRun>
                                  <Value />
                                  <Style>
                                    <FontStyle>Normal</FontStyle>
                                    <FontFamily>Segoe UI</FontFamily>
                                    <FontSize>8pt</FontSize>
                                    <FontWeight>Bold</FontWeight>
                                  </Style>
                                </TextRun>
                              </TextRuns>
                              <Style />
                            </Paragraph>
                          </Paragraphs>
                          <rd:DefaultName>Textbox1217</rd:DefaultName>
                          <Style>
                            <Border>
                              <Style>None</Style>
                            </Border>
                            <TopBorder>
                              <Style>Solid</Style>
                            </TopBorder>
                            <VerticalAlign>Bottom</VerticalAlign>
                          </Style>
                        </Textbox>
                        <ColSpan>6</ColSpan>
                      </CellContents>
                    </TablixCell>
                    <TablixCell />
                    <TablixCell />
                    <TablixCell />
                    <TablixCell />
                    <TablixCell />
                  </TablixCells>
                </TablixRow>
                <TablixRow>
                  <Height>0.13889in</Height>
                  <TablixCells>
                    <TablixCell>
                      <CellContents>
                        <Textbox Name="textbox41">
                          <KeepTogether>true</KeepTogether>
                          <Paragraphs>
                            <Paragraph>
                              <TextRuns>
                                <TextRun>
                                  <Value>=Fields!Type_Resource.Value</Value>
                                  <Style>
                                    <FontFamily>Segoe UI</FontFamily>
                                    <FontSize>8pt</FontSize>
                                    <FontWeight>Bold</FontWeight>
                                  </Style>
                                </TextRun>
                              </TextRuns>
                              <Style>
                                <TextAlign>Left</TextAlign>
                              </Style>
                            </Paragraph>
                          </Paragraphs>
                          <ZIndex>23</ZIndex>
                          <Style>
                            <VerticalAlign>Top</VerticalAlign>
                            <PaddingRight>5pt</PaddingRight>
                          </Style>
                        </Textbox>
                      </CellContents>
                    </TablixCell>
                    <TablixCell>
                      <CellContents>
                        <Textbox Name="textbox108">
                          <KeepTogether>true</KeepTogether>
                          <Paragraphs>
                            <Paragraph>
                              <TextRuns>
                                <TextRun>
                                  <Value>=Fields!No_Resource.Value</Value>
                                  <Style>
                                    <FontFamily>Segoe UI</FontFamily>
                                    <FontSize>8pt</FontSize>
                                    <FontWeight>Bold</FontWeight>
                                  </Style>
                                </TextRun>
                              </TextRuns>
                              <Style>
                                <TextAlign>Left</TextAlign>
                              </Style>
                            </Paragraph>
                          </Paragraphs>
                          <ZIndex>22</ZIndex>
                          <Style>
                            <VerticalAlign>Top</VerticalAlign>
                            <PaddingLeft>5pt</PaddingLeft>
                            <PaddingRight>5pt</PaddingRight>
                          </Style>
                        </Textbox>
                      </CellContents>
                    </TablixCell>
                    <TablixCell>
                      <CellContents>
                        <Textbox Name="textbox109">
                          <KeepTogether>true</KeepTogether>
                          <Paragraphs>
                            <Paragraph>
                              <TextRuns>
                                <TextRun>
                                  <Value>=Fields!ResourceName.Value</Value>
                                  <Style>
                                    <FontFamily>Segoe UI</FontFamily>
                                    <FontSize>8pt</FontSize>
                                    <FontWeight>Bold</FontWeight>
                                  </Style>
                                </TextRun>
                              </TextRuns>
                              <Style>
                                <TextAlign>Left</TextAlign>
                              </Style>
                            </Paragraph>
                          </Paragraphs>
                          <ZIndex>21</ZIndex>
                          <Style>
                            <VerticalAlign>Top</VerticalAlign>
                            <PaddingLeft>5pt</PaddingLeft>
                            <PaddingRight>5pt</PaddingRight>
                          </Style>
                        </Textbox>
                      </CellContents>
                    </TablixCell>
                    <TablixCell>
                      <CellContents>
                        <Textbox Name="textbox112">
                          <KeepTogether>true</KeepTogether>
                          <Paragraphs>
                            <Paragraph>
                              <TextRuns>
                                <TextRun>
                                  <Value />
                                  <Style />
                                </TextRun>
                              </TextRuns>
                              <Style />
                            </Paragraph>
                          </Paragraphs>
                          <ZIndex>20</ZIndex>
                          <Style>
                            <VerticalAlign>Top</VerticalAlign>
                            <PaddingLeft>5pt</PaddingLeft>
                            <PaddingRight>5pt</PaddingRight>
                          </Style>
                        </Textbox>
                        <ColSpan>2</ColSpan>
                      </CellContents>
                    </TablixCell>
                    <TablixCell />
                    <TablixCell>
                      <CellContents>
                        <Textbox Name="textbox118">
                          <CanGrow>true</CanGrow>
                          <KeepTogether>true</KeepTogether>
                          <Paragraphs>
                            <Paragraph>
                              <TextRuns>
                                <TextRun>
                                  <Value>=Fields!UnitPrice_Resource.Value</Value>
                                  <Style>
                                    <FontStyle>Normal</FontStyle>
                                    <FontFamily>Segoe UI</FontFamily>
                                    <FontSize>8pt</FontSize>
                                    <FontWeight>Bold</FontWeight>
                                    <Format>#,##0.00###</Format>
                                  </Style>
                                </TextRun>
                              </TextRuns>
                              <Style>
                                <TextAlign>Right</TextAlign>
                              </Style>
                            </Paragraph>
                          </Paragraphs>
                          <ZIndex>15</ZIndex>
                          <Style>
                            <VerticalAlign>Top</VerticalAlign>
                            <PaddingLeft>5pt</PaddingLeft>
                          </Style>
                        </Textbox>
                      </CellContents>
                    </TablixCell>
                  </TablixCells>
                </TablixRow>
                <TablixRow>
                  <Height>0.13889in</Height>
                  <TablixCells>
                    <TablixCell>
                      <CellContents>
                        <Textbox Name="TextBox1">
                          <KeepTogether>true</KeepTogether>
                          <Paragraphs>
                            <Paragraph>
                              <TextRuns>
                                <TextRun>
                                  <Value />
                                  <Style />
                                </TextRun>
                              </TextRuns>
                              <Style />
                            </Paragraph>
                          </Paragraphs>
                          <ZIndex>5</ZIndex>
                          <Style>
                            <BackgroundColor>="#EFEFEF"</BackgroundColor>
                            <VerticalAlign>Top</VerticalAlign>
                            <PaddingRight>0.0625in</PaddingRight>
                          </Style>
                        </Textbox>
                        <ColSpan>3</ColSpan>
                      </CellContents>
                    </TablixCell>
                    <TablixCell />
                    <TablixCell />
                    <TablixCell>
                      <CellContents>
                        <Textbox Name="ResPriceWorkTypeCode">
                          <KeepTogether>true</KeepTogether>
                          <Paragraphs>
                            <Paragraph>
                              <TextRuns>
                                <TextRun>
                                  <Value>=Fields!WorkTypeCode_ResPrice.Value</Value>
                                  <Style>
                                    <FontStyle>Normal</FontStyle>
                                    <FontFamily>Segoe UI</FontFamily>
                                    <FontSize>8pt</FontSize>
                                  </Style>
                                </TextRun>
                              </TextRuns>
                              <Style>
                                <TextAlign>Left</TextAlign>
                              </Style>
                            </Paragraph>
                          </Paragraphs>
                          <ZIndex>2</ZIndex>
                          <Style>
                            <BackgroundColor>="#EFEFEF"</BackgroundColor>
                            <VerticalAlign>Top</VerticalAlign>
                            <PaddingLeft>5pt</PaddingLeft>
                            <PaddingRight>5pt</PaddingRight>
                          </Style>
                        </Textbox>
                      </CellContents>
                    </TablixCell>
                    <TablixCell>
                      <CellContents>
                        <Textbox Name="WorkTypeDescription">
                          <KeepTogether>true</KeepTogether>
                          <Paragraphs>
                            <Paragraph>
                              <TextRuns>
                                <TextRun>
                                  <Value>=Fields!Description_WorkType.Value</Value>
                                  <Style>
                                    <FontStyle>Normal</FontStyle>
                                    <FontFamily>Segoe UI</FontFamily>
                                    <FontSize>8pt</FontSize>
                                  </Style>
                                </TextRun>
                              </TextRuns>
                              <Style>
                                <TextAlign>Left</TextAlign>
                              </Style>
                            </Paragraph>
                          </Paragraphs>
                          <ZIndex>1</ZIndex>
                          <Style>
                            <BackgroundColor>="#EFEFEF"</BackgroundColor>
                            <VerticalAlign>Top</VerticalAlign>
                            <PaddingLeft>5pt</PaddingLeft>
                            <PaddingRight>5pt</PaddingRight>
                          </Style>
                        </Textbox>
                      </CellContents>
                    </TablixCell>
                    <TablixCell>
                      <CellContents>
                        <Textbox Name="ResPriceUnitPrice">
                          <CanGrow>true</CanGrow>
                          <KeepTogether>true</KeepTogether>
                          <Paragraphs>
                            <Paragraph>
                              <TextRuns>
                                <TextRun>
                                  <Value>=Fields!UnitPrice_ResPrice.Value</Value>
                                  <Style>
                                    <FontStyle>Normal</FontStyle>
                                    <FontFamily>Segoe UI</FontFamily>
                                    <FontSize>8pt</FontSize>
                                    <Format>#,##0.00###</Format>
                                  </Style>
                                </TextRun>
                              </TextRuns>
                              <Style>
                                <TextAlign>Right</TextAlign>
                              </Style>
                            </Paragraph>
                          </Paragraphs>
                          <Style>
                            <BackgroundColor>="#EFEFEF"</BackgroundColor>
                            <VerticalAlign>Top</VerticalAlign>
                            <PaddingLeft>5pt</PaddingLeft>
                          </Style>
                        </Textbox>
                      </CellContents>
                    </TablixCell>
                  </TablixCells>
                </TablixRow>
                <TablixRow>
                  <Height>0.13889in</Height>
                  <TablixCells>
                    <TablixCell>
                      <CellContents>
                        <Textbox Name="Textbox14">
                          <CanGrow>true</CanGrow>
                          <KeepTogether>true</KeepTogether>
                          <Paragraphs>
                            <Paragraph>
                              <TextRuns>
                                <TextRun>
                                  <Value />
                                  <Style />
                                </TextRun>
                              </TextRuns>
                              <Style />
                            </Paragraph>
                          </Paragraphs>
                          <rd:DefaultName>Textbox14</rd:DefaultName>
                          <Style>
                            <VerticalAlign>Top</VerticalAlign>
                            <PaddingRight>0.0625in</PaddingRight>
                          </Style>
                        </Textbox>
                        <ColSpan>6</ColSpan>
                      </CellContents>
                    </TablixCell>
                    <TablixCell />
                    <TablixCell />
                    <TablixCell />
                    <TablixCell />
                    <TablixCell />
                  </TablixCells>
                </TablixRow>
              </TablixRows>
            </TablixBody>
            <TablixColumnHierarchy>
              <TablixMembers>
                <TablixMember />
                <TablixMember />
                <TablixMember />
                <TablixMember />
                <TablixMember />
                <TablixMember />
              </TablixMembers>
            </TablixColumnHierarchy>
            <TablixRowHierarchy>
              <TablixMembers>
                <TablixMember>
                  <KeepWithGroup>After</KeepWithGroup>
                  <RepeatOnNewPage>true</RepeatOnNewPage>
                  <KeepTogether>true</KeepTogether>
                </TablixMember>
                <TablixMember>
                  <KeepWithGroup>After</KeepWithGroup>
                  <RepeatOnNewPage>true</RepeatOnNewPage>
                  <KeepTogether>true</KeepTogether>
                </TablixMember>
                <TablixMember>
                  <KeepWithGroup>After</KeepWithGroup>
                  <RepeatOnNewPage>true</RepeatOnNewPage>
                </TablixMember>
                <TablixMember>
                  <Group Name="Table1_Group1">
                    <GroupExpressions>
                      <GroupExpression>=Fields!No_Resource.Value</GroupExpression>
                    </GroupExpressions>
                  </Group>
                  <TablixMembers>
                    <TablixMember>
                      <KeepWithGroup>After</KeepWithGroup>
                      <RepeatOnNewPage>true</RepeatOnNewPage>
                      <KeepTogether>true</KeepTogether>
                    </TablixMember>
                    <TablixMember>
                      <Group Name="Table1_Details_Group">
                        <DataElementName>Detail</DataElementName>
                      </Group>
                      <TablixMembers>
                        <TablixMember>
                          <Visibility>
                            <Hidden>=iif(Fields!WorkTypeCode_ResPrice.Value="",true,false)</Hidden>
                          </Visibility>
                        </TablixMember>
                      </TablixMembers>
                      <DataElementName>Detail_Collection</DataElementName>
                      <DataElementOutput>Output</DataElementOutput>
                      <KeepTogether>true</KeepTogether>
                    </TablixMember>
                    <TablixMember>
                      <KeepWithGroup>Before</KeepWithGroup>
                    </TablixMember>
                  </TablixMembers>
                </TablixMember>
              </TablixMembers>
            </TablixRowHierarchy>
            <DataSetName>DataSet_Result</DataSetName>
            <Top>0.00527in</Top>
            <Height>1.72862cm</Height>
            <Width>18.12997cm</Width>
            <Style />
          </Tablix>
        </ReportItems>
        <Height>1.74201cm</Height>
        <Style />
      </Body>
      <Width>18.12997cm</Width>
      <Page>
        <PageHeader>
          <Height>7.57413cm</Height>
          <PrintOnFirstPage>true</PrintOnFirstPage>
          <PrintOnLastPage>true</PrintOnLastPage>
          <ReportItems>
            <Textbox Name="ResourcePriceListCaption">
              <CanGrow>true</CanGrow>
              <KeepTogether>true</KeepTogether>
              <Paragraphs>
                <Paragraph>
                  <TextRuns>
                    <TextRun>
                      <Value>=First(Fields!ResourcePriceListCaption.Value,"DataSet_Result")</Value>
                      <Style>
                        <FontFamily>Segoe UI</FontFamily>
                        <FontSize>14pt</FontSize>
                        <FontWeight>Bold</FontWeight>
                      </Style>
                    </TextRun>
                  </TextRuns>
                  <Style>
                    <TextAlign>Right</TextAlign>
                  </Style>
                </Paragraph>
              </Paragraphs>
              <Left>4.65in</Left>
              <Height>0.24333in</Height>
              <Width>2.43987in</Width>
              <Style>
                <VerticalAlign>Bottom</VerticalAlign>
              </Style>
            </Textbox>
            <Textbox Name="STRSUBSTNOText003FORMATCurrReportPAGENO">
              <CanGrow>true</CanGrow>
              <KeepTogether>true</KeepTogether>
              <Paragraphs>
                <Paragraph>
                  <TextRuns>
                    <TextRun>
                      <Value>=First(Fields!StrsubsnoFormatRepPageNo.Value,"DataSet_Result")</Value>
                      <Style>
                        <FontStyle>Normal</FontStyle>
                        <FontFamily>Segoe UI</FontFamily>
                        <FontSize>8pt</FontSize>
                      </Style>
                    </TextRun>
                  </TextRuns>
                  <Style>
                    <TextAlign>Right</TextAlign>
                  </Style>
                </Paragraph>
              </Paragraphs>
              <Top>0.25in</Top>
              <Left>4.65in</Left>
              <Height>11pt</Height>
              <Width>2.43987in</Width>
              <ZIndex>1</ZIndex>
              <Style>
                <VerticalAlign>Middle</VerticalAlign>
              </Style>
            </Textbox>
            <Textbox Name="CompanyAddr1">
              <KeepTogether>true</KeepTogether>
              <Paragraphs>
                <Paragraph>
                  <TextRuns>
                    <TextRun>
                      <Value>=First(Fields!CompanyAddr1.Value,"DataSet_Result")</Value>
                      <Style>
                        <FontStyle>Normal</FontStyle>
                        <FontFamily>Segoe UI</FontFamily>
                        <FontSize>8pt</FontSize>
                      </Style>
                    </TextRun>
                  </TextRuns>
                  <Style>
                    <TextAlign>Right</TextAlign>
                  </Style>
                </Paragraph>
              </Paragraphs>
              <Top>0.5575in</Top>
              <Left>4.65in</Left>
              <Height>11pt</Height>
              <Width>2.43987in</Width>
              <ZIndex>2</ZIndex>
              <Style>
                <VerticalAlign>Bottom</VerticalAlign>
              </Style>
            </Textbox>
            <Textbox Name="CompanyAddr2">
              <KeepTogether>true</KeepTogether>
              <Paragraphs>
                <Paragraph>
                  <TextRuns>
                    <TextRun>
                      <Value>=First(Fields!CompanyAddr2.Value,"DataSet_Result")</Value>
                      <Style>
                        <FontStyle>Normal</FontStyle>
                        <FontFamily>Segoe UI</FontFamily>
                        <FontSize>8pt</FontSize>
                      </Style>
                    </TextRun>
                  </TextRuns>
                  <Style>
                    <TextAlign>Right</TextAlign>
                  </Style>
                </Paragraph>
              </Paragraphs>
              <Top>0.7175in</Top>
              <Left>4.65in</Left>
              <Height>11pt</Height>
              <Width>2.43987in</Width>
              <ZIndex>3</ZIndex>
              <Style>
                <VerticalAlign>Middle</VerticalAlign>
              </Style>
            </Textbox>
            <Textbox Name="CompanyAddr3">
              <KeepTogether>true</KeepTogether>
              <Paragraphs>
                <Paragraph>
                  <TextRuns>
                    <TextRun>
                      <Value>=First(Fields!CompanyAddr3.Value,"DataSet_Result")</Value>
                      <Style>
                        <FontStyle>Normal</FontStyle>
                        <FontFamily>Segoe UI</FontFamily>
                        <FontSize>8pt</FontSize>
                      </Style>
                    </TextRun>
                  </TextRuns>
                  <Style>
                    <TextAlign>Right</TextAlign>
                  </Style>
                </Paragraph>
              </Paragraphs>
              <Top>0.8775in</Top>
              <Left>4.65in</Left>
              <Height>11pt</Height>
              <Width>2.43987in</Width>
              <ZIndex>4</ZIndex>
              <Style>
                <VerticalAlign>Middle</VerticalAlign>
              </Style>
            </Textbox>
            <Textbox Name="CompanyAddr4">
              <KeepTogether>true</KeepTogether>
              <Paragraphs>
                <Paragraph>
                  <TextRuns>
                    <TextRun>
                      <Value>=First(Fields!CompanyAddr4.Value,"DataSet_Result")</Value>
                      <Style>
                        <FontStyle>Normal</FontStyle>
                        <FontFamily>Segoe UI</FontFamily>
                        <FontSize>8pt</FontSize>
                      </Style>
                    </TextRun>
                  </TextRuns>
                  <Style>
                    <TextAlign>Right</TextAlign>
                  </Style>
                </Paragraph>
              </Paragraphs>
              <Top>1.0375in</Top>
              <Left>4.65in</Left>
              <Height>11pt</Height>
              <Width>2.43987in</Width>
              <ZIndex>5</ZIndex>
              <Style>
                <VerticalAlign>Middle</VerticalAlign>
              </Style>
            </Textbox>
            <Textbox Name="CompanyAddr5">
              <KeepTogether>true</KeepTogether>
              <Paragraphs>
                <Paragraph>
                  <TextRuns>
                    <TextRun>
                      <Value>=First(Fields!CompanyAddr5.Value,"DataSet_Result")</Value>
                      <Style>
                        <FontStyle>Normal</FontStyle>
                        <FontFamily>Segoe UI</FontFamily>
                        <FontSize>8pt</FontSize>
                      </Style>
                    </TextRun>
                  </TextRuns>
                  <Style>
                    <TextAlign>Right</TextAlign>
                  </Style>
                </Paragraph>
              </Paragraphs>
              <Top>1.1975in</Top>
              <Left>4.65in</Left>
              <Height>11pt</Height>
              <Width>2.43987in</Width>
              <ZIndex>6</ZIndex>
              <Style>
                <VerticalAlign>Middle</VerticalAlign>
              </Style>
            </Textbox>
            <Textbox Name="CompanyAddr6">
              <KeepTogether>true</KeepTogether>
              <Paragraphs>
                <Paragraph>
                  <TextRuns>
                    <TextRun>
                      <Value>=First(Fields!CompanyAddr6.Value,"DataSet_Result")</Value>
                      <Style>
                        <FontStyle>Normal</FontStyle>
                        <FontFamily>Segoe UI</FontFamily>
                        <FontSize>8pt</FontSize>
                      </Style>
                    </TextRun>
                  </TextRuns>
                  <Style>
                    <TextAlign>Right</TextAlign>
                  </Style>
                </Paragraph>
              </Paragraphs>
              <Top>1.33639in</Top>
              <Left>4.65in</Left>
              <Height>11pt</Height>
              <Width>2.43987in</Width>
              <ZIndex>7</ZIndex>
              <Style>
                <VerticalAlign>Middle</VerticalAlign>
              </Style>
            </Textbox>
            <Textbox Name="CompanyInfoPhoneNoCaption">
              <CanGrow>true</CanGrow>
              <KeepTogether>true</KeepTogether>
              <Paragraphs>
                <Paragraph>
                  <TextRuns>
                    <TextRun>
                      <Value>=First(Fields!CompanyInfoPhoneNoCaption.Value,"DataSet_Result")</Value>
                      <Style>
                        <FontStyle>Normal</FontStyle>
                        <FontFamily>Segoe UI</FontFamily>
                        <FontSize>8pt</FontSize>
                      </Style>
                    </TextRun>
                  </TextRuns>
                  <Style>
                    <TextAlign>Left</TextAlign>
                  </Style>
                </Paragraph>
              </Paragraphs>
              <Top>1.47528in</Top>
              <Left>4.65in</Left>
              <Height>11pt</Height>
              <Width>0.97058in</Width>
              <ZIndex>8</ZIndex>
              <Style>
                <VerticalAlign>Middle</VerticalAlign>
              </Style>
            </Textbox>
            <Textbox Name="CompanyInfoPhoneNo">
              <KeepTogether>true</KeepTogether>
              <Paragraphs>
                <Paragraph>
                  <TextRuns>
                    <TextRun>
                      <Value>=First(Fields!PhoneNo_CompanyInfo.Value,"DataSet_Result")</Value>
                      <Style>
                        <FontStyle>Normal</FontStyle>
                        <FontFamily>Segoe UI</FontFamily>
                        <FontSize>8pt</FontSize>
                      </Style>
                    </TextRun>
                  </TextRuns>
                  <Style>
                    <TextAlign>Right</TextAlign>
                  </Style>
                </Paragraph>
              </Paragraphs>
              <Top>1.47528in</Top>
              <Left>5.62055in</Left>
              <Height>11pt</Height>
              <Width>1.46929in</Width>
              <ZIndex>9</ZIndex>
              <Style>
                <VerticalAlign>Middle</VerticalAlign>
              </Style>
            </Textbox>
            <Textbox Name="CompanyInfoFaxNoCaption">
              <CanGrow>true</CanGrow>
              <KeepTogether>true</KeepTogether>
              <Paragraphs>
                <Paragraph>
                  <TextRuns>
                    <TextRun>
                      <Value>=Parameters!EMailIdCaption.Value</Value>
                      <Style>
                        <FontStyle>Normal</FontStyle>
                        <FontFamily>Segoe UI</FontFamily>
                        <FontSize>8pt</FontSize>
                      </Style>
                    </TextRun>
                  </TextRuns>
                  <Style>
                    <TextAlign>Left</TextAlign>
                  </Style>
                </Paragraph>
              </Paragraphs>
              <Top>1.61417in</Top>
              <Left>4.65in</Left>
              <Height>11pt</Height>
              <Width>0.97058in</Width>
              <ZIndex>10</ZIndex>
              <Style>
                <VerticalAlign>Middle</VerticalAlign>
              </Style>
            </Textbox>
            <Textbox Name="CompanyInfoFaxNo">
              <KeepTogether>true</KeepTogether>
              <Paragraphs>
                <Paragraph>
                  <TextRuns>
                    <TextRun>
                      <Value>=First(Fields!Email_CompanyInfo.Value, "DataSet_Result")</Value>
                      <Style>
                        <FontStyle>Normal</FontStyle>
                        <FontFamily>Segoe UI</FontFamily>
                        <FontSize>8pt</FontSize>
                      </Style>
                    </TextRun>
                  </TextRuns>
                  <Style>
                    <TextAlign>Right</TextAlign>
                  </Style>
                </Paragraph>
              </Paragraphs>
              <Top>1.63528in</Top>
              <Left>5.62055in</Left>
              <Height>11pt</Height>
              <Width>1.46929in</Width>
              <ZIndex>11</ZIndex>
              <Style>
                <Border />
                <VerticalAlign>Middle</VerticalAlign>
              </Style>
            </Textbox>
            <Textbox Name="CompanyInfoVATRegistrationNoCaption">
              <CanGrow>true</CanGrow>
              <KeepTogether>true</KeepTogether>
              <Paragraphs>
                <Paragraph>
                  <TextRuns>
                    <TextRun>
                      <Value>=First(Fields!CompanyInfoVATRegistrationNoCaption.Value,"DataSet_Result")</Value>
                      <Style>
                        <FontStyle>Normal</FontStyle>
                        <FontFamily>Segoe UI</FontFamily>
                        <FontSize>8pt</FontSize>
                      </Style>
                    </TextRun>
                  </TextRuns>
                  <Style>
                    <TextAlign>Left</TextAlign>
                  </Style>
                </Paragraph>
              </Paragraphs>
              <Top>1.91306in</Top>
              <Left>4.65in</Left>
              <Height>11pt</Height>
              <Width>0.97058in</Width>
              <ZIndex>12</ZIndex>
              <Style>
                <VerticalAlign>Middle</VerticalAlign>
              </Style>
            </Textbox>
            <Textbox Name="CompanyInfoVATRegistrationNo">
              <KeepTogether>true</KeepTogether>
              <Paragraphs>
                <Paragraph>
                  <TextRuns>
                    <TextRun>
                      <Value>=First(Fields!VATResgNo_CompanyInfo.Value,"DataSet_Result")</Value>
                      <Style>
                        <FontStyle>Normal</FontStyle>
                        <FontFamily>Segoe UI</FontFamily>
                        <FontSize>8pt</FontSize>
                      </Style>
                    </TextRun>
                  </TextRuns>
                  <Style>
                    <TextAlign>Right</TextAlign>
                  </Style>
                </Paragraph>
              </Paragraphs>
              <Top>1.91306in</Top>
              <Left>5.62055in</Left>
              <Height>11pt</Height>
              <Width>1.46929in</Width>
              <ZIndex>13</ZIndex>
              <Style>
                <VerticalAlign>Middle</VerticalAlign>
              </Style>
            </Textbox>
            <Textbox Name="CompanyInfoGiroNoCaption">
              <CanGrow>true</CanGrow>
              <KeepTogether>true</KeepTogether>
              <Paragraphs>
                <Paragraph>
                  <TextRuns>
                    <TextRun>
                      <Value>=First(Fields!CompanyInfoGiroNoCaption.Value,"DataSet_Result")</Value>
                      <Style>
                        <FontStyle>Normal</FontStyle>
                        <FontFamily>Segoe UI</FontFamily>
                        <FontSize>8pt</FontSize>
                      </Style>
                    </TextRun>
                  </TextRuns>
                  <Style>
                    <TextAlign>Left</TextAlign>
                  </Style>
                </Paragraph>
              </Paragraphs>
              <Top>2.07306in</Top>
              <Left>4.65in</Left>
              <Height>11pt</Height>
              <Width>0.97058in</Width>
              <ZIndex>14</ZIndex>
              <Style>
                <VerticalAlign>Middle</VerticalAlign>
              </Style>
            </Textbox>
            <Textbox Name="CompanyInfoGiroNo">
              <KeepTogether>true</KeepTogether>
              <Paragraphs>
                <Paragraph>
                  <TextRuns>
                    <TextRun>
                      <Value>=First(Fields!GiroNo_CompanyInfo.Value,"DataSet_Result")</Value>
                      <Style>
                        <FontStyle>Normal</FontStyle>
                        <FontFamily>Segoe UI</FontFamily>
                        <FontSize>8pt</FontSize>
                      </Style>
                    </TextRun>
                  </TextRuns>
                  <Style>
                    <TextAlign>Right</TextAlign>
                  </Style>
                </Paragraph>
              </Paragraphs>
              <Top>2.07306in</Top>
              <Left>5.62055in</Left>
              <Height>11pt</Height>
              <Width>1.46929in</Width>
              <ZIndex>15</ZIndex>
              <Style>
                <VerticalAlign>Middle</VerticalAlign>
              </Style>
            </Textbox>
            <Textbox Name="CompanyInfoBankNameCaption">
              <CanGrow>true</CanGrow>
              <KeepTogether>true</KeepTogether>
              <Paragraphs>
                <Paragraph>
                  <TextRuns>
                    <TextRun>
                      <Value>=First(Fields!CompanyInfoBankNameCaption.Value,"DataSet_Result")</Value>
                      <Style>
                        <FontStyle>Normal</FontStyle>
                        <FontFamily>Segoe UI</FontFamily>
                        <FontSize>8pt</FontSize>
                      </Style>
                    </TextRun>
                  </TextRuns>
                  <Style>
                    <TextAlign>Left</TextAlign>
                  </Style>
                </Paragraph>
              </Paragraphs>
              <Top>2.23306in</Top>
              <Left>4.65in</Left>
              <Height>11pt</Height>
              <Width>0.97058in</Width>
              <ZIndex>16</ZIndex>
              <Style>
                <VerticalAlign>Middle</VerticalAlign>
              </Style>
            </Textbox>
            <Textbox Name="CompanyInfoBankName">
              <KeepTogether>true</KeepTogether>
              <Paragraphs>
                <Paragraph>
                  <TextRuns>
                    <TextRun>
                      <Value>=First(Fields!BankName_CompanyInfo.Value,"DataSet_Result")</Value>
                      <Style>
                        <FontStyle>Normal</FontStyle>
                        <FontFamily>Segoe UI</FontFamily>
                        <FontSize>8pt</FontSize>
                      </Style>
                    </TextRun>
                  </TextRuns>
                  <Style>
                    <TextAlign>Right</TextAlign>
                  </Style>
                </Paragraph>
              </Paragraphs>
              <Top>2.23306in</Top>
              <Left>5.62055in</Left>
              <Height>11pt</Height>
              <Width>1.46929in</Width>
              <ZIndex>17</ZIndex>
              <Style>
                <VerticalAlign>Middle</VerticalAlign>
              </Style>
            </Textbox>
            <Textbox Name="CompanyInfoBankAccountNoCaption">
              <CanGrow>true</CanGrow>
              <KeepTogether>true</KeepTogether>
              <Paragraphs>
                <Paragraph>
                  <TextRuns>
                    <TextRun>
                      <Value>=First(Fields!CompanyInfoBankAccountNoCaption.Value,"DataSet_Result")</Value>
                      <Style>
                        <FontStyle>Normal</FontStyle>
                        <FontFamily>Segoe UI</FontFamily>
                        <FontSize>8pt</FontSize>
                      </Style>
                    </TextRun>
                  </TextRuns>
                  <Style>
                    <TextAlign>Left</TextAlign>
                  </Style>
                </Paragraph>
              </Paragraphs>
              <Top>2.39306in</Top>
              <Left>4.65in</Left>
              <Height>11pt</Height>
              <Width>0.97058in</Width>
              <ZIndex>18</ZIndex>
              <Style>
                <VerticalAlign>Middle</VerticalAlign>
              </Style>
            </Textbox>
            <Textbox Name="CompanyInfoBankAccountNo">
              <KeepTogether>true</KeepTogether>
              <Paragraphs>
                <Paragraph>
                  <TextRuns>
                    <TextRun>
                      <Value>=First(Fields!BankAccNo_CompanyInfo.Value,"DataSet_Result")</Value>
                      <Style>
                        <FontStyle>Normal</FontStyle>
                        <FontFamily>Segoe UI</FontFamily>
                        <FontSize>8pt</FontSize>
                      </Style>
                    </TextRun>
                  </TextRuns>
                  <Style>
                    <TextAlign>Right</TextAlign>
                  </Style>
                </Paragraph>
              </Paragraphs>
              <Top>2.39306in</Top>
              <Left>5.62055in</Left>
              <Height>11pt</Height>
              <Width>1.46929in</Width>
              <ZIndex>19</ZIndex>
              <Style>
                <VerticalAlign>Middle</VerticalAlign>
              </Style>
            </Textbox>
            <Textbox Name="STRSUBSTNOText004FORMATWORKDATE04">
              <KeepTogether>true</KeepTogether>
              <Paragraphs>
                <Paragraph>
                  <TextRuns>
                    <TextRun>
                      <Value>=First(Fields!StrsubsnoAsofFormatWorkDt.Value,"DataSet_Result")</Value>
                      <Style>
                        <FontStyle>Normal</FontStyle>
                        <FontFamily>Segoe UI</FontFamily>
                        <FontSize>8pt</FontSize>
                      </Style>
                    </TextRun>
                  </TextRuns>
                  <Style>
                    <TextAlign>Right</TextAlign>
                  </Style>
                </Paragraph>
              </Paragraphs>
              <Top>2.53195in</Top>
              <Left>4.65in</Left>
              <Height>11pt</Height>
              <Width>2.43987in</Width>
              <ZIndex>20</ZIndex>
              <Style>
                <VerticalAlign>Middle</VerticalAlign>
              </Style>
            </Textbox>
            <Textbox Name="CompanyInfoFaxNoCaption2">
              <CanGrow>true</CanGrow>
              <KeepTogether>true</KeepTogether>
              <Paragraphs>
                <Paragraph>
                  <TextRuns>
                    <TextRun>
                      <Value>=Parameters!HomePageCaption.Value</Value>
                      <Style>
                        <FontStyle>Normal</FontStyle>
                        <FontFamily>Segoe UI</FontFamily>
                        <FontSize>8pt</FontSize>
                      </Style>
                    </TextRun>
                  </TextRuns>
                  <Style>
                    <TextAlign>Left</TextAlign>
                  </Style>
                </Paragraph>
              </Paragraphs>
              <Top>1.75306in</Top>
              <Left>4.64997in</Left>
              <Height>11pt</Height>
              <Width>0.97058in</Width>
              <ZIndex>21</ZIndex>
              <Style>
                <VerticalAlign>Middle</VerticalAlign>
              </Style>
            </Textbox>
            <Textbox Name="CompanyInfoFaxNo2">
              <KeepTogether>true</KeepTogether>
              <Paragraphs>
                <Paragraph>
                  <TextRuns>
                    <TextRun>
                      <Value>=First(Fields!HomePage_CompanyInfo.Value, "DataSet_Result")</Value>
                      <Style>
                        <FontStyle>Normal</FontStyle>
                        <FontFamily>Segoe UI</FontFamily>
                        <FontSize>8pt</FontSize>
                      </Style>
                    </TextRun>
                  </TextRuns>
                  <Style>
                    <TextAlign>Right</TextAlign>
                  </Style>
                </Paragraph>
              </Paragraphs>
              <Top>1.77417in</Top>
              <Left>5.62052in</Left>
              <Height>11pt</Height>
              <Width>1.46929in</Width>
              <ZIndex>22</ZIndex>
              <Style>
                <Border />
                <VerticalAlign>Middle</VerticalAlign>
              </Style>
            </Textbox>
          </ReportItems>
          <Style>
            <Border>
              <Style>None</Style>
            </Border>
          </Style>
        </PageHeader>
        <PageHeight>29.7cm</PageHeight>
        <PageWidth>21cm</PageWidth>
        <InteractiveHeight>11in</InteractiveHeight>
        <InteractiveWidth>8.5in</InteractiveWidth>
        <LeftMargin>1.76388cm</LeftMargin>
        <RightMargin>1.05834cm</RightMargin>
        <TopMargin>1.05834cm</TopMargin>
        <BottomMargin>1.48166cm</BottomMargin>
        <ColumnSpacing>1.27cm</ColumnSpacing>
        <Style />
      </Page>
    </ReportSection>
  </ReportSections>
  <ReportParameters>
    <ReportParameter Name="Type_ResourceCaption">
      <DataType>String</DataType>
      <DefaultValue>
        <Values>
          <Value>Type_ResourceCaption</Value>
        </Values>
      </DefaultValue>
      <Prompt>Type_ResourceCaption</Prompt>
    </ReportParameter>
    <ReportParameter Name="EMailIdCaption">
      <DataType>String</DataType>
      <DefaultValue>
        <Values>
          <Value>EMailIdCaption</Value>
        </Values>
      </DefaultValue>
      <Prompt>EMailIdCaption</Prompt>
    </ReportParameter>
    <ReportParameter Name="HomePageCaption">
      <DataType>String</DataType>
      <DefaultValue>
        <Values>
          <Value>HomePageCaption</Value>
        </Values>
      </DefaultValue>
      <Prompt>HomePageCaption</Prompt>
    </ReportParameter>
  </ReportParameters>
  <ReportParametersLayout>
    <GridLayoutDefinition>
      <NumberOfColumns>1</NumberOfColumns>
      <NumberOfRows>3</NumberOfRows>
      <CellDefinitions>
        <CellDefinition>
          <ColumnIndex>0</ColumnIndex>
          <RowIndex>0</RowIndex>
          <ParameterName>Type_ResourceCaption</ParameterName>
        </CellDefinition>
        <CellDefinition>
          <ColumnIndex>0</ColumnIndex>
          <RowIndex>1</RowIndex>
          <ParameterName>EMailIdCaption</ParameterName>
        </CellDefinition>
        <CellDefinition>
          <ColumnIndex>0</ColumnIndex>
          <RowIndex>2</RowIndex>
          <ParameterName>HomePageCaption</ParameterName>
        </CellDefinition>
      </CellDefinitions>
    </GridLayoutDefinition>
  </ReportParametersLayout>
  <Code>Public Function BlankZero(ByVal Value As Decimal)
    if Value = 0 then
        Return ""
    end if
    Return Value
End Function

Public Function BlankPos(ByVal Value As Decimal)
    if Value &gt; 0 then
        Return ""
    end if
    Return Value
End Function

Public Function BlankZeroAndPos(ByVal Value As Decimal)
    if Value &gt;= 0 then
        Return ""
    end if
    Return Value
End Function

Public Function BlankNeg(ByVal Value As Decimal)
    if Value &lt; 0 then
        Return ""
    end if
    Return Value
End Function

Public Function BlankNegAndZero(ByVal Value As Decimal)
    if Value &lt;= 0 then
        Return ""
    end if
    Return Value
End Function
</Code>
  <Language>=User!Language</Language>
  <ConsumeContainerWhitespace>true</ConsumeContainerWhitespace>
  <rd:ReportUnitType>Cm</rd:ReportUnitType>
  <rd:ReportID>168b9e95-d6aa-4640-b7be-afd517ca2856</rd:ReportID>
</Report>
    END_OF_RDLDATA
  }
}

