OBJECT Report 1128 Cost Acctg. Journal
{
  OBJECT-PROPERTIES
  {
    Date=22/11/17;
    Time=12:00:00;
    Version List=NAVW111.00;
  }
  PROPERTIES
  {
    CaptionML=[ENU=Cost Acctg. Journal;
               ENG=Cost Acctg. Journal];
  }
  DATASET
  {
    { 7341;    ;DataItem;                    ;
               DataItemTable=Table1101;
               DataItemTableView=SORTING(Journal Template Name,Journal Batch Name,Line No.);
               OnPreDataItem=BEGIN
                               CurrReport.CREATETOTALS(Amount,Balance);
                             END;

               OnAfterGetRecord=BEGIN
                                  IF WithError THEN BEGIN
                                    Lineno := 0;
                                    CLEAR(Errorline);

                                    IF "Posting Date" = 0D THEN
                                      WriteErrorLine(Text000);

                                    IF "Document No." = '' THEN
                                      WriteErrorLine(Text001);

                                    IF ("Cost Type No." = '') AND ("Bal. Cost Type No." = '') THEN
                                      WriteErrorLine(Text002);

                                    IF "Cost Type No." <> '' THEN BEGIN
                                      CostType.GET("Cost Type No.");
                                      IF CostType.Blocked THEN
                                        WriteErrorLine(Text003);

                                      IF CostType.Type <> CostType.Type::"Cost Type" THEN
                                        WriteErrorLine(STRSUBSTNO(Text004,CostType.Type));

                                      IF ("Cost Center Code" = '') AND ("Cost Object Code" = '') THEN
                                        WriteErrorLine(Text005);

                                      IF ("Cost Center Code" <> '') AND ("Cost Object Code" <> '') THEN
                                        WriteErrorLine(Text006);
                                    END;

                                    IF "Bal. Cost Type No." <> '' THEN BEGIN
                                      CostType.GET("Bal. Cost Type No.");
                                      IF CostType.Blocked THEN
                                        WriteErrorLine(Text007);

                                      IF CostType.Type <> CostType.Type::"Cost Type" THEN
                                        WriteErrorLine(STRSUBSTNO(Text008,CostType.Type));

                                      IF ("Bal. Cost Center Code" = '') AND ("Bal. Cost Object Code" = '') THEN
                                        WriteErrorLine(Text009);

                                      IF ("Bal. Cost Center Code" <> '') AND ("Bal. Cost Object Code" <> '') THEN
                                        WriteErrorLine(Text010);
                                    END;
                                  END;
                                END;

               ReqFilterFields=Journal Template Name,Journal Batch Name,Posting Date,Line No.,Cost Center Code,Cost Object Code }

    { 3   ;1   ;Column  ;CompanyName         ;
               SourceExpr=COMPANYPROPERTY.DISPLAYNAME }

    { 26  ;1   ;Column  ;Filter              ;
               SourceExpr=Text011 + GETFILTERS }

    { 7   ;1   ;Column  ;CostTypeNo_CostJourLine;
               SourceExpr="Cost Type No." }

    { 10  ;1   ;Column  ;PostingDate_CostJourLine;
               SourceExpr=FORMAT("Posting Date") }

    { 13  ;1   ;Column  ;DocNo_CostJourLine  ;
               IncludeCaption=Yes;
               SourceExpr="Document No." }

    { 16  ;1   ;Column  ;Text_CostJourLine   ;
               IncludeCaption=Yes;
               SourceExpr=Description }

    { 18  ;1   ;Column  ;BalCostTypeNo_CostJourLine;
               SourceExpr="Bal. Cost Type No." }

    { 20  ;1   ;Column  ;Amount_CostJourLine ;
               IncludeCaption=Yes;
               SourceExpr=Amount }

    { 23  ;1   ;Column  ;CostCentCode_CostJourLine;
               SourceExpr="Cost Center Code" }

    { 27  ;1   ;Column  ;CostObjCode_CostJourLine;
               SourceExpr="Cost Object Code" }

    { 31  ;1   ;Column  ;BlCostCntCode_CostJourLine;
               IncludeCaption=Yes;
               SourceExpr="Bal. Cost Center Code" }

    { 35  ;1   ;Column  ;BlCostObjCode_CostJourLine;
               IncludeCaption=Yes;
               SourceExpr="Bal. Cost Object Code" }

    { 8   ;1   ;Column  ;Balance_CostJourLine;
               SourceExpr=Balance }

    { 30  ;1   ;Column  ;JourBatchName_CostJourLine;
               SourceExpr="Journal Batch Name" }

    { 32  ;1   ;Column  ;LineNo_CostJourLine ;
               SourceExpr="Line No." }

    { 1   ;1   ;Column  ;CAJournalCaption    ;
               SourceExpr=CAJournalCaptionLbl }

    { 19  ;1   ;Column  ;BalCTCaption        ;
               SourceExpr=BalCTCaptionLbl }

    { 29  ;1   ;Column  ;COCaption           ;
               SourceExpr=COCaptionLbl }

    { 25  ;1   ;Column  ;CCCaption           ;
               SourceExpr=CCCaptionLbl }

    { 9   ;1   ;Column  ;CostTypeCaption     ;
               SourceExpr=CostTypeCaptionLbl }

    { 12  ;1   ;Column  ;PostingDateCaption  ;
               SourceExpr=PostingDateCaptionLbl }

    { 40  ;1   ;Column  ;BalanceCaption      ;
               SourceExpr=BalanceCaptionLbl }

    { 42  ;1   ;Column  ;TotalAmountCaption  ;
               SourceExpr=TotalAmountCaptionLbl }

    { 5444;1   ;DataItem;                    ;
               DataItemTable=Table2000000026;
               DataItemTableView=SORTING(Number);
               OnPreDataItem=BEGIN
                               IF NOT WithError THEN
                                 CurrReport.BREAK;

                               SETRANGE(Number,1,20);
                             END;

               OnAfterGetRecord=BEGIN
                                  IF Errorline[Number] = '' THEN
                                    CurrReport.SKIP;
                                END;
                                 }

    { 24  ;2   ;Column  ;ErrorlineNumber     ;
               SourceExpr=Errorline[Number] }

  }
  REQUESTPAGE
  {
    PROPERTIES
    {
      SaveValues=Yes;
    }
    CONTROLS
    {
      { 1   ;0   ;Container ;
                  ContainerType=ContentArea }

      { 2   ;1   ;Group     ;
                  CaptionML=[ENU=Options;
                             ENG=Options] }

      { 3   ;2   ;Field     ;
                  Name=WithErrorMessages;
                  CaptionML=[ENU=With Error Messages;
                             ENG=With Error Messages];
                  ToolTipML=[ENU=Specifies that a plausibility check has been performed, with the appropriate message is displayed.;
                             ENG=Specifies that a plausibility check has been performed, with the appropriate message is displayed.];
                  ApplicationArea=#CostAccounting;
                  SourceExpr=WithError }

    }
  }
  LABELS
  {
  }
  CODE
  {
    VAR
      Text000@1000 : TextConst 'ENU=Posting date is not defined.;ENG=Posting date is not defined.';
      Text001@1001 : TextConst 'ENU=Document no. is not defined.;ENG=Document no. is not defined.';
      Text002@1002 : TextConst 'ENU=Define cost type or balance cost type.;ENG=Define cost type or balance cost type.';
      Text003@1003 : TextConst 'ENU=Cost type is blocked.;ENG=Cost type is blocked.';
      Text004@1004 : TextConst 'ENU=Cost type must not be line type %1.;ENG=Cost type must not be line type %1.';
      Text005@1005 : TextConst 'ENU=Cost center or cost object must be defined.;ENG=Cost centre or cost object must be defined.';
      Text006@1006 : TextConst 'ENU=Cost center and cost object cannot be both defined concurrently.;ENG=Cost centre and cost object cannot be both defined concurrently.';
      Text007@1007 : TextConst 'ENU=Balance cost type is blocked.;ENG=Balance cost type is blocked.';
      Text008@1008 : TextConst 'ENU=Balance cost type must have line type %1.;ENG=Balance cost type must have line type %1.';
      Text009@1009 : TextConst 'ENU=Balance cost center or cost object must be defined.;ENG=Balance cost centre or cost object must be defined.';
      Text010@1010 : TextConst 'ENU=Balance cost center and cost object cannot be both defined concurrently.;ENG=Balance cost centre and cost object cannot be both defined concurrently.';
      Text011@1011 : TextConst 'ENU="Filter: ";ENG="Filter: "';
      CostType@1012 : Record 1103;
      WithError@1013 : Boolean;
      Errorline@1014 : ARRAY [20] OF Text[80];
      Lineno@1015 : Integer;
      CAJournalCaptionLbl@6190 : TextConst 'ENU=Cost Accounting Journal;ENG=Cost Accounting Journal';
      BalCTCaptionLbl@7306 : TextConst 'ENU=Balance CT;ENG=Balance CT';
      COCaptionLbl@6464 : TextConst 'ENU=CO;ENG=CO';
      CCCaptionLbl@4998 : TextConst 'ENU=CC;ENG=CC';
      CostTypeCaptionLbl@8961 : TextConst 'ENU=CostType;ENG=CostType';
      PostingDateCaptionLbl@4591 : TextConst 'ENU=Posting Date;ENG=Posting Date';
      BalanceCaptionLbl@6364 : TextConst 'ENU=Balance;ENG=Balance';
      TotalAmountCaptionLbl@6778 : TextConst 'ENU=Total Amount;ENG=Total Amount';

    LOCAL PROCEDURE WriteErrorLine@1(ErrorTxt@1000 : Text[80]);
    BEGIN
      Lineno := Lineno + 1;
      Errorline[Lineno] := ErrorTxt;
    END;

    BEGIN
    END.
  }
  RDLDATA
  {
    <?xml version="1.0" encoding="utf-8"?>
<Report xmlns="http://schemas.microsoft.com/sqlserver/reporting/2016/01/reportdefinition" xmlns:rd="http://schemas.microsoft.com/SQLServer/reporting/reportdesigner">
  <AutoRefresh>0</AutoRefresh>
  <DataSources>
    <DataSource Name="DataSource">
      <ConnectionProperties>
        <DataProvider>SQL</DataProvider>
        <ConnectString />
      </ConnectionProperties>
      <rd:SecurityType>None</rd:SecurityType>
      <rd:DataSourceID>352315b7-a39c-4170-a297-eb42dbbe0216</rd:DataSourceID>
    </DataSource>
  </DataSources>
  <DataSets>
    <DataSet Name="DataSet_Result">
      <Query>
        <DataSourceName>DataSource</DataSourceName>
        <CommandText />
      </Query>
      <Fields>
        <Field Name="CompanyName">
          <DataField>CompanyName</DataField>
        </Field>
        <Field Name="Filter">
          <DataField>Filter</DataField>
        </Field>
        <Field Name="CostTypeNo_CostJourLine">
          <DataField>CostTypeNo_CostJourLine</DataField>
        </Field>
        <Field Name="PostingDate_CostJourLine">
          <DataField>PostingDate_CostJourLine</DataField>
        </Field>
        <Field Name="DocNo_CostJourLine">
          <DataField>DocNo_CostJourLine</DataField>
        </Field>
        <Field Name="Text_CostJourLine">
          <DataField>Text_CostJourLine</DataField>
        </Field>
        <Field Name="BalCostTypeNo_CostJourLine">
          <DataField>BalCostTypeNo_CostJourLine</DataField>
        </Field>
        <Field Name="Amount_CostJourLine">
          <DataField>Amount_CostJourLine</DataField>
        </Field>
        <Field Name="Amount_CostJourLineFormat">
          <DataField>Amount_CostJourLineFormat</DataField>
        </Field>
        <Field Name="CostCentCode_CostJourLine">
          <DataField>CostCentCode_CostJourLine</DataField>
        </Field>
        <Field Name="CostObjCode_CostJourLine">
          <DataField>CostObjCode_CostJourLine</DataField>
        </Field>
        <Field Name="BlCostCntCode_CostJourLine">
          <DataField>BlCostCntCode_CostJourLine</DataField>
        </Field>
        <Field Name="BlCostObjCode_CostJourLine">
          <DataField>BlCostObjCode_CostJourLine</DataField>
        </Field>
        <Field Name="Balance_CostJourLine">
          <DataField>Balance_CostJourLine</DataField>
        </Field>
        <Field Name="Balance_CostJourLineFormat">
          <DataField>Balance_CostJourLineFormat</DataField>
        </Field>
        <Field Name="JourBatchName_CostJourLine">
          <DataField>JourBatchName_CostJourLine</DataField>
        </Field>
        <Field Name="LineNo_CostJourLine">
          <DataField>LineNo_CostJourLine</DataField>
        </Field>
        <Field Name="CAJournalCaption">
          <DataField>CAJournalCaption</DataField>
        </Field>
        <Field Name="BalCTCaption">
          <DataField>BalCTCaption</DataField>
        </Field>
        <Field Name="COCaption">
          <DataField>COCaption</DataField>
        </Field>
        <Field Name="CCCaption">
          <DataField>CCCaption</DataField>
        </Field>
        <Field Name="CostTypeCaption">
          <DataField>CostTypeCaption</DataField>
        </Field>
        <Field Name="PostingDateCaption">
          <DataField>PostingDateCaption</DataField>
        </Field>
        <Field Name="BalanceCaption">
          <DataField>BalanceCaption</DataField>
        </Field>
        <Field Name="TotalAmountCaption">
          <DataField>TotalAmountCaption</DataField>
        </Field>
        <Field Name="ErrorlineNumber">
          <DataField>ErrorlineNumber</DataField>
        </Field>
      </Fields>
      <rd:DataSetInfo>
        <rd:DataSetName>DataSet</rd:DataSetName>
        <rd:SchemaPath>Report.xsd</rd:SchemaPath>
        <rd:TableName>Result</rd:TableName>
      </rd:DataSetInfo>
    </DataSet>
  </DataSets>
  <ReportSections>
    <ReportSection>
      <Body>
        <ReportItems>
          <Tablix Name="CostAccJourTable">
            <TablixBody>
              <TablixColumns>
                <TablixColumn>
                  <Width>0.62019in</Width>
                </TablixColumn>
                <TablixColumn>
                  <Width>0.72992in</Width>
                </TablixColumn>
                <TablixColumn>
                  <Width>1.62688in</Width>
                </TablixColumn>
                <TablixColumn>
                  <Width>0.627in</Width>
                </TablixColumn>
                <TablixColumn>
                  <Width>0.627in</Width>
                </TablixColumn>
                <TablixColumn>
                  <Width>0.38119in</Width>
                </TablixColumn>
                <TablixColumn>
                  <Width>0.55326in</Width>
                </TablixColumn>
                <TablixColumn>
                  <Width>0.78533in</Width>
                </TablixColumn>
                <TablixColumn>
                  <Width>0.70432in</Width>
                </TablixColumn>
                <TablixColumn>
                  <Width>0.66867in</Width>
                </TablixColumn>
              </TablixColumns>
              <TablixRows>
                <TablixRow>
                  <Height>0.13889in</Height>
                  <TablixCells>
                    <TablixCell>
                      <CellContents>
                        <Textbox Name="Textbox46">
                          <CanGrow>true</CanGrow>
                          <KeepTogether>true</KeepTogether>
                          <Paragraphs>
                            <Paragraph>
                              <TextRuns>
                                <TextRun>
                                  <Value>=First(Fields!Filter.Value)</Value>
                                  <Style>
                                    <FontFamily>Segoe UI</FontFamily>
                                    <FontSize>8pt</FontSize>
                                  </Style>
                                </TextRun>
                              </TextRuns>
                              <Style>
                                <TextAlign>Left</TextAlign>
                              </Style>
                            </Paragraph>
                          </Paragraphs>
                          <rd:DefaultName>Textbox46</rd:DefaultName>
                          <Style>
                            <VerticalAlign>Top</VerticalAlign>
                          </Style>
                        </Textbox>
                        <ColSpan>10</ColSpan>
                      </CellContents>
                    </TablixCell>
                    <TablixCell />
                    <TablixCell />
                    <TablixCell />
                    <TablixCell />
                    <TablixCell />
                    <TablixCell />
                    <TablixCell />
                    <TablixCell />
                    <TablixCell />
                  </TablixCells>
                </TablixRow>
                <TablixRow>
                  <Height>0.13889in</Height>
                  <TablixCells>
                    <TablixCell>
                      <CellContents>
                        <Textbox Name="CostJourLinePostingDateCaption">
                          <CanGrow>true</CanGrow>
                          <KeepTogether>true</KeepTogether>
                          <Paragraphs>
                            <Paragraph>
                              <TextRuns>
                                <TextRun>
                                  <Value>=First(Fields!PostingDateCaption.Value)</Value>
                                  <Style>
                                    <FontFamily>Segoe UI</FontFamily>
                                    <FontSize>8pt</FontSize>
                                    <FontWeight>Bold</FontWeight>
                                  </Style>
                                </TextRun>
                              </TextRuns>
                              <Style>
                                <TextAlign>Left</TextAlign>
                              </Style>
                            </Paragraph>
                          </Paragraphs>
                          <ZIndex>32</ZIndex>
                          <Style>
                            <VerticalAlign>Bottom</VerticalAlign>
                            <PaddingRight>5pt</PaddingRight>
                          </Style>
                        </Textbox>
                      </CellContents>
                    </TablixCell>
                    <TablixCell>
                      <CellContents>
                        <Textbox Name="CostJourLineDocNoCaption">
                          <CanGrow>true</CanGrow>
                          <KeepTogether>true</KeepTogether>
                          <Paragraphs>
                            <Paragraph>
                              <TextRuns>
                                <TextRun>
                                  <Value>=Parameters!DocNo_CostJourLineCaption.Value</Value>
                                  <Style>
                                    <FontFamily>Segoe UI</FontFamily>
                                    <FontSize>8pt</FontSize>
                                    <FontWeight>Bold</FontWeight>
                                  </Style>
                                </TextRun>
                              </TextRuns>
                              <Style />
                            </Paragraph>
                          </Paragraphs>
                          <ZIndex>31</ZIndex>
                          <Style>
                            <VerticalAlign>Bottom</VerticalAlign>
                            <PaddingLeft>5pt</PaddingLeft>
                            <PaddingRight>5pt</PaddingRight>
                          </Style>
                        </Textbox>
                      </CellContents>
                    </TablixCell>
                    <TablixCell>
                      <CellContents>
                        <Textbox Name="CostJourLineTextCaption">
                          <CanGrow>true</CanGrow>
                          <KeepTogether>true</KeepTogether>
                          <Paragraphs>
                            <Paragraph>
                              <TextRuns>
                                <TextRun>
                                  <Value>=Parameters!Text_CostJourLineCaption.Value</Value>
                                  <Style>
                                    <FontFamily>Segoe UI</FontFamily>
                                    <FontSize>8pt</FontSize>
                                    <FontWeight>Bold</FontWeight>
                                  </Style>
                                </TextRun>
                              </TextRuns>
                              <Style />
                            </Paragraph>
                          </Paragraphs>
                          <ZIndex>30</ZIndex>
                          <Style>
                            <VerticalAlign>Bottom</VerticalAlign>
                            <PaddingLeft>5pt</PaddingLeft>
                            <PaddingRight>5pt</PaddingRight>
                          </Style>
                        </Textbox>
                      </CellContents>
                    </TablixCell>
                    <TablixCell>
                      <CellContents>
                        <Textbox Name="CostTypeCaption">
                          <CanGrow>true</CanGrow>
                          <KeepTogether>true</KeepTogether>
                          <Paragraphs>
                            <Paragraph>
                              <TextRuns>
                                <TextRun>
                                  <Value>=First(Fields!CostTypeCaption.Value)</Value>
                                  <Style>
                                    <FontFamily>Segoe UI</FontFamily>
                                    <FontSize>8pt</FontSize>
                                    <FontWeight>Bold</FontWeight>
                                  </Style>
                                </TextRun>
                              </TextRuns>
                              <Style />
                            </Paragraph>
                          </Paragraphs>
                          <ZIndex>29</ZIndex>
                          <Style>
                            <VerticalAlign>Bottom</VerticalAlign>
                            <PaddingLeft>5pt</PaddingLeft>
                            <PaddingRight>5pt</PaddingRight>
                          </Style>
                        </Textbox>
                      </CellContents>
                    </TablixCell>
                    <TablixCell>
                      <CellContents>
                        <Textbox Name="CCCaption">
                          <CanGrow>true</CanGrow>
                          <KeepTogether>true</KeepTogether>
                          <Paragraphs>
                            <Paragraph>
                              <TextRuns>
                                <TextRun>
                                  <Value>=First(Fields!CCCaption.Value)</Value>
                                  <Style>
                                    <FontFamily>Segoe UI</FontFamily>
                                    <FontSize>8pt</FontSize>
                                    <FontWeight>Bold</FontWeight>
                                  </Style>
                                </TextRun>
                              </TextRuns>
                              <Style />
                            </Paragraph>
                          </Paragraphs>
                          <ZIndex>28</ZIndex>
                          <Style>
                            <VerticalAlign>Bottom</VerticalAlign>
                            <PaddingLeft>5pt</PaddingLeft>
                            <PaddingRight>5pt</PaddingRight>
                          </Style>
                        </Textbox>
                      </CellContents>
                    </TablixCell>
                    <TablixCell>
                      <CellContents>
                        <Textbox Name="COCaption">
                          <CanGrow>true</CanGrow>
                          <KeepTogether>true</KeepTogether>
                          <Paragraphs>
                            <Paragraph>
                              <TextRuns>
                                <TextRun>
                                  <Value>=First(Fields!COCaption.Value)</Value>
                                  <Style>
                                    <FontFamily>Segoe UI</FontFamily>
                                    <FontSize>8pt</FontSize>
                                    <FontWeight>Bold</FontWeight>
                                  </Style>
                                </TextRun>
                              </TextRuns>
                              <Style />
                            </Paragraph>
                          </Paragraphs>
                          <ZIndex>27</ZIndex>
                          <Style>
                            <VerticalAlign>Bottom</VerticalAlign>
                            <PaddingLeft>5pt</PaddingLeft>
                            <PaddingRight>5pt</PaddingRight>
                          </Style>
                        </Textbox>
                      </CellContents>
                    </TablixCell>
                    <TablixCell>
                      <CellContents>
                        <Textbox Name="Bal__CTCaption">
                          <CanGrow>true</CanGrow>
                          <KeepTogether>true</KeepTogether>
                          <Paragraphs>
                            <Paragraph>
                              <TextRuns>
                                <TextRun>
                                  <Value>=First(Fields!BalCTCaption.Value)</Value>
                                  <Style>
                                    <FontFamily>Segoe UI</FontFamily>
                                    <FontSize>8pt</FontSize>
                                    <FontWeight>Bold</FontWeight>
                                  </Style>
                                </TextRun>
                              </TextRuns>
                              <Style />
                            </Paragraph>
                          </Paragraphs>
                          <ZIndex>26</ZIndex>
                          <Style>
                            <VerticalAlign>Bottom</VerticalAlign>
                            <PaddingLeft>5pt</PaddingLeft>
                            <PaddingRight>5pt</PaddingRight>
                          </Style>
                        </Textbox>
                      </CellContents>
                    </TablixCell>
                    <TablixCell>
                      <CellContents>
                        <Textbox Name="CostJourLineBalCostCenterCodeCaption">
                          <CanGrow>true</CanGrow>
                          <KeepTogether>true</KeepTogether>
                          <Paragraphs>
                            <Paragraph>
                              <TextRuns>
                                <TextRun>
                                  <Value>=Parameters!BlCostCntCode_CostJourLineCaption.Value</Value>
                                  <Style>
                                    <FontFamily>Segoe UI</FontFamily>
                                    <FontSize>8pt</FontSize>
                                    <FontWeight>Bold</FontWeight>
                                  </Style>
                                </TextRun>
                              </TextRuns>
                              <Style />
                            </Paragraph>
                          </Paragraphs>
                          <ZIndex>25</ZIndex>
                          <Style>
                            <VerticalAlign>Bottom</VerticalAlign>
                            <PaddingLeft>5pt</PaddingLeft>
                            <PaddingRight>5pt</PaddingRight>
                          </Style>
                        </Textbox>
                      </CellContents>
                    </TablixCell>
                    <TablixCell>
                      <CellContents>
                        <Textbox Name="CostJourLineBalCostObjectCodeCaption">
                          <CanGrow>true</CanGrow>
                          <KeepTogether>true</KeepTogether>
                          <Paragraphs>
                            <Paragraph>
                              <TextRuns>
                                <TextRun>
                                  <Value>=Parameters!BlCostObjCode_CostJourLineCaption.Value</Value>
                                  <Style>
                                    <FontFamily>Segoe UI</FontFamily>
                                    <FontSize>8pt</FontSize>
                                    <FontWeight>Bold</FontWeight>
                                  </Style>
                                </TextRun>
                              </TextRuns>
                              <Style />
                            </Paragraph>
                          </Paragraphs>
                          <ZIndex>24</ZIndex>
                          <Style>
                            <VerticalAlign>Bottom</VerticalAlign>
                            <PaddingLeft>5pt</PaddingLeft>
                            <PaddingRight>5pt</PaddingRight>
                          </Style>
                        </Textbox>
                      </CellContents>
                    </TablixCell>
                    <TablixCell>
                      <CellContents>
                        <Textbox Name="CostJourLineAmtCaption">
                          <CanGrow>true</CanGrow>
                          <KeepTogether>true</KeepTogether>
                          <Paragraphs>
                            <Paragraph>
                              <TextRuns>
                                <TextRun>
                                  <Value>=Parameters!Amount_CostJourLineCaption.Value</Value>
                                  <Style>
                                    <FontFamily>Segoe UI</FontFamily>
                                    <FontSize>8pt</FontSize>
                                    <FontWeight>Bold</FontWeight>
                                  </Style>
                                </TextRun>
                              </TextRuns>
                              <Style>
                                <TextAlign>Right</TextAlign>
                              </Style>
                            </Paragraph>
                          </Paragraphs>
                          <ZIndex>23</ZIndex>
                          <Style>
                            <VerticalAlign>Bottom</VerticalAlign>
                            <PaddingLeft>5pt</PaddingLeft>
                          </Style>
                        </Textbox>
                      </CellContents>
                    </TablixCell>
                  </TablixCells>
                </TablixRow>
                <TablixRow>
                  <Height>0.0625in</Height>
                  <TablixCells>
                    <TablixCell>
                      <CellContents>
                        <Textbox Name="Textbox26">
                          <CanGrow>true</CanGrow>
                          <KeepTogether>true</KeepTogether>
                          <Paragraphs>
                            <Paragraph>
                              <TextRuns>
                                <TextRun>
                                  <Value />
                                  <Style>
                                    <FontFamily>Segoe UI</FontFamily>
                                    <FontSize>8pt</FontSize>
                                    <FontWeight>Bold</FontWeight>
                                  </Style>
                                </TextRun>
                              </TextRuns>
                              <Style>
                                <TextAlign>Right</TextAlign>
                              </Style>
                            </Paragraph>
                          </Paragraphs>
                          <rd:DefaultName>Textbox26</rd:DefaultName>
                          <Style>
                            <Border>
                              <Style>None</Style>
                            </Border>
                            <BottomBorder>
                              <Style>Solid</Style>
                            </BottomBorder>
                            <VerticalAlign>Bottom</VerticalAlign>
                            <PaddingRight>0.0625in</PaddingRight>
                          </Style>
                        </Textbox>
                        <ColSpan>10</ColSpan>
                      </CellContents>
                    </TablixCell>
                    <TablixCell />
                    <TablixCell />
                    <TablixCell />
                    <TablixCell />
                    <TablixCell />
                    <TablixCell />
                    <TablixCell />
                    <TablixCell />
                    <TablixCell />
                  </TablixCells>
                </TablixRow>
                <TablixRow>
                  <Height>0.0625in</Height>
                  <TablixCells>
                    <TablixCell>
                      <CellContents>
                        <Textbox Name="Textbox15">
                          <CanGrow>true</CanGrow>
                          <KeepTogether>true</KeepTogether>
                          <Paragraphs>
                            <Paragraph>
                              <TextRuns>
                                <TextRun>
                                  <Value />
                                  <Style>
                                    <FontFamily>Segoe UI</FontFamily>
                                    <FontSize>8pt</FontSize>
                                    <FontWeight>Bold</FontWeight>
                                  </Style>
                                </TextRun>
                              </TextRuns>
                              <Style>
                                <TextAlign>Right</TextAlign>
                              </Style>
                            </Paragraph>
                          </Paragraphs>
                          <rd:DefaultName>Textbox15</rd:DefaultName>
                          <Style>
                            <VerticalAlign>Bottom</VerticalAlign>
                            <PaddingRight>0.0625in</PaddingRight>
                          </Style>
                        </Textbox>
                        <ColSpan>10</ColSpan>
                      </CellContents>
                    </TablixCell>
                    <TablixCell />
                    <TablixCell />
                    <TablixCell />
                    <TablixCell />
                    <TablixCell />
                    <TablixCell />
                    <TablixCell />
                    <TablixCell />
                    <TablixCell />
                  </TablixCells>
                </TablixRow>
                <TablixRow>
                  <Height>0.13889in</Height>
                  <TablixCells>
                    <TablixCell>
                      <CellContents>
                        <Textbox Name="CostJourLinePostingDate">
                          <KeepTogether>true</KeepTogether>
                          <Paragraphs>
                            <Paragraph>
                              <TextRuns>
                                <TextRun>
                                  <Value>=Fields!PostingDate_CostJourLine.Value</Value>
                                  <Style>
                                    <FontFamily>Segoe UI</FontFamily>
                                    <FontSize>8pt</FontSize>
                                    <Format>d</Format>
                                  </Style>
                                </TextRun>
                              </TextRuns>
                              <Style>
                                <TextAlign>Left</TextAlign>
                              </Style>
                            </Paragraph>
                          </Paragraphs>
                          <ZIndex>21</ZIndex>
                          <Style>
                            <Border>
                              <Style>None</Style>
                            </Border>
                            <BackgroundColor>=iif(RowNumber(Nothing) mod 2, "#EFEFEF", "#FFFFF")</BackgroundColor>
                            <VerticalAlign>Top</VerticalAlign>
                            <PaddingRight>5pt</PaddingRight>
                          </Style>
                        </Textbox>
                      </CellContents>
                    </TablixCell>
                    <TablixCell>
                      <CellContents>
                        <Textbox Name="CostJourLineDocNo">
                          <KeepTogether>true</KeepTogether>
                          <Paragraphs>
                            <Paragraph>
                              <TextRuns>
                                <TextRun>
                                  <Value>=Fields!DocNo_CostJourLine.Value</Value>
                                  <Style>
                                    <FontFamily>Segoe UI</FontFamily>
                                    <FontSize>8pt</FontSize>
                                  </Style>
                                </TextRun>
                              </TextRuns>
                              <Style>
                                <TextAlign>Left</TextAlign>
                              </Style>
                            </Paragraph>
                          </Paragraphs>
                          <ZIndex>20</ZIndex>
                          <Style>
                            <Border>
                              <Style>None</Style>
                            </Border>
                            <BackgroundColor>=iif(RowNumber(Nothing) mod 2, "#EFEFEF", "#FFFFF")</BackgroundColor>
                            <VerticalAlign>Top</VerticalAlign>
                            <PaddingLeft>5pt</PaddingLeft>
                            <PaddingRight>5pt</PaddingRight>
                          </Style>
                        </Textbox>
                      </CellContents>
                    </TablixCell>
                    <TablixCell>
                      <CellContents>
                        <Textbox Name="CostJourLineText">
                          <KeepTogether>true</KeepTogether>
                          <Paragraphs>
                            <Paragraph>
                              <TextRuns>
                                <TextRun>
                                  <Value>=Fields!Text_CostJourLine.Value</Value>
                                  <Style>
                                    <FontFamily>Segoe UI</FontFamily>
                                    <FontSize>8pt</FontSize>
                                  </Style>
                                </TextRun>
                              </TextRuns>
                              <Style>
                                <TextAlign>Left</TextAlign>
                              </Style>
                            </Paragraph>
                          </Paragraphs>
                          <ZIndex>19</ZIndex>
                          <Style>
                            <Border>
                              <Style>None</Style>
                            </Border>
                            <BackgroundColor>=iif(RowNumber(Nothing) mod 2, "#EFEFEF", "#FFFFF")</BackgroundColor>
                            <VerticalAlign>Top</VerticalAlign>
                            <PaddingLeft>5pt</PaddingLeft>
                            <PaddingRight>5pt</PaddingRight>
                          </Style>
                        </Textbox>
                      </CellContents>
                    </TablixCell>
                    <TablixCell>
                      <CellContents>
                        <Textbox Name="CostJourLineCostTypeNo">
                          <KeepTogether>true</KeepTogether>
                          <Paragraphs>
                            <Paragraph>
                              <TextRuns>
                                <TextRun>
                                  <Value>=Fields!CostTypeNo_CostJourLine.Value</Value>
                                  <Style>
                                    <FontFamily>Segoe UI</FontFamily>
                                    <FontSize>8pt</FontSize>
                                  </Style>
                                </TextRun>
                              </TextRuns>
                              <Style>
                                <TextAlign>Right</TextAlign>
                              </Style>
                            </Paragraph>
                          </Paragraphs>
                          <ZIndex>18</ZIndex>
                          <Style>
                            <Border>
                              <Style>None</Style>
                            </Border>
                            <BackgroundColor>=iif(RowNumber(Nothing) mod 2, "#EFEFEF", "#FFFFF")</BackgroundColor>
                            <VerticalAlign>Top</VerticalAlign>
                            <PaddingLeft>5pt</PaddingLeft>
                            <PaddingRight>5pt</PaddingRight>
                          </Style>
                        </Textbox>
                      </CellContents>
                    </TablixCell>
                    <TablixCell>
                      <CellContents>
                        <Textbox Name="CostJourLineCostCenterCode">
                          <KeepTogether>true</KeepTogether>
                          <Paragraphs>
                            <Paragraph>
                              <TextRuns>
                                <TextRun>
                                  <Value>=Fields!CostCentCode_CostJourLine.Value</Value>
                                  <Style>
                                    <FontFamily>Segoe UI</FontFamily>
                                    <FontSize>8pt</FontSize>
                                  </Style>
                                </TextRun>
                              </TextRuns>
                              <Style>
                                <TextAlign>Left</TextAlign>
                              </Style>
                            </Paragraph>
                          </Paragraphs>
                          <ZIndex>17</ZIndex>
                          <Style>
                            <Border>
                              <Style>None</Style>
                            </Border>
                            <BackgroundColor>=iif(RowNumber(Nothing) mod 2, "#EFEFEF", "#FFFFF")</BackgroundColor>
                            <VerticalAlign>Top</VerticalAlign>
                            <PaddingLeft>5pt</PaddingLeft>
                            <PaddingRight>5pt</PaddingRight>
                          </Style>
                        </Textbox>
                      </CellContents>
                    </TablixCell>
                    <TablixCell>
                      <CellContents>
                        <Textbox Name="CostJourLineCostObjectCode">
                          <KeepTogether>true</KeepTogether>
                          <Paragraphs>
                            <Paragraph>
                              <TextRuns>
                                <TextRun>
                                  <Value>=Fields!CostObjCode_CostJourLine.Value</Value>
                                  <Style>
                                    <FontFamily>Segoe UI</FontFamily>
                                    <FontSize>8pt</FontSize>
                                  </Style>
                                </TextRun>
                              </TextRuns>
                              <Style>
                                <TextAlign>Left</TextAlign>
                              </Style>
                            </Paragraph>
                          </Paragraphs>
                          <ZIndex>16</ZIndex>
                          <Style>
                            <Border>
                              <Style>None</Style>
                            </Border>
                            <BackgroundColor>=iif(RowNumber(Nothing) mod 2, "#EFEFEF", "#FFFFF")</BackgroundColor>
                            <VerticalAlign>Top</VerticalAlign>
                            <PaddingLeft>5pt</PaddingLeft>
                            <PaddingRight>5pt</PaddingRight>
                          </Style>
                        </Textbox>
                      </CellContents>
                    </TablixCell>
                    <TablixCell>
                      <CellContents>
                        <Textbox Name="CostJourLineBalCostTypeNo">
                          <KeepTogether>true</KeepTogether>
                          <Paragraphs>
                            <Paragraph>
                              <TextRuns>
                                <TextRun>
                                  <Value>=Fields!BalCostTypeNo_CostJourLine.Value</Value>
                                  <Style>
                                    <FontFamily>Segoe UI</FontFamily>
                                    <FontSize>8pt</FontSize>
                                  </Style>
                                </TextRun>
                              </TextRuns>
                              <Style>
                                <TextAlign>Right</TextAlign>
                              </Style>
                            </Paragraph>
                          </Paragraphs>
                          <ZIndex>15</ZIndex>
                          <Style>
                            <Border>
                              <Style>None</Style>
                            </Border>
                            <BackgroundColor>=iif(RowNumber(Nothing) mod 2, "#EFEFEF", "#FFFFF")</BackgroundColor>
                            <VerticalAlign>Top</VerticalAlign>
                            <PaddingLeft>5pt</PaddingLeft>
                            <PaddingRight>5pt</PaddingRight>
                          </Style>
                        </Textbox>
                      </CellContents>
                    </TablixCell>
                    <TablixCell>
                      <CellContents>
                        <Textbox Name="CostJourLineBalCostCenterCode">
                          <KeepTogether>true</KeepTogether>
                          <Paragraphs>
                            <Paragraph>
                              <TextRuns>
                                <TextRun>
                                  <Value>=Fields!BlCostCntCode_CostJourLine.Value</Value>
                                  <Style>
                                    <FontFamily>Segoe UI</FontFamily>
                                    <FontSize>8pt</FontSize>
                                  </Style>
                                </TextRun>
                              </TextRuns>
                              <Style>
                                <TextAlign>Left</TextAlign>
                              </Style>
                            </Paragraph>
                          </Paragraphs>
                          <ZIndex>14</ZIndex>
                          <Style>
                            <Border>
                              <Style>None</Style>
                            </Border>
                            <BackgroundColor>=iif(RowNumber(Nothing) mod 2, "#EFEFEF", "#FFFFF")</BackgroundColor>
                            <VerticalAlign>Top</VerticalAlign>
                            <PaddingLeft>5pt</PaddingLeft>
                            <PaddingRight>5pt</PaddingRight>
                          </Style>
                        </Textbox>
                      </CellContents>
                    </TablixCell>
                    <TablixCell>
                      <CellContents>
                        <Textbox Name="CostJourLineBalCostObjectCode">
                          <KeepTogether>true</KeepTogether>
                          <Paragraphs>
                            <Paragraph>
                              <TextRuns>
                                <TextRun>
                                  <Value>=Fields!BlCostObjCode_CostJourLine.Value</Value>
                                  <Style>
                                    <FontFamily>Segoe UI</FontFamily>
                                    <FontSize>8pt</FontSize>
                                  </Style>
                                </TextRun>
                              </TextRuns>
                              <Style>
                                <TextAlign>Left</TextAlign>
                              </Style>
                            </Paragraph>
                          </Paragraphs>
                          <ZIndex>13</ZIndex>
                          <Style>
                            <Border>
                              <Style>None</Style>
                            </Border>
                            <BackgroundColor>=iif(RowNumber(Nothing) mod 2, "#EFEFEF", "#FFFFF")</BackgroundColor>
                            <VerticalAlign>Top</VerticalAlign>
                            <PaddingLeft>5pt</PaddingLeft>
                            <PaddingRight>5pt</PaddingRight>
                          </Style>
                        </Textbox>
                      </CellContents>
                    </TablixCell>
                    <TablixCell>
                      <CellContents>
                        <Textbox Name="CostJourLineAmt">
                          <KeepTogether>true</KeepTogether>
                          <Paragraphs>
                            <Paragraph>
                              <TextRuns>
                                <TextRun>
                                  <Value>=Fields!Amount_CostJourLine.Value</Value>
                                  <Style>
                                    <FontFamily>Segoe UI</FontFamily>
                                    <FontSize>8pt</FontSize>
                                    <Format>=Fields!Amount_CostJourLineFormat.Value</Format>
                                  </Style>
                                </TextRun>
                              </TextRuns>
                              <Style>
                                <TextAlign>Right</TextAlign>
                              </Style>
                            </Paragraph>
                          </Paragraphs>
                          <ZIndex>12</ZIndex>
                          <Style>
                            <Border>
                              <Style>None</Style>
                            </Border>
                            <BackgroundColor>=iif(RowNumber(Nothing) mod 2, "#EFEFEF", "#FFFFF")</BackgroundColor>
                            <VerticalAlign>Top</VerticalAlign>
                            <PaddingLeft>5pt</PaddingLeft>
                          </Style>
                        </Textbox>
                      </CellContents>
                    </TablixCell>
                  </TablixCells>
                </TablixRow>
                <TablixRow>
                  <Height>0.13889in</Height>
                  <TablixCells>
                    <TablixCell>
                      <CellContents>
                        <Textbox Name="textbox49">
                          <KeepTogether>true</KeepTogether>
                          <Paragraphs>
                            <Paragraph>
                              <TextRuns>
                                <TextRun>
                                  <Value />
                                  <Style>
                                    <FontFamily>Segoe UI</FontFamily>
                                    <FontSize>8pt</FontSize>
                                    <Format>d</Format>
                                  </Style>
                                </TextRun>
                              </TextRuns>
                              <Style>
                                <TextAlign>Left</TextAlign>
                              </Style>
                            </Paragraph>
                          </Paragraphs>
                          <rd:DefaultName>textbox49</rd:DefaultName>
                          <ZIndex>4</ZIndex>
                          <Style>
                            <VerticalAlign>Bottom</VerticalAlign>
                            <PaddingRight>0.0625in</PaddingRight>
                          </Style>
                        </Textbox>
                        <ColSpan>2</ColSpan>
                      </CellContents>
                    </TablixCell>
                    <TablixCell />
                    <TablixCell>
                      <CellContents>
                        <Textbox Name="textbox27">
                          <KeepTogether>true</KeepTogether>
                          <Paragraphs>
                            <Paragraph>
                              <TextRuns>
                                <TextRun>
                                  <Value>=Fields!ErrorlineNumber.Value</Value>
                                  <Style>
                                    <FontFamily>Segoe UI</FontFamily>
                                    <FontSize>8pt</FontSize>
                                  </Style>
                                </TextRun>
                              </TextRuns>
                              <Style />
                            </Paragraph>
                          </Paragraphs>
                          <rd:DefaultName>textbox27</rd:DefaultName>
                          <ZIndex>3</ZIndex>
                          <Style>
                            <TopBorder>
                              <Style>None</Style>
                            </TopBorder>
                            <VerticalAlign>Top</VerticalAlign>
                            <PaddingLeft>5pt</PaddingLeft>
                            <PaddingRight>5pt</PaddingRight>
                          </Style>
                        </Textbox>
                        <ColSpan>8</ColSpan>
                      </CellContents>
                    </TablixCell>
                    <TablixCell />
                    <TablixCell />
                    <TablixCell />
                    <TablixCell />
                    <TablixCell />
                    <TablixCell />
                    <TablixCell />
                  </TablixCells>
                </TablixRow>
                <TablixRow>
                  <Height>0.06944in</Height>
                  <TablixCells>
                    <TablixCell>
                      <CellContents>
                        <Textbox Name="Textbox3">
                          <CanGrow>true</CanGrow>
                          <KeepTogether>true</KeepTogether>
                          <Paragraphs>
                            <Paragraph>
                              <TextRuns>
                                <TextRun>
                                  <Value />
                                  <Style>
                                    <FontFamily>Segoe UI</FontFamily>
                                    <FontSize>8pt</FontSize>
                                  </Style>
                                </TextRun>
                              </TextRuns>
                              <Style />
                            </Paragraph>
                          </Paragraphs>
                          <rd:DefaultName>Textbox3</rd:DefaultName>
                          <Style>
                            <Border>
                              <Style>None</Style>
                            </Border>
                            <BottomBorder>
                              <Style>Solid</Style>
                            </BottomBorder>
                            <VerticalAlign>Bottom</VerticalAlign>
                          </Style>
                        </Textbox>
                        <ColSpan>10</ColSpan>
                      </CellContents>
                    </TablixCell>
                    <TablixCell />
                    <TablixCell />
                    <TablixCell />
                    <TablixCell />
                    <TablixCell />
                    <TablixCell />
                    <TablixCell />
                    <TablixCell />
                    <TablixCell />
                  </TablixCells>
                </TablixRow>
                <TablixRow>
                  <Height>0.06944in</Height>
                  <TablixCells>
                    <TablixCell>
                      <CellContents>
                        <Textbox Name="textbox2">
                          <KeepTogether>true</KeepTogether>
                          <Paragraphs>
                            <Paragraph>
                              <TextRuns>
                                <TextRun>
                                  <Value />
                                  <Style>
                                    <FontFamily>Segoe UI</FontFamily>
                                    <FontSize>8pt</FontSize>
                                  </Style>
                                </TextRun>
                              </TextRuns>
                              <Style />
                            </Paragraph>
                          </Paragraphs>
                          <rd:DefaultName>textbox2</rd:DefaultName>
                          <ZIndex>5</ZIndex>
                          <Style>
                            <Border>
                              <Style>None</Style>
                            </Border>
                            <VerticalAlign>Bottom</VerticalAlign>
                          </Style>
                        </Textbox>
                        <ColSpan>10</ColSpan>
                        <rd:Selected>true</rd:Selected>
                      </CellContents>
                    </TablixCell>
                    <TablixCell />
                    <TablixCell />
                    <TablixCell />
                    <TablixCell />
                    <TablixCell />
                    <TablixCell />
                    <TablixCell />
                    <TablixCell />
                    <TablixCell />
                  </TablixCells>
                </TablixRow>
                <TablixRow>
                  <Height>0.13889in</Height>
                  <TablixCells>
                    <TablixCell>
                      <CellContents>
                        <Textbox Name="textbox1">
                          <KeepTogether>true</KeepTogether>
                          <Paragraphs>
                            <Paragraph>
                              <TextRuns>
                                <TextRun>
                                  <Value />
                                  <Style />
                                </TextRun>
                              </TextRuns>
                              <Style />
                            </Paragraph>
                          </Paragraphs>
                          <rd:DefaultName>textbox1</rd:DefaultName>
                          <ZIndex>11</ZIndex>
                          <Style>
                            <VerticalAlign>Bottom</VerticalAlign>
                            <PaddingRight>0.0625in</PaddingRight>
                          </Style>
                        </Textbox>
                        <ColSpan>2</ColSpan>
                      </CellContents>
                    </TablixCell>
                    <TablixCell />
                    <TablixCell>
                      <CellContents>
                        <Textbox Name="BalanceCaption">
                          <KeepTogether>true</KeepTogether>
                          <Paragraphs>
                            <Paragraph>
                              <TextRuns>
                                <TextRun>
                                  <Value>=First(Fields!BalanceCaption.Value)</Value>
                                  <Style>
                                    <FontFamily>Segoe UI</FontFamily>
                                    <FontSize>8pt</FontSize>
                                    <FontWeight>Bold</FontWeight>
                                  </Style>
                                </TextRun>
                              </TextRuns>
                              <Style>
                                <TextAlign>Right</TextAlign>
                              </Style>
                            </Paragraph>
                          </Paragraphs>
                          <ZIndex>10</ZIndex>
                          <Style>
                            <VerticalAlign>Top</VerticalAlign>
                            <PaddingLeft>5pt</PaddingLeft>
                            <PaddingRight>5pt</PaddingRight>
                          </Style>
                        </Textbox>
                      </CellContents>
                    </TablixCell>
                    <TablixCell>
                      <CellContents>
                        <Textbox Name="textbox118">
                          <KeepTogether>true</KeepTogether>
                          <Paragraphs>
                            <Paragraph>
                              <TextRuns>
                                <TextRun>
                                  <Value>=Sum(Fields!Balance_CostJourLine.Value)</Value>
                                  <Style>
                                    <FontFamily>Segoe UI</FontFamily>
                                    <FontSize>8pt</FontSize>
                                    <FontWeight>Bold</FontWeight>
                                    <Format>=First(Fields!Balance_CostJourLineFormat.Value)</Format>
                                  </Style>
                                </TextRun>
                              </TextRuns>
                              <Style>
                                <TextAlign>Right</TextAlign>
                              </Style>
                            </Paragraph>
                          </Paragraphs>
                          <ZIndex>9</ZIndex>
                          <Style>
                            <Border>
                              <Style>None</Style>
                            </Border>
                            <VerticalAlign>Top</VerticalAlign>
                            <PaddingLeft>5pt</PaddingLeft>
                            <PaddingRight>5pt</PaddingRight>
                          </Style>
                        </Textbox>
                      </CellContents>
                    </TablixCell>
                    <TablixCell>
                      <CellContents>
                        <Textbox Name="Textbox5">
                          <CanGrow>true</CanGrow>
                          <KeepTogether>true</KeepTogether>
                          <Paragraphs>
                            <Paragraph>
                              <TextRuns>
                                <TextRun>
                                  <Value />
                                  <Style>
                                    <FontFamily>Segoe UI</FontFamily>
                                    <FontSize>8pt</FontSize>
                                    <FontWeight>Bold</FontWeight>
                                  </Style>
                                </TextRun>
                              </TextRuns>
                              <Style>
                                <TextAlign>Right</TextAlign>
                              </Style>
                            </Paragraph>
                          </Paragraphs>
                          <rd:DefaultName>Textbox5</rd:DefaultName>
                          <Style>
                            <VerticalAlign>Top</VerticalAlign>
                            <PaddingLeft>5pt</PaddingLeft>
                            <PaddingRight>5pt</PaddingRight>
                          </Style>
                        </Textbox>
                        <ColSpan>3</ColSpan>
                      </CellContents>
                    </TablixCell>
                    <TablixCell />
                    <TablixCell />
                    <TablixCell>
                      <CellContents>
                        <Textbox Name="Total_AmountCaption">
                          <KeepTogether>true</KeepTogether>
                          <Paragraphs>
                            <Paragraph>
                              <TextRuns>
                                <TextRun>
                                  <Value>=First(Fields!TotalAmountCaption.Value)</Value>
                                  <Style>
                                    <FontFamily>Segoe UI</FontFamily>
                                    <FontSize>8pt</FontSize>
                                    <FontWeight>Bold</FontWeight>
                                  </Style>
                                </TextRun>
                              </TextRuns>
                              <Style>
                                <TextAlign>Right</TextAlign>
                              </Style>
                            </Paragraph>
                          </Paragraphs>
                          <ZIndex>7</ZIndex>
                          <Style>
                            <VerticalAlign>Top</VerticalAlign>
                            <PaddingLeft>5pt</PaddingLeft>
                            <PaddingRight>5pt</PaddingRight>
                          </Style>
                        </Textbox>
                        <ColSpan>2</ColSpan>
                      </CellContents>
                    </TablixCell>
                    <TablixCell />
                    <TablixCell>
                      <CellContents>
                        <Textbox Name="textbox52">
                          <KeepTogether>true</KeepTogether>
                          <Paragraphs>
                            <Paragraph>
                              <TextRuns>
                                <TextRun>
                                  <Value>=Sum(Fields!Amount_CostJourLine.Value)</Value>
                                  <Style>
                                    <FontFamily>Segoe UI</FontFamily>
                                    <FontSize>8pt</FontSize>
                                    <FontWeight>Bold</FontWeight>
                                    <Format>=First(Fields!Amount_CostJourLineFormat.Value)</Format>
                                  </Style>
                                </TextRun>
                              </TextRuns>
                              <Style>
                                <TextAlign>Right</TextAlign>
                              </Style>
                            </Paragraph>
                          </Paragraphs>
                          <ZIndex>6</ZIndex>
                          <Style>
                            <Border>
                              <Style>None</Style>
                            </Border>
                            <VerticalAlign>Top</VerticalAlign>
                            <PaddingLeft>5pt</PaddingLeft>
                          </Style>
                        </Textbox>
                      </CellContents>
                    </TablixCell>
                  </TablixCells>
                </TablixRow>
              </TablixRows>
            </TablixBody>
            <TablixColumnHierarchy>
              <TablixMembers>
                <TablixMember />
                <TablixMember />
                <TablixMember />
                <TablixMember />
                <TablixMember />
                <TablixMember />
                <TablixMember />
                <TablixMember />
                <TablixMember />
                <TablixMember />
              </TablixMembers>
            </TablixColumnHierarchy>
            <TablixRowHierarchy>
              <TablixMembers>
                <TablixMember>
                  <KeepWithGroup>After</KeepWithGroup>
                  <RepeatOnNewPage>true</RepeatOnNewPage>
                </TablixMember>
                <TablixMember>
                  <KeepWithGroup>After</KeepWithGroup>
                  <RepeatOnNewPage>true</RepeatOnNewPage>
                  <KeepTogether>true</KeepTogether>
                </TablixMember>
                <TablixMember>
                  <KeepWithGroup>After</KeepWithGroup>
                  <RepeatOnNewPage>true</RepeatOnNewPage>
                </TablixMember>
                <TablixMember>
                  <KeepWithGroup>After</KeepWithGroup>
                  <RepeatOnNewPage>true</RepeatOnNewPage>
                </TablixMember>
                <TablixMember>
                  <Group Name="Table1_Group1">
                    <GroupExpressions>
                      <GroupExpression>=Fields!JourBatchName_CostJourLine.Value</GroupExpression>
                      <GroupExpression>=Fields!LineNo_CostJourLine.Value</GroupExpression>
                    </GroupExpressions>
                  </Group>
                  <TablixMembers>
                    <TablixMember>
                      <KeepWithGroup>After</KeepWithGroup>
                      <KeepTogether>true</KeepTogether>
                    </TablixMember>
                    <TablixMember>
                      <Group Name="Table1_Details_Group">
                        <DataElementName>Detail</DataElementName>
                      </Group>
                      <TablixMembers>
                        <TablixMember>
                          <Visibility>
                            <Hidden>=IIF(Fields!ErrorlineNumber.Value = "",TRUE,FALSE)</Hidden>
                          </Visibility>
                        </TablixMember>
                      </TablixMembers>
                      <DataElementName>Detail_Collection</DataElementName>
                      <DataElementOutput>Output</DataElementOutput>
                      <KeepTogether>true</KeepTogether>
                    </TablixMember>
                  </TablixMembers>
                  <KeepTogether>true</KeepTogether>
                </TablixMember>
                <TablixMember>
                  <KeepWithGroup>Before</KeepWithGroup>
                </TablixMember>
                <TablixMember>
                  <KeepWithGroup>Before</KeepWithGroup>
                  <KeepTogether>true</KeepTogether>
                </TablixMember>
                <TablixMember>
                  <KeepWithGroup>Before</KeepWithGroup>
                  <KeepTogether>true</KeepTogether>
                </TablixMember>
              </TablixMembers>
            </TablixRowHierarchy>
            <RepeatColumnHeaders>true</RepeatColumnHeaders>
            <RepeatRowHeaders>true</RepeatRowHeaders>
            <DataSetName>DataSet_Result</DataSetName>
            <Top>0.01411cm</Top>
            <Left>0.01042in</Left>
            <Height>2.43418cm</Height>
            <Width>18.60235cm</Width>
            <Style />
          </Tablix>
        </ReportItems>
        <Height>0.97431in</Height>
        <Style />
      </Body>
      <Width>7.33421in</Width>
      <Page>
        <PageHeader>
          <Height>0.72583in</Height>
          <PrintOnFirstPage>true</PrintOnFirstPage>
          <PrintOnLastPage>true</PrintOnLastPage>
          <ReportItems>
            <Textbox Name="CAJournalCaption11">
              <KeepTogether>true</KeepTogether>
              <Paragraphs>
                <Paragraph>
                  <TextRuns>
                    <TextRun>
                      <Value>=First(Fields!CAJournalCaption.Value,"DataSet_Result")</Value>
                      <Style>
                        <FontFamily>Segoe UI</FontFamily>
                        <FontSize>14pt</FontSize>
                        <FontWeight>Bold</FontWeight>
                      </Style>
                    </TextRun>
                  </TextRuns>
                  <Style />
                </Paragraph>
              </Paragraphs>
              <Left>0cm</Left>
              <Height>20pt</Height>
              <Width>13.19463cm</Width>
              <Style>
                <VerticalAlign>Middle</VerticalAlign>
              </Style>
            </Textbox>
            <Textbox Name="COMPANYNAME11">
              <KeepTogether>true</KeepTogether>
              <Paragraphs>
                <Paragraph>
                  <TextRuns>
                    <TextRun>
                      <Value>=First(Fields!CompanyName.Value,"DataSet_Result")</Value>
                      <Style>
                        <FontSize>7pt</FontSize>
                      </Style>
                    </TextRun>
                  </TextRuns>
                  <Style />
                </Paragraph>
              </Paragraphs>
              <Top>0.74932cm</Top>
              <Left>0cm</Left>
              <Height>10pt</Height>
              <Width>13.19463cm</Width>
              <ZIndex>1</ZIndex>
              <Style>
                <VerticalAlign>Middle</VerticalAlign>
              </Style>
            </Textbox>
            <Textbox Name="ExecutionTimeTextBox">
              <KeepTogether>true</KeepTogether>
              <Paragraphs>
                <Paragraph>
                  <TextRuns>
                    <TextRun>
                      <Value>=Globals!ExecutionTime</Value>
                      <Style>
                        <FontFamily>Segoe UI</FontFamily>
                        <FontSize>8pt</FontSize>
                        <Format>g</Format>
                      </Style>
                    </TextRun>
                  </TextRuns>
                  <Style>
                    <TextAlign>Right</TextAlign>
                  </Style>
                </Paragraph>
              </Paragraphs>
              <Left>13.25637cm</Left>
              <Height>11pt</Height>
              <Width>5.3725cm</Width>
              <ZIndex>2</ZIndex>
              <Style>
                <VerticalAlign>Middle</VerticalAlign>
              </Style>
            </Textbox>
            <Textbox Name="UserIdTextBox">
              <CanGrow>true</CanGrow>
              <KeepTogether>true</KeepTogether>
              <Paragraphs>
                <Paragraph>
                  <TextRuns>
                    <TextRun>
                      <Value>=User!UserID</Value>
                      <Style>
                        <FontFamily>Segoe UI</FontFamily>
                        <FontSize>8pt</FontSize>
                      </Style>
                    </TextRun>
                  </TextRuns>
                  <Style>
                    <TextAlign>Right</TextAlign>
                  </Style>
                </Paragraph>
              </Paragraphs>
              <Top>0.74932cm</Top>
              <Left>13.25637cm</Left>
              <Height>11pt</Height>
              <Width>5.3725cm</Width>
              <ZIndex>3</ZIndex>
              <Style>
                <VerticalAlign>Middle</VerticalAlign>
              </Style>
            </Textbox>
            <Textbox Name="PageNumberTextBox">
              <KeepTogether>true</KeepTogether>
              <Paragraphs>
                <Paragraph>
                  <TextRuns>
                    <TextRun>
                      <Value>="Page "&amp; (Globals!PageNumber)</Value>
                      <Style>
                        <FontFamily>Segoe UI</FontFamily>
                        <FontSize>8pt</FontSize>
                      </Style>
                    </TextRun>
                  </TextRuns>
                  <Style>
                    <TextAlign>Right</TextAlign>
                  </Style>
                </Paragraph>
              </Paragraphs>
              <Top>0.37042cm</Top>
              <Left>13.25637cm</Left>
              <Height>11pt</Height>
              <Width>5.3725cm</Width>
              <ZIndex>4</ZIndex>
              <Style>
                <VerticalAlign>Middle</VerticalAlign>
              </Style>
            </Textbox>
          </ReportItems>
          <Style>
            <Border />
          </Style>
        </PageHeader>
        <InteractiveHeight>11in</InteractiveHeight>
        <InteractiveWidth>8.5in</InteractiveWidth>
        <LeftMargin>0.69444in</LeftMargin>
        <RightMargin>0.41667in</RightMargin>
        <TopMargin>0.41667in</TopMargin>
        <BottomMargin>0.58333in</BottomMargin>
        <Style />
      </Page>
    </ReportSection>
  </ReportSections>
  <ReportParameters>
    <ReportParameter Name="DocNo_CostJourLineCaption">
      <DataType>String</DataType>
      <DefaultValue>
        <Values>
          <Value>DocNo_CostJourLineCaption</Value>
        </Values>
      </DefaultValue>
      <Prompt>DocNo_CostJourLineCaption</Prompt>
    </ReportParameter>
    <ReportParameter Name="Text_CostJourLineCaption">
      <DataType>String</DataType>
      <DefaultValue>
        <Values>
          <Value>Text_CostJourLineCaption</Value>
        </Values>
      </DefaultValue>
      <Prompt>Text_CostJourLineCaption</Prompt>
    </ReportParameter>
    <ReportParameter Name="Amount_CostJourLineCaption">
      <DataType>String</DataType>
      <DefaultValue>
        <Values>
          <Value>Amount_CostJourLineCaption</Value>
        </Values>
      </DefaultValue>
      <Prompt>Amount_CostJourLineCaption</Prompt>
    </ReportParameter>
    <ReportParameter Name="BlCostCntCode_CostJourLineCaption">
      <DataType>String</DataType>
      <DefaultValue>
        <Values>
          <Value>BlCostCntCode_CostJourLineCaption</Value>
        </Values>
      </DefaultValue>
      <Prompt>BlCostCntCode_CostJourLineCaption</Prompt>
    </ReportParameter>
    <ReportParameter Name="BlCostObjCode_CostJourLineCaption">
      <DataType>String</DataType>
      <DefaultValue>
        <Values>
          <Value>BlCostObjCode_CostJourLineCaption</Value>
        </Values>
      </DefaultValue>
      <Prompt>BlCostObjCode_CostJourLineCaption</Prompt>
    </ReportParameter>
  </ReportParameters>
  <ReportParametersLayout>
    <GridLayoutDefinition>
      <NumberOfColumns>1</NumberOfColumns>
      <NumberOfRows>5</NumberOfRows>
      <CellDefinitions>
        <CellDefinition>
          <ColumnIndex>0</ColumnIndex>
          <RowIndex>0</RowIndex>
          <ParameterName>DocNo_CostJourLineCaption</ParameterName>
        </CellDefinition>
        <CellDefinition>
          <ColumnIndex>0</ColumnIndex>
          <RowIndex>1</RowIndex>
          <ParameterName>Text_CostJourLineCaption</ParameterName>
        </CellDefinition>
        <CellDefinition>
          <ColumnIndex>0</ColumnIndex>
          <RowIndex>2</RowIndex>
          <ParameterName>Amount_CostJourLineCaption</ParameterName>
        </CellDefinition>
        <CellDefinition>
          <ColumnIndex>0</ColumnIndex>
          <RowIndex>3</RowIndex>
          <ParameterName>BlCostCntCode_CostJourLineCaption</ParameterName>
        </CellDefinition>
        <CellDefinition>
          <ColumnIndex>0</ColumnIndex>
          <RowIndex>4</RowIndex>
          <ParameterName>BlCostObjCode_CostJourLineCaption</ParameterName>
        </CellDefinition>
      </CellDefinitions>
    </GridLayoutDefinition>
  </ReportParametersLayout>
  <Code>Public Function BlankZero(ByVal Value As Decimal)
    if Value = 0 then
        Return ""
    end if
    Return Value
End Function

Public Function BlankPos(ByVal Value As Decimal)
    if Value &gt; 0 then
        Return ""
    end if
    Return Value
End Function

Public Function BlankZeroAndPos(ByVal Value As Decimal)
    if Value &gt;= 0 then
        Return ""
    end if
    Return Value
End Function

Public Function BlankNeg(ByVal Value As Decimal)
    if Value &lt; 0 then
        Return ""
    end if
    Return Value
End Function

Public Function BlankNegAndZero(ByVal Value As Decimal)
    if Value &lt;= 0 then
        Return ""
    end if
    Return Value
End Function
</Code>
  <Language>=User!Language</Language>
  <ConsumeContainerWhitespace>true</ConsumeContainerWhitespace>
  <rd:ReportUnitType>Inch</rd:ReportUnitType>
  <rd:ReportID>bfd67e80-d64c-41c1-8e7c-7d743dc9712a</rd:ReportID>
</Report>
    END_OF_RDLDATA
  }
}

