OBJECT Report 1091 Job Transfer To Planning Lines
{
  OBJECT-PROPERTIES
  {
    Date=25/10/16;
    Time=12:00:00;
    Version List=NAVW110.00;
  }
  PROPERTIES
  {
    CaptionML=[ENU=Job Transfer To Planning Lines;
               ENG=Job Transfer To Planning Lines];
    ProcessingOnly=Yes;
    OnPreReport=BEGIN
                  JobCalcBatches.TransferToPlanningLine(JobLedgEntry,LineType + 1);
                END;

  }
  DATASET
  {
  }
  REQUESTPAGE
  {
    PROPERTIES
    {
      SaveValues=Yes;
    }
    CONTROLS
    {
      { 1900000001;0;Container;
                  ContainerType=ContentArea }

      { 1900000002;1;Group  ;
                  CaptionML=[ENU=Options;
                             ENG=Options] }

      { 1   ;2   ;Field     ;
                  Name=TransferTo;
                  CaptionML=[ENU=Transfer To;
                             ENG=Transfer To];
                  ToolTipML=[ENU=Specifies the type of planning lines that should be created.;
                             ENG=Specifies the type of planning lines that should be created.];
                  OptionCaptionML=[ENU=Budget,Billable,Both Budget and Billable;
                                   ENG=Budget,Billable,Both Budget and Billable];
                  ApplicationArea=#Jobs;
                  SourceExpr=LineType }

    }
  }
  LABELS
  {
  }
  CODE
  {
    VAR
      JobLedgEntry@1003 : Record 169;
      JobCalcBatches@1004 : Codeunit 1005;
      LineType@1002 : 'Budget,Billable,Both Budget and Billable';

    PROCEDURE GetJobLedgEntry@1(VAR JobLedgEntry2@1000 : Record 169);
    BEGIN
      JobLedgEntry.COPY(JobLedgEntry2);
    END;

    BEGIN
    END.
  }
  RDLDATA
  {
  }
}

