OBJECT Report 1106 Resource Usage
{
  OBJECT-PROPERTIES
  {
    Date=22/11/17;
    Time=12:00:00;
    Version List=NAVW111.00;
  }
  PROPERTIES
  {
    CaptionML=[ENU=Resource Utilization;
               ENG=Resource Utilisation];
    OnPreReport=BEGIN
                  ResFilter := Resource.GETFILTERS;
                END;

  }
  DATASET
  {
    { 5508;    ;DataItem;                    ;
               DataItemTable=Table156;
               DataItemTableView=SORTING(No.);
               OnAfterGetRecord=BEGIN
                                  CALCFIELDS(Capacity,"Usage (Qty.)");
                                END;

               ReqFilterFields=No.,Date Filter }

    { 14  ;1   ;Column  ;TodayFormatted      ;
               SourceExpr=FORMAT(TODAY,0,4) }

    { 15  ;1   ;Column  ;CompanyName         ;
               SourceExpr=COMPANYPROPERTY.DISPLAYNAME }

    { 23  ;1   ;Column  ;ResTableCaptionResFilter;
               SourceExpr=TABLECAPTION + ': ' + ResFilter }

    { 2   ;1   ;Column  ;ResFilter           ;
               SourceExpr=ResFilter }

    { 1   ;1   ;Column  ;No_Resource         ;
               IncludeCaption=Yes;
               SourceExpr="No." }

    { 3   ;1   ;Column  ;Type_Resource       ;
               IncludeCaption=Yes;
               SourceExpr=Type }

    { 5   ;1   ;Column  ;Name_Resource       ;
               IncludeCaption=Yes;
               SourceExpr=Name }

    { 7   ;1   ;Column  ;capacity_Resource   ;
               IncludeCaption=Yes;
               SourceExpr=Capacity }

    { 9   ;1   ;Column  ;UsageQty_Resource   ;
               IncludeCaption=Yes;
               SourceExpr="Usage (Qty.)" }

    { 11  ;1   ;Column  ;CapacityUsageQty    ;
               SourceExpr=Capacity - "Usage (Qty.)" }

    { 13  ;1   ;Column  ;ResourceUsageCaption;
               SourceExpr=ResourceUsageCaptionLbl }

    { 16  ;1   ;Column  ;CurrReportPageNoCaption;
               SourceExpr=CurrReportPageNoCaptionLbl }

    { 12  ;1   ;Column  ;CapacityUsageQtyCaption;
               SourceExpr=CapacityUsageQtyCaptionLbl }

  }
  REQUESTPAGE
  {
    PROPERTIES
    {
    }
    CONTROLS
    {
    }
  }
  LABELS
  {
  }
  CODE
  {
    VAR
      ResFilter@1000 : Text;
      ResourceUsageCaptionLbl@7754 : TextConst 'ENU=Resource Usage;ENG=Resource Usage';
      CurrReportPageNoCaptionLbl@2595 : TextConst 'ENU=Page;ENG=Page';
      CapacityUsageQtyCaptionLbl@1724 : TextConst 'ENU=Balance;ENG=Balance';

    BEGIN
    END.
  }
  RDLDATA
  {
    <?xml version="1.0" encoding="utf-8"?>
<Report xmlns="http://schemas.microsoft.com/sqlserver/reporting/2016/01/reportdefinition" xmlns:rd="http://schemas.microsoft.com/SQLServer/reporting/reportdesigner">
  <AutoRefresh>0</AutoRefresh>
  <DataSources>
    <DataSource Name="DataSource">
      <ConnectionProperties>
        <DataProvider>SQL</DataProvider>
        <ConnectString />
      </ConnectionProperties>
      <rd:SecurityType>None</rd:SecurityType>
      <rd:DataSourceID>47b280b9-bba9-4dc3-bd6a-97086c13fd58</rd:DataSourceID>
    </DataSource>
  </DataSources>
  <DataSets>
    <DataSet Name="DataSet_Result">
      <Query>
        <DataSourceName>DataSource</DataSourceName>
        <CommandText />
      </Query>
      <Fields>
        <Field Name="TodayFormatted">
          <DataField>TodayFormatted</DataField>
        </Field>
        <Field Name="CompanyName">
          <DataField>CompanyName</DataField>
        </Field>
        <Field Name="ResTableCaptionResFilter">
          <DataField>ResTableCaptionResFilter</DataField>
        </Field>
        <Field Name="ResFilter">
          <DataField>ResFilter</DataField>
        </Field>
        <Field Name="No_Resource">
          <DataField>No_Resource</DataField>
        </Field>
        <Field Name="Type_Resource">
          <DataField>Type_Resource</DataField>
        </Field>
        <Field Name="Name_Resource">
          <DataField>Name_Resource</DataField>
        </Field>
        <Field Name="capacity_Resource">
          <DataField>capacity_Resource</DataField>
        </Field>
        <Field Name="capacity_ResourceFormat">
          <DataField>capacity_ResourceFormat</DataField>
        </Field>
        <Field Name="UsageQty_Resource">
          <DataField>UsageQty_Resource</DataField>
        </Field>
        <Field Name="UsageQty_ResourceFormat">
          <DataField>UsageQty_ResourceFormat</DataField>
        </Field>
        <Field Name="CapacityUsageQty">
          <DataField>CapacityUsageQty</DataField>
        </Field>
        <Field Name="CapacityUsageQtyFormat">
          <DataField>CapacityUsageQtyFormat</DataField>
        </Field>
        <Field Name="ResourceUsageCaption">
          <DataField>ResourceUsageCaption</DataField>
        </Field>
        <Field Name="CurrReportPageNoCaption">
          <DataField>CurrReportPageNoCaption</DataField>
        </Field>
        <Field Name="CapacityUsageQtyCaption">
          <DataField>CapacityUsageQtyCaption</DataField>
        </Field>
      </Fields>
      <rd:DataSetInfo>
        <rd:DataSetName>DataSet</rd:DataSetName>
        <rd:SchemaPath>Report.xsd</rd:SchemaPath>
        <rd:TableName>Result</rd:TableName>
      </rd:DataSetInfo>
    </DataSet>
  </DataSets>
  <ReportSections>
    <ReportSection>
      <Body>
        <ReportItems>
          <Tablix Name="resourceUtilizationTable">
            <TablixBody>
              <TablixColumns>
                <TablixColumn>
                  <Width>1.03955in</Width>
                </TablixColumn>
                <TablixColumn>
                  <Width>0.92144in</Width>
                </TablixColumn>
                <TablixColumn>
                  <Width>2.27971in</Width>
                </TablixColumn>
                <TablixColumn>
                  <Width>0.97352in</Width>
                </TablixColumn>
                <TablixColumn>
                  <Width>0.92144in</Width>
                </TablixColumn>
                <TablixColumn>
                  <Width>1.01002in</Width>
                </TablixColumn>
              </TablixColumns>
              <TablixRows>
                <TablixRow>
                  <Height>0.13889in</Height>
                  <TablixCells>
                    <TablixCell>
                      <CellContents>
                        <Textbox Name="Textbox2">
                          <CanGrow>true</CanGrow>
                          <KeepTogether>true</KeepTogether>
                          <Paragraphs>
                            <Paragraph>
                              <TextRuns>
                                <TextRun>
                                  <Value>=First(Fields!ResTableCaptionResFilter.Value)</Value>
                                  <Style>
                                    <FontStyle>Normal</FontStyle>
                                    <FontFamily>Segoe UI</FontFamily>
                                    <FontSize>8pt</FontSize>
                                  </Style>
                                </TextRun>
                              </TextRuns>
                              <Style>
                                <TextAlign>Left</TextAlign>
                              </Style>
                            </Paragraph>
                          </Paragraphs>
                          <rd:DefaultName>Textbox2</rd:DefaultName>
                          <Style>
                            <VerticalAlign>Top</VerticalAlign>
                          </Style>
                        </Textbox>
                        <ColSpan>6</ColSpan>
                      </CellContents>
                    </TablixCell>
                    <TablixCell />
                    <TablixCell />
                    <TablixCell />
                    <TablixCell />
                    <TablixCell />
                  </TablixCells>
                </TablixRow>
                <TablixRow>
                  <Height>0.13889in</Height>
                  <TablixCells>
                    <TablixCell>
                      <CellContents>
                        <Textbox Name="ResourceNoCaption">
                          <CanGrow>true</CanGrow>
                          <KeepTogether>true</KeepTogether>
                          <Paragraphs>
                            <Paragraph>
                              <TextRuns>
                                <TextRun>
                                  <Value>=Parameters!No_ResourceCaption.Value</Value>
                                  <Style>
                                    <FontStyle>Normal</FontStyle>
                                    <FontFamily>Segoe UI</FontFamily>
                                    <FontSize>8pt</FontSize>
                                    <FontWeight>Bold</FontWeight>
                                  </Style>
                                </TextRun>
                              </TextRuns>
                              <Style>
                                <TextAlign>Left</TextAlign>
                              </Style>
                            </Paragraph>
                          </Paragraphs>
                          <ZIndex>19</ZIndex>
                          <Style>
                            <VerticalAlign>Bottom</VerticalAlign>
                            <PaddingRight>5pt</PaddingRight>
                          </Style>
                        </Textbox>
                      </CellContents>
                    </TablixCell>
                    <TablixCell>
                      <CellContents>
                        <Textbox Name="ResourceTypeCaption">
                          <CanGrow>true</CanGrow>
                          <KeepTogether>true</KeepTogether>
                          <Paragraphs>
                            <Paragraph>
                              <TextRuns>
                                <TextRun>
                                  <Value>=Parameters!Type_ResourceCaption.Value</Value>
                                  <Style>
                                    <FontStyle>Normal</FontStyle>
                                    <FontFamily>Segoe UI</FontFamily>
                                    <FontSize>8pt</FontSize>
                                    <FontWeight>Bold</FontWeight>
                                  </Style>
                                </TextRun>
                              </TextRuns>
                              <Style>
                                <TextAlign>Left</TextAlign>
                              </Style>
                            </Paragraph>
                          </Paragraphs>
                          <ZIndex>18</ZIndex>
                          <Style>
                            <VerticalAlign>Bottom</VerticalAlign>
                            <PaddingLeft>5pt</PaddingLeft>
                            <PaddingRight>5pt</PaddingRight>
                          </Style>
                        </Textbox>
                      </CellContents>
                    </TablixCell>
                    <TablixCell>
                      <CellContents>
                        <Textbox Name="ResourceNameCaption">
                          <CanGrow>true</CanGrow>
                          <KeepTogether>true</KeepTogether>
                          <Paragraphs>
                            <Paragraph>
                              <TextRuns>
                                <TextRun>
                                  <Value>=Parameters!Name_ResourceCaption.Value</Value>
                                  <Style>
                                    <FontStyle>Normal</FontStyle>
                                    <FontFamily>Segoe UI</FontFamily>
                                    <FontSize>8pt</FontSize>
                                    <FontWeight>Bold</FontWeight>
                                  </Style>
                                </TextRun>
                              </TextRuns>
                              <Style>
                                <TextAlign>Left</TextAlign>
                              </Style>
                            </Paragraph>
                          </Paragraphs>
                          <ZIndex>17</ZIndex>
                          <Style>
                            <VerticalAlign>Bottom</VerticalAlign>
                            <PaddingLeft>5pt</PaddingLeft>
                            <PaddingRight>5pt</PaddingRight>
                          </Style>
                        </Textbox>
                      </CellContents>
                    </TablixCell>
                    <TablixCell>
                      <CellContents>
                        <Textbox Name="ResourceCapacityCaption">
                          <CanGrow>true</CanGrow>
                          <KeepTogether>true</KeepTogether>
                          <Paragraphs>
                            <Paragraph>
                              <TextRuns>
                                <TextRun>
                                  <Value>=Parameters!capacity_ResourceCaption.Value</Value>
                                  <Style>
                                    <FontStyle>Normal</FontStyle>
                                    <FontFamily>Segoe UI</FontFamily>
                                    <FontSize>8pt</FontSize>
                                    <FontWeight>Bold</FontWeight>
                                  </Style>
                                </TextRun>
                              </TextRuns>
                              <Style>
                                <TextAlign>Right</TextAlign>
                              </Style>
                            </Paragraph>
                          </Paragraphs>
                          <ZIndex>16</ZIndex>
                          <Style>
                            <VerticalAlign>Bottom</VerticalAlign>
                            <PaddingLeft>5pt</PaddingLeft>
                            <PaddingRight>5pt</PaddingRight>
                          </Style>
                        </Textbox>
                      </CellContents>
                    </TablixCell>
                    <TablixCell>
                      <CellContents>
                        <Textbox Name="ResourceUsageQtyCaption">
                          <CanGrow>true</CanGrow>
                          <KeepTogether>true</KeepTogether>
                          <Paragraphs>
                            <Paragraph>
                              <TextRuns>
                                <TextRun>
                                  <Value>=Parameters!UsageQty_ResourceCaption.Value</Value>
                                  <Style>
                                    <FontStyle>Normal</FontStyle>
                                    <FontFamily>Segoe UI</FontFamily>
                                    <FontSize>8pt</FontSize>
                                    <FontWeight>Bold</FontWeight>
                                  </Style>
                                </TextRun>
                              </TextRuns>
                              <Style>
                                <TextAlign>Right</TextAlign>
                              </Style>
                            </Paragraph>
                          </Paragraphs>
                          <ZIndex>15</ZIndex>
                          <Style>
                            <VerticalAlign>Bottom</VerticalAlign>
                            <PaddingLeft>5pt</PaddingLeft>
                            <PaddingRight>5pt</PaddingRight>
                          </Style>
                        </Textbox>
                      </CellContents>
                    </TablixCell>
                    <TablixCell>
                      <CellContents>
                        <Textbox Name="CapacityUsageQtyCaption">
                          <CanGrow>true</CanGrow>
                          <KeepTogether>true</KeepTogether>
                          <Paragraphs>
                            <Paragraph>
                              <TextRuns>
                                <TextRun>
                                  <Value>=First(Fields!CapacityUsageQtyCaption.Value)</Value>
                                  <Style>
                                    <FontStyle>Normal</FontStyle>
                                    <FontFamily>Segoe UI</FontFamily>
                                    <FontSize>8pt</FontSize>
                                    <FontWeight>Bold</FontWeight>
                                  </Style>
                                </TextRun>
                              </TextRuns>
                              <Style>
                                <TextAlign>Right</TextAlign>
                              </Style>
                            </Paragraph>
                          </Paragraphs>
                          <ZIndex>14</ZIndex>
                          <Style>
                            <VerticalAlign>Bottom</VerticalAlign>
                            <PaddingLeft>5pt</PaddingLeft>
                          </Style>
                        </Textbox>
                      </CellContents>
                    </TablixCell>
                  </TablixCells>
                </TablixRow>
                <TablixRow>
                  <Height>0.06944in</Height>
                  <TablixCells>
                    <TablixCell>
                      <CellContents>
                        <Textbox Name="Textbox17">
                          <CanGrow>true</CanGrow>
                          <KeepTogether>true</KeepTogether>
                          <Paragraphs>
                            <Paragraph>
                              <TextRuns>
                                <TextRun>
                                  <Value />
                                  <Style>
                                    <FontStyle>Normal</FontStyle>
                                    <FontFamily>Segoe UI</FontFamily>
                                    <FontSize>8pt</FontSize>
                                    <FontWeight>Bold</FontWeight>
                                  </Style>
                                </TextRun>
                              </TextRuns>
                              <Style />
                            </Paragraph>
                          </Paragraphs>
                          <rd:DefaultName>Textbox17</rd:DefaultName>
                          <Style>
                            <VerticalAlign>Bottom</VerticalAlign>
                          </Style>
                        </Textbox>
                        <ColSpan>6</ColSpan>
                      </CellContents>
                    </TablixCell>
                    <TablixCell />
                    <TablixCell />
                    <TablixCell />
                    <TablixCell />
                    <TablixCell />
                  </TablixCells>
                </TablixRow>
                <TablixRow>
                  <Height>0.06944in</Height>
                  <TablixCells>
                    <TablixCell>
                      <CellContents>
                        <Textbox Name="Textbox7">
                          <CanGrow>true</CanGrow>
                          <KeepTogether>true</KeepTogether>
                          <Paragraphs>
                            <Paragraph>
                              <TextRuns>
                                <TextRun>
                                  <Value />
                                  <Style>
                                    <FontStyle>Normal</FontStyle>
                                    <FontFamily>Segoe UI</FontFamily>
                                    <FontSize>8pt</FontSize>
                                    <FontWeight>Bold</FontWeight>
                                  </Style>
                                </TextRun>
                              </TextRuns>
                              <Style />
                            </Paragraph>
                          </Paragraphs>
                          <rd:DefaultName>Textbox7</rd:DefaultName>
                          <Style>
                            <Border>
                              <Style>None</Style>
                            </Border>
                            <TopBorder>
                              <Style>Solid</Style>
                            </TopBorder>
                            <BottomBorder>
                              <Style>None</Style>
                            </BottomBorder>
                            <VerticalAlign>Bottom</VerticalAlign>
                          </Style>
                        </Textbox>
                        <ColSpan>6</ColSpan>
                      </CellContents>
                    </TablixCell>
                    <TablixCell />
                    <TablixCell />
                    <TablixCell />
                    <TablixCell />
                    <TablixCell />
                  </TablixCells>
                </TablixRow>
                <TablixRow>
                  <Height>0.13889in</Height>
                  <TablixCells>
                    <TablixCell>
                      <CellContents>
                        <Textbox Name="ResourceNo">
                          <KeepTogether>true</KeepTogether>
                          <Paragraphs>
                            <Paragraph>
                              <TextRuns>
                                <TextRun>
                                  <Value>=Fields!No_Resource.Value</Value>
                                  <Style>
                                    <FontStyle>Normal</FontStyle>
                                    <FontFamily>Segoe UI</FontFamily>
                                    <FontSize>8pt</FontSize>
                                  </Style>
                                </TextRun>
                              </TextRuns>
                              <Style>
                                <TextAlign>Left</TextAlign>
                              </Style>
                            </Paragraph>
                          </Paragraphs>
                          <ZIndex>9</ZIndex>
                          <Style>
                            <BackgroundColor>=IIF(RowNumber(Nothing) Mod 2,"#EFEFEF","#FFFFF")</BackgroundColor>
                            <VerticalAlign>Top</VerticalAlign>
                            <PaddingRight>5pt</PaddingRight>
                          </Style>
                        </Textbox>
                      </CellContents>
                    </TablixCell>
                    <TablixCell>
                      <CellContents>
                        <Textbox Name="ResourceType">
                          <KeepTogether>true</KeepTogether>
                          <Paragraphs>
                            <Paragraph>
                              <TextRuns>
                                <TextRun>
                                  <Value>=Fields!Type_Resource.Value</Value>
                                  <Style>
                                    <FontStyle>Normal</FontStyle>
                                    <FontFamily>Segoe UI</FontFamily>
                                    <FontSize>8pt</FontSize>
                                  </Style>
                                </TextRun>
                              </TextRuns>
                              <Style>
                                <TextAlign>Left</TextAlign>
                              </Style>
                            </Paragraph>
                          </Paragraphs>
                          <ZIndex>8</ZIndex>
                          <Style>
                            <BackgroundColor>=IIF(RowNumber(Nothing) Mod 2,"#EFEFEF","#FFFFF")</BackgroundColor>
                            <VerticalAlign>Top</VerticalAlign>
                            <PaddingLeft>5pt</PaddingLeft>
                            <PaddingRight>5pt</PaddingRight>
                          </Style>
                        </Textbox>
                      </CellContents>
                    </TablixCell>
                    <TablixCell>
                      <CellContents>
                        <Textbox Name="ResourceName">
                          <KeepTogether>true</KeepTogether>
                          <Paragraphs>
                            <Paragraph>
                              <TextRuns>
                                <TextRun>
                                  <Value>=Fields!Name_Resource.Value</Value>
                                  <Style>
                                    <FontStyle>Normal</FontStyle>
                                    <FontFamily>Segoe UI</FontFamily>
                                    <FontSize>8pt</FontSize>
                                  </Style>
                                </TextRun>
                              </TextRuns>
                              <Style>
                                <TextAlign>Left</TextAlign>
                              </Style>
                            </Paragraph>
                          </Paragraphs>
                          <ZIndex>7</ZIndex>
                          <Style>
                            <BackgroundColor>=IIF(RowNumber(Nothing) Mod 2,"#EFEFEF","#FFFFF")</BackgroundColor>
                            <VerticalAlign>Top</VerticalAlign>
                            <PaddingLeft>5pt</PaddingLeft>
                            <PaddingRight>5pt</PaddingRight>
                          </Style>
                        </Textbox>
                      </CellContents>
                    </TablixCell>
                    <TablixCell>
                      <CellContents>
                        <Textbox Name="ResourceCapacity">
                          <CanGrow>true</CanGrow>
                          <KeepTogether>true</KeepTogether>
                          <Paragraphs>
                            <Paragraph>
                              <TextRuns>
                                <TextRun>
                                  <Value>=Fields!capacity_Resource.Value</Value>
                                  <Style>
                                    <FontStyle>Normal</FontStyle>
                                    <FontFamily>Segoe UI</FontFamily>
                                    <FontSize>8pt</FontSize>
                                    <Format>=Fields!capacity_ResourceFormat.Value</Format>
                                  </Style>
                                </TextRun>
                              </TextRuns>
                              <Style>
                                <TextAlign>Right</TextAlign>
                              </Style>
                            </Paragraph>
                          </Paragraphs>
                          <ZIndex>6</ZIndex>
                          <Style>
                            <BackgroundColor>=IIF(RowNumber(Nothing) Mod 2,"#EFEFEF","#FFFFF")</BackgroundColor>
                            <VerticalAlign>Top</VerticalAlign>
                            <PaddingLeft>5pt</PaddingLeft>
                            <PaddingRight>5pt</PaddingRight>
                          </Style>
                        </Textbox>
                      </CellContents>
                    </TablixCell>
                    <TablixCell>
                      <CellContents>
                        <Textbox Name="ResourceUsageQty">
                          <CanGrow>true</CanGrow>
                          <KeepTogether>true</KeepTogether>
                          <Paragraphs>
                            <Paragraph>
                              <TextRuns>
                                <TextRun>
                                  <Value>=Fields!UsageQty_Resource.Value</Value>
                                  <Style>
                                    <FontStyle>Normal</FontStyle>
                                    <FontFamily>Segoe UI</FontFamily>
                                    <FontSize>8pt</FontSize>
                                    <Format>=Fields!UsageQty_ResourceFormat.Value</Format>
                                  </Style>
                                </TextRun>
                              </TextRuns>
                              <Style>
                                <TextAlign>Right</TextAlign>
                              </Style>
                            </Paragraph>
                          </Paragraphs>
                          <ZIndex>5</ZIndex>
                          <Style>
                            <BackgroundColor>=IIF(RowNumber(Nothing) Mod 2,"#EFEFEF","#FFFFF")</BackgroundColor>
                            <VerticalAlign>Top</VerticalAlign>
                            <PaddingLeft>5pt</PaddingLeft>
                            <PaddingRight>5pt</PaddingRight>
                          </Style>
                        </Textbox>
                      </CellContents>
                    </TablixCell>
                    <TablixCell>
                      <CellContents>
                        <Textbox Name="CapacityUsageQty">
                          <CanGrow>true</CanGrow>
                          <KeepTogether>true</KeepTogether>
                          <Paragraphs>
                            <Paragraph>
                              <TextRuns>
                                <TextRun>
                                  <Value>=Fields!CapacityUsageQty.Value</Value>
                                  <Style>
                                    <FontStyle>Normal</FontStyle>
                                    <FontFamily>Segoe UI</FontFamily>
                                    <FontSize>8pt</FontSize>
                                    <Format>=Fields!CapacityUsageQtyFormat.Value</Format>
                                  </Style>
                                </TextRun>
                              </TextRuns>
                              <Style>
                                <TextAlign>Right</TextAlign>
                              </Style>
                            </Paragraph>
                          </Paragraphs>
                          <ZIndex>4</ZIndex>
                          <Style>
                            <BackgroundColor>=IIF(RowNumber(Nothing) Mod 2,"#EFEFEF","#FFFFF")</BackgroundColor>
                            <VerticalAlign>Top</VerticalAlign>
                            <PaddingLeft>5pt</PaddingLeft>
                          </Style>
                        </Textbox>
                      </CellContents>
                    </TablixCell>
                  </TablixCells>
                </TablixRow>
              </TablixRows>
            </TablixBody>
            <TablixColumnHierarchy>
              <TablixMembers>
                <TablixMember />
                <TablixMember />
                <TablixMember />
                <TablixMember />
                <TablixMember />
                <TablixMember />
              </TablixMembers>
            </TablixColumnHierarchy>
            <TablixRowHierarchy>
              <TablixMembers>
                <TablixMember>
                  <Visibility>
                    <Hidden>=IIF(First(Fields!ResFilter.Value) = "",TRUE,FALSE)</Hidden>
                  </Visibility>
                  <KeepWithGroup>After</KeepWithGroup>
                  <RepeatOnNewPage>true</RepeatOnNewPage>
                </TablixMember>
                <TablixMember>
                  <KeepWithGroup>After</KeepWithGroup>
                  <RepeatOnNewPage>true</RepeatOnNewPage>
                  <KeepTogether>true</KeepTogether>
                </TablixMember>
                <TablixMember>
                  <KeepWithGroup>After</KeepWithGroup>
                  <RepeatOnNewPage>true</RepeatOnNewPage>
                </TablixMember>
                <TablixMember>
                  <KeepWithGroup>After</KeepWithGroup>
                  <RepeatOnNewPage>true</RepeatOnNewPage>
                </TablixMember>
                <TablixMember>
                  <Group Name="Table1_Details_Group">
                    <DataElementName>Detail</DataElementName>
                  </Group>
                  <TablixMembers>
                    <TablixMember />
                  </TablixMembers>
                  <DataElementName>Detail_Collection</DataElementName>
                  <DataElementOutput>Output</DataElementOutput>
                  <KeepTogether>true</KeepTogether>
                </TablixMember>
              </TablixMembers>
            </TablixRowHierarchy>
            <DataSetName>DataSet_Result</DataSetName>
            <Top>0.01481cm</Top>
            <Height>1.4111cm</Height>
            <Width>7.14568in</Width>
            <Style />
          </Tablix>
        </ReportItems>
        <Height>1.45732cm</Height>
        <Style />
      </Body>
      <Width>18.15003cm</Width>
      <Page>
        <PageHeader>
          <Height>1.88107cm</Height>
          <PrintOnFirstPage>true</PrintOnFirstPage>
          <PrintOnLastPage>true</PrintOnLastPage>
          <ReportItems>
            <Textbox Name="ResourceUsageCaption1">
              <KeepTogether>true</KeepTogether>
              <Paragraphs>
                <Paragraph>
                  <TextRuns>
                    <TextRun>
                      <Value>=First(Fields!ResourceUsageCaption.Value, "DataSet_Result")</Value>
                      <Style>
                        <FontFamily>Segoe UI</FontFamily>
                        <FontSize>14pt</FontSize>
                        <FontWeight>Bold</FontWeight>
                      </Style>
                    </TextRun>
                  </TextRuns>
                  <Style />
                </Paragraph>
              </Paragraphs>
              <Height>20pt</Height>
              <Width>11.23534cm</Width>
              <Style>
                <VerticalAlign>Middle</VerticalAlign>
              </Style>
            </Textbox>
            <Textbox Name="COMPANYNAME1">
              <KeepTogether>true</KeepTogether>
              <Paragraphs>
                <Paragraph>
                  <TextRuns>
                    <TextRun>
                      <Value>=First(Fields!CompanyName.Value, "DataSet_Result")</Value>
                      <Style>
                        <FontFamily>Segoe UI</FontFamily>
                        <FontSize>8pt</FontSize>
                        <FontWeight>Normal</FontWeight>
                      </Style>
                    </TextRun>
                  </TextRuns>
                  <Style />
                </Paragraph>
              </Paragraphs>
              <Top>0.74471cm</Top>
              <Height>11pt</Height>
              <Width>11.23534cm</Width>
              <ZIndex>1</ZIndex>
              <Style>
                <VerticalAlign>Middle</VerticalAlign>
              </Style>
            </Textbox>
            <Textbox Name="Date_TodayCaption1">
              <KeepTogether>true</KeepTogether>
              <Paragraphs>
                <Paragraph>
                  <TextRuns>
                    <TextRun>
                      <Value>=First(Fields!TodayFormatted.Value, "DataSet_Result")</Value>
                      <Style>
                        <FontStyle>Normal</FontStyle>
                        <FontFamily>Segoe UI</FontFamily>
                        <FontSize>8pt</FontSize>
                        <Format>D</Format>
                      </Style>
                    </TextRun>
                  </TextRuns>
                  <Style>
                    <TextAlign>Right</TextAlign>
                  </Style>
                </Paragraph>
              </Paragraphs>
              <Left>11.27062cm</Left>
              <Height>11pt</Height>
              <Width>6.87938cm</Width>
              <ZIndex>2</ZIndex>
              <Style>
                <Border />
                <VerticalAlign>Middle</VerticalAlign>
              </Style>
            </Textbox>
            <Textbox Name="UserIdTextBox">
              <CanGrow>true</CanGrow>
              <KeepTogether>true</KeepTogether>
              <Paragraphs>
                <Paragraph>
                  <TextRuns>
                    <TextRun>
                      <Value>=User!UserID</Value>
                      <Style>
                        <FontStyle>Normal</FontStyle>
                        <FontFamily>Segoe UI</FontFamily>
                        <FontSize>8pt</FontSize>
                      </Style>
                    </TextRun>
                  </TextRuns>
                  <Style>
                    <TextAlign>Right</TextAlign>
                  </Style>
                </Paragraph>
              </Paragraphs>
              <Top>0.75496cm</Top>
              <Left>11.27062cm</Left>
              <Height>11pt</Height>
              <Width>6.87938cm</Width>
              <ZIndex>3</ZIndex>
              <Visibility>
                <Hidden>=IIF(First(Fields!CurrReportPageNoCaption.Value, "DataSet_Result") = "",TRUE,FALSE)</Hidden>
              </Visibility>
              <DataElementOutput>NoOutput</DataElementOutput>
              <Style>
                <VerticalAlign>Middle</VerticalAlign>
              </Style>
            </Textbox>
            <Textbox Name="PageNumberTextBox">
              <KeepTogether>true</KeepTogether>
              <Paragraphs>
                <Paragraph>
                  <TextRuns>
                    <TextRun>
                      <Value>=First(Fields!CurrReportPageNoCaption.Value, "DataSet_Result") &amp; " " &amp; Globals!PageNumber</Value>
                      <Style>
                        <FontStyle>Normal</FontStyle>
                        <FontFamily>Segoe UI</FontFamily>
                        <FontSize>8pt</FontSize>
                      </Style>
                    </TextRun>
                  </TextRuns>
                  <Style>
                    <TextAlign>Right</TextAlign>
                  </Style>
                </Paragraph>
              </Paragraphs>
              <Top>0.36267cm</Top>
              <Left>11.27062cm</Left>
              <Height>11pt</Height>
              <Width>6.87938cm</Width>
              <ZIndex>4</ZIndex>
              <Visibility>
                <Hidden>=IIF(First(Fields!CurrReportPageNoCaption.Value, "DataSet_Result") = "",TRUE,FALSE)</Hidden>
              </Visibility>
              <DataElementOutput>NoOutput</DataElementOutput>
              <Style>
                <VerticalAlign>Middle</VerticalAlign>
              </Style>
            </Textbox>
          </ReportItems>
          <Style />
        </PageHeader>
        <PageHeight>29.7cm</PageHeight>
        <PageWidth>21cm</PageWidth>
        <InteractiveHeight>11in</InteractiveHeight>
        <InteractiveWidth>8.5in</InteractiveWidth>
        <LeftMargin>1.76388cm</LeftMargin>
        <RightMargin>1.05834cm</RightMargin>
        <TopMargin>1.05834cm</TopMargin>
        <BottomMargin>1.48166cm</BottomMargin>
        <ColumnSpacing>1.27cm</ColumnSpacing>
        <Style />
      </Page>
    </ReportSection>
  </ReportSections>
  <ReportParameters>
    <ReportParameter Name="No_ResourceCaption">
      <DataType>String</DataType>
      <DefaultValue>
        <Values>
          <Value>No_ResourceCaption</Value>
        </Values>
      </DefaultValue>
      <Prompt>No_ResourceCaption</Prompt>
    </ReportParameter>
    <ReportParameter Name="Type_ResourceCaption">
      <DataType>String</DataType>
      <DefaultValue>
        <Values>
          <Value>Type_ResourceCaption</Value>
        </Values>
      </DefaultValue>
      <Prompt>Type_ResourceCaption</Prompt>
    </ReportParameter>
    <ReportParameter Name="Name_ResourceCaption">
      <DataType>String</DataType>
      <DefaultValue>
        <Values>
          <Value>Name_ResourceCaption</Value>
        </Values>
      </DefaultValue>
      <Prompt>Name_ResourceCaption</Prompt>
    </ReportParameter>
    <ReportParameter Name="capacity_ResourceCaption">
      <DataType>String</DataType>
      <DefaultValue>
        <Values>
          <Value>capacity_ResourceCaption</Value>
        </Values>
      </DefaultValue>
      <Prompt>capacity_ResourceCaption</Prompt>
    </ReportParameter>
    <ReportParameter Name="UsageQty_ResourceCaption">
      <DataType>String</DataType>
      <DefaultValue>
        <Values>
          <Value>UsageQty_ResourceCaption</Value>
        </Values>
      </DefaultValue>
      <Prompt>UsageQty_ResourceCaption</Prompt>
    </ReportParameter>
  </ReportParameters>
  <ReportParametersLayout>
    <GridLayoutDefinition>
      <NumberOfColumns>1</NumberOfColumns>
      <NumberOfRows>5</NumberOfRows>
      <CellDefinitions>
        <CellDefinition>
          <ColumnIndex>0</ColumnIndex>
          <RowIndex>0</RowIndex>
          <ParameterName>No_ResourceCaption</ParameterName>
        </CellDefinition>
        <CellDefinition>
          <ColumnIndex>0</ColumnIndex>
          <RowIndex>1</RowIndex>
          <ParameterName>Type_ResourceCaption</ParameterName>
        </CellDefinition>
        <CellDefinition>
          <ColumnIndex>0</ColumnIndex>
          <RowIndex>2</RowIndex>
          <ParameterName>Name_ResourceCaption</ParameterName>
        </CellDefinition>
        <CellDefinition>
          <ColumnIndex>0</ColumnIndex>
          <RowIndex>3</RowIndex>
          <ParameterName>capacity_ResourceCaption</ParameterName>
        </CellDefinition>
        <CellDefinition>
          <ColumnIndex>0</ColumnIndex>
          <RowIndex>4</RowIndex>
          <ParameterName>UsageQty_ResourceCaption</ParameterName>
        </CellDefinition>
      </CellDefinitions>
    </GridLayoutDefinition>
  </ReportParametersLayout>
  <Code>Public Function BlankZero(ByVal Value As Decimal)
    if Value = 0 then
        Return ""
    end if
    Return Value
End Function

Public Function BlankPos(ByVal Value As Decimal)
    if Value &gt; 0 then
        Return ""
    end if
    Return Value
End Function

Public Function BlankZeroAndPos(ByVal Value As Decimal)
    if Value &gt;= 0 then
        Return ""
    end if
    Return Value
End Function

Public Function BlankNeg(ByVal Value As Decimal)
    if Value &lt; 0 then
        Return ""
    end if
    Return Value
End Function

Public Function BlankNegAndZero(ByVal Value As Decimal)
    if Value &lt;= 0 then
        Return ""
    end if
    Return Value
End Function
</Code>
  <Language>=User!Language</Language>
  <ConsumeContainerWhitespace>true</ConsumeContainerWhitespace>
  <rd:ReportUnitType>Cm</rd:ReportUnitType>
  <rd:ReportID>56a530d9-5cfc-4e77-834d-960a3f14e2f8</rd:ReportID>
</Report>
    END_OF_RDLDATA
  }
}

