OBJECT Report 1509 Send Overdue Appr. Notif.
{
  OBJECT-PROPERTIES
  {
    Date=15/09/15;
    Time=12:00:00;
    Version List=NAVW19.00;
  }
  PROPERTIES
  {
    CaptionML=[ENU=Send Overdue Approval Notifications;
               ENG=Send Overdue Approval Notifications];
    ProcessingOnly=Yes;
    OnPreReport=VAR
                  ApprovalsMgmt@1001 : Codeunit 1535;
                BEGIN
                  IF NOT ApprovalsMgmt.IsOverdueNotificationsWorkflowEnabled THEN
                    ERROR(NoWorkflowEnabledErr);

                  OnSendOverdueNotifications;
                END;

    UseRequestPage=No;
  }
  DATASET
  {
  }
  REQUESTPAGE
  {
    PROPERTIES
    {
    }
    CONTROLS
    {
    }
  }
  LABELS
  {
  }
  CODE
  {
    VAR
      NoWorkflowEnabledErr@1000 : TextConst 'ENU=There is no workflow enabled for sending overdue approval notifications.;ENG=There is no workflow enabled for sending overdue approval notifications.';

    [Integration]
    LOCAL PROCEDURE OnSendOverdueNotifications@1();
    BEGIN
    END;

    BEGIN
    END.
  }
  RDLDATA
  {
  }
}

