OBJECT Report 5182 Delete Opportunities
{
  OBJECT-PROPERTIES
  {
    Date=07/09/12;
    Time=12:00:00;
    Version List=NAVW17.00;
  }
  PROPERTIES
  {
    CaptionML=[ENU=Delete Opportunities;
               ENG=Delete Opportunities];
    ProcessingOnly=Yes;
  }
  DATASET
  {
    { 9773;    ;DataItem;                    ;
               DataItemTable=Table5092;
               DataItemTableView=WHERE(Closed=CONST(Yes));
               OnAfterGetRecord=BEGIN
                                  RMCommentLine.SETRANGE("Table Name",RMCommentLine."Table Name"::Opportunity);
                                  RMCommentLine.SETRANGE("No.","No.");
                                  RMCommentLine.DELETEALL;

                                  OppEntry.SETRANGE("Opportunity No.","No.");
                                  OppEntry.DELETEALL;

                                  DELETE;
                                END;

               ReqFilterFields=No.,Date Closed,Salesperson Code,Campaign No.,Contact No.,Sales Cycle Code }

  }
  REQUESTPAGE
  {
    PROPERTIES
    {
    }
    CONTROLS
    {
    }
  }
  LABELS
  {
  }
  CODE
  {
    VAR
      RMCommentLine@1000 : Record 5061;
      OppEntry@1001 : Record 5093;

    BEGIN
    END.
  }
  RDLDATA
  {
  }
}

