OBJECT Report 5984 Contract Invoicing
{
  OBJECT-PROPERTIES
  {
    Date=22/11/17;
    Time=12:00:00;
    Version List=NAVW111.00;
  }
  PROPERTIES
  {
    CaptionML=[ENU=Contract Invoicing - Test;
               ENG=Contract Invoicing - Test];
    OnInitReport=BEGIN
                   IF PostingDate = 0D THEN
                     PostingDate := WORKDATE;
                 END;

    OnPreReport=BEGIN
                  ServContractFilters := "Service Contract Header".GETFILTERS;
                END;

  }
  DATASET
  {
    { 9952;    ;DataItem;                    ;
               DataItemTable=Table5965;
               DataItemTableView=SORTING(Bill-to Customer No.,Contract Type,Combine Invoices,Next Invoice Date)
                                 WHERE(Contract Type=CONST(Contract),
                                       Status=CONST(Signed));
               OnPreDataItem=BEGIN
                               IF PostingDate = 0D THEN
                                 ERROR(Text000);

                               IF PostingDate > WORKDATE THEN
                                 IF NOT CONFIRM(Text001) THEN
                                   ERROR(Text002);

                               IF InvoiceToDate = 0D THEN
                                 ERROR(Text003);

                               IF InvoiceToDate > WORKDATE THEN
                                 IF NOT CONFIRM(Text004) THEN
                                   ERROR(Text002);

                               Currency.InitRoundingPrecision;

                               CurrReport.CREATETOTALS("Amount per Period");
                               SETFILTER("Next Invoice Date",'<>%1&<=%2',0D,InvoiceToDate);
                               IF GETFILTER("Invoice Period") <> '' THEN
                                 SETFILTER("Invoice Period",GETFILTER("Invoice Period") + '&<>%1',"Invoice Period"::None)
                               ELSE
                                 SETFILTER("Invoice Period",'<>%1',"Invoice Period"::None);
                               DateSep := '..';
                             END;

               OnAfterGetRecord=BEGIN
                                  IF "Starting Date" = 0D THEN
                                    CurrReport.SKIP;
                                  InvoiceSum := 0;
                                  CALCFIELDS(Name);
                                  BuildInvoicePlan("Service Contract Header");
                                END;

               ReqFilterFields=Bill-to Customer No.,Contract No. }

    { 28  ;1   ;Column  ;CompanyName         ;
               SourceExpr=COMPANYPROPERTY.DISPLAYNAME }

    { 30  ;1   ;Column  ;InvoiceToDate       ;
               SourceExpr=FORMAT(InvoiceToDate) }

    { 31  ;1   ;Column  ;PostingDate         ;
               SourceExpr=FORMAT(PostingDate) }

    { 6   ;1   ;Column  ;TblCptnServContractFilters;
               SourceExpr=TABLECAPTION + ': ' + ServContractFilters }

    { 35  ;1   ;Column  ;ServContractFilters ;
               SourceExpr=ServContractFilters }

    { 1   ;1   ;Column  ;ContractInvoicingTestCaption;
               SourceExpr=ContractInvoicingTestCaptionLbl }

    { 4   ;1   ;Column  ;PageNoCaption       ;
               SourceExpr=PageNoCaptionLbl }

    { 32  ;1   ;Column  ;InvoiceToDateCaption;
               SourceExpr=InvoiceToDateCaptionLbl }

    { 33  ;1   ;Column  ;PostingDateCaption  ;
               SourceExpr=PostingDateCaptionLbl }

    { 7   ;1   ;Column  ;InvoicePeriodCaption;
               SourceExpr=InvoicePeriodCaptionLbl }

    { 8   ;1   ;Column  ;NoofInvoicesCaption ;
               SourceExpr=NoofInvoicesCaptionLbl }

    { 9   ;1   ;Column  ;LastInvDateCaption  ;
               SourceExpr=LastInvDateCaptionLbl }

    { 10  ;1   ;Column  ;NextInvDateCaption  ;
               SourceExpr=NextInvDateCaptionLbl }

    { 11  ;1   ;Column  ;DescriptionCaption  ;
               SourceExpr=DescriptionCaptionLbl }

    { 12  ;1   ;Column  ;AmountPerPeriodCaption;
               SourceExpr=AmountPerPeriodCaptionLbl }

    { 13  ;1   ;Column  ;ContractNoCaption   ;
               SourceExpr=ContractNoCaptionLbl }

    { 14  ;1   ;Column  ;NameCaption         ;
               SourceExpr=NameCaptionLbl }

    { 15  ;1   ;Column  ;CustomerNoCaption   ;
               SourceExpr=CustomerNoCaptionLbl }

    { 9216;1   ;DataItem;ContrHeader         ;
               DataItemTable=Table2000000026;
               DataItemTableView=SORTING(Number)
                                 WHERE(Number=CONST(1)) }

    { 26  ;2   ;Column  ;CustNo_ServContract ;
               SourceExpr="Service Contract Header"."Customer No." }

    { 25  ;2   ;Column  ;Name_ServContract   ;
               SourceExpr="Service Contract Header".Name }

    { 24  ;2   ;Column  ;ContractNo1_ServContract;
               SourceExpr="Service Contract Header"."Contract No." }

    { 23  ;2   ;Column  ;InvPeriod_ServContract;
               SourceExpr="Service Contract Header"."Invoice Period" }

    { 22  ;2   ;Column  ;AmtPerPeriod_ServContract;
               SourceExpr="Service Contract Header"."Amount per Period" }

    { 20  ;2   ;Column  ;NoOfInvoices        ;
               SourceExpr=NoOfInvoices;
               AutoFormatType=1 }

    { 5   ;2   ;Column  ;LastInvDate_ServContract;
               SourceExpr=FORMAT("Service Contract Header"."Last Invoice Date") }

    { 3   ;2   ;Column  ;NextInvDate_ServContract;
               SourceExpr=FORMAT("Service Contract Header"."Next Invoice Date") }

    { 2   ;2   ;Column  ;IndicatorValue      ;
               SourceExpr='1' }

    { 8050;1   ;DataItem;InvPeriod           ;
               DataItemTable=Table2000000026;
               DataItemTableView=SORTING(Number);
               OnPreDataItem=BEGIN
                               SETRANGE(Number,1,ServLedgEntryTEMP.COUNT);
                             END;

               OnAfterGetRecord=BEGIN
                                  IF Number = 1 THEN
                                    ServLedgEntryTEMP.FINDSET
                                  ELSE
                                    ServLedgEntryTEMP.NEXT;
                                  IF ServLedgEntryTEMP."Posting Date" < "Service Contract Header"."Next Invoice Date" THEN
                                    CurrReport.SKIP;
                                END;
                                 }

    { 36  ;2   ;Column  ;ContractInvPeriod   ;
               SourceExpr=ServLedgEntryTEMP."Contract Invoice Period" }

    { 29  ;2   ;Column  ;ServLedgEntryAmt    ;
               SourceExpr=ServLedgEntryTEMP.Amount }

    { 7201;1   ;DataItem;ContrSum            ;
               DataItemTable=Table2000000026;
               DataItemTableView=SORTING(Number)
                                 WHERE(Number=CONST(1)) }

    { 37  ;2   ;Column  ;InvSum              ;
               SourceExpr=InvoiceSum }

    { 38  ;2   ;Column  ;InvoiceTotalCaption ;
               SourceExpr=InvoiceTotalCaptionLbl }

  }
  REQUESTPAGE
  {
    PROPERTIES
    {
    }
    CONTROLS
    {
      { 4   ;0   ;Container ;
                  ContainerType=ContentArea }

      { 1   ;1   ;Group     ;
                  CaptionML=[ENU=Options;
                             ENG=Options] }

      { 3   ;2   ;Field     ;
                  Name=PostingDate1;
                  CaptionML=[ENU=Posting Date;
                             ENG=Posting Date];
                  ToolTipML=[ENU=Specifies the date that you want to use as the posting date on the service invoices that are created.;
                             ENG=Specifies the date that you want to use as the posting date on the service invoices that are created.];
                  ApplicationArea=#Service;
                  SourceExpr=PostingDate }

      { 2   ;2   ;Field     ;
                  Name=InvoiceDate1;
                  CaptionML=[ENU=Invoice to Date;
                             ENG=Invoice to Date];
                  ToolTipML=[ENU=Specifies the date up to which you want to invoice contracts. The report includes contracts with the next invoice dates on or before this date.;
                             ENG=Specifies the date up to which you want to invoice contracts. The report includes contracts with the next invoice dates on or before this date.];
                  ApplicationArea=#Service;
                  SourceExpr=InvoiceToDate }

    }
  }
  LABELS
  {
  }
  CODE
  {
    VAR
      Text000@1000 : TextConst 'ENU=You have not filled in the posting date.;ENG=You have not filled in the posting date.';
      Text001@1001 : TextConst 'ENU=The posting date is later than the work date.\\Confirm that this is the correct date.;ENG=The posting date is later than the work date.\\Confirm that this is the correct date.';
      Text002@1002 : TextConst 'ENU=The program has stopped the batch job at your request.;ENG=The program has stopped the batch job at your request.';
      Text003@1003 : TextConst 'ENU=You must fill in the Invoice-to Date field.;ENG=You must fill in the Invoice-to Date field.';
      Text004@1004 : TextConst 'ENU=The Invoice-to Date is later than the work date.\\Confirm that this is the correct date.;ENG=The Invoice-to Date is later than the work date.\\Confirm that this is the correct date.';
      Currency@1005 : Record 4;
      ServLedgEntryTEMP@1006 : TEMPORARY Record 5907;
      ServContractMgt@1018 : Codeunit 5940;
      ServContractFilters@1017 : Text;
      NoOfInvoices@1016 : Integer;
      PostingDate@1013 : Date;
      InvoiceToDate@1012 : Date;
      InvoiceFrom@1011 : Date;
      InvoiceTo@1010 : Date;
      EntryNo@1103 : Integer;
      DateSep@1106 : Text[10];
      InvoiceSum@1108 : Decimal;
      ContractInvoicingTestCaptionLbl@4304 : TextConst 'ENU=Contract Invoicing - Test;ENG=Contract Invoicing - Test';
      PageNoCaptionLbl@2773 : TextConst 'ENU=Page;ENG=Page';
      InvoiceToDateCaptionLbl@6863 : TextConst 'ENU=Invoice to Date;ENG=Invoice to Date';
      PostingDateCaptionLbl@4591 : TextConst 'ENU=Posting Date;ENG=Posting Date';
      InvoicePeriodCaptionLbl@4477 : TextConst 'ENU=Invoice Period;ENG=Invoice Period';
      NoofInvoicesCaptionLbl@4984 : TextConst 'ENU=No. of Invoices;ENG=No. of Invoices';
      LastInvDateCaptionLbl@3687 : TextConst 'ENU=Last Inv. Date;ENG=Last Inv. Date';
      NextInvDateCaptionLbl@9695 : TextConst 'ENU=Next Invoice Date;ENG=Next Invoice Date';
      DescriptionCaptionLbl@3701 : TextConst 'ENU=Expected invoice amount;ENG=Expected invoice amount';
      AmountPerPeriodCaptionLbl@3280 : TextConst 'ENU=Amount per Period;ENG=Amount per Period';
      ContractNoCaptionLbl@6125 : TextConst 'ENU=Contract No.;ENG=Contract No.';
      NameCaptionLbl@2745 : TextConst 'ENU=Name;ENG=Name';
      CustomerNoCaptionLbl@6910 : TextConst 'ENU=Customer No.;ENG=Customer No.';
      InvoiceTotalCaptionLbl@1917 : TextConst 'ENU=Invoice Total;ENG=Invoice Total';

    PROCEDURE InitVariables@4(LocalPostingDate@1000 : Date;LocalInvoiceToDate@1001 : Date);
    BEGIN
      PostingDate := LocalPostingDate;
      InvoiceToDate := LocalInvoiceToDate;
    END;

    LOCAL PROCEDURE BuildInvoicePlan@1110(ServContrHeader@1111 : Record 5965);
    VAR
      InvoicePeriod@1117 : Code[10];
      DateFormula@1000 : DateFormula;
      Stop@1119 : Boolean;
    BEGIN
      ServLedgEntryTEMP.DELETEALL;
      InvoicePeriod := ServContractMgt.GetInvoicePeriodText(ServContrHeader."Invoice Period");
      EVALUATE(DateFormula,InvoicePeriod);
      EntryNo := 0;
      InvoiceFrom := ServContrHeader."Next Invoice Date";
      InvoiceTo := CALCDATE(DateFormula,InvoiceFrom);
      InvoiceTo := CALCDATE('<-CM-1D>',InvoiceTo);
      IF ServContrHeader."Expiration Date" <> 0D THEN
        InvoiceTo := FirstDate(InvoiceTo,ServContrHeader."Expiration Date");
      InsertServLedgEntry(InvoiceFrom,InvoiceTo);
      Stop := FALSE;
      WHILE (InvoiceFrom <= InvoiceToDate) AND (NOT Stop) DO BEGIN
        InvoiceFrom := CALCDATE('<1D>',InvoiceTo);
        InvoiceTo := CALCDATE(DateFormula,InvoiceFrom);
        InvoiceTo := CALCDATE('<-CM-1D>',InvoiceTo);
        IF ServContrHeader."Expiration Date" <> 0D THEN
          InvoiceTo := FirstDate(InvoiceTo,ServContrHeader."Expiration Date");
        IF InvoiceFrom <= InvoiceToDate THEN
          InsertServLedgEntry(InvoiceFrom,InvoiceTo);
        IF (InvoiceTo = ServContrHeader."Expiration Date") OR (InvoiceTo >= InvoiceToDate) THEN
          Stop := TRUE;
      END;
    END;

    LOCAL PROCEDURE FirstDate@1120(Date1@1121 : Date;Date2@1122 : Date) : Date;
    BEGIN
      IF Date1 < Date2 THEN
        EXIT(Date1);

      EXIT(Date2);
    END;

    LOCAL PROCEDURE InsertServLedgEntry@1123(DateFrom@1124 : Date;DateTo@1125 : Date);
    BEGIN
      EntryNo += 1;
      ServLedgEntryTEMP.INIT;
      ServLedgEntryTEMP."Entry No." := EntryNo;
      ServLedgEntryTEMP."Posting Date" := DateFrom;
      ServLedgEntryTEMP."Contract Invoice Period" := FORMAT(DateFrom) + DateSep + FORMAT(DateTo);
      ServLedgEntryTEMP.Amount := CalcContrAmt("Service Contract Header",DateFrom,DateTo);
      IF DateFrom >= "Service Contract Header"."Next Invoice Date" THEN
        InvoiceSum := InvoiceSum + ServLedgEntryTEMP.Amount;
      ServLedgEntryTEMP.INSERT;
    END;

    LOCAL PROCEDURE CalcContrAmt@1126(ServContHeader@1127 : Record 5965;DateFrom@1128 : Date;DateTo@1129 : Date) : Decimal;
    VAR
      ServContractLine@1000 : Record 5964;
      ContAmt@1130 : Decimal;
    BEGIN
      CLEAR(ServContractLine);
      ServContractLine.SETRANGE("Contract Type",ServContHeader."Contract Type");
      ServContractLine.SETRANGE("Contract No.",ServContHeader."Contract No.");
      ContAmt := 0;
      IF ServContractLine.FINDSET THEN
        REPEAT
          ContAmt := ContAmt + ROUND(ServContractMgt.CalcContractLineAmount(ServContractLine."Line Amount",DateFrom,DateTo));
        UNTIL ServContractLine.NEXT = 0;
      EXIT(ROUND(ContAmt));
    END;

    BEGIN
    END.
  }
  RDLDATA
  {
    <?xml version="1.0" encoding="utf-8"?>
<Report xmlns="http://schemas.microsoft.com/sqlserver/reporting/2016/01/reportdefinition" xmlns:rd="http://schemas.microsoft.com/SQLServer/reporting/reportdesigner">
  <AutoRefresh>0</AutoRefresh>
  <DataSources>
    <DataSource Name="DataSource">
      <ConnectionProperties>
        <DataProvider>SQL</DataProvider>
        <ConnectString />
      </ConnectionProperties>
      <rd:SecurityType>None</rd:SecurityType>
      <rd:DataSourceID>f206c3b3-6059-485d-90fd-f2722fe0f9eb</rd:DataSourceID>
    </DataSource>
  </DataSources>
  <DataSets>
    <DataSet Name="DataSet_Result">
      <Query>
        <DataSourceName>DataSource</DataSourceName>
        <CommandText />
      </Query>
      <Fields>
        <Field Name="CompanyName">
          <DataField>CompanyName</DataField>
        </Field>
        <Field Name="InvoiceToDate">
          <DataField>InvoiceToDate</DataField>
        </Field>
        <Field Name="PostingDate">
          <DataField>PostingDate</DataField>
        </Field>
        <Field Name="TblCptnServContractFilters">
          <DataField>TblCptnServContractFilters</DataField>
        </Field>
        <Field Name="ServContractFilters">
          <DataField>ServContractFilters</DataField>
        </Field>
        <Field Name="ContractInvoicingTestCaption">
          <DataField>ContractInvoicingTestCaption</DataField>
        </Field>
        <Field Name="PageNoCaption">
          <DataField>PageNoCaption</DataField>
        </Field>
        <Field Name="InvoiceToDateCaption">
          <DataField>InvoiceToDateCaption</DataField>
        </Field>
        <Field Name="PostingDateCaption">
          <DataField>PostingDateCaption</DataField>
        </Field>
        <Field Name="InvoicePeriodCaption">
          <DataField>InvoicePeriodCaption</DataField>
        </Field>
        <Field Name="NoofInvoicesCaption">
          <DataField>NoofInvoicesCaption</DataField>
        </Field>
        <Field Name="LastInvDateCaption">
          <DataField>LastInvDateCaption</DataField>
        </Field>
        <Field Name="NextInvDateCaption">
          <DataField>NextInvDateCaption</DataField>
        </Field>
        <Field Name="DescriptionCaption">
          <DataField>DescriptionCaption</DataField>
        </Field>
        <Field Name="AmountPerPeriodCaption">
          <DataField>AmountPerPeriodCaption</DataField>
        </Field>
        <Field Name="ContractNoCaption">
          <DataField>ContractNoCaption</DataField>
        </Field>
        <Field Name="NameCaption">
          <DataField>NameCaption</DataField>
        </Field>
        <Field Name="CustomerNoCaption">
          <DataField>CustomerNoCaption</DataField>
        </Field>
        <Field Name="CustNo_ServContract">
          <DataField>CustNo_ServContract</DataField>
        </Field>
        <Field Name="Name_ServContract">
          <DataField>Name_ServContract</DataField>
        </Field>
        <Field Name="ContractNo1_ServContract">
          <DataField>ContractNo1_ServContract</DataField>
        </Field>
        <Field Name="InvPeriod_ServContract">
          <DataField>InvPeriod_ServContract</DataField>
        </Field>
        <Field Name="AmtPerPeriod_ServContract">
          <DataField>AmtPerPeriod_ServContract</DataField>
        </Field>
        <Field Name="AmtPerPeriod_ServContractFormat">
          <DataField>AmtPerPeriod_ServContractFormat</DataField>
        </Field>
        <Field Name="NoOfInvoices">
          <DataField>NoOfInvoices</DataField>
        </Field>
        <Field Name="LastInvDate_ServContract">
          <DataField>LastInvDate_ServContract</DataField>
        </Field>
        <Field Name="NextInvDate_ServContract">
          <DataField>NextInvDate_ServContract</DataField>
        </Field>
        <Field Name="IndicatorValue">
          <DataField>IndicatorValue</DataField>
        </Field>
        <Field Name="ContractInvPeriod">
          <DataField>ContractInvPeriod</DataField>
        </Field>
        <Field Name="ServLedgEntryAmt">
          <DataField>ServLedgEntryAmt</DataField>
        </Field>
        <Field Name="ServLedgEntryAmtFormat">
          <DataField>ServLedgEntryAmtFormat</DataField>
        </Field>
        <Field Name="InvSum">
          <DataField>InvSum</DataField>
        </Field>
        <Field Name="InvSumFormat">
          <DataField>InvSumFormat</DataField>
        </Field>
        <Field Name="InvoiceTotalCaption">
          <DataField>InvoiceTotalCaption</DataField>
        </Field>
      </Fields>
      <rd:DataSetInfo>
        <rd:DataSetName>DataSet</rd:DataSetName>
        <rd:SchemaPath>Report.xsd</rd:SchemaPath>
        <rd:TableName>Result</rd:TableName>
      </rd:DataSetInfo>
    </DataSet>
  </DataSets>
  <ReportSections>
    <ReportSection>
      <Body>
        <ReportItems>
          <Tablix Name="ServiceContractHeader">
            <TablixBody>
              <TablixColumns>
                <TablixColumn>
                  <Width>0.56102in</Width>
                </TablixColumn>
                <TablixColumn>
                  <Width>1.25984in</Width>
                </TablixColumn>
                <TablixColumn>
                  <Width>0.99987in</Width>
                </TablixColumn>
                <TablixColumn>
                  <Width>0.49994in</Width>
                </TablixColumn>
                <TablixColumn>
                  <Width>0.76772in</Width>
                </TablixColumn>
                <TablixColumn>
                  <Width>0.49994in</Width>
                </TablixColumn>
                <TablixColumn>
                  <Width>0.62492in</Width>
                </TablixColumn>
                <TablixColumn>
                  <Width>0.62492in</Width>
                </TablixColumn>
                <TablixColumn>
                  <Width>1.24984in</Width>
                </TablixColumn>
              </TablixColumns>
              <TablixRows>
                <TablixRow>
                  <Height>0.33307in</Height>
                  <TablixCells>
                    <TablixCell>
                      <CellContents>
                        <Textbox Name="CustomerNoCaption">
                          <CanGrow>true</CanGrow>
                          <KeepTogether>true</KeepTogether>
                          <Paragraphs>
                            <Paragraph>
                              <TextRuns>
                                <TextRun>
                                  <Value>=First(Fields!CustomerNoCaption.Value)</Value>
                                  <Style>
                                    <FontSize>7pt</FontSize>
                                    <FontWeight>Bold</FontWeight>
                                  </Style>
                                </TextRun>
                              </TextRuns>
                              <Style>
                                <TextAlign>Left</TextAlign>
                              </Style>
                            </Paragraph>
                          </Paragraphs>
                          <ZIndex>59</ZIndex>
                          <Style>
                            <VerticalAlign>Bottom</VerticalAlign>
                            <PaddingLeft>2pt</PaddingLeft>
                            <PaddingRight>0.075cm</PaddingRight>
                            <PaddingTop>2pt</PaddingTop>
                            <PaddingBottom>2pt</PaddingBottom>
                          </Style>
                        </Textbox>
                      </CellContents>
                    </TablixCell>
                    <TablixCell>
                      <CellContents>
                        <Textbox Name="NameCaption">
                          <CanGrow>true</CanGrow>
                          <KeepTogether>true</KeepTogether>
                          <Paragraphs>
                            <Paragraph>
                              <TextRuns>
                                <TextRun>
                                  <Value>=First(Fields!NameCaption.Value)</Value>
                                  <Style>
                                    <FontSize>7pt</FontSize>
                                    <FontWeight>Bold</FontWeight>
                                  </Style>
                                </TextRun>
                              </TextRuns>
                              <Style>
                                <TextAlign>Left</TextAlign>
                              </Style>
                            </Paragraph>
                          </Paragraphs>
                          <ZIndex>58</ZIndex>
                          <Style>
                            <VerticalAlign>Bottom</VerticalAlign>
                            <PaddingLeft>0.075cm</PaddingLeft>
                            <PaddingRight>0.075cm</PaddingRight>
                            <PaddingTop>2pt</PaddingTop>
                            <PaddingBottom>2pt</PaddingBottom>
                          </Style>
                        </Textbox>
                      </CellContents>
                    </TablixCell>
                    <TablixCell>
                      <CellContents>
                        <Textbox Name="ContractNoCaption">
                          <CanGrow>true</CanGrow>
                          <KeepTogether>true</KeepTogether>
                          <Paragraphs>
                            <Paragraph>
                              <TextRuns>
                                <TextRun>
                                  <Value>=First(Fields!ContractNoCaption.Value)</Value>
                                  <Style>
                                    <FontSize>7pt</FontSize>
                                    <FontWeight>Bold</FontWeight>
                                  </Style>
                                </TextRun>
                              </TextRuns>
                              <Style />
                            </Paragraph>
                          </Paragraphs>
                          <ZIndex>57</ZIndex>
                          <Style>
                            <VerticalAlign>Bottom</VerticalAlign>
                            <PaddingLeft>0.075cm</PaddingLeft>
                            <PaddingRight>0.075cm</PaddingRight>
                            <PaddingTop>2pt</PaddingTop>
                            <PaddingBottom>2pt</PaddingBottom>
                          </Style>
                        </Textbox>
                      </CellContents>
                    </TablixCell>
                    <TablixCell>
                      <CellContents>
                        <Textbox Name="InvoicePeriodCaption">
                          <CanGrow>true</CanGrow>
                          <KeepTogether>true</KeepTogether>
                          <Paragraphs>
                            <Paragraph>
                              <TextRuns>
                                <TextRun>
                                  <Value>=First(Fields!InvoicePeriodCaption.Value)</Value>
                                  <Style>
                                    <FontSize>7pt</FontSize>
                                    <FontWeight>Bold</FontWeight>
                                  </Style>
                                </TextRun>
                              </TextRuns>
                              <Style />
                            </Paragraph>
                          </Paragraphs>
                          <ZIndex>56</ZIndex>
                          <Style>
                            <VerticalAlign>Bottom</VerticalAlign>
                            <PaddingLeft>0.075cm</PaddingLeft>
                            <PaddingRight>0.075cm</PaddingRight>
                            <PaddingTop>2pt</PaddingTop>
                            <PaddingBottom>2pt</PaddingBottom>
                          </Style>
                        </Textbox>
                      </CellContents>
                    </TablixCell>
                    <TablixCell>
                      <CellContents>
                        <Textbox Name="AmountPerPeriodCaption">
                          <CanGrow>true</CanGrow>
                          <KeepTogether>true</KeepTogether>
                          <Paragraphs>
                            <Paragraph>
                              <TextRuns>
                                <TextRun>
                                  <Value>=First(Fields!AmountPerPeriodCaption.Value)</Value>
                                  <Style>
                                    <FontSize>7pt</FontSize>
                                    <FontWeight>Bold</FontWeight>
                                  </Style>
                                </TextRun>
                              </TextRuns>
                              <Style>
                                <TextAlign>Right</TextAlign>
                              </Style>
                            </Paragraph>
                          </Paragraphs>
                          <ZIndex>55</ZIndex>
                          <Style>
                            <VerticalAlign>Bottom</VerticalAlign>
                            <PaddingLeft>0.075cm</PaddingLeft>
                            <PaddingRight>0.075cm</PaddingRight>
                            <PaddingTop>2pt</PaddingTop>
                            <PaddingBottom>2pt</PaddingBottom>
                          </Style>
                        </Textbox>
                      </CellContents>
                    </TablixCell>
                    <TablixCell>
                      <CellContents>
                        <Textbox Name="NoofInvoicesCaption">
                          <CanGrow>true</CanGrow>
                          <KeepTogether>true</KeepTogether>
                          <Paragraphs>
                            <Paragraph>
                              <TextRuns>
                                <TextRun>
                                  <Value>=First(Fields!NoofInvoicesCaption.Value)</Value>
                                  <Style>
                                    <FontSize>7pt</FontSize>
                                    <FontWeight>Bold</FontWeight>
                                  </Style>
                                </TextRun>
                              </TextRuns>
                              <Style>
                                <TextAlign>Right</TextAlign>
                              </Style>
                            </Paragraph>
                          </Paragraphs>
                          <ZIndex>54</ZIndex>
                          <Style>
                            <VerticalAlign>Bottom</VerticalAlign>
                            <PaddingLeft>0.075cm</PaddingLeft>
                            <PaddingRight>0.075cm</PaddingRight>
                            <PaddingTop>2pt</PaddingTop>
                            <PaddingBottom>2pt</PaddingBottom>
                          </Style>
                        </Textbox>
                      </CellContents>
                    </TablixCell>
                    <TablixCell>
                      <CellContents>
                        <Textbox Name="LastInvDateCaption">
                          <CanGrow>true</CanGrow>
                          <KeepTogether>true</KeepTogether>
                          <Paragraphs>
                            <Paragraph>
                              <TextRuns>
                                <TextRun>
                                  <Value>=First(Fields!LastInvDateCaption.Value)</Value>
                                  <Style>
                                    <FontSize>7pt</FontSize>
                                    <FontWeight>Bold</FontWeight>
                                  </Style>
                                </TextRun>
                              </TextRuns>
                              <Style>
                                <TextAlign>Right</TextAlign>
                              </Style>
                            </Paragraph>
                          </Paragraphs>
                          <ZIndex>53</ZIndex>
                          <Style>
                            <VerticalAlign>Bottom</VerticalAlign>
                            <PaddingLeft>0.075cm</PaddingLeft>
                            <PaddingRight>0.075cm</PaddingRight>
                            <PaddingTop>2pt</PaddingTop>
                            <PaddingBottom>2pt</PaddingBottom>
                          </Style>
                        </Textbox>
                      </CellContents>
                    </TablixCell>
                    <TablixCell>
                      <CellContents>
                        <Textbox Name="NextInvDateCaption">
                          <CanGrow>true</CanGrow>
                          <KeepTogether>true</KeepTogether>
                          <Paragraphs>
                            <Paragraph>
                              <TextRuns>
                                <TextRun>
                                  <Value>=First(Fields!NextInvDateCaption.Value)</Value>
                                  <Style>
                                    <FontSize>7pt</FontSize>
                                    <FontWeight>Bold</FontWeight>
                                  </Style>
                                </TextRun>
                              </TextRuns>
                              <Style>
                                <TextAlign>Right</TextAlign>
                              </Style>
                            </Paragraph>
                          </Paragraphs>
                          <ZIndex>52</ZIndex>
                          <Style>
                            <VerticalAlign>Bottom</VerticalAlign>
                            <PaddingLeft>0.075cm</PaddingLeft>
                            <PaddingRight>0.075cm</PaddingRight>
                            <PaddingTop>2pt</PaddingTop>
                            <PaddingBottom>2pt</PaddingBottom>
                          </Style>
                        </Textbox>
                      </CellContents>
                    </TablixCell>
                    <TablixCell>
                      <CellContents>
                        <Textbox Name="DescriptionCaption">
                          <CanGrow>true</CanGrow>
                          <KeepTogether>true</KeepTogether>
                          <Paragraphs>
                            <Paragraph>
                              <TextRuns>
                                <TextRun>
                                  <Value>=First(Fields!DescriptionCaption.Value)</Value>
                                  <Style>
                                    <FontSize>7pt</FontSize>
                                    <FontWeight>Bold</FontWeight>
                                  </Style>
                                </TextRun>
                              </TextRuns>
                              <Style>
                                <TextAlign>Left</TextAlign>
                              </Style>
                            </Paragraph>
                          </Paragraphs>
                          <ZIndex>51</ZIndex>
                          <Style>
                            <VerticalAlign>Middle</VerticalAlign>
                            <PaddingLeft>0.075cm</PaddingLeft>
                            <PaddingRight>2pt</PaddingRight>
                            <PaddingTop>2pt</PaddingTop>
                            <PaddingBottom>2pt</PaddingBottom>
                          </Style>
                        </Textbox>
                      </CellContents>
                    </TablixCell>
                  </TablixCells>
                </TablixRow>
                <TablixRow>
                  <Height>0.24997in</Height>
                  <TablixCells>
                    <TablixCell>
                      <CellContents>
                        <Textbox Name="CustomerNo">
                          <KeepTogether>true</KeepTogether>
                          <Paragraphs>
                            <Paragraph>
                              <TextRuns>
                                <TextRun>
                                  <Value>=Fields!CustNo_ServContract.Value</Value>
                                  <Style>
                                    <FontSize>7pt</FontSize>
                                  </Style>
                                </TextRun>
                              </TextRuns>
                              <Style>
                                <TextAlign>Left</TextAlign>
                              </Style>
                            </Paragraph>
                          </Paragraphs>
                          <ZIndex>47</ZIndex>
                          <Style>
                            <VerticalAlign>Middle</VerticalAlign>
                            <PaddingLeft>2pt</PaddingLeft>
                            <PaddingRight>0.075cm</PaddingRight>
                            <PaddingTop>2pt</PaddingTop>
                            <PaddingBottom>2pt</PaddingBottom>
                          </Style>
                        </Textbox>
                      </CellContents>
                    </TablixCell>
                    <TablixCell>
                      <CellContents>
                        <Textbox Name="ServiceContractHeaderName">
                          <KeepTogether>true</KeepTogether>
                          <Paragraphs>
                            <Paragraph>
                              <TextRuns>
                                <TextRun>
                                  <Value>=Fields!Name_ServContract.Value</Value>
                                  <Style>
                                    <FontSize>7pt</FontSize>
                                  </Style>
                                </TextRun>
                              </TextRuns>
                              <Style>
                                <TextAlign>Left</TextAlign>
                              </Style>
                            </Paragraph>
                          </Paragraphs>
                          <ZIndex>46</ZIndex>
                          <Style>
                            <VerticalAlign>Middle</VerticalAlign>
                            <PaddingLeft>0.075cm</PaddingLeft>
                            <PaddingRight>0.075cm</PaddingRight>
                            <PaddingTop>2pt</PaddingTop>
                            <PaddingBottom>2pt</PaddingBottom>
                          </Style>
                        </Textbox>
                      </CellContents>
                    </TablixCell>
                    <TablixCell>
                      <CellContents>
                        <Textbox Name="ContractNo">
                          <KeepTogether>true</KeepTogether>
                          <Paragraphs>
                            <Paragraph>
                              <TextRuns>
                                <TextRun>
                                  <Value>=Fields!ContractNo1_ServContract.Value</Value>
                                  <Style>
                                    <FontSize>7pt</FontSize>
                                  </Style>
                                </TextRun>
                              </TextRuns>
                              <Style />
                            </Paragraph>
                          </Paragraphs>
                          <ZIndex>45</ZIndex>
                          <Style>
                            <VerticalAlign>Middle</VerticalAlign>
                            <PaddingLeft>0.075cm</PaddingLeft>
                            <PaddingRight>0.075cm</PaddingRight>
                            <PaddingTop>2pt</PaddingTop>
                            <PaddingBottom>2pt</PaddingBottom>
                          </Style>
                        </Textbox>
                      </CellContents>
                    </TablixCell>
                    <TablixCell>
                      <CellContents>
                        <Textbox Name="InvoicePeriod">
                          <KeepTogether>true</KeepTogether>
                          <Paragraphs>
                            <Paragraph>
                              <TextRuns>
                                <TextRun>
                                  <Value>=Fields!InvPeriod_ServContract.Value</Value>
                                  <Style>
                                    <FontSize>7pt</FontSize>
                                  </Style>
                                </TextRun>
                              </TextRuns>
                              <Style />
                            </Paragraph>
                          </Paragraphs>
                          <ZIndex>44</ZIndex>
                          <Style>
                            <VerticalAlign>Middle</VerticalAlign>
                            <PaddingLeft>0.075cm</PaddingLeft>
                            <PaddingRight>0.075cm</PaddingRight>
                            <PaddingTop>2pt</PaddingTop>
                            <PaddingBottom>2pt</PaddingBottom>
                          </Style>
                        </Textbox>
                      </CellContents>
                    </TablixCell>
                    <TablixCell>
                      <CellContents>
                        <Textbox Name="AmountperPeriod">
                          <CanGrow>true</CanGrow>
                          <KeepTogether>true</KeepTogether>
                          <Paragraphs>
                            <Paragraph>
                              <TextRuns>
                                <TextRun>
                                  <Value>=Fields!AmtPerPeriod_ServContract.Value</Value>
                                  <Style>
                                    <FontSize>7pt</FontSize>
                                    <Format>=Fields!AmtPerPeriod_ServContractFormat.Value</Format>
                                  </Style>
                                </TextRun>
                              </TextRuns>
                              <Style />
                            </Paragraph>
                          </Paragraphs>
                          <ZIndex>43</ZIndex>
                          <Style>
                            <VerticalAlign>Middle</VerticalAlign>
                            <PaddingLeft>0.075cm</PaddingLeft>
                            <PaddingRight>0.075cm</PaddingRight>
                            <PaddingTop>2pt</PaddingTop>
                            <PaddingBottom>2pt</PaddingBottom>
                          </Style>
                        </Textbox>
                      </CellContents>
                    </TablixCell>
                    <TablixCell>
                      <CellContents>
                        <Textbox Name="NoOfInvoices">
                          <KeepTogether>true</KeepTogether>
                          <Paragraphs>
                            <Paragraph>
                              <TextRuns>
                                <TextRun>
                                  <Value>=Fields!NoOfInvoices.Value</Value>
                                  <Style>
                                    <FontSize>7pt</FontSize>
                                  </Style>
                                </TextRun>
                              </TextRuns>
                              <Style>
                                <TextAlign>Right</TextAlign>
                              </Style>
                            </Paragraph>
                          </Paragraphs>
                          <ZIndex>42</ZIndex>
                          <Style>
                            <VerticalAlign>Middle</VerticalAlign>
                            <PaddingLeft>0.075cm</PaddingLeft>
                            <PaddingRight>0.075cm</PaddingRight>
                            <PaddingTop>2pt</PaddingTop>
                            <PaddingBottom>2pt</PaddingBottom>
                          </Style>
                        </Textbox>
                      </CellContents>
                    </TablixCell>
                    <TablixCell>
                      <CellContents>
                        <Textbox Name="LastInvoiceDate">
                          <CanGrow>true</CanGrow>
                          <KeepTogether>true</KeepTogether>
                          <Paragraphs>
                            <Paragraph>
                              <TextRuns>
                                <TextRun>
                                  <Value>=Fields!LastInvDate_ServContract.Value</Value>
                                  <Style>
                                    <FontSize>7pt</FontSize>
                                    <Format>d</Format>
                                  </Style>
                                </TextRun>
                              </TextRuns>
                              <Style />
                            </Paragraph>
                          </Paragraphs>
                          <ZIndex>41</ZIndex>
                          <Style>
                            <VerticalAlign>Middle</VerticalAlign>
                            <PaddingLeft>0.075cm</PaddingLeft>
                            <PaddingRight>0.075cm</PaddingRight>
                            <PaddingTop>2pt</PaddingTop>
                            <PaddingBottom>2pt</PaddingBottom>
                            <Direction>RTL</Direction>
                          </Style>
                        </Textbox>
                      </CellContents>
                    </TablixCell>
                    <TablixCell>
                      <CellContents>
                        <Textbox Name="NextInvoiceDate">
                          <CanGrow>true</CanGrow>
                          <KeepTogether>true</KeepTogether>
                          <Paragraphs>
                            <Paragraph>
                              <TextRuns>
                                <TextRun>
                                  <Value>=Fields!NextInvDate_ServContract.Value</Value>
                                  <Style>
                                    <FontSize>7pt</FontSize>
                                    <Format>d</Format>
                                  </Style>
                                </TextRun>
                              </TextRuns>
                              <Style />
                            </Paragraph>
                          </Paragraphs>
                          <ZIndex>40</ZIndex>
                          <Style>
                            <VerticalAlign>Middle</VerticalAlign>
                            <PaddingLeft>0.075cm</PaddingLeft>
                            <PaddingRight>0.075cm</PaddingRight>
                            <PaddingTop>2pt</PaddingTop>
                            <PaddingBottom>2pt</PaddingBottom>
                            <Direction>RTL</Direction>
                          </Style>
                        </Textbox>
                      </CellContents>
                    </TablixCell>
                    <TablixCell>
                      <CellContents>
                        <Textbox Name="textbox16">
                          <CanGrow>true</CanGrow>
                          <KeepTogether>true</KeepTogether>
                          <Paragraphs>
                            <Paragraph>
                              <TextRuns>
                                <TextRun>
                                  <Value />
                                  <Style />
                                </TextRun>
                              </TextRuns>
                              <Style />
                            </Paragraph>
                          </Paragraphs>
                          <rd:DefaultName>textbox16</rd:DefaultName>
                          <ZIndex>39</ZIndex>
                          <Style>
                            <PaddingLeft>2pt</PaddingLeft>
                            <PaddingRight>2pt</PaddingRight>
                            <PaddingTop>2pt</PaddingTop>
                            <PaddingBottom>2pt</PaddingBottom>
                          </Style>
                        </Textbox>
                      </CellContents>
                    </TablixCell>
                  </TablixCells>
                </TablixRow>
                <TablixRow>
                  <Height>0.16654in</Height>
                  <TablixCells>
                    <TablixCell>
                      <CellContents>
                        <Textbox Name="textbox20">
                          <CanGrow>true</CanGrow>
                          <KeepTogether>true</KeepTogether>
                          <Paragraphs>
                            <Paragraph>
                              <TextRuns>
                                <TextRun>
                                  <Value />
                                  <Style>
                                    <FontSize>7pt</FontSize>
                                  </Style>
                                </TextRun>
                              </TextRuns>
                              <Style>
                                <TextAlign>Left</TextAlign>
                              </Style>
                            </Paragraph>
                          </Paragraphs>
                          <rd:DefaultName>textbox20</rd:DefaultName>
                          <ZIndex>35</ZIndex>
                          <Style>
                            <VerticalAlign>Middle</VerticalAlign>
                            <PaddingLeft>2pt</PaddingLeft>
                            <PaddingRight>0.075cm</PaddingRight>
                            <PaddingTop>2pt</PaddingTop>
                            <PaddingBottom>2pt</PaddingBottom>
                          </Style>
                        </Textbox>
                      </CellContents>
                    </TablixCell>
                    <TablixCell>
                      <CellContents>
                        <Textbox Name="textbox22">
                          <CanGrow>true</CanGrow>
                          <KeepTogether>true</KeepTogether>
                          <Paragraphs>
                            <Paragraph>
                              <TextRuns>
                                <TextRun>
                                  <Value />
                                  <Style>
                                    <FontSize>7pt</FontSize>
                                  </Style>
                                </TextRun>
                              </TextRuns>
                              <Style>
                                <TextAlign>Left</TextAlign>
                              </Style>
                            </Paragraph>
                          </Paragraphs>
                          <rd:DefaultName>textbox22</rd:DefaultName>
                          <ZIndex>34</ZIndex>
                          <Style>
                            <VerticalAlign>Middle</VerticalAlign>
                            <PaddingLeft>0.075cm</PaddingLeft>
                            <PaddingRight>0.075cm</PaddingRight>
                            <PaddingTop>2pt</PaddingTop>
                            <PaddingBottom>2pt</PaddingBottom>
                          </Style>
                        </Textbox>
                      </CellContents>
                    </TablixCell>
                    <TablixCell>
                      <CellContents>
                        <Textbox Name="textbox24">
                          <CanGrow>true</CanGrow>
                          <KeepTogether>true</KeepTogether>
                          <Paragraphs>
                            <Paragraph>
                              <TextRuns>
                                <TextRun>
                                  <Value>=Fields!ContractInvPeriod.Value</Value>
                                  <Style>
                                    <FontSize>7pt</FontSize>
                                  </Style>
                                </TextRun>
                              </TextRuns>
                              <Style />
                            </Paragraph>
                          </Paragraphs>
                          <rd:DefaultName>textbox24</rd:DefaultName>
                          <ZIndex>33</ZIndex>
                          <Style>
                            <VerticalAlign>Middle</VerticalAlign>
                            <PaddingLeft>0.075cm</PaddingLeft>
                            <PaddingRight>0.075cm</PaddingRight>
                            <PaddingTop>2pt</PaddingTop>
                            <PaddingBottom>2pt</PaddingBottom>
                          </Style>
                        </Textbox>
                      </CellContents>
                    </TablixCell>
                    <TablixCell>
                      <CellContents>
                        <Textbox Name="textbox25">
                          <CanGrow>true</CanGrow>
                          <KeepTogether>true</KeepTogether>
                          <Paragraphs>
                            <Paragraph>
                              <TextRuns>
                                <TextRun>
                                  <Value />
                                  <Style>
                                    <FontSize>7pt</FontSize>
                                  </Style>
                                </TextRun>
                              </TextRuns>
                              <Style />
                            </Paragraph>
                          </Paragraphs>
                          <rd:DefaultName>textbox25</rd:DefaultName>
                          <ZIndex>32</ZIndex>
                          <Style>
                            <VerticalAlign>Middle</VerticalAlign>
                            <PaddingLeft>0.075cm</PaddingLeft>
                            <PaddingRight>0.075cm</PaddingRight>
                            <PaddingTop>2pt</PaddingTop>
                            <PaddingBottom>2pt</PaddingBottom>
                          </Style>
                        </Textbox>
                      </CellContents>
                    </TablixCell>
                    <TablixCell>
                      <CellContents>
                        <Textbox Name="textbox26">
                          <CanGrow>true</CanGrow>
                          <KeepTogether>true</KeepTogether>
                          <Paragraphs>
                            <Paragraph>
                              <TextRuns>
                                <TextRun>
                                  <Value />
                                  <Style>
                                    <FontSize>7pt</FontSize>
                                    <Format>=Fields!AmtPerPeriod_ServContractFormat.Value</Format>
                                  </Style>
                                </TextRun>
                              </TextRuns>
                              <Style />
                            </Paragraph>
                          </Paragraphs>
                          <rd:DefaultName>textbox26</rd:DefaultName>
                          <ZIndex>31</ZIndex>
                          <Style>
                            <VerticalAlign>Middle</VerticalAlign>
                            <PaddingLeft>0.075cm</PaddingLeft>
                            <PaddingRight>0.075cm</PaddingRight>
                            <PaddingTop>2pt</PaddingTop>
                            <PaddingBottom>2pt</PaddingBottom>
                          </Style>
                        </Textbox>
                      </CellContents>
                    </TablixCell>
                    <TablixCell>
                      <CellContents>
                        <Textbox Name="textbox27">
                          <CanGrow>true</CanGrow>
                          <KeepTogether>true</KeepTogether>
                          <Paragraphs>
                            <Paragraph>
                              <TextRuns>
                                <TextRun>
                                  <Value />
                                  <Style>
                                    <FontSize>7pt</FontSize>
                                  </Style>
                                </TextRun>
                              </TextRuns>
                              <Style>
                                <TextAlign>Right</TextAlign>
                              </Style>
                            </Paragraph>
                          </Paragraphs>
                          <rd:DefaultName>textbox27</rd:DefaultName>
                          <ZIndex>30</ZIndex>
                          <Style>
                            <VerticalAlign>Middle</VerticalAlign>
                            <PaddingLeft>0.075cm</PaddingLeft>
                            <PaddingRight>0.075cm</PaddingRight>
                            <PaddingTop>2pt</PaddingTop>
                            <PaddingBottom>2pt</PaddingBottom>
                          </Style>
                        </Textbox>
                      </CellContents>
                    </TablixCell>
                    <TablixCell>
                      <CellContents>
                        <Textbox Name="textbox28">
                          <CanGrow>true</CanGrow>
                          <KeepTogether>true</KeepTogether>
                          <Paragraphs>
                            <Paragraph>
                              <TextRuns>
                                <TextRun>
                                  <Value />
                                  <Style>
                                    <FontSize>7pt</FontSize>
                                    <Format>d</Format>
                                  </Style>
                                </TextRun>
                              </TextRuns>
                              <Style />
                            </Paragraph>
                          </Paragraphs>
                          <rd:DefaultName>textbox28</rd:DefaultName>
                          <ZIndex>29</ZIndex>
                          <Style>
                            <VerticalAlign>Middle</VerticalAlign>
                            <PaddingLeft>0.075cm</PaddingLeft>
                            <PaddingRight>0.075cm</PaddingRight>
                            <PaddingTop>2pt</PaddingTop>
                            <PaddingBottom>2pt</PaddingBottom>
                          </Style>
                        </Textbox>
                      </CellContents>
                    </TablixCell>
                    <TablixCell>
                      <CellContents>
                        <Textbox Name="textbox29">
                          <CanGrow>true</CanGrow>
                          <KeepTogether>true</KeepTogether>
                          <Paragraphs>
                            <Paragraph>
                              <TextRuns>
                                <TextRun>
                                  <Value />
                                  <Style>
                                    <FontSize>7pt</FontSize>
                                    <Format>d</Format>
                                  </Style>
                                </TextRun>
                              </TextRuns>
                              <Style />
                            </Paragraph>
                          </Paragraphs>
                          <rd:DefaultName>textbox29</rd:DefaultName>
                          <ZIndex>28</ZIndex>
                          <Style>
                            <VerticalAlign>Middle</VerticalAlign>
                            <PaddingLeft>0.075cm</PaddingLeft>
                            <PaddingRight>0.075cm</PaddingRight>
                            <PaddingTop>2pt</PaddingTop>
                            <PaddingBottom>2pt</PaddingBottom>
                          </Style>
                        </Textbox>
                      </CellContents>
                    </TablixCell>
                    <TablixCell>
                      <CellContents>
                        <Textbox Name="textbox30">
                          <CanGrow>true</CanGrow>
                          <KeepTogether>true</KeepTogether>
                          <Paragraphs>
                            <Paragraph>
                              <TextRuns>
                                <TextRun>
                                  <Value>=Fields!ServLedgEntryAmt.Value</Value>
                                  <Style>
                                    <FontSize>7pt</FontSize>
                                  </Style>
                                </TextRun>
                              </TextRuns>
                              <Style />
                            </Paragraph>
                          </Paragraphs>
                          <rd:DefaultName>textbox30</rd:DefaultName>
                          <ZIndex>27</ZIndex>
                          <Style>
                            <PaddingLeft>2pt</PaddingLeft>
                            <PaddingRight>2pt</PaddingRight>
                            <PaddingTop>2pt</PaddingTop>
                            <PaddingBottom>2pt</PaddingBottom>
                          </Style>
                        </Textbox>
                      </CellContents>
                    </TablixCell>
                  </TablixCells>
                </TablixRow>
                <TablixRow>
                  <Height>0.23622in</Height>
                  <TablixCells>
                    <TablixCell>
                      <CellContents>
                        <Textbox Name="textbox38">
                          <CanGrow>true</CanGrow>
                          <KeepTogether>true</KeepTogether>
                          <Paragraphs>
                            <Paragraph>
                              <TextRuns>
                                <TextRun>
                                  <Value />
                                  <Style>
                                    <FontSize>7pt</FontSize>
                                  </Style>
                                </TextRun>
                              </TextRuns>
                              <Style>
                                <TextAlign>Left</TextAlign>
                              </Style>
                            </Paragraph>
                          </Paragraphs>
                          <rd:DefaultName>textbox38</rd:DefaultName>
                          <ZIndex>11</ZIndex>
                          <Style>
                            <VerticalAlign>Middle</VerticalAlign>
                            <PaddingLeft>2pt</PaddingLeft>
                            <PaddingRight>0.075cm</PaddingRight>
                            <PaddingTop>2pt</PaddingTop>
                            <PaddingBottom>2pt</PaddingBottom>
                          </Style>
                        </Textbox>
                      </CellContents>
                    </TablixCell>
                    <TablixCell>
                      <CellContents>
                        <Textbox Name="textbox39">
                          <CanGrow>true</CanGrow>
                          <KeepTogether>true</KeepTogether>
                          <Paragraphs>
                            <Paragraph>
                              <TextRuns>
                                <TextRun>
                                  <Value />
                                  <Style>
                                    <FontSize>7pt</FontSize>
                                  </Style>
                                </TextRun>
                              </TextRuns>
                              <Style>
                                <TextAlign>Left</TextAlign>
                              </Style>
                            </Paragraph>
                          </Paragraphs>
                          <rd:DefaultName>textbox39</rd:DefaultName>
                          <ZIndex>10</ZIndex>
                          <Style>
                            <VerticalAlign>Middle</VerticalAlign>
                            <PaddingLeft>0.075cm</PaddingLeft>
                            <PaddingRight>0.075cm</PaddingRight>
                            <PaddingTop>2pt</PaddingTop>
                            <PaddingBottom>2pt</PaddingBottom>
                          </Style>
                        </Textbox>
                      </CellContents>
                    </TablixCell>
                    <TablixCell>
                      <CellContents>
                        <Textbox Name="textbox40">
                          <CanGrow>true</CanGrow>
                          <KeepTogether>true</KeepTogether>
                          <Paragraphs>
                            <Paragraph>
                              <TextRuns>
                                <TextRun>
                                  <Value>=Fields!InvoiceTotalCaption.Value</Value>
                                  <Style>
                                    <FontSize>7pt</FontSize>
                                    <FontWeight>Bold</FontWeight>
                                  </Style>
                                </TextRun>
                              </TextRuns>
                              <Style />
                            </Paragraph>
                          </Paragraphs>
                          <rd:DefaultName>textbox40</rd:DefaultName>
                          <ZIndex>9</ZIndex>
                          <Style>
                            <VerticalAlign>Middle</VerticalAlign>
                            <PaddingLeft>0.075cm</PaddingLeft>
                            <PaddingRight>0.075cm</PaddingRight>
                            <PaddingTop>2pt</PaddingTop>
                            <PaddingBottom>2pt</PaddingBottom>
                          </Style>
                        </Textbox>
                      </CellContents>
                    </TablixCell>
                    <TablixCell>
                      <CellContents>
                        <Textbox Name="textbox41">
                          <CanGrow>true</CanGrow>
                          <KeepTogether>true</KeepTogether>
                          <Paragraphs>
                            <Paragraph>
                              <TextRuns>
                                <TextRun>
                                  <Value />
                                  <Style>
                                    <FontSize>7pt</FontSize>
                                  </Style>
                                </TextRun>
                              </TextRuns>
                              <Style />
                            </Paragraph>
                          </Paragraphs>
                          <rd:DefaultName>textbox41</rd:DefaultName>
                          <ZIndex>8</ZIndex>
                          <Style>
                            <VerticalAlign>Middle</VerticalAlign>
                            <PaddingLeft>0.075cm</PaddingLeft>
                            <PaddingRight>0.075cm</PaddingRight>
                            <PaddingTop>2pt</PaddingTop>
                            <PaddingBottom>2pt</PaddingBottom>
                          </Style>
                        </Textbox>
                      </CellContents>
                    </TablixCell>
                    <TablixCell>
                      <CellContents>
                        <Textbox Name="textbox42">
                          <CanGrow>true</CanGrow>
                          <KeepTogether>true</KeepTogether>
                          <Paragraphs>
                            <Paragraph>
                              <TextRuns>
                                <TextRun>
                                  <Value />
                                  <Style>
                                    <FontSize>7pt</FontSize>
                                    <Format>=Fields!AmtPerPeriod_ServContractFormat.Value</Format>
                                  </Style>
                                </TextRun>
                              </TextRuns>
                              <Style />
                            </Paragraph>
                          </Paragraphs>
                          <rd:DefaultName>textbox42</rd:DefaultName>
                          <ZIndex>7</ZIndex>
                          <Style>
                            <VerticalAlign>Middle</VerticalAlign>
                            <PaddingLeft>0.075cm</PaddingLeft>
                            <PaddingRight>0.075cm</PaddingRight>
                            <PaddingTop>2pt</PaddingTop>
                            <PaddingBottom>2pt</PaddingBottom>
                          </Style>
                        </Textbox>
                      </CellContents>
                    </TablixCell>
                    <TablixCell>
                      <CellContents>
                        <Textbox Name="textbox43">
                          <CanGrow>true</CanGrow>
                          <KeepTogether>true</KeepTogether>
                          <Paragraphs>
                            <Paragraph>
                              <TextRuns>
                                <TextRun>
                                  <Value />
                                  <Style>
                                    <FontSize>7pt</FontSize>
                                  </Style>
                                </TextRun>
                              </TextRuns>
                              <Style>
                                <TextAlign>Right</TextAlign>
                              </Style>
                            </Paragraph>
                          </Paragraphs>
                          <rd:DefaultName>textbox43</rd:DefaultName>
                          <ZIndex>6</ZIndex>
                          <Style>
                            <VerticalAlign>Middle</VerticalAlign>
                            <PaddingLeft>0.075cm</PaddingLeft>
                            <PaddingRight>0.075cm</PaddingRight>
                            <PaddingTop>2pt</PaddingTop>
                            <PaddingBottom>2pt</PaddingBottom>
                          </Style>
                        </Textbox>
                      </CellContents>
                    </TablixCell>
                    <TablixCell>
                      <CellContents>
                        <Textbox Name="textbox44">
                          <CanGrow>true</CanGrow>
                          <KeepTogether>true</KeepTogether>
                          <Paragraphs>
                            <Paragraph>
                              <TextRuns>
                                <TextRun>
                                  <Value />
                                  <Style>
                                    <FontSize>7pt</FontSize>
                                    <Format>d</Format>
                                  </Style>
                                </TextRun>
                              </TextRuns>
                              <Style />
                            </Paragraph>
                          </Paragraphs>
                          <rd:DefaultName>textbox44</rd:DefaultName>
                          <ZIndex>5</ZIndex>
                          <Style>
                            <VerticalAlign>Middle</VerticalAlign>
                            <PaddingLeft>0.075cm</PaddingLeft>
                            <PaddingRight>0.075cm</PaddingRight>
                            <PaddingTop>2pt</PaddingTop>
                            <PaddingBottom>2pt</PaddingBottom>
                          </Style>
                        </Textbox>
                      </CellContents>
                    </TablixCell>
                    <TablixCell>
                      <CellContents>
                        <Textbox Name="textbox45">
                          <CanGrow>true</CanGrow>
                          <KeepTogether>true</KeepTogether>
                          <Paragraphs>
                            <Paragraph>
                              <TextRuns>
                                <TextRun>
                                  <Value />
                                  <Style>
                                    <FontSize>7pt</FontSize>
                                    <Format>d</Format>
                                  </Style>
                                </TextRun>
                              </TextRuns>
                              <Style />
                            </Paragraph>
                          </Paragraphs>
                          <rd:DefaultName>textbox45</rd:DefaultName>
                          <ZIndex>4</ZIndex>
                          <Style>
                            <VerticalAlign>Middle</VerticalAlign>
                            <PaddingLeft>0.075cm</PaddingLeft>
                            <PaddingRight>0.075cm</PaddingRight>
                            <PaddingTop>2pt</PaddingTop>
                            <PaddingBottom>2pt</PaddingBottom>
                          </Style>
                        </Textbox>
                      </CellContents>
                    </TablixCell>
                    <TablixCell>
                      <CellContents>
                        <Textbox Name="textbox46">
                          <CanGrow>true</CanGrow>
                          <KeepTogether>true</KeepTogether>
                          <Paragraphs>
                            <Paragraph>
                              <TextRuns>
                                <TextRun>
                                  <Value>=Fields!InvSum.Value</Value>
                                  <Style>
                                    <FontSize>7pt</FontSize>
                                    <FontWeight>Bold</FontWeight>
                                  </Style>
                                </TextRun>
                              </TextRuns>
                              <Style />
                            </Paragraph>
                          </Paragraphs>
                          <rd:DefaultName>textbox46</rd:DefaultName>
                          <ZIndex>3</ZIndex>
                          <Style>
                            <PaddingLeft>2pt</PaddingLeft>
                            <PaddingRight>2pt</PaddingRight>
                            <PaddingTop>2pt</PaddingTop>
                          </Style>
                        </Textbox>
                      </CellContents>
                    </TablixCell>
                  </TablixCells>
                </TablixRow>
                <TablixRow>
                  <Height>0.17008in</Height>
                  <TablixCells>
                    <TablixCell>
                      <CellContents>
                        <Textbox Name="textbox2">
                          <KeepTogether>true</KeepTogether>
                          <Paragraphs>
                            <Paragraph>
                              <TextRuns>
                                <TextRun>
                                  <Value />
                                  <Style />
                                </TextRun>
                              </TextRuns>
                              <Style>
                                <TextAlign>Left</TextAlign>
                              </Style>
                            </Paragraph>
                          </Paragraphs>
                          <rd:DefaultName>textbox2</rd:DefaultName>
                          <ZIndex>23</ZIndex>
                          <Style>
                            <VerticalAlign>Middle</VerticalAlign>
                            <PaddingLeft>2pt</PaddingLeft>
                            <PaddingRight>2pt</PaddingRight>
                            <PaddingTop>2pt</PaddingTop>
                            <PaddingBottom>2pt</PaddingBottom>
                          </Style>
                        </Textbox>
                      </CellContents>
                    </TablixCell>
                    <TablixCell>
                      <CellContents>
                        <Textbox Name="textbox3">
                          <KeepTogether>true</KeepTogether>
                          <Paragraphs>
                            <Paragraph>
                              <TextRuns>
                                <TextRun>
                                  <Value />
                                  <Style />
                                </TextRun>
                              </TextRuns>
                              <Style>
                                <TextAlign>Left</TextAlign>
                              </Style>
                            </Paragraph>
                          </Paragraphs>
                          <rd:DefaultName>textbox3</rd:DefaultName>
                          <ZIndex>22</ZIndex>
                          <Style>
                            <VerticalAlign>Middle</VerticalAlign>
                            <PaddingLeft>2pt</PaddingLeft>
                            <PaddingRight>2pt</PaddingRight>
                            <PaddingTop>2pt</PaddingTop>
                            <PaddingBottom>2pt</PaddingBottom>
                          </Style>
                        </Textbox>
                      </CellContents>
                    </TablixCell>
                    <TablixCell>
                      <CellContents>
                        <Textbox Name="textbox4">
                          <KeepTogether>true</KeepTogether>
                          <Paragraphs>
                            <Paragraph>
                              <TextRuns>
                                <TextRun>
                                  <Value />
                                  <Style>
                                    <FontSize>7pt</FontSize>
                                    <FontWeight>Bold</FontWeight>
                                  </Style>
                                </TextRun>
                              </TextRuns>
                              <Style>
                                <TextAlign>Right</TextAlign>
                              </Style>
                            </Paragraph>
                          </Paragraphs>
                          <rd:DefaultName>textbox4</rd:DefaultName>
                          <ZIndex>21</ZIndex>
                          <Style>
                            <VerticalAlign>Middle</VerticalAlign>
                            <PaddingLeft>0.075cm</PaddingLeft>
                            <PaddingRight>0.075cm</PaddingRight>
                            <PaddingTop>2pt</PaddingTop>
                            <PaddingBottom>2pt</PaddingBottom>
                          </Style>
                        </Textbox>
                      </CellContents>
                    </TablixCell>
                    <TablixCell>
                      <CellContents>
                        <Textbox Name="textbox5">
                          <KeepTogether>true</KeepTogether>
                          <Paragraphs>
                            <Paragraph>
                              <TextRuns>
                                <TextRun>
                                  <Value />
                                  <Style />
                                </TextRun>
                              </TextRuns>
                              <Style />
                            </Paragraph>
                          </Paragraphs>
                          <rd:DefaultName>textbox5</rd:DefaultName>
                          <ZIndex>20</ZIndex>
                          <Style>
                            <VerticalAlign>Middle</VerticalAlign>
                            <PaddingLeft>2pt</PaddingLeft>
                            <PaddingRight>2pt</PaddingRight>
                            <PaddingTop>2pt</PaddingTop>
                            <PaddingBottom>2pt</PaddingBottom>
                          </Style>
                        </Textbox>
                      </CellContents>
                    </TablixCell>
                    <TablixCell>
                      <CellContents>
                        <Textbox Name="textbox6">
                          <CanGrow>true</CanGrow>
                          <KeepTogether>true</KeepTogether>
                          <Paragraphs>
                            <Paragraph>
                              <TextRuns>
                                <TextRun>
                                  <Value />
                                  <Style>
                                    <FontSize>7pt</FontSize>
                                    <Format>=First(Fields!AmtPerPeriod_ServContractFormat.Value)</Format>
                                  </Style>
                                </TextRun>
                              </TextRuns>
                              <Style />
                            </Paragraph>
                          </Paragraphs>
                          <rd:DefaultName>textbox6</rd:DefaultName>
                          <ZIndex>19</ZIndex>
                          <Style>
                            <VerticalAlign>Middle</VerticalAlign>
                            <PaddingLeft>0.075cm</PaddingLeft>
                            <PaddingRight>0.075cm</PaddingRight>
                            <PaddingTop>2pt</PaddingTop>
                            <PaddingBottom>2pt</PaddingBottom>
                          </Style>
                        </Textbox>
                      </CellContents>
                    </TablixCell>
                    <TablixCell>
                      <CellContents>
                        <Textbox Name="textbox7">
                          <KeepTogether>true</KeepTogether>
                          <Paragraphs>
                            <Paragraph>
                              <TextRuns>
                                <TextRun>
                                  <Value />
                                  <Style>
                                    <FontSize>7pt</FontSize>
                                    <FontWeight>Bold</FontWeight>
                                  </Style>
                                </TextRun>
                              </TextRuns>
                              <Style>
                                <TextAlign>Right</TextAlign>
                              </Style>
                            </Paragraph>
                          </Paragraphs>
                          <rd:DefaultName>textbox7</rd:DefaultName>
                          <ZIndex>18</ZIndex>
                          <Style>
                            <VerticalAlign>Middle</VerticalAlign>
                            <PaddingLeft>0.075cm</PaddingLeft>
                            <PaddingRight>0.075cm</PaddingRight>
                            <PaddingTop>2pt</PaddingTop>
                            <PaddingBottom>2pt</PaddingBottom>
                          </Style>
                        </Textbox>
                      </CellContents>
                    </TablixCell>
                    <TablixCell>
                      <CellContents>
                        <Textbox Name="textbox8">
                          <KeepTogether>true</KeepTogether>
                          <Paragraphs>
                            <Paragraph>
                              <TextRuns>
                                <TextRun>
                                  <Value />
                                  <Style />
                                </TextRun>
                              </TextRuns>
                              <Style />
                            </Paragraph>
                          </Paragraphs>
                          <rd:DefaultName>textbox8</rd:DefaultName>
                          <ZIndex>17</ZIndex>
                          <Style>
                            <VerticalAlign>Middle</VerticalAlign>
                            <PaddingLeft>2pt</PaddingLeft>
                            <PaddingRight>2pt</PaddingRight>
                            <PaddingTop>2pt</PaddingTop>
                            <PaddingBottom>2pt</PaddingBottom>
                          </Style>
                        </Textbox>
                      </CellContents>
                    </TablixCell>
                    <TablixCell>
                      <CellContents>
                        <Textbox Name="textbox9">
                          <KeepTogether>true</KeepTogether>
                          <Paragraphs>
                            <Paragraph>
                              <TextRuns>
                                <TextRun>
                                  <Value />
                                  <Style />
                                </TextRun>
                              </TextRuns>
                              <Style />
                            </Paragraph>
                          </Paragraphs>
                          <rd:DefaultName>textbox9</rd:DefaultName>
                          <ZIndex>16</ZIndex>
                          <Style>
                            <VerticalAlign>Middle</VerticalAlign>
                            <PaddingLeft>2pt</PaddingLeft>
                            <PaddingRight>2pt</PaddingRight>
                            <PaddingTop>2pt</PaddingTop>
                            <PaddingBottom>2pt</PaddingBottom>
                          </Style>
                        </Textbox>
                      </CellContents>
                    </TablixCell>
                    <TablixCell>
                      <CellContents>
                        <Textbox Name="textbox10">
                          <KeepTogether>true</KeepTogether>
                          <Paragraphs>
                            <Paragraph>
                              <TextRuns>
                                <TextRun>
                                  <Value />
                                  <Style />
                                </TextRun>
                              </TextRuns>
                              <Style />
                            </Paragraph>
                          </Paragraphs>
                          <rd:DefaultName>textbox10</rd:DefaultName>
                          <ZIndex>15</ZIndex>
                          <Style>
                            <VerticalAlign>Middle</VerticalAlign>
                            <PaddingLeft>2pt</PaddingLeft>
                            <PaddingRight>2pt</PaddingRight>
                            <PaddingTop>2pt</PaddingTop>
                            <PaddingBottom>2pt</PaddingBottom>
                          </Style>
                        </Textbox>
                      </CellContents>
                    </TablixCell>
                  </TablixCells>
                </TablixRow>
              </TablixRows>
            </TablixBody>
            <TablixColumnHierarchy>
              <TablixMembers>
                <TablixMember />
                <TablixMember />
                <TablixMember />
                <TablixMember />
                <TablixMember />
                <TablixMember />
                <TablixMember />
                <TablixMember />
                <TablixMember />
              </TablixMembers>
            </TablixColumnHierarchy>
            <TablixRowHierarchy>
              <TablixMembers>
                <TablixMember>
                  <KeepWithGroup>After</KeepWithGroup>
                  <RepeatOnNewPage>true</RepeatOnNewPage>
                  <KeepTogether>true</KeepTogether>
                </TablixMember>
                <TablixMember>
                  <Group Name="Table1_Details_Group">
                    <DataElementName>Detail</DataElementName>
                  </Group>
                  <TablixMembers>
                    <TablixMember>
                      <Visibility>
                        <Hidden>=Fields!IndicatorValue.Value = ""</Hidden>
                      </Visibility>
                    </TablixMember>
                    <TablixMember />
                    <TablixMember>
                      <Visibility>
                        <Hidden>=iif(Fields!InvoiceTotalCaption.Value = "",True,False)</Hidden>
                      </Visibility>
                    </TablixMember>
                  </TablixMembers>
                  <DataElementName>Detail_Collection</DataElementName>
                  <DataElementOutput>Output</DataElementOutput>
                  <KeepTogether>true</KeepTogether>
                </TablixMember>
                <TablixMember>
                  <Visibility>
                    <Hidden>true</Hidden>
                  </Visibility>
                  <KeepWithGroup>Before</KeepWithGroup>
                  <KeepTogether>true</KeepTogether>
                </TablixMember>
              </TablixMembers>
            </TablixRowHierarchy>
            <DataSetName>DataSet_Result</DataSetName>
            <Top>1.5873cm</Top>
            <Height>2.93594cm</Height>
            <Width>18.00354cm</Width>
            <Style />
          </Tablix>
          <Textbox Name="ServContractFilters">
            <KeepTogether>true</KeepTogether>
            <Paragraphs>
              <Paragraph>
                <TextRuns>
                  <TextRun>
                    <Value>=First(Fields!TblCptnServContractFilters.Value)</Value>
                    <Style>
                      <FontSize>7pt</FontSize>
                    </Style>
                  </TextRun>
                </TextRuns>
                <Style />
              </Paragraph>
            </Paragraphs>
            <Top>0.846cm</Top>
            <Height>0.423cm</Height>
            <Width>18cm</Width>
            <ZIndex>1</ZIndex>
            <Visibility>
              <Hidden>=IIF(Fields!ServContractFilters.Value="",TRUE,FALSE)</Hidden>
            </Visibility>
            <DataElementOutput>NoOutput</DataElementOutput>
            <Style>
              <VerticalAlign>Middle</VerticalAlign>
            </Style>
          </Textbox>
          <Textbox Name="PostingDateCaption">
            <KeepTogether>true</KeepTogether>
            <Paragraphs>
              <Paragraph>
                <TextRuns>
                  <TextRun>
                    <Value>=First(Fields!PostingDateCaption.Value)</Value>
                    <Style>
                      <FontSize>7pt</FontSize>
                      <FontWeight>Bold</FontWeight>
                    </Style>
                  </TextRun>
                </TextRuns>
                <Style />
              </Paragraph>
            </Paragraphs>
            <Height>0.423cm</Height>
            <Width>2.85cm</Width>
            <ZIndex>2</ZIndex>
            <Style>
              <VerticalAlign>Middle</VerticalAlign>
            </Style>
          </Textbox>
          <Textbox Name="InvoiceToDateCaption">
            <KeepTogether>true</KeepTogether>
            <Paragraphs>
              <Paragraph>
                <TextRuns>
                  <TextRun>
                    <Value>=First(Fields!InvoiceToDateCaption.Value)</Value>
                    <Style>
                      <FontSize>7pt</FontSize>
                      <FontWeight>Bold</FontWeight>
                    </Style>
                  </TextRun>
                </TextRuns>
                <Style />
              </Paragraph>
            </Paragraphs>
            <Top>0.423cm</Top>
            <Height>0.423cm</Height>
            <Width>2.85cm</Width>
            <ZIndex>3</ZIndex>
            <Style>
              <VerticalAlign>Middle</VerticalAlign>
            </Style>
          </Textbox>
          <Textbox Name="PostingDate">
            <KeepTogether>true</KeepTogether>
            <Paragraphs>
              <Paragraph>
                <TextRuns>
                  <TextRun>
                    <Value>=First(Fields!PostingDate.Value)</Value>
                    <Style>
                      <FontSize>7pt</FontSize>
                      <Format>d</Format>
                    </Style>
                  </TextRun>
                </TextRuns>
                <Style>
                  <TextAlign>Left</TextAlign>
                </Style>
              </Paragraph>
            </Paragraphs>
            <Left>3cm</Left>
            <Height>0.423cm</Height>
            <Width>4.35cm</Width>
            <ZIndex>4</ZIndex>
            <Style>
              <VerticalAlign>Middle</VerticalAlign>
            </Style>
          </Textbox>
          <Textbox Name="InvoiceToDate">
            <KeepTogether>true</KeepTogether>
            <Paragraphs>
              <Paragraph>
                <TextRuns>
                  <TextRun>
                    <Value>=First(Fields!InvoiceToDate.Value)</Value>
                    <Style>
                      <FontSize>7pt</FontSize>
                      <Format>d</Format>
                    </Style>
                  </TextRun>
                </TextRuns>
                <Style>
                  <TextAlign>Left</TextAlign>
                </Style>
              </Paragraph>
            </Paragraphs>
            <Top>0.423cm</Top>
            <Left>3cm</Left>
            <Height>0.423cm</Height>
            <Width>4.35cm</Width>
            <ZIndex>5</ZIndex>
            <Style>
              <VerticalAlign>Middle</VerticalAlign>
            </Style>
          </Textbox>
        </ReportItems>
        <Height>4.52324cm</Height>
        <Style />
      </Body>
      <Width>18.15cm</Width>
      <Page>
        <PageHeader>
          <Height>1.692cm</Height>
          <PrintOnFirstPage>true</PrintOnFirstPage>
          <PrintOnLastPage>true</PrintOnLastPage>
          <ReportItems>
            <Textbox Name="PageNoCaption">
              <KeepTogether>true</KeepTogether>
              <Paragraphs>
                <Paragraph>
                  <TextRuns>
                    <TextRun>
                      <Value>=First(Fields!PageNoCaption.Value,"DataSet_Result")</Value>
                      <Style>
                        <FontSize>7pt</FontSize>
                      </Style>
                    </TextRun>
                  </TextRuns>
                  <Style />
                </Paragraph>
              </Paragraphs>
              <Top>0.423cm</Top>
              <Left>16.95cm</Left>
              <Height>0.423cm</Height>
              <Width>0.75cm</Width>
              <Style>
                <VerticalAlign>Middle</VerticalAlign>
              </Style>
            </Textbox>
            <Textbox Name="ContractInvoicingTestCaption">
              <KeepTogether>true</KeepTogether>
              <Paragraphs>
                <Paragraph>
                  <TextRuns>
                    <TextRun>
                      <Value>=First(Fields!ContractInvoicingTestCaption.Value,"DataSet_Result")</Value>
                      <Style>
                        <FontSize>9pt</FontSize>
                        <FontWeight>Bold</FontWeight>
                      </Style>
                    </TextRun>
                  </TextRuns>
                  <Style />
                </Paragraph>
              </Paragraphs>
              <Height>0.423cm</Height>
              <Width>7.5cm</Width>
              <ZIndex>1</ZIndex>
              <Style>
                <VerticalAlign>Middle</VerticalAlign>
              </Style>
            </Textbox>
            <Textbox Name="CompanyName">
              <KeepTogether>true</KeepTogether>
              <Paragraphs>
                <Paragraph>
                  <TextRuns>
                    <TextRun>
                      <Value>=First(Fields!CompanyName.Value,"DataSet_Result")</Value>
                      <Style>
                        <FontSize>7pt</FontSize>
                      </Style>
                    </TextRun>
                  </TextRuns>
                  <Style />
                </Paragraph>
              </Paragraphs>
              <Top>0.423cm</Top>
              <Height>0.423cm</Height>
              <Width>7.5cm</Width>
              <ZIndex>2</ZIndex>
              <Style>
                <VerticalAlign>Middle</VerticalAlign>
              </Style>
            </Textbox>
            <Textbox Name="ExecutionTimeTextBox">
              <KeepTogether>true</KeepTogether>
              <Paragraphs>
                <Paragraph>
                  <TextRuns>
                    <TextRun>
                      <Value>=Globals!ExecutionTime</Value>
                      <Style>
                        <FontSize>7pt</FontSize>
                        <Format>D</Format>
                      </Style>
                    </TextRun>
                  </TextRuns>
                  <Style>
                    <TextAlign>Right</TextAlign>
                  </Style>
                </Paragraph>
              </Paragraphs>
              <Left>13.88875cm</Left>
              <Height>0.423cm</Height>
              <Width>4.26125cm</Width>
              <ZIndex>3</ZIndex>
              <Style>
                <Border />
                <VerticalAlign>Middle</VerticalAlign>
              </Style>
            </Textbox>
            <Textbox Name="UserIdTextBox">
              <CanGrow>true</CanGrow>
              <KeepTogether>true</KeepTogether>
              <Paragraphs>
                <Paragraph>
                  <TextRuns>
                    <TextRun>
                      <Value>=User!UserID</Value>
                      <Style>
                        <FontSize>7pt</FontSize>
                      </Style>
                    </TextRun>
                  </TextRuns>
                  <Style>
                    <TextAlign>Right</TextAlign>
                  </Style>
                </Paragraph>
              </Paragraphs>
              <Top>0.846cm</Top>
              <Left>13.88875cm</Left>
              <Height>0.423cm</Height>
              <Width>4.26125cm</Width>
              <ZIndex>4</ZIndex>
              <Style>
                <VerticalAlign>Middle</VerticalAlign>
              </Style>
            </Textbox>
            <Textbox Name="PageNumberTextBox">
              <KeepTogether>true</KeepTogether>
              <Paragraphs>
                <Paragraph>
                  <TextRuns>
                    <TextRun>
                      <Value>=Globals!PageNumber</Value>
                      <Style>
                        <FontSize>7pt</FontSize>
                      </Style>
                    </TextRun>
                  </TextRuns>
                  <Style>
                    <TextAlign>Right</TextAlign>
                  </Style>
                </Paragraph>
              </Paragraphs>
              <Top>0.423cm</Top>
              <Left>17.7cm</Left>
              <Height>0.423cm</Height>
              <Width>0.45cm</Width>
              <ZIndex>5</ZIndex>
              <Style>
                <VerticalAlign>Middle</VerticalAlign>
              </Style>
            </Textbox>
          </ReportItems>
          <Style />
        </PageHeader>
        <PageHeight>29.7cm</PageHeight>
        <PageWidth>21cm</PageWidth>
        <InteractiveHeight>11in</InteractiveHeight>
        <InteractiveWidth>8.5in</InteractiveWidth>
        <LeftMargin>1.5cm</LeftMargin>
        <TopMargin>2cm</TopMargin>
        <BottomMargin>2cm</BottomMargin>
        <Style />
      </Page>
    </ReportSection>
  </ReportSections>
  <Code>Public Function BlankZero(ByVal Value As Decimal)
    if Value = 0 then
        Return ""
    end if
    Return Value
End Function

Public Function BlankPos(ByVal Value As Decimal)
    if Value &gt; 0 then
        Return ""
    end if
    Return Value
End Function

Public Function BlankZeroAndPos(ByVal Value As Decimal)
    if Value &gt;= 0 then
        Return ""
    end if
    Return Value
End Function

Public Function BlankNeg(ByVal Value As Decimal)
    if Value &lt; 0 then
        Return ""
    end if
    Return Value
End Function

Public Function BlankNegAndZero(ByVal Value As Decimal)
    if Value &lt;= 0 then
        Return ""
    end if
    Return Value
End Function
</Code>
  <Language>=User!Language</Language>
  <ConsumeContainerWhitespace>true</ConsumeContainerWhitespace>
  <rd:ReportUnitType>Cm</rd:ReportUnitType>
  <rd:ReportID>8b20ba10-bea7-486c-857d-da09cd49ef39</rd:ReportID>
</Report>
    END_OF_RDLDATA
  }
}

