OBJECT Report 6655 Batch Post Sales Return Orders
{
  OBJECT-PROPERTIES
  {
    Date=22/11/17;
    Time=12:00:00;
    Version List=NAVW111.00;
  }
  PROPERTIES
  {
    CaptionML=[ENU=Batch Post Sales Return Orders;
               ENG=Batch Post Sales Return Orders];
    ProcessingOnly=Yes;
  }
  DATASET
  {
    { 6640;    ;DataItem;                    ;
               DataItemTable=Table36;
               DataItemTableView=SORTING(Document Type,No.)
                                 WHERE(Document Type=CONST(Return Order));
               ReqFilterHeadingML=[ENU=Sales Return Order;
                                   ENG=Sales Return Order];
               OnPreDataItem=VAR
                               BatchProcessingMgt@1002 : Codeunit 1380;
                               BatchPostParameterTypes@1001 : Codeunit 1370;
                               SalesBatchPostMgt@1000 : Codeunit 1371;
                             BEGIN
                               BatchProcessingMgt.AddParameter(BatchPostParameterTypes.Receive,ReceiveReq);

                               SalesBatchPostMgt.SetBatchProcessor(BatchProcessingMgt);
                               SalesBatchPostMgt.RunBatch("Sales Header",ReplacePostingDate,PostingDateReq,ReplaceDocumentDate,CalcInvDisc,FALSE,InvReq);

                               CurrReport.BREAK;
                             END;

               ReqFilterFields=No.,Status }

  }
  REQUESTPAGE
  {
    PROPERTIES
    {
      SaveValues=Yes;
      OnOpenPage=VAR
                   SalesReceivablesSetup@1000 : Record 311;
                 BEGIN
                   SalesReceivablesSetup.GET;
                   CalcInvDisc := SalesReceivablesSetup."Calc. Inv. Discount";
                   ReplacePostingDate := FALSE;
                   ReplaceDocumentDate := FALSE;
                 END;

    }
    CONTROLS
    {
      { 1900000001;0;Container;
                  ContainerType=ContentArea }

      { 1900000002;1;Group  ;
                  CaptionML=[ENU=Options;
                             ENG=Options] }

      { 9   ;2   ;Field     ;
                  Name=ReceiveReq;
                  CaptionML=[ENU=Receive;
                             ENG=Receive];
                  ToolTipML=[ENU=Specifies if the orders are received when posted. If you select this check box, it applies to all the orders that are posted.;
                             ENG=Specifies if the orders are received when posted. If you select this check box, it applies to all the orders that are posted.];
                  ApplicationArea=#SalesReturnOrder;
                  SourceExpr=ReceiveReq }

      { 7   ;2   ;Field     ;
                  Name=InvReq;
                  CaptionML=[ENU=Invoice;
                             ENG=Invoice];
                  ToolTipML=[ENU=Specifies if the orders are invoiced when posted. If you select this check box, it applies to all the orders that are posted.;
                             ENG=Specifies if the orders are invoiced when posted. If you select this check box, it applies to all the orders that are posted.];
                  ApplicationArea=#SalesReturnOrder;
                  SourceExpr=InvReq }

      { 1   ;2   ;Field     ;
                  Name=PostingDateReq;
                  CaptionML=[ENU=Posting Date;
                             ENG=Posting Date];
                  ToolTipML=[ENU=Specifies the date that you want to use as the document date or the posting date when you post if you select the Replace Document Date check box or the Replace Posting Date check box.;
                             ENG=Specifies the date that you want to use as the document date or the posting date when you post if you select the Replace Document Date check box or the Replace Posting Date check box.];
                  ApplicationArea=#SalesReturnOrder;
                  SourceExpr=PostingDateReq }

      { 2   ;2   ;Field     ;
                  Name=ReplacePostingDate;
                  CaptionML=[ENU=Replace Posting Date;
                             ENG=Replace Posting Date];
                  ToolTipML=[ENU=Specifies if you want to replace the posting date of the orders with the date that is entered in the Posting Date field.;
                             ENG=Specifies if you want to replace the posting date of the orders with the date that is entered in the Posting Date field.];
                  ApplicationArea=#SalesReturnOrder;
                  SourceExpr=ReplacePostingDate;
                  OnValidate=BEGIN
                               IF ReplacePostingDate THEN
                                 MESSAGE(Text003);
                             END;
                              }

      { 3   ;2   ;Field     ;
                  Name=ReplaceDocumentDate;
                  CaptionML=[ENU=Replace Document Date;
                             ENG=Replace Document Date];
                  ToolTipML=[ENU=Specifies if you want to replace the document date of the orders with the date in the Posting Date field.;
                             ENG=Specifies if you want to replace the document date of the orders with the date in the Posting Date field.];
                  ApplicationArea=#SalesReturnOrder;
                  SourceExpr=ReplaceDocumentDate }

      { 5   ;2   ;Field     ;
                  Name=CalcInvDisc;
                  CaptionML=[ENU=Calc. Inv. Discount;
                             ENG=Calc. Inv. Discount];
                  ToolTipML=[ENU=Specifies if you want the invoice discount amount to be automatically calculated on the orders before posting.;
                             ENG=Specifies if you want the invoice discount amount to be automatically calculated on the orders before posting.];
                  ApplicationArea=#SalesReturnOrder;
                  SourceExpr=CalcInvDisc;
                  OnValidate=VAR
                               SalesReceivablesSetup@1000 : Record 311;
                             BEGIN
                               SalesReceivablesSetup.GET;
                               SalesReceivablesSetup.TESTFIELD("Calc. Inv. Discount",FALSE);
                             END;
                              }

    }
  }
  LABELS
  {
  }
  CODE
  {
    VAR
      Text003@1003 : TextConst 'ENU=The exchange rate associated with the new posting date on the sales header will not apply to the sales lines.;ENG=The exchange rate associated with the new posting date on the sales header will not apply to the sales lines.';
      PostingDateReq@1010 : Date;
      ReceiveReq@1014 : Boolean;
      InvReq@1015 : Boolean;
      ReplacePostingDate@1016 : Boolean;
      ReplaceDocumentDate@1017 : Boolean;
      CalcInvDisc@1004 : Boolean;

    BEGIN
    END.
  }
  RDLDATA
  {
  }
}

