OBJECT Report 7117 Run Sales Analysis Col. Temp.
{
  OBJECT-PROPERTIES
  {
    Date=07/09/12;
    Time=12:00:00;
    Version List=NAVW17.00;
  }
  PROPERTIES
  {
    CaptionML=[ENU=Run Sales Analysis Col. Temp.;
               ENG=Run Sales Analysis Col. Temp.];
    ProcessingOnly=Yes;
    OnPreReport=BEGIN
                  AnalysisColumnTemplate.FILTERGROUP := 2;
                  AnalysisColumnTemplate.SETRANGE("Analysis Area",AnalysisColumnTemplate."Analysis Area"::Sales);
                  AnalysisColumnTemplate.FILTERGROUP := 0;
                  PAGE.RUNMODAL(0,AnalysisColumnTemplate);
                END;

    UseRequestPage=No;
  }
  DATASET
  {
  }
  REQUESTPAGE
  {
    PROPERTIES
    {
    }
    CONTROLS
    {
    }
  }
  LABELS
  {
  }
  CODE
  {
    VAR
      AnalysisColumnTemplate@1000 : Record 7116;

    BEGIN
    END.
  }
  RDLDATA
  {
  }
}

