OBJECT Report 7306 Get Inbound Source Documents
{
  OBJECT-PROPERTIES
  {
    Date=22/11/17;
    Time=12:00:00;
    Version List=NAVW111.00;
  }
  PROPERTIES
  {
    CaptionML=[ENU=Get Inbound Source Documents;
               ENG=Get Inbound Source Documents];
    ProcessingOnly=Yes;
    OnPreReport=BEGIN
                  LineCreated := FALSE;
                END;

    OnPostReport=BEGIN
                   IF NOT HideDialog THEN
                     IF NOT LineCreated THEN
                       ERROR(Text000);
                 END;

  }
  DATASET
  {
    { 3390;    ;DataItem;                    ;
               DataItemTable=Table7324;
               DataItemTableView=WHERE(Completely Put Away=CONST(No));
               ReqFilterFields=Document Type,Document No. }

    { 4701;1   ;DataItem;                    ;
               DataItemTable=Table7318;
               DataItemTableView=SORTING(No.);
               OnPreDataItem=BEGIN
                               IF "Whse. Put-away Request"."Document Type" <>
                                  "Whse. Put-away Request"."Document Type"::Receipt
                               THEN
                                 CurrReport.BREAK;
                             END;

               DataItemLink=No.=FIELD(Document No.) }

    { 7072;2   ;DataItem;                    ;
               DataItemTable=Table7319;
               DataItemTableView=SORTING(No.,Line No.);
               OnAfterGetRecord=BEGIN
                                  CALCFIELDS("Put-away Qty.","Put-away Qty. (Base)");
                                  IF "Qty. (Base)" > "Qty. Put Away (Base)" + "Put-away Qty. (Base)" THEN BEGIN
                                    IF WhseWkshCreate.FromWhseRcptLine(
                                         WhseWkshTemplateName,WhseWkshName,LocationCode,"Posted Whse. Receipt Line")
                                    THEN
                                      LineCreated := TRUE;
                                  END;
                                END;

               DataItemLink=No.=FIELD(No.) }

    { 9282;1   ;DataItem;                    ;
               DataItemTable=Table7331;
               DataItemTableView=SORTING(No.);
               OnPreDataItem=BEGIN
                               IF "Whse. Put-away Request"."Document Type" <>
                                  "Whse. Put-away Request"."Document Type"::"Internal Put-away"
                               THEN
                                 CurrReport.BREAK;
                             END;

               DataItemLink=No.=FIELD(Document No.) }

    { 1568;2   ;DataItem;                    ;
               DataItemTable=Table7332;
               DataItemTableView=SORTING(No.,Line No.);
               OnAfterGetRecord=BEGIN
                                  CALCFIELDS("Put-away Qty.","Put-away Qty. (Base)");
                                  IF "Qty. (Base)" > "Qty. Put Away (Base)" + "Put-away Qty. (Base)" THEN BEGIN
                                    IF WhseWkshCreate.FromWhseInternalPutawayLine(
                                         WhseWkshTemplateName,WhseWkshName,LocationCode,"Whse. Internal Put-away Line")
                                    THEN
                                      LineCreated := TRUE;
                                  END;
                                END;

               DataItemLink=No.=FIELD(No.) }

  }
  REQUESTPAGE
  {
    PROPERTIES
    {
    }
    CONTROLS
    {
    }
  }
  LABELS
  {
  }
  CODE
  {
    VAR
      Text000@1000 : TextConst 'ENU=There are no Warehouse Worksheet Lines created.;ENG=There are no Warehouse Worksheet Lines created.';
      WhseWkshCreate@1006 : Codeunit 7311;
      WhseWkshTemplateName@1001 : Code[10];
      WhseWkshName@1003 : Code[10];
      LocationCode@1004 : Code[10];
      LineCreated@1012 : Boolean;
      HideDialog@1013 : Boolean;

    [External]
    PROCEDURE SetHideDialog@6(NewHideDialog@1000 : Boolean);
    BEGIN
      HideDialog := NewHideDialog;
    END;

    [External]
    PROCEDURE SetWhseWkshName@2(WhseWkshTemplateName2@1002 : Code[10];WhseWkshName2@1000 : Code[10];LocationCode2@1001 : Code[10]);
    BEGIN
      WhseWkshTemplateName := WhseWkshTemplateName2;
      WhseWkshName := WhseWkshName2;
      LocationCode := LocationCode2;
    END;

    BEGIN
    END.
  }
  RDLDATA
  {
  }
}

