OBJECT Report 741 VAT Report Suggest Lines
{
  OBJECT-PROPERTIES
  {
    Date=07/09/12;
    Time=12:00:00;
    Version List=NAVW17.00;
  }
  PROPERTIES
  {
    CaptionML=[ENU=VAT Report Suggest Lines;
               ENG=VAT Report Suggest Lines];
    ProcessingOnly=Yes;
  }
  DATASET
  {
    { 5644;    ;DataItem;                    ;
               DataItemTable=Table740 }

  }
  REQUESTPAGE
  {
    PROPERTIES
    {
    }
    CONTROLS
    {
    }
  }
  LABELS
  {
  }
  CODE
  {

    BEGIN
    END.
  }
  RDLDATA
  {
  }
}

