OBJECT Report 7116 Run Invt. Analysis Line Temp.
{
  OBJECT-PROPERTIES
  {
    Date=07/09/12;
    Time=12:00:00;
    Version List=NAVW17.00;
  }
  PROPERTIES
  {
    CaptionML=[ENU=Run Invt. Analysis Line Temp.;
               ENG=Run Invt. Analysis Line Temp.];
    ProcessingOnly=Yes;
    OnPreReport=BEGIN
                  AnalysisLineTemplate.FILTERGROUP := 2;
                  AnalysisLineTemplate.SETRANGE("Analysis Area",AnalysisLineTemplate."Analysis Area"::Inventory);
                  AnalysisLineTemplate.FILTERGROUP := 0;
                  PAGE.RUNMODAL(0,AnalysisLineTemplate);
                END;

    UseRequestPage=No;
  }
  DATASET
  {
  }
  REQUESTPAGE
  {
    PROPERTIES
    {
    }
    CONTROLS
    {
    }
  }
  LABELS
  {
  }
  CODE
  {
    VAR
      AnalysisLineTemplate@1000 : Record 7112;

    BEGIN
    END.
  }
  RDLDATA
  {
  }
}

