OBJECT Report 9170 Copy Profile
{
  OBJECT-PROPERTIES
  {
    Date=22/11/17;
    Time=12:00:00;
    Version List=NAVW111.00;
  }
  PROPERTIES
  {
    CaptionML=[ENU=Copy Profile;
               ENG=Copy Profile];
    ProcessingOnly=Yes;
  }
  DATASET
  {
    { 3203;    ;DataItem;                    ;
               DataItemTable=Table2000000178;
               DataItemTableView=SORTING(Profile ID);
               OnAfterGetRecord=VAR
                                  ConfPersMgt@1000 : Codeunit 9170;
                                BEGIN
                                  ConfPersMgt.CopyProfile("All Profile",NewProfileID,NewProfileScope);
                                END;
                                 }

  }
  REQUESTPAGE
  {
    PROPERTIES
    {
      OnOpenPage=VAR
                   PermissionManager@1000 : Codeunit 9002;
                 BEGIN
                   IsSaaS := PermissionManager.SoftwareAsAService;

                   IF IsSaaS THEN
                     NewProfileScope := NewProfileScope::Tenant;
                 END;

    }
    CONTROLS
    {
      { 1900000001;0;Container;
                  ContainerType=ContentArea }

      { 1900000002;1;Group  ;
                  CaptionML=[ENU=Options;
                             ENG=Options] }

      { 1   ;2   ;Field     ;
                  Name=NewProfileID;
                  CaptionML=[ENU=New Profile ID;
                             ENG=New Profile ID];
                  ToolTipML=[ENU=Specifies the new ID of the profile after copying.;
                             ENG=Specifies the new ID of the profile after copying.];
                  ApplicationArea=#Basic,#Suite;
                  NotBlank=Yes;
                  SourceExpr=NewProfileID }

      { 4   ;2   ;Field     ;
                  Name=NewProfileScope;
                  CaptionML=[ENU=New Profile Scope;
                             ENG=New Profile Scope];
                  ToolTipML=[ENU=Specifies the new scope of the profile after copying.;
                             ENG=Specifies the new scope of the profile after copying.];
                  ApplicationArea=#Basic,#Suite;
                  SourceExpr=NewProfileScope;
                  Enabled=NOT IsSaaS }

    }
  }
  LABELS
  {
  }
  CODE
  {
    VAR
      NewProfileID@1002 : Code[30];
      NewProfileScope@1000 : 'System,Tenant';
      IsSaaS@1001 : Boolean INDATASET;

    [External]
    PROCEDURE GetProfileID@1005() : Code[30];
    BEGIN
      EXIT(NewProfileID);
    END;

    BEGIN
    END.
  }
  RDLDATA
  {
  }
}

