OBJECT Report 99000759 Work Center List
{
  OBJECT-PROPERTIES
  {
    Date=22/11/17;
    Time=12:00:00;
    Version List=NAVW111.00;
  }
  PROPERTIES
  {
    CaptionML=[ENU=Work Center List;
               ENG=Work Centre List];
  }
  DATASET
  {
    { 8481;    ;DataItem;                    ;
               DataItemTable=Table99000754;
               DataItemTableView=SORTING(No.);
               OnPreDataItem=BEGIN
                               WorkCenterFilter := GETFILTERS;
                             END;

               ReqFilterFields=No.,Work Center Group Code,Shop Calendar Code }

    { 2   ;1   ;Column  ;FORMAT_TODAY_0_4_   ;
               SourceExpr=FORMAT(TODAY,0,4) }

    { 3   ;1   ;Column  ;COMPANYNAME         ;
               SourceExpr=COMPANYPROPERTY.DISPLAYNAME }

    { 4   ;1   ;Column  ;CurrReport_PAGENO   ;
               SourceExpr=CurrReport.PAGENO }

    { 9   ;1   ;Column  ;Work_Center__TABLECAPTION_________WorkCenterFilter;
               SourceExpr=TABLECAPTION + ':' + WorkCenterFilter }

    { 1000000000;1;Column;WorkCenterFilter   ;
               SourceExpr=WorkCenterFilter }

    { 11  ;1   ;Column  ;Work_Center__No__   ;
               SourceExpr="No." }

    { 14  ;1   ;Column  ;Work_Center_Name    ;
               SourceExpr=Name }

    { 17  ;1   ;Column  ;Work_Center__Alternate_Work_Center_;
               SourceExpr="Alternate Work Center" }

    { 20  ;1   ;Column  ;Work_Center__Work_Center_Group_Code_;
               SourceExpr="Work Center Group Code" }

    { 23  ;1   ;Column  ;Work_Center__Unit_Cost_;
               SourceExpr="Unit Cost" }

    { 29  ;1   ;Column  ;Work_Center_Capacity;
               SourceExpr=Capacity }

    { 32  ;1   ;Column  ;Work_Center_Efficiency;
               SourceExpr=Efficiency }

    { 7   ;1   ;Column  ;Work_Center__Shop_Calendar_Code_;
               SourceExpr="Shop Calendar Code" }

    { 10  ;1   ;Column  ;Work_Center__Unit_of_Measure_Code_;
               SourceExpr="Unit of Measure Code" }

    { 1   ;1   ;Column  ;Work_Center_ListCaption;
               SourceExpr=Work_Center_ListCaptionLbl }

    { 5   ;1   ;Column  ;CurrReport_PAGENOCaption;
               SourceExpr=CurrReport_PAGENOCaptionLbl }

    { 12  ;1   ;Column  ;Work_Center__No__Caption;
               SourceExpr=FIELDCAPTION("No.") }

    { 15  ;1   ;Column  ;Work_Center_NameCaption;
               SourceExpr=FIELDCAPTION(Name) }

    { 18  ;1   ;Column  ;Work_Center__Alternate_Work_Center_Caption;
               SourceExpr=FIELDCAPTION("Alternate Work Center") }

    { 21  ;1   ;Column  ;Work_Center__Work_Center_Group_Code_Caption;
               SourceExpr=FIELDCAPTION("Work Center Group Code") }

    { 24  ;1   ;Column  ;Work_Center__Unit_Cost_Caption;
               SourceExpr=FIELDCAPTION("Unit Cost") }

    { 30  ;1   ;Column  ;Work_Center_CapacityCaption;
               SourceExpr=FIELDCAPTION(Capacity) }

    { 33  ;1   ;Column  ;Work_Center_EfficiencyCaption;
               SourceExpr=FIELDCAPTION(Efficiency) }

    { 8   ;1   ;Column  ;Work_Center__Shop_Calendar_Code_Caption;
               SourceExpr=FIELDCAPTION("Shop Calendar Code") }

    { 13  ;1   ;Column  ;Work_Center__Unit_of_Measure_Code_Caption;
               SourceExpr=FIELDCAPTION("Unit of Measure Code") }

  }
  REQUESTPAGE
  {
    PROPERTIES
    {
    }
    CONTROLS
    {
    }
  }
  LABELS
  {
  }
  CODE
  {
    VAR
      WorkCenterFilter@1000 : Text;
      Work_Center_ListCaptionLbl@1516 : TextConst 'ENU=Work Center List;ENG=Work Centre List';
      CurrReport_PAGENOCaptionLbl@8565 : TextConst 'ENU=Page;ENG=Page';

    BEGIN
    END.
  }
  RDLDATA
  {
    <?xml version="1.0" encoding="utf-8"?>
<Report xmlns="http://schemas.microsoft.com/sqlserver/reporting/2016/01/reportdefinition" xmlns:rd="http://schemas.microsoft.com/SQLServer/reporting/reportdesigner">
  <AutoRefresh>0</AutoRefresh>
  <DataSources>
    <DataSource Name="DataSource">
      <ConnectionProperties>
        <DataProvider>SQL</DataProvider>
        <ConnectString />
      </ConnectionProperties>
      <rd:SecurityType>None</rd:SecurityType>
      <rd:DataSourceID>275825b4-d7ab-4f5a-af69-79e51b9ac7c8</rd:DataSourceID>
    </DataSource>
  </DataSources>
  <DataSets>
    <DataSet Name="DataSet_Result">
      <Query>
        <DataSourceName>DataSource</DataSourceName>
        <CommandText />
      </Query>
      <Fields>
        <Field Name="FORMAT_TODAY_0_4_">
          <DataField>FORMAT_TODAY_0_4_</DataField>
        </Field>
        <Field Name="COMPANYNAME">
          <DataField>COMPANYNAME</DataField>
        </Field>
        <Field Name="CurrReport_PAGENO">
          <DataField>CurrReport_PAGENO</DataField>
        </Field>
        <Field Name="Work_Center__TABLECAPTION_________WorkCenterFilter">
          <DataField>Work_Center__TABLECAPTION_________WorkCenterFilter</DataField>
        </Field>
        <Field Name="WorkCenterFilter">
          <DataField>WorkCenterFilter</DataField>
        </Field>
        <Field Name="Work_Center__No__">
          <DataField>Work_Center__No__</DataField>
        </Field>
        <Field Name="Work_Center_Name">
          <DataField>Work_Center_Name</DataField>
        </Field>
        <Field Name="Work_Center__Alternate_Work_Center_">
          <DataField>Work_Center__Alternate_Work_Center_</DataField>
        </Field>
        <Field Name="Work_Center__Work_Center_Group_Code_">
          <DataField>Work_Center__Work_Center_Group_Code_</DataField>
        </Field>
        <Field Name="Work_Center__Unit_Cost_">
          <DataField>Work_Center__Unit_Cost_</DataField>
        </Field>
        <Field Name="Work_Center__Unit_Cost_Format">
          <DataField>Work_Center__Unit_Cost_Format</DataField>
        </Field>
        <Field Name="Work_Center_Capacity">
          <DataField>Work_Center_Capacity</DataField>
        </Field>
        <Field Name="Work_Center_CapacityFormat">
          <DataField>Work_Center_CapacityFormat</DataField>
        </Field>
        <Field Name="Work_Center_Efficiency">
          <DataField>Work_Center_Efficiency</DataField>
        </Field>
        <Field Name="Work_Center_EfficiencyFormat">
          <DataField>Work_Center_EfficiencyFormat</DataField>
        </Field>
        <Field Name="Work_Center__Shop_Calendar_Code_">
          <DataField>Work_Center__Shop_Calendar_Code_</DataField>
        </Field>
        <Field Name="Work_Center__Unit_of_Measure_Code_">
          <DataField>Work_Center__Unit_of_Measure_Code_</DataField>
        </Field>
        <Field Name="Work_Center_ListCaption">
          <DataField>Work_Center_ListCaption</DataField>
        </Field>
        <Field Name="CurrReport_PAGENOCaption">
          <DataField>CurrReport_PAGENOCaption</DataField>
        </Field>
        <Field Name="Work_Center__No__Caption">
          <DataField>Work_Center__No__Caption</DataField>
        </Field>
        <Field Name="Work_Center_NameCaption">
          <DataField>Work_Center_NameCaption</DataField>
        </Field>
        <Field Name="Work_Center__Alternate_Work_Center_Caption">
          <DataField>Work_Center__Alternate_Work_Center_Caption</DataField>
        </Field>
        <Field Name="Work_Center__Work_Center_Group_Code_Caption">
          <DataField>Work_Center__Work_Center_Group_Code_Caption</DataField>
        </Field>
        <Field Name="Work_Center__Unit_Cost_Caption">
          <DataField>Work_Center__Unit_Cost_Caption</DataField>
        </Field>
        <Field Name="Work_Center_CapacityCaption">
          <DataField>Work_Center_CapacityCaption</DataField>
        </Field>
        <Field Name="Work_Center_EfficiencyCaption">
          <DataField>Work_Center_EfficiencyCaption</DataField>
        </Field>
        <Field Name="Work_Center__Shop_Calendar_Code_Caption">
          <DataField>Work_Center__Shop_Calendar_Code_Caption</DataField>
        </Field>
        <Field Name="Work_Center__Unit_of_Measure_Code_Caption">
          <DataField>Work_Center__Unit_of_Measure_Code_Caption</DataField>
        </Field>
      </Fields>
      <rd:DataSetInfo>
        <rd:DataSetName>DataSet</rd:DataSetName>
        <rd:SchemaPath>Report.xsd</rd:SchemaPath>
        <rd:TableName>Result</rd:TableName>
      </rd:DataSetInfo>
    </DataSet>
  </DataSets>
  <ReportSections>
    <ReportSection>
      <Body>
        <ReportItems>
          <Tablix Name="Table1">
            <TablixBody>
              <TablixColumns>
                <TablixColumn>
                  <Width>1.675cm</Width>
                </TablixColumn>
                <TablixColumn>
                  <Width>4.65cm</Width>
                </TablixColumn>
                <TablixColumn>
                  <Width>1.75cm</Width>
                </TablixColumn>
                <TablixColumn>
                  <Width>1.65cm</Width>
                </TablixColumn>
                <TablixColumn>
                  <Width>1.65cm</Width>
                </TablixColumn>
                <TablixColumn>
                  <Width>1.65cm</Width>
                </TablixColumn>
                <TablixColumn>
                  <Width>1.2cm</Width>
                </TablixColumn>
                <TablixColumn>
                  <Width>1.2cm</Width>
                </TablixColumn>
                <TablixColumn>
                  <Width>1.575cm</Width>
                </TablixColumn>
                <TablixColumn>
                  <Width>0.2cm</Width>
                </TablixColumn>
                <TablixColumn>
                  <Width>0.2cm</Width>
                </TablixColumn>
                <TablixColumn>
                  <Width>0.2cm</Width>
                </TablixColumn>
                <TablixColumn>
                  <Width>0.2cm</Width>
                </TablixColumn>
              </TablixColumns>
              <TablixRows>
                <TablixRow>
                  <Height>0.423cm</Height>
                  <TablixCells>
                    <TablixCell>
                      <CellContents>
                        <Textbox Name="Work_Center__TABLECAPTION_________WorkCenterFilter">
                          <KeepTogether>true</KeepTogether>
                          <Paragraphs>
                            <Paragraph>
                              <TextRuns>
                                <TextRun>
                                  <Value>=First(Fields!Work_Center__TABLECAPTION_________WorkCenterFilter.Value)</Value>
                                  <Style>
                                    <FontSize>7pt</FontSize>
                                  </Style>
                                </TextRun>
                              </TextRuns>
                            </Paragraph>
                          </Paragraphs>
                          <ZIndex>56</ZIndex>
                          <Style>
                            <VerticalAlign>Middle</VerticalAlign>
                            <PaddingTop>2pt</PaddingTop>
                            <PaddingBottom>2pt</PaddingBottom>
                          </Style>
                        </Textbox>
                        <ColSpan>9</ColSpan>
                      </CellContents>
                    </TablixCell>
                    <TablixCell />
                    <TablixCell />
                    <TablixCell />
                    <TablixCell />
                    <TablixCell />
                    <TablixCell />
                    <TablixCell />
                    <TablixCell />
                    <TablixCell>
                      <CellContents>
                        <Textbox Name="WorkCenterFilter">
                          <KeepTogether>true</KeepTogether>
                          <Paragraphs>
                            <Paragraph>
                              <TextRuns>
                                <TextRun>
                                  <Value>=First(Fields!WorkCenterFilter.Value)</Value>
                                  <Style>
                                    <FontSize>7pt</FontSize>
                                    <Color>Red</Color>
                                  </Style>
                                </TextRun>
                              </TextRuns>
                            </Paragraph>
                          </Paragraphs>
                          <ZIndex>55</ZIndex>
                          <Visibility>
                            <Hidden>true</Hidden>
                          </Visibility>
                          <Style>
                            <VerticalAlign>Middle</VerticalAlign>
                            <PaddingTop>2pt</PaddingTop>
                            <PaddingBottom>2pt</PaddingBottom>
                          </Style>
                        </Textbox>
                      </CellContents>
                    </TablixCell>
                    <TablixCell>
                      <CellContents>
                        <Textbox Name="textbox15">
                          <KeepTogether>true</KeepTogether>
                          <Paragraphs>
                            <Paragraph>
                              <TextRuns>
                                <TextRun>
                                  <Value />
                                  <Style />
                                </TextRun>
                              </TextRuns>
                            </Paragraph>
                          </Paragraphs>
                          <rd:DefaultName>textbox15</rd:DefaultName>
                          <ZIndex>54</ZIndex>
                          <Style>
                            <VerticalAlign>Middle</VerticalAlign>
                            <PaddingLeft>2pt</PaddingLeft>
                            <PaddingRight>2pt</PaddingRight>
                            <PaddingTop>2pt</PaddingTop>
                            <PaddingBottom>2pt</PaddingBottom>
                          </Style>
                        </Textbox>
                      </CellContents>
                    </TablixCell>
                    <TablixCell>
                      <CellContents>
                        <Textbox Name="textbox16">
                          <KeepTogether>true</KeepTogether>
                          <Paragraphs>
                            <Paragraph>
                              <TextRuns>
                                <TextRun>
                                  <Value />
                                  <Style />
                                </TextRun>
                              </TextRuns>
                            </Paragraph>
                          </Paragraphs>
                          <rd:DefaultName>textbox16</rd:DefaultName>
                          <ZIndex>53</ZIndex>
                          <Style>
                            <VerticalAlign>Middle</VerticalAlign>
                            <PaddingLeft>2pt</PaddingLeft>
                            <PaddingRight>2pt</PaddingRight>
                            <PaddingTop>2pt</PaddingTop>
                            <PaddingBottom>2pt</PaddingBottom>
                          </Style>
                        </Textbox>
                      </CellContents>
                    </TablixCell>
                    <TablixCell>
                      <CellContents>
                        <Textbox Name="textbox17">
                          <KeepTogether>true</KeepTogether>
                          <Paragraphs>
                            <Paragraph>
                              <TextRuns>
                                <TextRun>
                                  <Value />
                                  <Style />
                                </TextRun>
                              </TextRuns>
                            </Paragraph>
                          </Paragraphs>
                          <rd:DefaultName>textbox17</rd:DefaultName>
                          <ZIndex>52</ZIndex>
                          <Style>
                            <VerticalAlign>Middle</VerticalAlign>
                            <PaddingLeft>2pt</PaddingLeft>
                            <PaddingRight>2pt</PaddingRight>
                            <PaddingTop>2pt</PaddingTop>
                            <PaddingBottom>2pt</PaddingBottom>
                          </Style>
                        </Textbox>
                      </CellContents>
                    </TablixCell>
                  </TablixCells>
                </TablixRow>
                <TablixRow>
                  <Height>0.423cm</Height>
                  <TablixCells>
                    <TablixCell>
                      <CellContents>
                        <Textbox Name="textbox5">
                          <KeepTogether>true</KeepTogether>
                          <Paragraphs>
                            <Paragraph>
                              <TextRuns>
                                <TextRun>
                                  <Value />
                                  <Style>
                                    <FontSize>7pt</FontSize>
                                  </Style>
                                </TextRun>
                              </TextRuns>
                            </Paragraph>
                          </Paragraphs>
                          <rd:DefaultName>textbox5</rd:DefaultName>
                          <ZIndex>51</ZIndex>
                          <Style>
                            <VerticalAlign>Middle</VerticalAlign>
                            <PaddingTop>2pt</PaddingTop>
                            <PaddingBottom>2pt</PaddingBottom>
                          </Style>
                        </Textbox>
                      </CellContents>
                    </TablixCell>
                    <TablixCell>
                      <CellContents>
                        <Textbox Name="textbox6">
                          <KeepTogether>true</KeepTogether>
                          <Paragraphs>
                            <Paragraph>
                              <TextRuns>
                                <TextRun>
                                  <Value />
                                  <Style>
                                    <FontSize>7pt</FontSize>
                                  </Style>
                                </TextRun>
                              </TextRuns>
                            </Paragraph>
                          </Paragraphs>
                          <rd:DefaultName>textbox6</rd:DefaultName>
                          <ZIndex>50</ZIndex>
                          <Style>
                            <VerticalAlign>Middle</VerticalAlign>
                            <PaddingTop>2pt</PaddingTop>
                            <PaddingBottom>2pt</PaddingBottom>
                          </Style>
                        </Textbox>
                      </CellContents>
                    </TablixCell>
                    <TablixCell>
                      <CellContents>
                        <Textbox Name="textbox7">
                          <KeepTogether>true</KeepTogether>
                          <Paragraphs>
                            <Paragraph>
                              <TextRuns>
                                <TextRun>
                                  <Value />
                                  <Style>
                                    <FontSize>7pt</FontSize>
                                  </Style>
                                </TextRun>
                              </TextRuns>
                            </Paragraph>
                          </Paragraphs>
                          <rd:DefaultName>textbox7</rd:DefaultName>
                          <ZIndex>49</ZIndex>
                          <Style>
                            <VerticalAlign>Middle</VerticalAlign>
                            <PaddingTop>2pt</PaddingTop>
                            <PaddingBottom>2pt</PaddingBottom>
                          </Style>
                        </Textbox>
                      </CellContents>
                    </TablixCell>
                    <TablixCell>
                      <CellContents>
                        <Textbox Name="textbox8">
                          <KeepTogether>true</KeepTogether>
                          <Paragraphs>
                            <Paragraph>
                              <TextRuns>
                                <TextRun>
                                  <Value />
                                  <Style>
                                    <FontSize>7pt</FontSize>
                                  </Style>
                                </TextRun>
                              </TextRuns>
                            </Paragraph>
                          </Paragraphs>
                          <rd:DefaultName>textbox8</rd:DefaultName>
                          <ZIndex>48</ZIndex>
                          <Style>
                            <VerticalAlign>Middle</VerticalAlign>
                            <PaddingTop>2pt</PaddingTop>
                            <PaddingBottom>2pt</PaddingBottom>
                          </Style>
                        </Textbox>
                      </CellContents>
                    </TablixCell>
                    <TablixCell>
                      <CellContents>
                        <Textbox Name="textbox9">
                          <KeepTogether>true</KeepTogether>
                          <Paragraphs>
                            <Paragraph>
                              <TextRuns>
                                <TextRun>
                                  <Value />
                                  <Style>
                                    <FontSize>7pt</FontSize>
                                  </Style>
                                </TextRun>
                              </TextRuns>
                            </Paragraph>
                          </Paragraphs>
                          <rd:DefaultName>textbox9</rd:DefaultName>
                          <ZIndex>47</ZIndex>
                          <Style>
                            <VerticalAlign>Middle</VerticalAlign>
                            <PaddingTop>2pt</PaddingTop>
                            <PaddingBottom>2pt</PaddingBottom>
                          </Style>
                        </Textbox>
                      </CellContents>
                    </TablixCell>
                    <TablixCell>
                      <CellContents>
                        <Textbox Name="textbox10">
                          <KeepTogether>true</KeepTogether>
                          <Paragraphs>
                            <Paragraph>
                              <TextRuns>
                                <TextRun>
                                  <Value />
                                  <Style>
                                    <FontSize>7pt</FontSize>
                                  </Style>
                                </TextRun>
                              </TextRuns>
                            </Paragraph>
                          </Paragraphs>
                          <rd:DefaultName>textbox10</rd:DefaultName>
                          <ZIndex>46</ZIndex>
                          <Style>
                            <VerticalAlign>Middle</VerticalAlign>
                            <PaddingTop>2pt</PaddingTop>
                            <PaddingBottom>2pt</PaddingBottom>
                          </Style>
                        </Textbox>
                      </CellContents>
                    </TablixCell>
                    <TablixCell>
                      <CellContents>
                        <Textbox Name="textbox11">
                          <KeepTogether>true</KeepTogether>
                          <Paragraphs>
                            <Paragraph>
                              <TextRuns>
                                <TextRun>
                                  <Value />
                                  <Style>
                                    <FontSize>7pt</FontSize>
                                  </Style>
                                </TextRun>
                              </TextRuns>
                            </Paragraph>
                          </Paragraphs>
                          <rd:DefaultName>textbox11</rd:DefaultName>
                          <ZIndex>45</ZIndex>
                          <Style>
                            <VerticalAlign>Middle</VerticalAlign>
                            <PaddingTop>2pt</PaddingTop>
                            <PaddingBottom>2pt</PaddingBottom>
                          </Style>
                        </Textbox>
                      </CellContents>
                    </TablixCell>
                    <TablixCell>
                      <CellContents>
                        <Textbox Name="textbox12">
                          <KeepTogether>true</KeepTogether>
                          <Paragraphs>
                            <Paragraph>
                              <TextRuns>
                                <TextRun>
                                  <Value />
                                  <Style>
                                    <FontSize>7pt</FontSize>
                                  </Style>
                                </TextRun>
                              </TextRuns>
                            </Paragraph>
                          </Paragraphs>
                          <rd:DefaultName>textbox12</rd:DefaultName>
                          <ZIndex>44</ZIndex>
                          <Style>
                            <VerticalAlign>Middle</VerticalAlign>
                            <PaddingTop>2pt</PaddingTop>
                            <PaddingBottom>2pt</PaddingBottom>
                          </Style>
                        </Textbox>
                      </CellContents>
                    </TablixCell>
                    <TablixCell>
                      <CellContents>
                        <Textbox Name="textbox13">
                          <KeepTogether>true</KeepTogether>
                          <Paragraphs>
                            <Paragraph>
                              <TextRuns>
                                <TextRun>
                                  <Value />
                                  <Style>
                                    <FontSize>7pt</FontSize>
                                  </Style>
                                </TextRun>
                              </TextRuns>
                            </Paragraph>
                          </Paragraphs>
                          <rd:DefaultName>textbox13</rd:DefaultName>
                          <ZIndex>43</ZIndex>
                          <Style>
                            <VerticalAlign>Middle</VerticalAlign>
                            <PaddingTop>2pt</PaddingTop>
                            <PaddingBottom>2pt</PaddingBottom>
                          </Style>
                        </Textbox>
                      </CellContents>
                    </TablixCell>
                    <TablixCell>
                      <CellContents>
                        <Textbox Name="textbox14">
                          <KeepTogether>true</KeepTogether>
                          <Paragraphs>
                            <Paragraph>
                              <TextRuns>
                                <TextRun>
                                  <Value />
                                  <Style>
                                    <FontSize>7pt</FontSize>
                                    <Color>#ffff00</Color>
                                  </Style>
                                </TextRun>
                              </TextRuns>
                            </Paragraph>
                          </Paragraphs>
                          <rd:DefaultName>textbox14</rd:DefaultName>
                          <ZIndex>42</ZIndex>
                          <Style>
                            <VerticalAlign>Middle</VerticalAlign>
                            <PaddingTop>2pt</PaddingTop>
                            <PaddingBottom>2pt</PaddingBottom>
                          </Style>
                        </Textbox>
                      </CellContents>
                    </TablixCell>
                    <TablixCell>
                      <CellContents>
                        <Textbox Name="textbox18">
                          <KeepTogether>true</KeepTogether>
                          <Paragraphs>
                            <Paragraph>
                              <TextRuns>
                                <TextRun>
                                  <Value />
                                  <Style />
                                </TextRun>
                              </TextRuns>
                            </Paragraph>
                          </Paragraphs>
                          <rd:DefaultName>textbox18</rd:DefaultName>
                          <ZIndex>41</ZIndex>
                          <Style>
                            <VerticalAlign>Middle</VerticalAlign>
                            <PaddingLeft>2pt</PaddingLeft>
                            <PaddingRight>2pt</PaddingRight>
                            <PaddingTop>2pt</PaddingTop>
                            <PaddingBottom>2pt</PaddingBottom>
                          </Style>
                        </Textbox>
                      </CellContents>
                    </TablixCell>
                    <TablixCell>
                      <CellContents>
                        <Textbox Name="textbox19">
                          <KeepTogether>true</KeepTogether>
                          <Paragraphs>
                            <Paragraph>
                              <TextRuns>
                                <TextRun>
                                  <Value />
                                  <Style />
                                </TextRun>
                              </TextRuns>
                            </Paragraph>
                          </Paragraphs>
                          <rd:DefaultName>textbox19</rd:DefaultName>
                          <ZIndex>40</ZIndex>
                          <Style>
                            <VerticalAlign>Middle</VerticalAlign>
                            <PaddingLeft>2pt</PaddingLeft>
                            <PaddingRight>2pt</PaddingRight>
                            <PaddingTop>2pt</PaddingTop>
                            <PaddingBottom>2pt</PaddingBottom>
                          </Style>
                        </Textbox>
                      </CellContents>
                    </TablixCell>
                    <TablixCell>
                      <CellContents>
                        <Textbox Name="textbox20">
                          <KeepTogether>true</KeepTogether>
                          <Paragraphs>
                            <Paragraph>
                              <TextRuns>
                                <TextRun>
                                  <Value />
                                  <Style />
                                </TextRun>
                              </TextRuns>
                            </Paragraph>
                          </Paragraphs>
                          <rd:DefaultName>textbox20</rd:DefaultName>
                          <ZIndex>39</ZIndex>
                          <Style>
                            <VerticalAlign>Middle</VerticalAlign>
                            <PaddingLeft>2pt</PaddingLeft>
                            <PaddingRight>2pt</PaddingRight>
                            <PaddingTop>2pt</PaddingTop>
                            <PaddingBottom>2pt</PaddingBottom>
                          </Style>
                        </Textbox>
                      </CellContents>
                    </TablixCell>
                  </TablixCells>
                </TablixRow>
                <TablixRow>
                  <Height>0.846cm</Height>
                  <TablixCells>
                    <TablixCell>
                      <CellContents>
                        <Textbox Name="Work_Center__No__Caption">
                          <CanGrow>true</CanGrow>
                          <KeepTogether>true</KeepTogether>
                          <Paragraphs>
                            <Paragraph>
                              <TextRuns>
                                <TextRun>
                                  <Value>=First(Fields!Work_Center__No__Caption.Value)</Value>
                                  <Style>
                                    <FontSize>7pt</FontSize>
                                    <FontWeight>Bold</FontWeight>
                                  </Style>
                                </TextRun>
                              </TextRuns>
                            </Paragraph>
                          </Paragraphs>
                          <ZIndex>38</ZIndex>
                          <Style>
                            <VerticalAlign>Bottom</VerticalAlign>
                            <PaddingRight>0.075cm</PaddingRight>
                          </Style>
                        </Textbox>
                      </CellContents>
                    </TablixCell>
                    <TablixCell>
                      <CellContents>
                        <Textbox Name="Work_Center_NameCaption">
                          <CanGrow>true</CanGrow>
                          <KeepTogether>true</KeepTogether>
                          <Paragraphs>
                            <Paragraph>
                              <TextRuns>
                                <TextRun>
                                  <Value>=First(Fields!Work_Center_NameCaption.Value)</Value>
                                  <Style>
                                    <FontSize>7pt</FontSize>
                                    <FontWeight>Bold</FontWeight>
                                  </Style>
                                </TextRun>
                              </TextRuns>
                            </Paragraph>
                          </Paragraphs>
                          <ZIndex>37</ZIndex>
                          <Style>
                            <VerticalAlign>Bottom</VerticalAlign>
                            <PaddingLeft>0.075cm</PaddingLeft>
                            <PaddingRight>0.075cm</PaddingRight>
                          </Style>
                        </Textbox>
                      </CellContents>
                    </TablixCell>
                    <TablixCell>
                      <CellContents>
                        <Textbox Name="Work_Center__Alternate_Work_Center_Caption">
                          <CanGrow>true</CanGrow>
                          <KeepTogether>true</KeepTogether>
                          <Paragraphs>
                            <Paragraph>
                              <TextRuns>
                                <TextRun>
                                  <Value>=First(Fields!Work_Center__Alternate_Work_Center_Caption.Value)</Value>
                                  <Style>
                                    <FontSize>7pt</FontSize>
                                    <FontWeight>Bold</FontWeight>
                                  </Style>
                                </TextRun>
                              </TextRuns>
                            </Paragraph>
                          </Paragraphs>
                          <ZIndex>36</ZIndex>
                          <Style>
                            <VerticalAlign>Bottom</VerticalAlign>
                            <PaddingLeft>0.075cm</PaddingLeft>
                            <PaddingRight>0.075cm</PaddingRight>
                          </Style>
                        </Textbox>
                      </CellContents>
                    </TablixCell>
                    <TablixCell>
                      <CellContents>
                        <Textbox Name="Work_Center__Work_Center_Group_Code_Caption">
                          <CanGrow>true</CanGrow>
                          <KeepTogether>true</KeepTogether>
                          <Paragraphs>
                            <Paragraph>
                              <TextRuns>
                                <TextRun>
                                  <Value>=First(Fields!Work_Center__Work_Center_Group_Code_Caption.Value)</Value>
                                  <Style>
                                    <FontSize>7pt</FontSize>
                                    <FontWeight>Bold</FontWeight>
                                  </Style>
                                </TextRun>
                              </TextRuns>
                            </Paragraph>
                          </Paragraphs>
                          <ZIndex>35</ZIndex>
                          <Style>
                            <VerticalAlign>Bottom</VerticalAlign>
                            <PaddingLeft>0.075cm</PaddingLeft>
                            <PaddingRight>0.075cm</PaddingRight>
                          </Style>
                        </Textbox>
                      </CellContents>
                    </TablixCell>
                    <TablixCell>
                      <CellContents>
                        <Textbox Name="Work_Center__Unit_Cost_Caption">
                          <CanGrow>true</CanGrow>
                          <KeepTogether>true</KeepTogether>
                          <Paragraphs>
                            <Paragraph>
                              <TextRuns>
                                <TextRun>
                                  <Value>=First(Fields!Work_Center__Unit_Cost_Caption.Value)</Value>
                                  <Style>
                                    <FontSize>7pt</FontSize>
                                    <FontWeight>Bold</FontWeight>
                                  </Style>
                                </TextRun>
                              </TextRuns>
                              <Style>
                                <TextAlign>Right</TextAlign>
                              </Style>
                            </Paragraph>
                          </Paragraphs>
                          <ZIndex>34</ZIndex>
                          <Style>
                            <VerticalAlign>Bottom</VerticalAlign>
                            <PaddingLeft>0.075cm</PaddingLeft>
                            <PaddingRight>0.075cm</PaddingRight>
                          </Style>
                        </Textbox>
                      </CellContents>
                    </TablixCell>
                    <TablixCell>
                      <CellContents>
                        <Textbox Name="Work_Center__Unit_of_Measure_Code_Caption">
                          <CanGrow>true</CanGrow>
                          <KeepTogether>true</KeepTogether>
                          <Paragraphs>
                            <Paragraph>
                              <TextRuns>
                                <TextRun>
                                  <Value>=First(Fields!Work_Center__Unit_of_Measure_Code_Caption.Value)</Value>
                                  <Style>
                                    <FontSize>7pt</FontSize>
                                    <FontWeight>Bold</FontWeight>
                                  </Style>
                                </TextRun>
                              </TextRuns>
                            </Paragraph>
                          </Paragraphs>
                          <ZIndex>33</ZIndex>
                          <Style>
                            <VerticalAlign>Bottom</VerticalAlign>
                            <PaddingLeft>0.075cm</PaddingLeft>
                            <PaddingRight>0.075cm</PaddingRight>
                          </Style>
                        </Textbox>
                      </CellContents>
                    </TablixCell>
                    <TablixCell>
                      <CellContents>
                        <Textbox Name="Work_Center_CapacityCaption">
                          <CanGrow>true</CanGrow>
                          <KeepTogether>true</KeepTogether>
                          <Paragraphs>
                            <Paragraph>
                              <TextRuns>
                                <TextRun>
                                  <Value>=First(Fields!Work_Center_CapacityCaption.Value)</Value>
                                  <Style>
                                    <FontSize>7pt</FontSize>
                                    <FontWeight>Bold</FontWeight>
                                  </Style>
                                </TextRun>
                              </TextRuns>
                            </Paragraph>
                          </Paragraphs>
                          <ZIndex>32</ZIndex>
                          <Style>
                            <VerticalAlign>Bottom</VerticalAlign>
                            <PaddingLeft>0.075cm</PaddingLeft>
                            <PaddingRight>0.075cm</PaddingRight>
                          </Style>
                        </Textbox>
                      </CellContents>
                    </TablixCell>
                    <TablixCell>
                      <CellContents>
                        <Textbox Name="Work_Center_EfficiencyCaption">
                          <CanGrow>true</CanGrow>
                          <KeepTogether>true</KeepTogether>
                          <Paragraphs>
                            <Paragraph>
                              <TextRuns>
                                <TextRun>
                                  <Value>=First(Fields!Work_Center_EfficiencyCaption.Value)</Value>
                                  <Style>
                                    <FontSize>7pt</FontSize>
                                    <FontWeight>Bold</FontWeight>
                                  </Style>
                                </TextRun>
                              </TextRuns>
                            </Paragraph>
                          </Paragraphs>
                          <ZIndex>31</ZIndex>
                          <Style>
                            <VerticalAlign>Bottom</VerticalAlign>
                            <PaddingLeft>0.075cm</PaddingLeft>
                            <PaddingRight>0.075cm</PaddingRight>
                          </Style>
                        </Textbox>
                      </CellContents>
                    </TablixCell>
                    <TablixCell>
                      <CellContents>
                        <Textbox Name="Work_Center__Shop_Calendar_Code_Caption">
                          <CanGrow>true</CanGrow>
                          <KeepTogether>true</KeepTogether>
                          <Paragraphs>
                            <Paragraph>
                              <TextRuns>
                                <TextRun>
                                  <Value>=First(Fields!Work_Center__Shop_Calendar_Code_Caption.Value)</Value>
                                  <Style>
                                    <FontSize>7pt</FontSize>
                                    <FontWeight>Bold</FontWeight>
                                  </Style>
                                </TextRun>
                              </TextRuns>
                            </Paragraph>
                          </Paragraphs>
                          <ZIndex>30</ZIndex>
                          <Style>
                            <VerticalAlign>Bottom</VerticalAlign>
                            <PaddingLeft>0.075cm</PaddingLeft>
                          </Style>
                        </Textbox>
                      </CellContents>
                    </TablixCell>
                    <TablixCell>
                      <CellContents>
                        <Textbox Name="TextBox1">
                          <KeepTogether>true</KeepTogether>
                          <Paragraphs>
                            <Paragraph>
                              <TextRuns>
                                <TextRun>
                                  <Value />
                                  <Style />
                                </TextRun>
                              </TextRuns>
                            </Paragraph>
                          </Paragraphs>
                          <ZIndex>29</ZIndex>
                          <Style>
                            <VerticalAlign>Bottom</VerticalAlign>
                            <PaddingLeft>2pt</PaddingLeft>
                            <PaddingRight>2pt</PaddingRight>
                          </Style>
                        </Textbox>
                      </CellContents>
                    </TablixCell>
                    <TablixCell>
                      <CellContents>
                        <Textbox Name="textbox2">
                          <KeepTogether>true</KeepTogether>
                          <Paragraphs>
                            <Paragraph>
                              <TextRuns>
                                <TextRun>
                                  <Value />
                                  <Style />
                                </TextRun>
                              </TextRuns>
                            </Paragraph>
                          </Paragraphs>
                          <rd:DefaultName>textbox2</rd:DefaultName>
                          <ZIndex>28</ZIndex>
                          <Style>
                            <VerticalAlign>Bottom</VerticalAlign>
                            <PaddingLeft>2pt</PaddingLeft>
                            <PaddingRight>2pt</PaddingRight>
                          </Style>
                        </Textbox>
                      </CellContents>
                    </TablixCell>
                    <TablixCell>
                      <CellContents>
                        <Textbox Name="textbox3">
                          <KeepTogether>true</KeepTogether>
                          <Paragraphs>
                            <Paragraph>
                              <TextRuns>
                                <TextRun>
                                  <Value />
                                  <Style />
                                </TextRun>
                              </TextRuns>
                            </Paragraph>
                          </Paragraphs>
                          <rd:DefaultName>textbox3</rd:DefaultName>
                          <ZIndex>27</ZIndex>
                          <Style>
                            <VerticalAlign>Bottom</VerticalAlign>
                            <PaddingLeft>2pt</PaddingLeft>
                            <PaddingRight>2pt</PaddingRight>
                          </Style>
                        </Textbox>
                      </CellContents>
                    </TablixCell>
                    <TablixCell>
                      <CellContents>
                        <Textbox Name="textbox4">
                          <KeepTogether>true</KeepTogether>
                          <Paragraphs>
                            <Paragraph>
                              <TextRuns>
                                <TextRun>
                                  <Value />
                                  <Style />
                                </TextRun>
                              </TextRuns>
                            </Paragraph>
                          </Paragraphs>
                          <rd:DefaultName>textbox4</rd:DefaultName>
                          <ZIndex>26</ZIndex>
                          <Style>
                            <VerticalAlign>Bottom</VerticalAlign>
                            <PaddingLeft>2pt</PaddingLeft>
                            <PaddingRight>2pt</PaddingRight>
                          </Style>
                        </Textbox>
                      </CellContents>
                    </TablixCell>
                  </TablixCells>
                </TablixRow>
                <TablixRow>
                  <Height>0.423cm</Height>
                  <TablixCells>
                    <TablixCell>
                      <CellContents>
                        <Textbox Name="textbox21">
                          <KeepTogether>true</KeepTogether>
                          <Paragraphs>
                            <Paragraph>
                              <TextRuns>
                                <TextRun>
                                  <Value />
                                  <Style>
                                    <FontSize>7pt</FontSize>
                                    <FontWeight>Bold</FontWeight>
                                  </Style>
                                </TextRun>
                              </TextRuns>
                            </Paragraph>
                          </Paragraphs>
                          <rd:DefaultName>textbox21</rd:DefaultName>
                          <ZIndex>25</ZIndex>
                          <Style>
                            <VerticalAlign>Bottom</VerticalAlign>
                            <PaddingRight>0.075cm</PaddingRight>
                            <PaddingTop>2pt</PaddingTop>
                            <PaddingBottom>2pt</PaddingBottom>
                          </Style>
                        </Textbox>
                      </CellContents>
                    </TablixCell>
                    <TablixCell>
                      <CellContents>
                        <Textbox Name="textbox22">
                          <KeepTogether>true</KeepTogether>
                          <Paragraphs>
                            <Paragraph>
                              <TextRuns>
                                <TextRun>
                                  <Value />
                                  <Style>
                                    <FontSize>7pt</FontSize>
                                    <FontWeight>Bold</FontWeight>
                                  </Style>
                                </TextRun>
                              </TextRuns>
                            </Paragraph>
                          </Paragraphs>
                          <rd:DefaultName>textbox22</rd:DefaultName>
                          <ZIndex>24</ZIndex>
                          <Style>
                            <VerticalAlign>Bottom</VerticalAlign>
                            <PaddingLeft>0.075cm</PaddingLeft>
                            <PaddingRight>0.075cm</PaddingRight>
                            <PaddingTop>2pt</PaddingTop>
                            <PaddingBottom>2pt</PaddingBottom>
                          </Style>
                        </Textbox>
                      </CellContents>
                    </TablixCell>
                    <TablixCell>
                      <CellContents>
                        <Textbox Name="textbox23">
                          <KeepTogether>true</KeepTogether>
                          <Paragraphs>
                            <Paragraph>
                              <TextRuns>
                                <TextRun>
                                  <Value />
                                  <Style>
                                    <FontSize>7pt</FontSize>
                                    <FontWeight>Bold</FontWeight>
                                  </Style>
                                </TextRun>
                              </TextRuns>
                            </Paragraph>
                          </Paragraphs>
                          <rd:DefaultName>textbox23</rd:DefaultName>
                          <ZIndex>23</ZIndex>
                          <Style>
                            <VerticalAlign>Bottom</VerticalAlign>
                            <PaddingLeft>0.075cm</PaddingLeft>
                            <PaddingRight>0.075cm</PaddingRight>
                            <PaddingTop>2pt</PaddingTop>
                            <PaddingBottom>2pt</PaddingBottom>
                          </Style>
                        </Textbox>
                      </CellContents>
                    </TablixCell>
                    <TablixCell>
                      <CellContents>
                        <Textbox Name="textbox24">
                          <KeepTogether>true</KeepTogether>
                          <Paragraphs>
                            <Paragraph>
                              <TextRuns>
                                <TextRun>
                                  <Value />
                                  <Style>
                                    <FontSize>7pt</FontSize>
                                    <FontWeight>Bold</FontWeight>
                                  </Style>
                                </TextRun>
                              </TextRuns>
                            </Paragraph>
                          </Paragraphs>
                          <rd:DefaultName>textbox24</rd:DefaultName>
                          <ZIndex>22</ZIndex>
                          <Style>
                            <VerticalAlign>Bottom</VerticalAlign>
                            <PaddingLeft>0.075cm</PaddingLeft>
                            <PaddingRight>0.075cm</PaddingRight>
                            <PaddingTop>2pt</PaddingTop>
                            <PaddingBottom>2pt</PaddingBottom>
                          </Style>
                        </Textbox>
                      </CellContents>
                    </TablixCell>
                    <TablixCell>
                      <CellContents>
                        <Textbox Name="textbox25">
                          <KeepTogether>true</KeepTogether>
                          <Paragraphs>
                            <Paragraph>
                              <TextRuns>
                                <TextRun>
                                  <Value />
                                  <Style>
                                    <FontSize>7pt</FontSize>
                                    <FontWeight>Bold</FontWeight>
                                  </Style>
                                </TextRun>
                              </TextRuns>
                            </Paragraph>
                          </Paragraphs>
                          <rd:DefaultName>textbox25</rd:DefaultName>
                          <ZIndex>21</ZIndex>
                          <Style>
                            <VerticalAlign>Bottom</VerticalAlign>
                            <PaddingLeft>0.075cm</PaddingLeft>
                            <PaddingRight>0.075cm</PaddingRight>
                            <PaddingTop>2pt</PaddingTop>
                            <PaddingBottom>2pt</PaddingBottom>
                          </Style>
                        </Textbox>
                      </CellContents>
                    </TablixCell>
                    <TablixCell>
                      <CellContents>
                        <Textbox Name="textbox26">
                          <KeepTogether>true</KeepTogether>
                          <Paragraphs>
                            <Paragraph>
                              <TextRuns>
                                <TextRun>
                                  <Value />
                                  <Style>
                                    <FontSize>7pt</FontSize>
                                    <FontWeight>Bold</FontWeight>
                                  </Style>
                                </TextRun>
                              </TextRuns>
                            </Paragraph>
                          </Paragraphs>
                          <rd:DefaultName>textbox26</rd:DefaultName>
                          <ZIndex>20</ZIndex>
                          <Style>
                            <VerticalAlign>Bottom</VerticalAlign>
                            <PaddingLeft>0.075cm</PaddingLeft>
                            <PaddingRight>0.075cm</PaddingRight>
                            <PaddingTop>2pt</PaddingTop>
                            <PaddingBottom>2pt</PaddingBottom>
                          </Style>
                        </Textbox>
                      </CellContents>
                    </TablixCell>
                    <TablixCell>
                      <CellContents>
                        <Textbox Name="textbox27">
                          <KeepTogether>true</KeepTogether>
                          <Paragraphs>
                            <Paragraph>
                              <TextRuns>
                                <TextRun>
                                  <Value />
                                  <Style>
                                    <FontSize>7pt</FontSize>
                                    <FontWeight>Bold</FontWeight>
                                  </Style>
                                </TextRun>
                              </TextRuns>
                            </Paragraph>
                          </Paragraphs>
                          <rd:DefaultName>textbox27</rd:DefaultName>
                          <ZIndex>19</ZIndex>
                          <Style>
                            <VerticalAlign>Bottom</VerticalAlign>
                            <PaddingLeft>0.075cm</PaddingLeft>
                            <PaddingRight>0.075cm</PaddingRight>
                            <PaddingTop>2pt</PaddingTop>
                            <PaddingBottom>2pt</PaddingBottom>
                          </Style>
                        </Textbox>
                      </CellContents>
                    </TablixCell>
                    <TablixCell>
                      <CellContents>
                        <Textbox Name="textbox28">
                          <KeepTogether>true</KeepTogether>
                          <Paragraphs>
                            <Paragraph>
                              <TextRuns>
                                <TextRun>
                                  <Value />
                                  <Style>
                                    <FontSize>7pt</FontSize>
                                    <FontWeight>Bold</FontWeight>
                                  </Style>
                                </TextRun>
                              </TextRuns>
                            </Paragraph>
                          </Paragraphs>
                          <rd:DefaultName>textbox28</rd:DefaultName>
                          <ZIndex>18</ZIndex>
                          <Style>
                            <VerticalAlign>Bottom</VerticalAlign>
                            <PaddingLeft>0.075cm</PaddingLeft>
                            <PaddingRight>0.075cm</PaddingRight>
                            <PaddingTop>2pt</PaddingTop>
                            <PaddingBottom>2pt</PaddingBottom>
                          </Style>
                        </Textbox>
                      </CellContents>
                    </TablixCell>
                    <TablixCell>
                      <CellContents>
                        <Textbox Name="textbox29">
                          <KeepTogether>true</KeepTogether>
                          <Paragraphs>
                            <Paragraph>
                              <TextRuns>
                                <TextRun>
                                  <Value />
                                  <Style>
                                    <FontSize>7pt</FontSize>
                                    <FontWeight>Bold</FontWeight>
                                  </Style>
                                </TextRun>
                              </TextRuns>
                            </Paragraph>
                          </Paragraphs>
                          <rd:DefaultName>textbox29</rd:DefaultName>
                          <ZIndex>17</ZIndex>
                          <Style>
                            <VerticalAlign>Bottom</VerticalAlign>
                            <PaddingLeft>0.075cm</PaddingLeft>
                            <PaddingTop>2pt</PaddingTop>
                            <PaddingBottom>2pt</PaddingBottom>
                          </Style>
                        </Textbox>
                      </CellContents>
                    </TablixCell>
                    <TablixCell>
                      <CellContents>
                        <Textbox Name="textbox30">
                          <KeepTogether>true</KeepTogether>
                          <Paragraphs>
                            <Paragraph>
                              <TextRuns>
                                <TextRun>
                                  <Value />
                                  <Style />
                                </TextRun>
                              </TextRuns>
                            </Paragraph>
                          </Paragraphs>
                          <rd:DefaultName>textbox30</rd:DefaultName>
                          <ZIndex>16</ZIndex>
                          <Style>
                            <VerticalAlign>Bottom</VerticalAlign>
                            <PaddingLeft>2pt</PaddingLeft>
                            <PaddingRight>2pt</PaddingRight>
                            <PaddingTop>2pt</PaddingTop>
                            <PaddingBottom>2pt</PaddingBottom>
                          </Style>
                        </Textbox>
                      </CellContents>
                    </TablixCell>
                    <TablixCell>
                      <CellContents>
                        <Textbox Name="textbox31">
                          <KeepTogether>true</KeepTogether>
                          <Paragraphs>
                            <Paragraph>
                              <TextRuns>
                                <TextRun>
                                  <Value />
                                  <Style />
                                </TextRun>
                              </TextRuns>
                            </Paragraph>
                          </Paragraphs>
                          <rd:DefaultName>textbox31</rd:DefaultName>
                          <ZIndex>15</ZIndex>
                          <Style>
                            <VerticalAlign>Bottom</VerticalAlign>
                            <PaddingLeft>2pt</PaddingLeft>
                            <PaddingRight>2pt</PaddingRight>
                            <PaddingTop>2pt</PaddingTop>
                            <PaddingBottom>2pt</PaddingBottom>
                          </Style>
                        </Textbox>
                      </CellContents>
                    </TablixCell>
                    <TablixCell>
                      <CellContents>
                        <Textbox Name="textbox32">
                          <KeepTogether>true</KeepTogether>
                          <Paragraphs>
                            <Paragraph>
                              <TextRuns>
                                <TextRun>
                                  <Value />
                                  <Style />
                                </TextRun>
                              </TextRuns>
                            </Paragraph>
                          </Paragraphs>
                          <rd:DefaultName>textbox32</rd:DefaultName>
                          <ZIndex>14</ZIndex>
                          <Style>
                            <VerticalAlign>Bottom</VerticalAlign>
                            <PaddingLeft>2pt</PaddingLeft>
                            <PaddingRight>2pt</PaddingRight>
                            <PaddingTop>2pt</PaddingTop>
                            <PaddingBottom>2pt</PaddingBottom>
                          </Style>
                        </Textbox>
                      </CellContents>
                    </TablixCell>
                    <TablixCell>
                      <CellContents>
                        <Textbox Name="textbox33">
                          <KeepTogether>true</KeepTogether>
                          <Paragraphs>
                            <Paragraph>
                              <TextRuns>
                                <TextRun>
                                  <Value />
                                  <Style />
                                </TextRun>
                              </TextRuns>
                            </Paragraph>
                          </Paragraphs>
                          <rd:DefaultName>textbox33</rd:DefaultName>
                          <ZIndex>13</ZIndex>
                          <Style>
                            <VerticalAlign>Bottom</VerticalAlign>
                            <PaddingLeft>2pt</PaddingLeft>
                            <PaddingRight>2pt</PaddingRight>
                            <PaddingTop>2pt</PaddingTop>
                            <PaddingBottom>2pt</PaddingBottom>
                          </Style>
                        </Textbox>
                      </CellContents>
                    </TablixCell>
                  </TablixCells>
                </TablixRow>
                <TablixRow>
                  <Height>0.423cm</Height>
                  <TablixCells>
                    <TablixCell>
                      <CellContents>
                        <Textbox Name="Work_Center__No__">
                          <KeepTogether>true</KeepTogether>
                          <Paragraphs>
                            <Paragraph>
                              <TextRuns>
                                <TextRun>
                                  <Value>=Fields!Work_Center__No__.Value</Value>
                                  <Style>
                                    <FontSize>7pt</FontSize>
                                  </Style>
                                </TextRun>
                              </TextRuns>
                              <Style>
                                <TextAlign>Left</TextAlign>
                              </Style>
                            </Paragraph>
                          </Paragraphs>
                          <ZIndex>12</ZIndex>
                          <Style>
                            <PaddingRight>0.075cm</PaddingRight>
                            <PaddingTop>2pt</PaddingTop>
                            <PaddingBottom>2pt</PaddingBottom>
                          </Style>
                        </Textbox>
                      </CellContents>
                    </TablixCell>
                    <TablixCell>
                      <CellContents>
                        <Textbox Name="Work_Center_Name">
                          <KeepTogether>true</KeepTogether>
                          <Paragraphs>
                            <Paragraph>
                              <TextRuns>
                                <TextRun>
                                  <Value>=Fields!Work_Center_Name.Value</Value>
                                  <Style>
                                    <FontSize>7pt</FontSize>
                                  </Style>
                                </TextRun>
                              </TextRuns>
                              <Style>
                                <TextAlign>Left</TextAlign>
                              </Style>
                            </Paragraph>
                          </Paragraphs>
                          <ZIndex>11</ZIndex>
                          <Style>
                            <PaddingLeft>0.075cm</PaddingLeft>
                            <PaddingRight>0.075cm</PaddingRight>
                            <PaddingTop>2pt</PaddingTop>
                            <PaddingBottom>2pt</PaddingBottom>
                          </Style>
                        </Textbox>
                      </CellContents>
                    </TablixCell>
                    <TablixCell>
                      <CellContents>
                        <Textbox Name="Work_Center__Alternate_Work_Center_">
                          <KeepTogether>true</KeepTogether>
                          <Paragraphs>
                            <Paragraph>
                              <TextRuns>
                                <TextRun>
                                  <Value>=Fields!Work_Center__Alternate_Work_Center_.Value</Value>
                                  <Style>
                                    <FontSize>7pt</FontSize>
                                  </Style>
                                </TextRun>
                              </TextRuns>
                              <Style>
                                <TextAlign>Left</TextAlign>
                              </Style>
                            </Paragraph>
                          </Paragraphs>
                          <ZIndex>10</ZIndex>
                          <Style>
                            <PaddingLeft>0.075cm</PaddingLeft>
                            <PaddingRight>0.075cm</PaddingRight>
                            <PaddingTop>2pt</PaddingTop>
                            <PaddingBottom>2pt</PaddingBottom>
                          </Style>
                        </Textbox>
                      </CellContents>
                    </TablixCell>
                    <TablixCell>
                      <CellContents>
                        <Textbox Name="Work_Center__Work_Center_Group_Code_">
                          <KeepTogether>true</KeepTogether>
                          <Paragraphs>
                            <Paragraph>
                              <TextRuns>
                                <TextRun>
                                  <Value>=Fields!Work_Center__Work_Center_Group_Code_.Value</Value>
                                  <Style>
                                    <FontSize>7pt</FontSize>
                                  </Style>
                                </TextRun>
                              </TextRuns>
                              <Style>
                                <TextAlign>Left</TextAlign>
                              </Style>
                            </Paragraph>
                          </Paragraphs>
                          <ZIndex>9</ZIndex>
                          <Style>
                            <PaddingLeft>0.075cm</PaddingLeft>
                            <PaddingRight>0.075cm</PaddingRight>
                            <PaddingTop>2pt</PaddingTop>
                            <PaddingBottom>2pt</PaddingBottom>
                          </Style>
                        </Textbox>
                      </CellContents>
                    </TablixCell>
                    <TablixCell>
                      <CellContents>
                        <Textbox Name="Work_Center__Unit_Cost_">
                          <CanGrow>true</CanGrow>
                          <KeepTogether>true</KeepTogether>
                          <Paragraphs>
                            <Paragraph>
                              <TextRuns>
                                <TextRun>
                                  <Value>=Fields!Work_Center__Unit_Cost_.Value</Value>
                                  <Style>
                                    <FontSize>7pt</FontSize>
                                    <Format>=Fields!Work_Center__Unit_Cost_Format.Value</Format>
                                  </Style>
                                </TextRun>
                              </TextRuns>
                              <Style>
                                <TextAlign>Right</TextAlign>
                              </Style>
                            </Paragraph>
                          </Paragraphs>
                          <ZIndex>8</ZIndex>
                          <Style>
                            <PaddingLeft>0.075cm</PaddingLeft>
                            <PaddingRight>0.075cm</PaddingRight>
                            <PaddingTop>2pt</PaddingTop>
                            <PaddingBottom>2pt</PaddingBottom>
                          </Style>
                        </Textbox>
                      </CellContents>
                    </TablixCell>
                    <TablixCell>
                      <CellContents>
                        <Textbox Name="Work_Center__Unit_of_Measure_Code_">
                          <KeepTogether>true</KeepTogether>
                          <Paragraphs>
                            <Paragraph>
                              <TextRuns>
                                <TextRun>
                                  <Value>=Fields!Work_Center__Unit_of_Measure_Code_.Value</Value>
                                  <Style>
                                    <FontSize>7pt</FontSize>
                                    <TextDecoration>=IIf(IsNumeric(Me.Value),"Right","Left")</TextDecoration>
                                  </Style>
                                </TextRun>
                              </TextRuns>
                            </Paragraph>
                          </Paragraphs>
                          <ZIndex>7</ZIndex>
                          <Style>
                            <PaddingLeft>0.075cm</PaddingLeft>
                            <PaddingRight>0.075cm</PaddingRight>
                            <PaddingTop>2pt</PaddingTop>
                            <PaddingBottom>2pt</PaddingBottom>
                          </Style>
                        </Textbox>
                      </CellContents>
                    </TablixCell>
                    <TablixCell>
                      <CellContents>
                        <Textbox Name="Work_Center_Capacity">
                          <CanGrow>true</CanGrow>
                          <KeepTogether>true</KeepTogether>
                          <Paragraphs>
                            <Paragraph>
                              <TextRuns>
                                <TextRun>
                                  <Value>=Fields!Work_Center_Capacity.Value</Value>
                                  <Style>
                                    <FontSize>7pt</FontSize>
                                    <Format>=Fields!Work_Center_CapacityFormat.Value</Format>
                                  </Style>
                                </TextRun>
                              </TextRuns>
                              <Style>
                                <TextAlign>Right</TextAlign>
                              </Style>
                            </Paragraph>
                          </Paragraphs>
                          <ZIndex>6</ZIndex>
                          <Style>
                            <PaddingLeft>0.075cm</PaddingLeft>
                            <PaddingRight>0.075cm</PaddingRight>
                            <PaddingTop>2pt</PaddingTop>
                            <PaddingBottom>2pt</PaddingBottom>
                          </Style>
                        </Textbox>
                      </CellContents>
                    </TablixCell>
                    <TablixCell>
                      <CellContents>
                        <Textbox Name="Work_Center_Efficiency">
                          <CanGrow>true</CanGrow>
                          <KeepTogether>true</KeepTogether>
                          <Paragraphs>
                            <Paragraph>
                              <TextRuns>
                                <TextRun>
                                  <Value>=Fields!Work_Center_Efficiency.Value</Value>
                                  <Style>
                                    <FontSize>7pt</FontSize>
                                    <Format>=Fields!Work_Center_EfficiencyFormat.Value</Format>
                                  </Style>
                                </TextRun>
                              </TextRuns>
                              <Style>
                                <TextAlign>Right</TextAlign>
                              </Style>
                            </Paragraph>
                          </Paragraphs>
                          <ZIndex>5</ZIndex>
                          <Style>
                            <PaddingLeft>0.075cm</PaddingLeft>
                            <PaddingRight>0.075cm</PaddingRight>
                            <PaddingTop>2pt</PaddingTop>
                            <PaddingBottom>2pt</PaddingBottom>
                          </Style>
                        </Textbox>
                      </CellContents>
                    </TablixCell>
                    <TablixCell>
                      <CellContents>
                        <Textbox Name="Work_Center__Shop_Calendar_Code_">
                          <KeepTogether>true</KeepTogether>
                          <Paragraphs>
                            <Paragraph>
                              <TextRuns>
                                <TextRun>
                                  <Value>=Fields!Work_Center__Shop_Calendar_Code_.Value</Value>
                                  <Style>
                                    <FontSize>7pt</FontSize>
                                  </Style>
                                </TextRun>
                              </TextRuns>
                              <Style>
                                <TextAlign>=IIf(IsNumeric(ReportItems!Work_Center__Shop_Calendar_Code_.Value),"Right","Left")</TextAlign>
                              </Style>
                            </Paragraph>
                          </Paragraphs>
                          <ZIndex>4</ZIndex>
                          <Style>
                            <PaddingLeft>0.075cm</PaddingLeft>
                            <PaddingTop>2pt</PaddingTop>
                            <PaddingBottom>2pt</PaddingBottom>
                          </Style>
                        </Textbox>
                      </CellContents>
                    </TablixCell>
                    <TablixCell>
                      <CellContents>
                        <Textbox Name="COMPANYNAME">
                          <KeepTogether>true</KeepTogether>
                          <Paragraphs>
                            <Paragraph>
                              <TextRuns>
                                <TextRun>
                                  <Value>=Fields!COMPANYNAME.Value</Value>
                                  <Style>
                                    <Color>#ff0000</Color>
                                  </Style>
                                </TextRun>
                              </TextRuns>
                            </Paragraph>
                          </Paragraphs>
                          <ZIndex>3</ZIndex>
                          <Visibility>
                            <Hidden>true</Hidden>
                          </Visibility>
                          <Style>
                            <PaddingLeft>2pt</PaddingLeft>
                            <PaddingRight>2pt</PaddingRight>
                            <PaddingTop>2pt</PaddingTop>
                            <PaddingBottom>2pt</PaddingBottom>
                          </Style>
                        </Textbox>
                      </CellContents>
                    </TablixCell>
                    <TablixCell>
                      <CellContents>
                        <Textbox Name="Work_Center_ListCaption">
                          <CanGrow>true</CanGrow>
                          <KeepTogether>true</KeepTogether>
                          <Paragraphs>
                            <Paragraph>
                              <TextRuns>
                                <TextRun>
                                  <Value>=Fields!Work_Center_ListCaption.Value</Value>
                                  <Style>
                                    <Color>#ff0000</Color>
                                  </Style>
                                </TextRun>
                              </TextRuns>
                            </Paragraph>
                          </Paragraphs>
                          <ZIndex>2</ZIndex>
                          <Visibility>
                            <Hidden>true</Hidden>
                          </Visibility>
                          <Style>
                            <PaddingLeft>2pt</PaddingLeft>
                            <PaddingRight>2pt</PaddingRight>
                            <PaddingTop>2pt</PaddingTop>
                            <PaddingBottom>2pt</PaddingBottom>
                          </Style>
                        </Textbox>
                      </CellContents>
                    </TablixCell>
                    <TablixCell>
                      <CellContents>
                        <Textbox Name="CurrReport_PAGENOCaption">
                          <CanGrow>true</CanGrow>
                          <KeepTogether>true</KeepTogether>
                          <Paragraphs>
                            <Paragraph>
                              <TextRuns>
                                <TextRun>
                                  <Value>=Fields!CurrReport_PAGENOCaption.Value</Value>
                                  <Style>
                                    <Color>#ff0000</Color>
                                  </Style>
                                </TextRun>
                              </TextRuns>
                            </Paragraph>
                          </Paragraphs>
                          <ZIndex>1</ZIndex>
                          <Visibility>
                            <Hidden>true</Hidden>
                          </Visibility>
                          <Style>
                            <PaddingLeft>2pt</PaddingLeft>
                            <PaddingRight>2pt</PaddingRight>
                            <PaddingTop>2pt</PaddingTop>
                            <PaddingBottom>2pt</PaddingBottom>
                          </Style>
                        </Textbox>
                      </CellContents>
                    </TablixCell>
                    <TablixCell>
                      <CellContents>
                        <Textbox Name="FORMAT_TODAY_0_4_">
                          <KeepTogether>true</KeepTogether>
                          <Paragraphs>
                            <Paragraph>
                              <TextRuns>
                                <TextRun>
                                  <Value>=Fields!FORMAT_TODAY_0_4_.Value</Value>
                                  <Style>
                                    <Color>#ff0000</Color>
                                  </Style>
                                </TextRun>
                              </TextRuns>
                            </Paragraph>
                          </Paragraphs>
                          <Visibility>
                            <Hidden>true</Hidden>
                          </Visibility>
                          <Style>
                            <PaddingLeft>2pt</PaddingLeft>
                            <PaddingRight>2pt</PaddingRight>
                            <PaddingTop>2pt</PaddingTop>
                            <PaddingBottom>2pt</PaddingBottom>
                          </Style>
                        </Textbox>
                      </CellContents>
                    </TablixCell>
                  </TablixCells>
                </TablixRow>
              </TablixRows>
            </TablixBody>
            <TablixColumnHierarchy>
              <TablixMembers>
                <TablixMember />
                <TablixMember />
                <TablixMember />
                <TablixMember />
                <TablixMember />
                <TablixMember />
                <TablixMember />
                <TablixMember />
                <TablixMember />
                <TablixMember />
                <TablixMember />
                <TablixMember />
                <TablixMember />
              </TablixMembers>
            </TablixColumnHierarchy>
            <TablixRowHierarchy>
              <TablixMembers>
                <TablixMember>
                  <Visibility>
                    <Hidden>=IIf(Fields!WorkCenterFilter.Value = "",True,False)</Hidden>
                  </Visibility>
                  <KeepWithGroup>After</KeepWithGroup>
                  <RepeatOnNewPage>true</RepeatOnNewPage>
                  <KeepTogether>true</KeepTogether>
                </TablixMember>
                <TablixMember>
                  <Visibility>
                    <Hidden>=IIf(Fields!WorkCenterFilter.Value = "",True,False)</Hidden>
                  </Visibility>
                  <KeepWithGroup>After</KeepWithGroup>
                  <RepeatOnNewPage>true</RepeatOnNewPage>
                  <KeepTogether>true</KeepTogether>
                </TablixMember>
                <TablixMember>
                  <KeepWithGroup>After</KeepWithGroup>
                  <RepeatOnNewPage>true</RepeatOnNewPage>
                  <KeepTogether>true</KeepTogether>
                </TablixMember>
                <TablixMember>
                  <KeepWithGroup>After</KeepWithGroup>
                  <RepeatOnNewPage>true</RepeatOnNewPage>
                  <KeepTogether>true</KeepTogether>
                </TablixMember>
                <TablixMember>
                  <Group Name="Table1_Details_Group">
                    <DataElementName>Detail</DataElementName>
                  </Group>
                  <TablixMembers>
                    <TablixMember />
                  </TablixMembers>
                  <DataElementName>Detail_Collection</DataElementName>
                  <DataElementOutput>Output</DataElementOutput>
                  <KeepTogether>true</KeepTogether>
                </TablixMember>
              </TablixMembers>
            </TablixRowHierarchy>
            <DataSetName>DataSet_Result</DataSetName>
            <Width>7.00875in</Width>
          </Tablix>
        </ReportItems>
        <Height>2.538cm</Height>
      </Body>
      <Width>18.15cm</Width>
      <Page>
        <PageHeader>
          <Height>1.692cm</Height>
          <PrintOnFirstPage>true</PrintOnFirstPage>
          <PrintOnLastPage>true</PrintOnLastPage>
          <ReportItems>
            <Textbox Name="PageNumberTextBox">
              <KeepTogether>true</KeepTogether>
              <Paragraphs>
                <Paragraph>
                  <TextRuns>
                    <TextRun>
                      <Value>=Globals!PageNumber</Value>
                      <Style>
                        <FontSize>7pt</FontSize>
                      </Style>
                    </TextRun>
                  </TextRuns>
                  <Style>
                    <TextAlign>Right</TextAlign>
                  </Style>
                </Paragraph>
              </Paragraphs>
              <Top>0.423cm</Top>
              <Left>17.7cm</Left>
              <Height>0.423cm</Height>
              <ZIndex>5</ZIndex>
              <Visibility>
                <Hidden>=IIf(ReportItems!CurrReport_PAGENOCaption.Value = "",True,False)</Hidden>
              </Visibility>
              <DataElementOutput>NoOutput</DataElementOutput>
              <Style>
                <VerticalAlign>Middle</VerticalAlign>
              </Style>
            </Textbox>
            <Textbox Name="UserIdTextBox">
              <CanGrow>true</CanGrow>
              <KeepTogether>true</KeepTogether>
              <Paragraphs>
                <Paragraph>
                  <TextRuns>
                    <TextRun>
                      <Value>=User!UserID</Value>
                      <Style>
                        <FontSize>7pt</FontSize>
                      </Style>
                    </TextRun>
                  </TextRuns>
                  <Style>
                    <TextAlign>Right</TextAlign>
                  </Style>
                </Paragraph>
              </Paragraphs>
              <Top>0.846cm</Top>
              <Left>14.9cm</Left>
              <Height>0.423cm</Height>
              <ZIndex>4</ZIndex>
              <Visibility>
                <Hidden>=IIf(ReportItems!CurrReport_PAGENOCaption.Value = "",True,False)</Hidden>
              </Visibility>
              <DataElementOutput>NoOutput</DataElementOutput>
              <Style>
                <VerticalAlign>Middle</VerticalAlign>
              </Style>
            </Textbox>
            <Textbox Name="ExecutionTimeTextBox">
              <KeepTogether>true</KeepTogether>
              <Paragraphs>
                <Paragraph>
                  <TextRuns>
                    <TextRun>
                      <Value>=ReportItems!FORMAT_TODAY_0_4_.Value</Value>
                      <Style>
                        <FontSize>7pt</FontSize>
                        <Format>g</Format>
                      </Style>
                    </TextRun>
                  </TextRuns>
                  <Style>
                    <TextAlign>Right</TextAlign>
                  </Style>
                </Paragraph>
              </Paragraphs>
              <Left>15cm</Left>
              <Height>0.423cm</Height>
              <ZIndex>3</ZIndex>
              <Style>
                <VerticalAlign>Middle</VerticalAlign>
              </Style>
            </Textbox>
            <Textbox Name="COMPANYNAME1">
              <KeepTogether>true</KeepTogether>
              <Paragraphs>
                <Paragraph>
                  <TextRuns>
                    <TextRun>
                      <Value>=ReportItems!COMPANYNAME.Value</Value>
                      <Style>
                        <FontSize>7pt</FontSize>
                      </Style>
                    </TextRun>
                  </TextRuns>
                </Paragraph>
              </Paragraphs>
              <Top>0.423cm</Top>
              <Height>0.423cm</Height>
              <Width>7.5cm</Width>
              <ZIndex>2</ZIndex>
              <Style>
                <VerticalAlign>Middle</VerticalAlign>
              </Style>
            </Textbox>
            <Textbox Name="Work_Center_ListCaption1">
              <KeepTogether>true</KeepTogether>
              <Paragraphs>
                <Paragraph>
                  <TextRuns>
                    <TextRun>
                      <Value>=ReportItems!Work_Center_ListCaption.Value</Value>
                      <Style>
                        <FontSize>8pt</FontSize>
                        <FontWeight>Bold</FontWeight>
                      </Style>
                    </TextRun>
                  </TextRuns>
                </Paragraph>
              </Paragraphs>
              <Height>0.423cm</Height>
              <Width>7.5cm</Width>
              <ZIndex>1</ZIndex>
              <Style>
                <VerticalAlign>Middle</VerticalAlign>
              </Style>
            </Textbox>
            <Textbox Name="CurrReport_PAGENOCaption1">
              <KeepTogether>true</KeepTogether>
              <Paragraphs>
                <Paragraph>
                  <TextRuns>
                    <TextRun>
                      <Value>=ReportItems!CurrReport_PAGENOCaption.Value</Value>
                      <Style>
                        <FontSize>7pt</FontSize>
                      </Style>
                    </TextRun>
                  </TextRuns>
                </Paragraph>
              </Paragraphs>
              <Top>0.423cm</Top>
              <Left>16.95cm</Left>
              <Height>0.423cm</Height>
              <Width>0.75cm</Width>
              <Style>
                <VerticalAlign>Middle</VerticalAlign>
              </Style>
            </Textbox>
          </ReportItems>
        </PageHeader>
        <PageHeight>29.7cm</PageHeight>
        <PageWidth>21cm</PageWidth>
        <InteractiveHeight>11in</InteractiveHeight>
        <InteractiveWidth>8.5in</InteractiveWidth>
        <LeftMargin>1.5cm</LeftMargin>
        <TopMargin>2cm</TopMargin>
        <BottomMargin>2cm</BottomMargin>
      </Page>
    </ReportSection>
  </ReportSections>
  <Code>Public Function BlankZero(ByVal Value As Decimal)
    if Value = 0 then
        Return ""
    end if
    Return Value
End Function

Public Function BlankPos(ByVal Value As Decimal)
    if Value &gt; 0 then
        Return ""
    end if
    Return Value
End Function

Public Function BlankZeroAndPos(ByVal Value As Decimal)
    if Value &gt;= 0 then
        Return ""
    end if
    Return Value
End Function

Public Function BlankNeg(ByVal Value As Decimal)
    if Value &lt; 0 then
        Return ""
    end if
    Return Value
End Function

Public Function BlankNegAndZero(ByVal Value As Decimal)
    if Value &lt;= 0 then
        Return ""
    end if
    Return Value
End Function
</Code>
  <Language>=User!Language</Language>
  <ConsumeContainerWhitespace>true</ConsumeContainerWhitespace>
  <rd:ReportUnitType>Invalid</rd:ReportUnitType>
  <rd:ReportID>afc3ffda-bdbf-40cc-9a98-8afeaee8a02d</rd:ReportID>
</Report>
    END_OF_RDLDATA
  }
}

