OBJECT Table 1226 Payment Export Data
{
  OBJECT-PROPERTIES
  {
    Date=22/11/17;
    Time=12:00:00;
    Version List=NAVW111.00;
  }
  PROPERTIES
  {
    OnInsert=BEGIN
               IF NOT PreserveNonLatinCharacters THEN
                 PaymentExportConvertToLatin;
             END;

    CaptionML=[ENU=Payment Export Data;
               ENG=Payment Export Data];
  }
  FIELDS
  {
    { 1   ;   ;Entry No.           ;Integer       ;AutoIncrement=Yes;
                                                   CaptionML=[ENU=Entry No.;
                                                              ENG=Entry No.] }
    { 2   ;   ;Data Exch Entry No. ;Integer       ;TableRelation="Data Exch.";
                                                   CaptionML=[ENU=Data Exch Entry No.;
                                                              ENG=Data Exch Entry No.] }
    { 3   ;   ;Line No.            ;Integer       ;CaptionML=[ENU=Line No.;
                                                              ENG=Line No.] }
    { 4   ;   ;Data Exch. Line Def Code;Code20    ;CaptionML=[ENU=Data Exch. Line Def Code;
                                                              ENG=Data Exch. Line Def Code] }
    { 5   ;   ;General Journal Template;Code10    ;TableRelation="Gen. Journal Template";
                                                   CaptionML=[ENU=General Journal Template;
                                                              ENG=General Journal Template] }
    { 6   ;   ;General Journal Batch Name;Code10  ;TableRelation="Gen. Journal Batch";
                                                   CaptionML=[ENU=General Journal Batch Name;
                                                              ENG=General Journal Batch Name] }
    { 7   ;   ;General Journal Line No.;Integer   ;CaptionML=[ENU=General Journal Line No.;
                                                              ENG=General Journal Line No.] }
    { 28  ;   ;Sender Bank Name - Data Conv.;Text50;
                                                   CaptionML=[ENU=Sender Bank Name - Data Conv.;
                                                              ENG=Sender Bank Name - Data Conv.] }
    { 29  ;   ;Sender Bank Name    ;Text50        ;CaptionML=[ENU=Sender Bank Name;
                                                              ENG=Sender Bank Name] }
    { 30  ;   ;Sender Bank Account Code;Code20    ;TableRelation="Bank Account";
                                                   CaptionML=[ENU=Sender Bank Account Code;
                                                              ENG=Sender Bank Account Code] }
    { 31  ;   ;Sender Bank Account No.;Text50     ;CaptionML=[ENU=Sender Bank Account No.;
                                                              ENG=Sender Bank Account No.] }
    { 32  ;   ;Sender Bank Account Currency;Code10;TableRelation=Currency;
                                                   CaptionML=[ENU=Sender Bank Account Currency;
                                                              ENG=Sender Bank Account Currency] }
    { 33  ;   ;Sender Bank Country/Region;Code10  ;TableRelation=Country/Region;
                                                   CaptionML=[ENU=Sender Bank Country/Region;
                                                              ENG=Sender Bank Country/Region] }
    { 34  ;   ;Sender Bank BIC     ;Code35        ;CaptionML=[ENU=Sender Bank BIC;
                                                              ENG=Sender Bank BIC] }
    { 35  ;   ;Sender Bank Clearing Std.;Text50   ;TableRelation="Bank Clearing Standard";
                                                   CaptionML=[ENU=Sender Bank Clearing Std.;
                                                              ENG=Sender Bank Clearing Std.] }
    { 36  ;   ;Sender Bank Clearing Code;Text50   ;CaptionML=[ENU=Sender Bank Clearing Code;
                                                              ENG=Sender Bank Clearing Code] }
    { 37  ;   ;Sender Bank Address ;Text50        ;CaptionML=[ENU=Sender Bank Address;
                                                              ENG=Sender Bank Address] }
    { 38  ;   ;Sender Bank City    ;Text50        ;CaptionML=[ENU=Sender Bank City;
                                                              ENG=Sender Bank City] }
    { 39  ;   ;Sender Bank Post Code;Code20       ;CaptionML=[ENU=Sender Bank Post Code;
                                                              ENG=Sender Bank Postcode] }
    { 40  ;   ;Recipient Name      ;Text50        ;CaptionML=[ENU=Recipient Name;
                                                              ENG=Recipient Name] }
    { 41  ;   ;Recipient Address   ;Text50        ;CaptionML=[ENU=Recipient Address;
                                                              ENG=Recipient Address] }
    { 42  ;   ;Recipient City      ;Text50        ;CaptionML=[ENU=Recipient City;
                                                              ENG=Recipient City] }
    { 43  ;   ;Recipient Post Code ;Code20        ;CaptionML=[ENU=Recipient Post Code;
                                                              ENG=Recipient Postcode] }
    { 44  ;   ;Recipient Country/Region Code;Code10;
                                                   CaptionML=[ENU=Recipient Country/Region Code;
                                                              ENG=Recipient Country/Region Code] }
    { 45  ;   ;Recipient Email Address;Text80     ;CaptionML=[ENU=Recipient Email Address;
                                                              ENG=Recipient Email Address] }
    { 46  ;   ;Recipient ID        ;Code20        ;CaptionML=[ENU=Recipient ID;
                                                              ENG=Recipient ID] }
    { 48  ;   ;Recipient Bank Clearing Std.;Text50;TableRelation="Bank Clearing Standard";
                                                   CaptionML=[ENU=Recipient Bank Clearing Std.;
                                                              ENG=Recipient Bank Clearing Std.] }
    { 49  ;   ;Recipient Bank Clearing Code;Text50;CaptionML=[ENU=Recipient Bank Clearing Code;
                                                              ENG=Recipient Bank Clearing Code] }
    { 50  ;   ;Recipient Reg. No.  ;Code20        ;CaptionML=[ENU=Recipient Reg. No.;
                                                              ENG=Recipient Reg. No.] }
    { 51  ;   ;Recipient Acc. No.  ;Code30        ;CaptionML=[ENU=Recipient Acc. No.;
                                                              ENG=Recipient Acc. No.] }
    { 52  ;   ;Recipient Bank Acc. No.;Text50     ;CaptionML=[ENU=Recipient Bank Acc. No.;
                                                              ENG=Recipient Bank Acc. No.] }
    { 53  ;   ;Recipient Bank BIC  ;Code35        ;CaptionML=[ENU=Recipient Bank BIC;
                                                              ENG=Recipient Bank BIC] }
    { 54  ;   ;Recipient Bank Name ;Text50        ;CaptionML=[ENU=Recipient Bank Name;
                                                              ENG=Recipient Bank Name] }
    { 55  ;   ;Recipient Bank Address;Text50      ;CaptionML=[ENU=Recipient Bank Address;
                                                              ENG=Recipient Bank Address] }
    { 56  ;   ;Recipient Bank City ;Text50        ;CaptionML=[ENU=Recipient Bank City;
                                                              ENG=Recipient Bank City] }
    { 57  ;   ;Recipient Bank Country/Region;Code10;
                                                   TableRelation=Country/Region;
                                                   CaptionML=[ENU=Recipient Bank Country/Region;
                                                              ENG=Recipient Bank Country/Region] }
    { 58  ;   ;Recipient Creditor No.;Code20      ;CaptionML=[ENU=Recipient Creditor No.;
                                                              ENG=Recipient Creditor No.] }
    { 59  ;   ;Recipient Bank Post Code;Code20    ;CaptionML=[ENU=Recipient Bank Post Code;
                                                              ENG=Recipient Bank Postcode] }
    { 60  ;   ;Message Type        ;Code1         ;CaptionML=[ENU=Message Type;
                                                              ENG=Message Type] }
    { 61  ;   ;Letter to Sender    ;Code1         ;CaptionML=[ENU=Letter to Sender;
                                                              ENG=Letter to Sender] }
    { 63  ;   ;Recipient Acknowledgement;Code1    ;CaptionML=[ENU=Recipient Acknowledgement;
                                                              ENG=Recipient Acknowledgement] }
    { 64  ;   ;Short Advice        ;Text35        ;CaptionML=[ENU=Short Advice;
                                                              ENG=Short Advice] }
    { 65  ;   ;Message to Recipient 1;Text140     ;CaptionML=[ENU=Message to Recipient 1;
                                                              ENG=Message to Recipient 1] }
    { 66  ;   ;Message to Recipient 2;Text140     ;CaptionML=[ENU=Message to Recipient 2;
                                                              ENG=Message to Recipient 2] }
    { 80  ;   ;Amount              ;Decimal       ;CaptionML=[ENU=Amount;
                                                              ENG=Amount];
                                                   DecimalPlaces=2:2 }
    { 81  ;   ;Currency Code       ;Code10        ;TableRelation=Currency;
                                                   CaptionML=[ENU=Currency Code;
                                                              ENG=Currency Code] }
    { 82  ;   ;Transfer Date       ;Date          ;CaptionML=[ENU=Transfer Date;
                                                              ENG=Transfer Date] }
    { 83  ;   ;Transfer Type       ;Code1         ;CaptionML=[ENU=Transfer Type;
                                                              ENG=Transfer Type] }
    { 84  ;   ;Payment Type        ;Text50        ;CaptionML=[ENU=Payment Type;
                                                              ENG=Payment Type] }
    { 85  ;   ;Document No.        ;Code20        ;CaptionML=[ENU=Document No.;
                                                              ENG=Document No.] }
    { 87  ;   ;Recipient Reference ;Code35        ;CaptionML=[ENU=Recipient Reference;
                                                              ENG=Recipient Reference] }
    { 88  ;   ;Payment Reference   ;Code50        ;CaptionML=[ENU=Payment Reference;
                                                              ENG=Payment Reference] }
    { 89  ;   ;Invoice Amount      ;Decimal       ;CaptionML=[ENU=Invoice Amount;
                                                              ENG=Invoice Amount] }
    { 90  ;   ;Invoice Date        ;Date          ;CaptionML=[ENU=Invoice Date;
                                                              ENG=Invoice Date] }
    { 91  ;   ;Recipient County    ;Text30        ;CaptionML=[ENU=Recipient County;
                                                              ENG=Recipient County] }
    { 92  ;   ;Recipient Bank County;Text30       ;CaptionML=[ENU=Recipient Bank County;
                                                              ENG=Recipient Bank County] }
    { 93  ;   ;Sender Bank County  ;Text30        ;CaptionML=[ENU=Sender Bank County;
                                                              ENG=Sender Bank County] }
    { 100 ;   ;Payment Information ID;Text50      ;CaptionML=[ENU=Payment Information ID;
                                                              ENG=Payment Information ID] }
    { 101 ;   ;End-to-End ID       ;Text50        ;CaptionML=[ENU=End-to-End ID;
                                                              ENG=End-to-End ID] }
    { 102 ;   ;Message ID          ;Text35        ;CaptionML=[ENU=Message ID;
                                                              ENG=Message ID] }
    { 103 ;   ;SEPA Instruction Priority;Option   ;OnValidate=BEGIN
                                                                CASE "SEPA Instruction Priority" OF
                                                                  "SEPA Instruction Priority"::NORMAL:
                                                                    "SEPA Instruction Priority Text" := 'NORM';
                                                                  "SEPA Instruction Priority"::HIGH:
                                                                    "SEPA Instruction Priority Text" := 'HIGH';
                                                                END;
                                                              END;

                                                   CaptionML=[ENU=SEPA Instruction Priority;
                                                              ENG=SEPA Instruction Priority];
                                                   OptionCaptionML=[ENU=NORMAL,HIGH;
                                                                    ENG=NORMAL,HIGH];
                                                   OptionString=NORMAL,HIGH }
    { 104 ;   ;SEPA Instruction Priority Text;Code4;
                                                   CaptionML=[ENU=SEPA Instruction Priority Text;
                                                              ENG=SEPA Instruction Priority Text];
                                                   Editable=No }
    { 105 ;   ;SEPA Payment Method ;Option        ;InitValue=TRF;
                                                   OnValidate=BEGIN
                                                                CASE "SEPA Payment Method" OF
                                                                  "SEPA Payment Method"::CHK:
                                                                    "SEPA Payment Method Text" := 'CHK';
                                                                  "SEPA Payment Method"::TRF:
                                                                    "SEPA Payment Method Text" := 'TRF';
                                                                  "SEPA Payment Method"::TRA:
                                                                    "SEPA Payment Method Text" := 'TRA';
                                                                END;
                                                              END;

                                                   CaptionML=[ENU=SEPA Payment Method;
                                                              ENG=SEPA Payment Method];
                                                   OptionCaptionML=[ENU=CHK,TRF,TRA;
                                                                    ENG=CHK,TRF,TRA];
                                                   OptionString=CHK,TRF,TRA }
    { 106 ;   ;SEPA Payment Method Text;Code3     ;CaptionML=[ENU=SEPA Payment Method Text;
                                                              ENG=SEPA Payment Method Text] }
    { 107 ;   ;SEPA Batch Booking  ;Boolean       ;CaptionML=[ENU=SEPA Batch Booking;
                                                              ENG=SEPA Batch Booking] }
    { 108 ;   ;SEPA Charge Bearer  ;Option        ;InitValue=SLEV;
                                                   OnValidate=BEGIN
                                                                CASE "SEPA Charge Bearer" OF
                                                                  "SEPA Charge Bearer"::DEBT:
                                                                    "SEPA Charge Bearer Text" := 'DEBT';
                                                                  "SEPA Charge Bearer"::CRED:
                                                                    "SEPA Charge Bearer Text" := 'CRED';
                                                                  "SEPA Charge Bearer"::SHAR:
                                                                    "SEPA Charge Bearer Text" := 'SHAR';
                                                                  "SEPA Charge Bearer"::SLEV:
                                                                    "SEPA Charge Bearer Text" := 'SLEV';
                                                                END;
                                                              END;

                                                   CaptionML=[ENU=SEPA Charge Bearer;
                                                              ENG=SEPA Charge Bearer];
                                                   OptionCaptionML=[ENU=DEBT,CRED,SHAR,SLEV;
                                                                    ENG=DEBT,CRED,SHAR,SLEV];
                                                   OptionString=DEBT,CRED,SHAR,SLEV }
    { 109 ;   ;SEPA Charge Bearer Text;Code4      ;CaptionML=[ENU=SEPA Charge Bearer Text;
                                                              ENG=SEPA Charge Bearer Text] }
    { 120 ;   ;SEPA Direct Debit Mandate ID;Code35;CaptionML=[ENU=SEPA Direct Debit Mandate ID;
                                                              ENG=SEPA Direct Debit Mandate ID] }
    { 121 ;   ;SEPA Direct Debit Seq. Type;Option ;OnValidate=BEGIN
                                                                CASE "SEPA Direct Debit Seq. Type" OF
                                                                  "SEPA Direct Debit Seq. Type"::"One Off":
                                                                    "SEPA Direct Debit Seq. Text" := 'OOFF';
                                                                  "SEPA Direct Debit Seq. Type"::First:
                                                                    "SEPA Direct Debit Seq. Text" := 'FRST';
                                                                  "SEPA Direct Debit Seq. Type"::Recurring:
                                                                    "SEPA Direct Debit Seq. Text" := 'RCUR';
                                                                  "SEPA Direct Debit Seq. Type"::Last:
                                                                    "SEPA Direct Debit Seq. Text" := 'FNAL';
                                                                END;
                                                              END;

                                                   CaptionML=[ENU=SEPA Direct Debit Seq. Type;
                                                              ENG=SEPA Direct Debit Seq. Type];
                                                   OptionCaptionML=[ENU=One Off,First,Recurring,Last;
                                                                    ENG=One-off,First,Recurrent,Last];
                                                   OptionString=One Off,First,Recurring,Last }
    { 122 ;   ;SEPA Direct Debit Seq. Text;Code4  ;CaptionML=[ENU=SEPA Direct Debit Seq. Text;
                                                              ENG=SEPA Direct Debit Seq. Text] }
    { 123 ;   ;SEPA DD Mandate Signed Date;Date   ;CaptionML=[ENU=SEPA DD Mandate Signed Date;
                                                              ENG=SEPA DD Mandate Signed Date] }
    { 124 ;   ;SEPA Partner Type   ;Option        ;OnValidate=BEGIN
                                                                CASE "SEPA Partner Type" OF
                                                                  "SEPA Partner Type"::" ":
                                                                    "SEPA Partner Type Text" := '';
                                                                  "SEPA Partner Type"::Company:
                                                                    "SEPA Partner Type Text" := 'B2B';
                                                                  "SEPA Partner Type"::Person:
                                                                    "SEPA Partner Type Text" := 'CORE';
                                                                END;
                                                              END;

                                                   CaptionML=[ENU=SEPA Partner Type;
                                                              ENG=SEPA Partner Type];
                                                   OptionCaptionML=[ENU=" ,Company,Person";
                                                                    ENG=" ,Company,Person"];
                                                   OptionString=[ ,Company,Person] }
    { 125 ;   ;SEPA Partner Type Text;Code4       ;CaptionML=[ENU=SEPA Partner Type Text;
                                                              ENG=SEPA Partner Type Text] }
    { 130 ;   ;Importing Code      ;Code10        ;CaptionML=[ENU=Importing Code;
                                                              ENG=Importing Code] }
    { 131 ;   ;Importing Date      ;Date          ;CaptionML=[ENU=Importing Date;
                                                              ENG=Importing Date] }
    { 132 ;   ;Importing Description;Text250      ;CaptionML=[ENU=Importing Description;
                                                              ENG=Importing Description] }
    { 133 ;   ;Costs Distribution  ;Text30        ;CaptionML=[ENU=Costs Distribution;
                                                              ENG=Costs Distribution] }
    { 134 ;   ;Message Structure   ;Text30        ;CaptionML=[ENU=Message Structure;
                                                              ENG=Message Structure] }
    { 135 ;   ;Own Address Info.   ;Text30        ;CaptionML=[ENU=Own Address Info.;
                                                              ENG=Own Address Info.] }
    { 170 ;   ;Creditor No.        ;Code35        ;CaptionML=[ENU=Creditor No.;
                                                              ENG=Creditor No.] }
    { 171 ;   ;Transit No.         ;Code35        ;CaptionML=[ENU=Transit No.;
                                                              ENG=Transit No.] }
    { 173 ;   ;Applies-to Ext. Doc. No.;Code35    ;CaptionML=[ENU=Applies-to Ext. Doc. No.;
                                                              ENG=Applies-to Ext. Doc. No.] }
    { 200 ;   ;Format Command      ;Code4         ;CaptionML=[ENU=Format Command;
                                                              ENG=Format Command] }
    { 201 ;   ;Format Remittance Info Type;Code1  ;CaptionML=[ENU=Format Remittance Info Type;
                                                              ENG=Format Remittance Info Type] }
    { 220 ;   ;Format Payment Type ;Code2         ;CaptionML=[ENU=Format Payment Type;
                                                              ENG=Format Payment Type] }
    { 221 ;   ;Format Expense Code ;Code1         ;CaptionML=[ENU=Format Expense Code;
                                                              ENG=Format Expense Code] }
    { 222 ;   ;Format Text Code    ;Code3         ;CaptionML=[ENU=Format Text Code;
                                                              ENG=Format Text Code] }
    { 283 ;   ;Format Form Type    ;Code2         ;CaptionML=[ENU=Format Form Type;
                                                              ENG=Format Form Type] }
  }
  KEYS
  {
    {    ;Entry No.                               ;Clustered=Yes }
  }
  FIELDGROUPS
  {
  }
  CODE
  {
    VAR
      TempPaymentExportRemittanceText@1001 : TEMPORARY Record 1229;
      PreserveNonLatinCharacters@1004 : Boolean;
      EmployeeMustHaveBankAccountNoErr@1000 : TextConst '@@@=Employee name;ENU=You must specify either Bank Account No. or IBAN for employee %1.;ENG=You must specify either Bank Account No. or IBAN for employee %1.';

    [External]
    PROCEDURE InitData@1(VAR GenJnlLine@1000 : Record 81);
    BEGIN
      RESET;
      CLEAR(TempPaymentExportRemittanceText);
      INIT;
      Amount := GenJnlLine.Amount;
      "Currency Code" := GenJnlLine."Currency Code";
    END;

    [External]
    PROCEDURE AddRemittanceText@3(NewText@1000 : Text[140]);
    BEGIN
      IF NewText = '' THEN
        EXIT;
      IF TempPaymentExportRemittanceText.FINDLAST THEN;
      TempPaymentExportRemittanceText."Pmt. Export Data Entry No." := "Entry No.";
      TempPaymentExportRemittanceText."Line No." += 1;
      IF PreserveNonLatinCharacters THEN
        TempPaymentExportRemittanceText.Text := NewText
      ELSE
        TempPaymentExportRemittanceText.Text := COPYSTR(ConvertToASCII(NewText),1,MAXSTRLEN(TempPaymentExportRemittanceText.Text));
      TempPaymentExportRemittanceText.INSERT;
    END;

    [External]
    PROCEDURE GetRemittanceTexts@5(VAR PaymentExportRemittanceText@1000 : Record 1229);
    BEGIN
      IF TempPaymentExportRemittanceText.FINDSET THEN
        REPEAT
          PaymentExportRemittanceText := TempPaymentExportRemittanceText;
          PaymentExportRemittanceText.INSERT;
        UNTIL TempPaymentExportRemittanceText.NEXT = 0;
    END;

    [External]
    PROCEDURE AddGenJnlLineErrorText@8(GenJnlLine@1001 : Record 81;NewText@1000 : Text);
    BEGIN
      GenJnlLine.InsertPaymentFileError(NewText);
    END;

    LOCAL PROCEDURE ConvertToASCII@9(Text@1000 : Text) : Text;
    VAR
      StringConversionManagement@1004 : Codeunit 47;
    BEGIN
      EXIT(StringConversionManagement.WindowsToASCII(Text));
    END;

    [External]
    PROCEDURE SetPreserveNonLatinCharacters@15(NewPreserveNonLatinCharacters@1000 : Boolean);
    BEGIN
      PreserveNonLatinCharacters := NewPreserveNonLatinCharacters;
    END;

    [External]
    PROCEDURE GetPreserveNonLatinCharacters@17() : Boolean;
    BEGIN
      EXIT(PreserveNonLatinCharacters);
    END;

    LOCAL PROCEDURE PaymentExportConvertToLatin@22();
    VAR
      RecRef@1001 : RecordRef;
    BEGIN
      RecRef.GETTABLE(Rec);
      ConvertFieldsToLatinCharacters(RecRef);
      RecRef.SETTABLE(Rec);
    END;

    [External]
    PROCEDURE CompanyInformationConvertToLatin@20(VAR CompanyInformation@1000 : Record 79);
    VAR
      RecRef@1001 : RecordRef;
    BEGIN
      RecRef.GETTABLE(CompanyInformation);
      ConvertFieldsToLatinCharacters(RecRef);
      RecRef.SETTABLE(CompanyInformation);
    END;

    LOCAL PROCEDURE ConvertFieldsToLatinCharacters@19(VAR RecRef@1001 : RecordRef);
    VAR
      StringConversionManagement@1004 : Codeunit 47;
      FieldRef@1002 : FieldRef;
      i@1003 : Integer;
    BEGIN
      PreserveNonLatinCharacters := FALSE;
      FOR i := 1 TO RecRef.FIELDCOUNT DO BEGIN
        FieldRef := RecRef.FIELDINDEX(i);
        IF (FORMAT(FieldRef.CLASS) = 'Normal') AND (FORMAT(FieldRef.TYPE) IN ['Text','Code']) THEN
          FieldRef.VALUE := COPYSTR(StringConversionManagement.WindowsToASCII(FORMAT(FieldRef.VALUE)),1,FieldRef.LENGTH);
      END;
    END;

    [External]
    PROCEDURE SetCustomerAsRecipient@2(VAR Customer@1000 : Record 18;VAR CustomerBankAccount@1001 : Record 287);
    BEGIN
      "Recipient Name" := Customer.Name;
      "Recipient Address" := Customer.Address;
      "Recipient City" := COPYSTR(Customer.City,1,35);
      "Recipient County" := Customer.County;
      "Recipient Post Code" := Customer."Post Code";
      "Recipient Country/Region Code" := Customer."Country/Region Code";
      "Recipient Email Address" := Customer."E-Mail";
      "Recipient Bank Name" := CustomerBankAccount.Name;
      "Recipient Bank Address" := CustomerBankAccount.Address;
      "Recipient Bank City" := COPYSTR(CustomerBankAccount.City,1,35);
      "Recipient Bank County" := CustomerBankAccount.County;
      "Recipient Bank Post Code" := CustomerBankAccount."Post Code";
      "Recipient Bank Country/Region" := CustomerBankAccount."Country/Region Code";
      "Recipient Bank BIC" := CustomerBankAccount."SWIFT Code";
      "Recipient Bank Acc. No." := COPYSTR(CustomerBankAccount.GetBankAccountNo,1,MAXSTRLEN("Recipient Bank Acc. No."));
      "Recipient Bank Clearing Std." := CustomerBankAccount."Bank Clearing Standard";
      "Recipient Bank Clearing Code" := CustomerBankAccount."Bank Clearing Code";
    END;

    [External]
    PROCEDURE SetVendorAsRecipient@10(VAR Vendor@1000 : Record 23;VAR VendorBankAccount@1001 : Record 288);
    BEGIN
      "Recipient Name" := Vendor.Name;
      "Recipient Address" := Vendor.Address;
      "Recipient City" := COPYSTR(Vendor.City,1,35);
      "Recipient County" := Vendor.County;
      "Recipient Post Code" := Vendor."Post Code";
      "Recipient Country/Region Code" := Vendor."Country/Region Code";
      "Recipient Email Address" := Vendor."E-Mail";
      "Recipient Bank Name" := VendorBankAccount.Name;
      "Recipient Bank Address" := VendorBankAccount.Address;
      "Recipient Bank City" := COPYSTR(VendorBankAccount.City,1,35);
      "Recipient Bank County" := VendorBankAccount.County;
      "Recipient Bank Post Code" := VendorBankAccount."Post Code";
      "Recipient Bank Country/Region" := VendorBankAccount."Country/Region Code";
      "Recipient Bank BIC" := VendorBankAccount."SWIFT Code";
      "Recipient Bank Acc. No." := COPYSTR(VendorBankAccount.GetBankAccountNo,1,MAXSTRLEN("Recipient Bank Acc. No."));
      "Recipient Bank Clearing Std." := VendorBankAccount."Bank Clearing Standard";
      "Recipient Bank Clearing Code" := VendorBankAccount."Bank Clearing Code";
    END;

    [External]
    PROCEDURE SetEmployeeAsRecipient@12(VAR Employee@1000 : Record 5200);
    BEGIN
      "Recipient Name" := COPYSTR(Employee.FullName,1,MAXSTRLEN("Recipient Name"));
      "Recipient Address" := Employee.Address;
      "Recipient City" := COPYSTR(Employee.City,1,35);
      "Recipient County" := Employee.County;
      "Recipient Post Code" := Employee."Post Code";
      "Recipient Country/Region Code" := Employee."Country/Region Code";
      "Recipient Email Address" := Employee."E-Mail";
      IF Employee.GetBankAccountNo = '' THEN
        ERROR(EmployeeMustHaveBankAccountNoErr,Employee.FullName);
      "Recipient Bank Acc. No." := COPYSTR(Employee.GetBankAccountNo,1,MAXSTRLEN("Recipient Bank Acc. No."));
    END;

    [External]
    PROCEDURE SetBankAsSenderBank@11(BankAccount@1000 : Record 270);
    BEGIN
      "Sender Bank Name - Data Conv." := BankAccount."Bank Name - Data Conversion";
      "Sender Bank Name" := BankAccount.Name;
      "Sender Bank Address" := BankAccount.Address;
      "Sender Bank City" := BankAccount.City;
      "Sender Bank County" := BankAccount.County;
      "Sender Bank Post Code" := BankAccount."Post Code";
      "Sender Bank Account Code" := BankAccount."No.";
      "Sender Bank Account No." := COPYSTR(BankAccount.GetBankAccountNo,1,MAXSTRLEN("Sender Bank Account No."));
      "Sender Bank BIC" := BankAccount."SWIFT Code";
      "Sender Bank Clearing Std." := BankAccount."Bank Clearing Standard";
      "Sender Bank Clearing Code" := BankAccount."Bank Clearing Code";
    END;

    [External]
    PROCEDURE SetCreditorIdentifier@6(BankAccount@1000 : Record 270);
    BEGIN
      BankAccount.TESTFIELD("Creditor No.");
      "Creditor No." := BankAccount."Creditor No.";
      "Transit No." := BankAccount."Transit No.";
    END;

    [External]
    PROCEDURE SetCreditTransferIDs@7(MessageID@1000 : Code[20]);
    BEGIN
      "Message ID" := MessageID;
      "Payment Information ID" := MessageID + '/' + FORMAT("Entry No.");
      "End-to-End ID" := "Payment Information ID";
    END;

    [External]
    PROCEDURE IsFieldBlank@4(FieldID@1003 : Integer) : Boolean;
    VAR
      RecRef@1005 : RecordRef;
      FieldRef@1002 : FieldRef;
      BlankValue@1000 : Text;
    BEGIN
      RecRef.GETTABLE(Rec);
      FieldRef := RecRef.FIELD(FieldID);
      CASE FORMAT(FieldRef.TYPE) OF
        'Text','Code','Date':
          BlankValue := '';
        'Decimal','Integer':
          BlankValue := '0';
      END;
      EXIT(FORMAT(FieldRef.VALUE) = BlankValue);
    END;

    BEGIN
    END.
  }
}

