OBJECT Table 1181 Data Privacy Records
{
  OBJECT-PROPERTIES
  {
    Date=26/04/18;
    Time=12:00:00;
    Version List=NAVW111.00.00.21836;
  }
  PROPERTIES
  {
    CaptionML=[ENU=Data Privacy Records;
               ENG=Data Privacy Records];
  }
  FIELDS
  {
    { 1   ;   ;ID                  ;Integer       ;AutoIncrement=Yes;
                                                   DataClassification=ToBeClassified;
                                                   CaptionML=[ENU=ID;
                                                              ENG=ID] }
    { 2   ;   ;Table No.           ;Integer       ;DataClassification=SystemMetadata;
                                                   CaptionML=[ENU=Table No.;
                                                              ENG=Table No.] }
    { 3   ;   ;Table Name          ;Text30        ;FieldClass=FlowField;
                                                   CalcFormula=Lookup(Field.TableName WHERE (TableNo=FIELD(Table No.),
                                                                                             No.=FIELD(Field No.)));
                                                   CaptionML=[ENU=Table Name;
                                                              ENG=Table Name] }
    { 4   ;   ;Field No.           ;Integer       ;DataClassification=SystemMetadata;
                                                   CaptionML=[ENU=Field No.;
                                                              ENG=Field No.] }
    { 5   ;   ;Field Name          ;Text30        ;FieldClass=FlowField;
                                                   CalcFormula=Lookup(Field.FieldName WHERE (TableNo=FIELD(Table No.),
                                                                                             No.=FIELD(Field No.)));
                                                   CaptionML=[ENU=Field Name;
                                                              ENG=Field Name] }
    { 6   ;   ;Field DataType      ;Text20        ;DataClassification=SystemMetadata;
                                                   CaptionML=[ENU=Field DataType;
                                                              ENG=Field DataType] }
    { 7   ;   ;Field Value         ;Text250       ;DataClassification=SystemMetadata;
                                                   CaptionML=[ENU=Field Value;
                                                              ENG=Field Value] }
  }
  KEYS
  {
    {    ;ID                                      ;Clustered=Yes }
  }
  FIELDGROUPS
  {
  }
  CODE
  {

    BEGIN
    END.
  }
}

