OBJECT Table 1004 Job WIP Entry
{
  OBJECT-PROPERTIES
  {
    Date=22/11/17;
    Time=12:00:00;
    Version List=NAVW111.00;
  }
  PROPERTIES
  {
    CaptionML=[ENU=Job WIP Entry;
               ENG=Job WIP Entry];
    LookupPageID=Page1008;
    DrillDownPageID=Page1008;
  }
  FIELDS
  {
    { 1   ;   ;Entry No.           ;Integer       ;CaptionML=[ENU=Entry No.;
                                                              ENG=Entry No.] }
    { 2   ;   ;Job No.             ;Code20        ;TableRelation=Job;
                                                   CaptionML=[ENU=Job No.;
                                                              ENG=Job No.] }
    { 3   ;   ;Document No.        ;Code20        ;CaptionML=[ENU=Document No.;
                                                              ENG=Document No.] }
    { 4   ;   ;G/L Account No.     ;Code20        ;TableRelation="G/L Account";
                                                   CaptionML=[ENU=G/L Account No.;
                                                              ENG=G/L Account No.] }
    { 5   ;   ;WIP Posting Date    ;Date          ;CaptionML=[ENU=WIP Posting Date;
                                                              ENG=WIP Posting/Tax Point Date] }
    { 6   ;   ;WIP Entry Amount    ;Decimal       ;CaptionML=[ENU=WIP Entry Amount;
                                                              ENG=WIP Entry Amount];
                                                   AutoFormatType=1 }
    { 7   ;   ;Job Posting Group   ;Code20        ;TableRelation="Job Posting Group";
                                                   CaptionML=[ENU=Job Posting Group;
                                                              ENG=Job Posting Group] }
    { 8   ;   ;Type                ;Option        ;CaptionML=[ENU=Type;
                                                              ENG=Type];
                                                   OptionCaptionML=[ENU=Applied Costs,Applied Sales,Recognized Costs,Recognized Sales,Accrued Costs,Accrued Sales;
                                                                    ENG=Applied Costs,Applied Sales,Recognised Costs,Recognised Sales,Accrued Costs,Accrued Sales];
                                                   OptionString=Applied Costs,Applied Sales,Recognized Costs,Recognized Sales,Accrued Costs,Accrued Sales }
    { 9   ;   ;G/L Bal. Account No.;Code20        ;TableRelation="G/L Account";
                                                   CaptionML=[ENU=G/L Bal. Account No.;
                                                              ENG=G/L Bal. Account No.] }
    { 10  ;   ;WIP Method Used     ;Code20        ;TableRelation="Job WIP Method";
                                                   CaptionML=[ENU=WIP Method Used;
                                                              ENG=WIP Method Used];
                                                   Editable=No }
    { 11  ;   ;Job Complete        ;Boolean       ;CaptionML=[ENU=Job Complete;
                                                              ENG=Job Complete] }
    { 12  ;   ;Job WIP Total Entry No.;Integer    ;TableRelation="Job WIP Total";
                                                   CaptionML=[ENU=Job WIP Total Entry No.;
                                                              ENG=Job WIP Total Entry No.] }
    { 13  ;   ;Reverse             ;Boolean       ;InitValue=Yes;
                                                   CaptionML=[ENU=Reverse;
                                                              ENG=Reverse] }
    { 14  ;   ;WIP Posting Method Used;Option     ;CaptionML=[ENU=WIP Posting Method Used;
                                                              ENG=WIP Posting Method Used];
                                                   OptionCaptionML=[ENU=Per Job,Per Job Ledger Entry;
                                                                    ENG=Per Job,Per Job Ledger Entry];
                                                   OptionString=Per Job,Per Job Ledger Entry }
    { 60  ;   ;Global Dimension 1 Code;Code20     ;TableRelation="Dimension Value".Code WHERE (Global Dimension No.=CONST(1));
                                                   CaptionML=[ENU=Global Dimension 1 Code;
                                                              ENG=Global Dimension 1 Code];
                                                   CaptionClass='1,1,1' }
    { 61  ;   ;Global Dimension 2 Code;Code20     ;TableRelation="Dimension Value".Code WHERE (Global Dimension No.=CONST(2));
                                                   CaptionML=[ENU=Global Dimension 2 Code;
                                                              ENG=Global Dimension 2 Code];
                                                   CaptionClass='1,1,2' }
    { 480 ;   ;Dimension Set ID    ;Integer       ;TableRelation="Dimension Set Entry";
                                                   OnLookup=BEGIN
                                                              ShowDimensions;
                                                            END;

                                                   CaptionML=[ENU=Dimension Set ID;
                                                              ENG=Dimension Set ID];
                                                   Editable=No }
  }
  KEYS
  {
    {    ;Entry No.                               ;Clustered=Yes }
    {    ;Job No.,Job Posting Group,WIP Posting Date,Type,Job Complete;
                                                   SumIndexFields=WIP Entry Amount }
    {    ;G/L Account No.                          }
  }
  FIELDGROUPS
  {
  }
  CODE
  {
    VAR
      DimMgt@1000 : Codeunit 408;

    [External]
    PROCEDURE DeleteEntriesForJob@3(Job@1000 : Record 167);
    BEGIN
      SETCURRENTKEY("Job No.");
      SETRANGE("Job No.",Job."No.");
      IF NOT ISEMPTY THEN
        DELETEALL(TRUE);
    END;

    [External]
    PROCEDURE ShowDimensions@2();
    BEGIN
      DimMgt.ShowDimensionSet("Dimension Set ID",STRSUBSTNO('%1 %2',TABLECAPTION,"Entry No."));
    END;

    BEGIN
    END.
  }
}

