OBJECT Table 1875 Business Setup
{
  OBJECT-PROPERTIES
  {
    Date=22/11/17;
    Time=12:00:00;
    Version List=NAVW111.00;
  }
  PROPERTIES
  {
    DataPerCompany=No;
    CaptionML=[ENU=Business Setup;
               ENG=Business Setup];
  }
  FIELDS
  {
    { 1   ;   ;Name                ;Text50        ;CaptionML=[ENU=Name;
                                                              ENG=Name] }
    { 2   ;   ;Description         ;Text250       ;CaptionML=[ENU=Description;
                                                              ENG=Description] }
    { 3   ;   ;Keywords            ;Text250       ;CaptionML=[ENU=Keywords;
                                                              ENG=Keywords] }
    { 4   ;   ;Setup Page ID       ;Integer       ;CaptionML=[ENU=Setup Page ID;
                                                              ENG=Setup Page ID] }
    { 5   ;   ;Area                ;Option        ;CaptionML=[ENU=Area;
                                                              ENG=Area];
                                                   OptionCaptionML=[ENU=,General,Finance,Sales,Jobs,Fixed Assets,Purchasing,Reference Data,HR,Inventory,Service,System,Relationship Mngt,Intercompany;
                                                                    ENG=,General,Finance,Sales,Jobs,Fixed Assets,Purchasing,Reference Data,HR,Inventory,Service,System,Relationship Mngt,Intercompany];
                                                   OptionString=,General,Finance,Sales,Jobs,Fixed Assets,Purchasing,Reference Data,HR,Inventory,Service,System,Relationship Mngt,Intercompany }
    { 7   ;   ;Icon                ;Media         ;CaptionML=[ENU=Icon;
                                                              ENG=Icon] }
  }
  KEYS
  {
    {    ;Name                                    ;Clustered=Yes }
  }
  FIELDGROUPS
  {
    { 1   ;Brick               ;Description,Name,Icon                    }
  }
  CODE
  {

    [Integration]
    [External]
    PROCEDURE OnRegisterBusinessSetup@1(VAR TempBusinessSetup@1000 : TEMPORARY Record 1875);
    BEGIN
    END;

    [Integration]
    [External]
    PROCEDURE OnOpenBusinessSetupPage@2(VAR TempBusinessSetup@1000 : TEMPORARY Record 1875;VAR Handled@1001 : Boolean);
    BEGIN
    END;

    [External]
    PROCEDURE InsertBusinessSetup@4(VAR TempBusinessSetup@1003 : TEMPORARY Record 1875;BusinessSetupName@1001 : Text[50];BusinessSetupDescription@1000 : Text[250];BusinessSetupKeywords@1002 : Text[250];BusinessSetupArea@1004 : Option;BusinessSetupRunPage@1006 : Integer;BusinessSetupIconFileName@1005 : Text[50]);
    VAR
      BusinessSetupIcon@1007 : Record 1876;
    BEGIN
      IF TempBusinessSetup.GET(BusinessSetupName) THEN
        EXIT;

      TempBusinessSetup.INIT;
      TempBusinessSetup.Name := BusinessSetupName;
      TempBusinessSetup.Description := BusinessSetupDescription;
      TempBusinessSetup.Keywords := BusinessSetupKeywords;
      TempBusinessSetup."Setup Page ID" := BusinessSetupRunPage;
      TempBusinessSetup.Area := BusinessSetupArea;
      TempBusinessSetup.INSERT(TRUE);

      IF BusinessSetupIcon.GET(BusinessSetupIconFileName) THEN
        BusinessSetupIcon.GetIcon(TempBusinessSetup);
    END;

    [External]
    PROCEDURE InsertExtensionBusinessSetup@6(VAR TempBusinessSetup@1003 : TEMPORARY Record 1875;BusinessSetupName@1001 : Text[50];BusinessSetupDescription@1000 : Text[250];BusinessSetupKeywords@1002 : Text[250];BusinessSetupArea@1004 : Option;BusinessSetupRunPage@1006 : Integer;ExtensionName@1005 : Text[250]);
    BEGIN
      IF TempBusinessSetup.GET(BusinessSetupName) THEN
        EXIT;

      TempBusinessSetup.INIT;
      TempBusinessSetup.Name := BusinessSetupName;
      TempBusinessSetup.Description := BusinessSetupDescription;
      TempBusinessSetup.Keywords := BusinessSetupKeywords;
      TempBusinessSetup."Setup Page ID" := BusinessSetupRunPage;
      TempBusinessSetup.Area := BusinessSetupArea;
      TempBusinessSetup.INSERT(TRUE);

      AddExtensionIconToBusinessSetup(TempBusinessSetup,ExtensionName);
    END;

    [External]
    PROCEDURE SetBusinessSetupIcon@3(VAR TempBusinessSetup@1001 : TEMPORARY Record 1875;IconInStream@1000 : InStream);
    VAR
      BusinessSetupIcon@1002 : Record 1876;
    BEGIN
      IF NOT BusinessSetupIcon.GET(TempBusinessSetup.Name) THEN BEGIN
        BusinessSetupIcon.INIT;
        BusinessSetupIcon."Business Setup Name" := TempBusinessSetup.Name;
        BusinessSetupIcon.INSERT(TRUE);
        BusinessSetupIcon.SetIconFromInstream(TempBusinessSetup.Name,IconInStream);
      END;

      BusinessSetupIcon.GetIcon(TempBusinessSetup);
    END;

    LOCAL PROCEDURE AddExtensionIconToBusinessSetup@5(VAR TempBusinessSetup@1001 : TEMPORARY Record 1875;ExtensionName@1002 : Text);
    VAR
      BusinessSetupIcon@1005 : Record 1876;
      NAVApp@1003 : Record 2000000160;
      Media@1006 : Record 2000000181;
      IconInStream@1000 : InStream;
    BEGIN
      IF NOT BusinessSetupIcon.GET(TempBusinessSetup.Name) THEN BEGIN
        NAVApp.SETRANGE(Name,ExtensionName);
        IF NOT NAVApp.FINDFIRST THEN
          EXIT;
        Media.SETRANGE(ID,NAVApp.Logo.MEDIAID);
        IF NOT Media.FINDFIRST THEN
          EXIT;
        Media.CALCFIELDS(Content);
        Media.Content.CREATEINSTREAM(IconInStream);

        BusinessSetupIcon.INIT;
        BusinessSetupIcon."Business Setup Name" := TempBusinessSetup.Name;
        BusinessSetupIcon.Icon.IMPORTSTREAM(IconInStream,TempBusinessSetup.Name);
        IF BusinessSetupIcon.INSERT(TRUE) THEN;
      END;

      TempBusinessSetup.Icon := BusinessSetupIcon.Icon;
      IF TempBusinessSetup.MODIFY(TRUE) THEN;
    END;

    BEGIN
    END.
  }
}

