OBJECT Table 1200 Bank Export/Import Setup
{
  OBJECT-PROPERTIES
  {
    Date=15/09/15;
    Time=12:00:00;
    Version List=NAVW19.00;
  }
  PROPERTIES
  {
    DataCaptionFields=Code,Name;
    CaptionML=[ENU=Bank Export/Import Setup;
               ENG=Bank Export/Import Setup];
    LookupPageID=Page1200;
    DrillDownPageID=Page1200;
  }
  FIELDS
  {
    { 1   ;   ;Code                ;Code20        ;CaptionML=[ENU=Code;
                                                              ENG=Code];
                                                   NotBlank=Yes }
    { 2   ;   ;Name                ;Text100       ;CaptionML=[ENU=Name;
                                                              ENG=Name] }
    { 3   ;   ;Direction           ;Option        ;OnValidate=BEGIN
                                                                IF Direction = Direction::"Export-Positive Pay" THEN
                                                                  "Processing Codeunit ID" := CODEUNIT::"Exp. Launcher Pos. Pay"
                                                                ELSE
                                                                  IF "Processing Codeunit ID" = CODEUNIT::"Exp. Launcher Pos. Pay" THEN
                                                                    "Processing Codeunit ID" := 0;
                                                              END;

                                                   CaptionML=[ENU=Direction;
                                                              ENG=Direction];
                                                   OptionCaptionML=[ENU=Export,Import,Export-Positive Pay;
                                                                    ENG=Export,Import,Export-Positive Pay];
                                                   OptionString=Export,Import,Export-Positive Pay }
    { 4   ;   ;Processing Codeunit ID;Integer     ;TableRelation=AllObjWithCaption."Object ID" WHERE (Object Type=CONST(Codeunit));
                                                   CaptionML=[ENU=Processing Codeunit ID;
                                                              ENG=Processing Codeunit ID] }
    { 5   ;   ;Processing Codeunit Name;Text80    ;FieldClass=FlowField;
                                                   CalcFormula=Lookup(AllObjWithCaption."Object Caption" WHERE (Object Type=CONST(Codeunit),
                                                                                                                Object ID=FIELD(Processing Codeunit ID)));
                                                   CaptionML=[ENU=Processing Codeunit Name;
                                                              ENG=Processing Codeunit Name];
                                                   Editable=No }
    { 6   ;   ;Processing XMLport ID;Integer      ;TableRelation=AllObjWithCaption."Object ID" WHERE (Object Type=CONST(XMLport));
                                                   CaptionML=[ENU=Processing XMLport ID;
                                                              ENG=Processing XMLport ID] }
    { 7   ;   ;Processing XMLport Name;Text80     ;FieldClass=FlowField;
                                                   CalcFormula=Lookup(AllObjWithCaption."Object Caption" WHERE (Object Type=CONST(XMLport),
                                                                                                                Object ID=FIELD(Processing XMLport ID)));
                                                   CaptionML=[ENU=Processing XMLport Name;
                                                              ENG=Processing XMLport Name];
                                                   Editable=No }
    { 8   ;   ;Data Exch. Def. Code;Code20        ;TableRelation=IF (Direction=CONST(Import)) "Data Exch. Def".Code WHERE (Type=CONST(Bank Statement Import))
                                                                 ELSE IF (Direction=CONST(Export)) "Data Exch. Def".Code WHERE (Type=CONST(Payment Export))
                                                                 ELSE IF (Direction=CONST(Export-Positive Pay)) "Data Exch. Def".Code WHERE (Type=CONST(Positive Pay Export));
                                                   CaptionML=[ENU=Data Exch. Def. Code;
                                                              ENG=Data Exch. Def. Code] }
    { 9   ;   ;Data Exch. Def. Name;Text100       ;FieldClass=FlowField;
                                                   CalcFormula=Lookup("Data Exch. Def".Name WHERE (Code=FIELD(Data Exch. Def. Code)));
                                                   CaptionML=[ENU=Data Exch. Def. Name;
                                                              ENG=Data Exch. Def. Name];
                                                   Editable=No }
    { 10  ;   ;Preserve Non-Latin Characters;Boolean;
                                                   InitValue=Yes;
                                                   CaptionML=[ENU=Preserve Non-Latin Characters;
                                                              ENG=Preserve Non-Latin Characters] }
    { 11  ;   ;Check Export Codeunit;Integer      ;TableRelation=AllObjWithCaption."Object ID" WHERE (Object Type=CONST(Codeunit));
                                                   CaptionML=[ENU=Check Export Codeunit;
                                                              ENG=Check Export Codeunit] }
    { 12  ;   ;Check Export Codeunit Name;Text30  ;FieldClass=FlowField;
                                                   CalcFormula=Lookup(AllObjWithCaption."Object Caption" WHERE (Object Type=CONST(Codeunit),
                                                                                                                Object ID=FIELD(Check Export Codeunit)));
                                                   CaptionML=[ENU=Check Export Codeunit Name;
                                                              ENG=Check Export Codeunit Name];
                                                   Editable=No }
  }
  KEYS
  {
    {    ;Code                                    ;Clustered=Yes }
  }
  FIELDGROUPS
  {
  }
  CODE
  {

    BEGIN
    END.
  }
}

