OBJECT Table 1242 Positive Pay Footer
{
  OBJECT-PROPERTIES
  {
    Date=15/09/15;
    Time=12:00:00;
    Version List=NAVW19.00;
  }
  PROPERTIES
  {
    CaptionML=[ENU=Positive Pay Footer;
               ENG=Positive Pay Footer];
  }
  FIELDS
  {
    { 1   ;   ;Data Exch. Entry No.;Integer       ;TableRelation="Data Exch."."Entry No.";
                                                   CaptionML=[ENU=Data Exch. Entry No.;
                                                              ENG=Data Exch. Entry No.] }
    { 2   ;   ;Data Exch. Detail Entry No.;Integer;TableRelation="Positive Pay Detail"."Data Exch. Entry No.";
                                                   CaptionML=[ENU=Data Exch. Detail Entry No.;
                                                              ENG=Data Exch. Detail Entry No.] }
    { 3   ;   ;Account Number      ;Text30        ;CaptionML=[ENU=Account Number;
                                                              ENG=Account Number] }
    { 4   ;   ;Check Count         ;Integer       ;FieldClass=FlowField;
                                                   CalcFormula=Count("Positive Pay Detail" WHERE (Void Check Indicator=CONST(),
                                                                                                  Data Exch. Entry No.=FIELD(Data Exch. Detail Entry No.)));
                                                   CaptionML=[ENU=Check Count;
                                                              ENG=Cheque Count];
                                                   BlankZero=Yes }
    { 5   ;   ;Check Total         ;Decimal       ;FieldClass=FlowField;
                                                   CalcFormula=Sum("Positive Pay Detail".Amount WHERE (Void Check Indicator=CONST(),
                                                                                                       Data Exch. Entry No.=FIELD(Data Exch. Detail Entry No.)));
                                                   CaptionML=[ENU=Check Total;
                                                              ENG=Cheque Total];
                                                   BlankZero=Yes }
    { 6   ;   ;Void Count          ;Integer       ;FieldClass=FlowField;
                                                   CalcFormula=Count("Positive Pay Detail" WHERE (Void Check Indicator=CONST(V),
                                                                                                  Data Exch. Entry No.=FIELD(Data Exch. Detail Entry No.)));
                                                   CaptionML=[ENU=Void Count;
                                                              ENG=Void Count];
                                                   BlankZero=Yes }
    { 7   ;   ;Void Total          ;Decimal       ;FieldClass=FlowField;
                                                   CalcFormula=Sum("Positive Pay Detail".Amount WHERE (Void Check Indicator=CONST(V),
                                                                                                       Data Exch. Entry No.=FIELD(Data Exch. Detail Entry No.)));
                                                   CaptionML=[ENU=Void Total;
                                                              ENG=Void Total];
                                                   BlankZero=Yes }
    { 8   ;   ;Total Count         ;Integer       ;FieldClass=FlowField;
                                                   CalcFormula=Count("Positive Pay Detail" WHERE (Data Exch. Entry No.=FIELD(Data Exch. Detail Entry No.)));
                                                   CaptionML=[ENU=Total Count;
                                                              ENG=Total Count];
                                                   BlankZero=Yes }
    { 9   ;   ;Grand Total         ;Decimal       ;FieldClass=FlowField;
                                                   CalcFormula=Sum("Positive Pay Detail".Amount WHERE (Data Exch. Entry No.=FIELD(Data Exch. Detail Entry No.)));
                                                   CaptionML=[ENU=Grand Total;
                                                              ENG=Grand Total];
                                                   BlankZero=Yes }
  }
  KEYS
  {
    {    ;Data Exch. Entry No.                    ;Clustered=Yes }
  }
  FIELDGROUPS
  {
  }
  CODE
  {

    BEGIN
    END.
  }
}

