OBJECT Table 1227 Data Exch. Line Def
{
  OBJECT-PROPERTIES
  {
    Date=22/11/17;
    Time=12:00:00;
    Version List=NAVW111.00;
  }
  PROPERTIES
  {
    OnDelete=VAR
               DataExchMapping@1001 : Record 1224;
               DataExchColumnDef@1000 : Record 1223;
             BEGIN
               DataExchMapping.SETRANGE("Data Exch. Def Code","Data Exch. Def Code");
               DataExchMapping.SETRANGE("Data Exch. Line Def Code",Code);
               DataExchMapping.DELETEALL(TRUE);

               DataExchColumnDef.SETRANGE("Data Exch. Def Code","Data Exch. Def Code");
               DataExchColumnDef.SETRANGE("Data Exch. Line Def Code",Code);
               DataExchColumnDef.DELETEALL(TRUE);
             END;

    CaptionML=[ENU=Data Exch. Line Def;
               ENG=Data Exch. Line Def];
  }
  FIELDS
  {
    { 1   ;   ;Data Exch. Def Code ;Code20        ;TableRelation="Data Exch. Def".Code;
                                                   CaptionML=[ENU=Data Exch. Def Code;
                                                              ENG=Data Exch. Def Code];
                                                   NotBlank=Yes }
    { 2   ;   ;Code                ;Code20        ;CaptionML=[ENU=Code;
                                                              ENG=Code];
                                                   NotBlank=Yes }
    { 3   ;   ;Name                ;Text100       ;CaptionML=[ENU=Name;
                                                              ENG=Name] }
    { 4   ;   ;Column Count        ;Integer       ;CaptionML=[ENU=Column Count;
                                                              ENG=Column Count] }
    { 5   ;   ;Data Line Tag       ;Text250       ;CaptionML=[ENU=Data Line Tag;
                                                              ENG=Data Line Tag] }
    { 6   ;   ;Namespace           ;Text250       ;CaptionML=[ENU=Namespace;
                                                              ENG=Namespace] }
    { 10  ;   ;Parent Code         ;Code20        ;TableRelation="Data Exch. Line Def".Code WHERE (Data Exch. Def Code=FIELD(Data Exch. Def Code));
                                                   OnValidate=BEGIN
                                                                IF "Parent Code" = '' THEN
                                                                  EXIT;
                                                                IF "Parent Code" = Code THEN
                                                                  ERROR(STRSUBSTNO(DontPointToTheSameLineErr,FIELDCAPTION("Parent Code"),FIELDCAPTION(Code)));
                                                              END;

                                                   CaptionML=[ENU=Parent Code;
                                                              ENG=Parent Code] }
    { 11  ;   ;Line Type           ;Option        ;CaptionML=[ENU=Line Type;
                                                              ENG=Line Type];
                                                   OptionCaptionML=[ENU=Detail,Header,Footer;
                                                                    ENG=Detail,Header,Footer];
                                                   OptionString=Detail,Header,Footer }
  }
  KEYS
  {
    {    ;Data Exch. Def Code,Code                ;Clustered=Yes }
    {    ;Data Exch. Def Code,Parent Code          }
  }
  FIELDGROUPS
  {
  }
  CODE
  {
    VAR
      IncorrectNamespaceErr@1000 : TextConst '@@@="%1=file namespace,%2=supported namespace";ENU=The imported file contains unsupported namespace "%1". The supported namespace is ''%2''.;ENG=The imported file contains unsupported namespace "%1". The supported namespace is ''%2''.';
      DontPointToTheSameLineErr@1001 : TextConst '@@@="%1 =Parent Code and %2 = Code";ENU=%1 cannot be the same as %2.;ENG=%1 cannot be the same as %2.';

    [External]
    PROCEDURE InsertRec@7(DataExchDefCode@1000 : Code[20];NewCode@1001 : Code[20];NewName@1002 : Text[100];ColumnCount@1003 : Integer);
    BEGIN
      VALIDATE("Data Exch. Def Code",DataExchDefCode);
      VALIDATE(Code,NewCode);
      VALIDATE(Name,NewName);
      VALIDATE("Column Count",ColumnCount);
      INSERT;
    END;

    [External]
    PROCEDURE ValidateNamespace@3(XMLNode@1000 : DotNet "'System.Xml, Version=4.0.0.0, Culture=neutral, PublicKeyToken=b77a5c561934e089'.System.Xml.XmlNode");
    VAR
      NamespaceURI@1001 : Text;
    BEGIN
      IF Namespace <> '' THEN BEGIN
        NamespaceURI := XMLNode.NamespaceURI;
        IF NamespaceURI <> Namespace THEN
          ERROR(IncorrectNamespaceErr,NamespaceURI,Namespace);
      END;
    END;

    [External]
    PROCEDURE GetPath@1(TableId@1000 : Integer;FieldId@1001 : Integer) : Text;
    VAR
      DataExchFieldMapping@1002 : Record 1225;
      DataExchDef@1003 : Record 1222;
    BEGIN
      DataExchDef.GET("Data Exch. Def Code");
      DataExchFieldMapping.SETRANGE("Data Exch. Def Code","Data Exch. Def Code");
      DataExchFieldMapping.SETRANGE("Data Exch. Line Def Code",Code);
      IF DataExchDef.Type = DataExchDef.Type::"Generic Import" THEN BEGIN
        DataExchFieldMapping.SETRANGE("Target Table ID",TableId);
        DataExchFieldMapping.SETRANGE("Target Field ID",FieldId);
      END ELSE BEGIN
        DataExchFieldMapping.SETRANGE("Table ID",TableId);
        DataExchFieldMapping.SETRANGE("Field ID",FieldId);
      END;
      IF DataExchFieldMapping.FINDFIRST THEN
        EXIT(DataExchFieldMapping.GetPath);
      EXIT('');
    END;

    BEGIN
    END.
  }
}

