OBJECT Table 1271 OCR Service Document Template
{
  OBJECT-PROPERTIES
  {
    Date=15/09/15;
    Time=12:00:00;
    Version List=NAVW19.00;
  }
  PROPERTIES
  {
    DataCaptionFields=Code,Name;
    CaptionML=[ENU=OCR Service Document Template;
               ENG=OCR Service Document Template];
    LookupPageID=Page1271;
    DrillDownPageID=Page1271;
  }
  FIELDS
  {
    { 1   ;   ;Code                ;Code20        ;CaptionML=[ENU=Code;
                                                              ENG=Code];
                                                   NotBlank=Yes }
    { 2   ;   ;Name                ;Text50        ;CaptionML=[ENU=Name;
                                                              ENG=Name] }
  }
  KEYS
  {
    {    ;Code                                    ;Clustered=Yes }
  }
  FIELDGROUPS
  {
  }
  CODE
  {

    BEGIN
    END.
  }
}

