OBJECT Table 2000000076 Web Service
{
  OBJECT-PROPERTIES
  {
    Date=27/04/18;
    Time=12:00:00;
    Version List=;
  }
  PROPERTIES
  {
    DataPerCompany=No;
    CaptionML=[ENU=Web Service;
               ENG=Web Service];
  }
  FIELDS
  {
    { 3   ;   ;Object Type         ;Option        ;CaptionML=[ENU=Object Type;
                                                              ENG=Object Type];
                                                   OptionCaptionML=[ENU=,,,,,Codeunit,,,Page,Query;
                                                                    ENG=,,,,,Codeunit,,,Page,Query];
                                                   OptionString=,,,,,Codeunit,,,Page,Query }
    { 6   ;   ;Object ID           ;Integer       ;TableRelation=AllObjWithCaption."Object ID" WHERE (Object Type=FIELD(Object Type));
                                                   CaptionML=[ENU=Object ID;
                                                              ENG=Object ID] }
    { 9   ;   ;Service Name        ;Text240       ;CaptionML=[ENU=Service Name;
                                                              ENG=Service Name] }
    { 12  ;   ;Published           ;Boolean       ;CaptionML=[ENU=Published;
                                                              ENG=Published] }
  }
  KEYS
  {
    {    ;Object Type,Service Name                ;Clustered=Yes }
    {    ;Object Type,Object ID                    }
  }
  FIELDGROUPS
  {
  }
  CODE
  {

    BEGIN
    END.
  }
}

