OBJECT Table 272 Check Ledger Entry
{
  OBJECT-PROPERTIES
  {
    Date=22/02/18;
    Time=12:00:00;
    Version List=NAVW111.00.00.20783;
  }
  PROPERTIES
  {
    CaptionML=[ENU=Check Ledger Entry;
               ENG=Cheque Ledger Entry];
    LookupPageID=Page374;
    DrillDownPageID=Page374;
  }
  FIELDS
  {
    { 1   ;   ;Entry No.           ;Integer       ;CaptionML=[ENU=Entry No.;
                                                              ENG=Entry No.] }
    { 2   ;   ;Bank Account No.    ;Code20        ;TableRelation="Bank Account";
                                                   CaptionML=[ENU=Bank Account No.;
                                                              ENG=Bank Account No.] }
    { 3   ;   ;Bank Account Ledger Entry No.;Integer;
                                                   TableRelation="Bank Account Ledger Entry";
                                                   CaptionML=[ENU=Bank Account Ledger Entry No.;
                                                              ENG=Bank Account Ledger Entry No.] }
    { 4   ;   ;Posting Date        ;Date          ;CaptionML=[ENU=Posting Date;
                                                              ENG=Posting Date] }
    { 5   ;   ;Document Type       ;Option        ;CaptionML=[ENU=Document Type;
                                                              ENG=Document Type];
                                                   OptionCaptionML=[ENU=" ,Payment,Invoice,Credit Memo,Finance Charge Memo,Reminder,Refund";
                                                                    ENG=" ,Payment,Invoice,Credit Memo,Finance Charge Memo,Reminder,Refund"];
                                                   OptionString=[ ,Payment,Invoice,Credit Memo,Finance Charge Memo,Reminder,Refund] }
    { 6   ;   ;Document No.        ;Code20        ;CaptionML=[ENU=Document No.;
                                                              ENG=Document No.] }
    { 7   ;   ;Description         ;Text50        ;CaptionML=[ENU=Description;
                                                              ENG=Description] }
    { 8   ;   ;Amount              ;Decimal       ;CaptionML=[ENU=Amount;
                                                              ENG=Amount];
                                                   AutoFormatType=1;
                                                   AutoFormatExpr=GetCurrencyCodeFromBank }
    { 9   ;   ;Check Date          ;Date          ;CaptionML=[ENU=Check Date;
                                                              ENG=Cheque Date] }
    { 10  ;   ;Check No.           ;Code20        ;CaptionML=[ENU=Check No.;
                                                              ENG=Cheque No.] }
    { 11  ;   ;Check Type          ;Option        ;CaptionML=[ENU=Check Type;
                                                              ENG=Cheque Type];
                                                   OptionCaptionML=[ENU=Total Check,Partial Check;
                                                                    ENG=Total Cheque,Partial Cheque];
                                                   OptionString=Total Check,Partial Check }
    { 12  ;   ;Bank Payment Type   ;Option        ;CaptionML=[ENU=Bank Payment Type;
                                                              ENG=Bank Payment Type];
                                                   OptionCaptionML=[ENU=" ,Computer Check,Manual Check,Electronic Payment";
                                                                    ENG=" ,Computer Cheque,Manual Cheque,Electronic Payment"];
                                                   OptionString=[ ,Computer Check,Manual Check,Electronic Payment] }
    { 13  ;   ;Entry Status        ;Option        ;CaptionML=[ENU=Entry Status;
                                                              ENG=Entry Status];
                                                   OptionCaptionML=[ENU=,Printed,Voided,Posted,Financially Voided,Test Print,Exported,Transmitted;
                                                                    ENG=,Printed,Voided,Posted,Financially Voided,Test Print,Exported,Transmitted];
                                                   OptionString=,Printed,Voided,Posted,Financially Voided,Test Print,Exported,Transmitted }
    { 14  ;   ;Original Entry Status;Option       ;CaptionML=[ENU=Original Entry Status;
                                                              ENG=Original Entry Status];
                                                   OptionCaptionML=[ENU=" ,Printed,Voided,Posted,Financially Voided";
                                                                    ENG=" ,Printed,Voided,Posted,Financially Voided"];
                                                   OptionString=[ ,Printed,Voided,Posted,Financially Voided] }
    { 15  ;   ;Bal. Account Type   ;Option        ;CaptionML=[ENU=Bal. Account Type;
                                                              ENG=Bal. Account Type];
                                                   OptionCaptionML=[ENU=G/L Account,Customer,Vendor,Bank Account,Fixed Asset;
                                                                    ENG=G/L Account,Customer,Vendor,Bank Account,Fixed Asset];
                                                   OptionString=G/L Account,Customer,Vendor,Bank Account,Fixed Asset }
    { 16  ;   ;Bal. Account No.    ;Code20        ;TableRelation=IF (Bal. Account Type=CONST(G/L Account)) "G/L Account"
                                                                 ELSE IF (Bal. Account Type=CONST(Customer)) Customer
                                                                 ELSE IF (Bal. Account Type=CONST(Vendor)) Vendor
                                                                 ELSE IF (Bal. Account Type=CONST(Bank Account)) "Bank Account"
                                                                 ELSE IF (Bal. Account Type=CONST(Fixed Asset)) "Fixed Asset";
                                                   CaptionML=[ENU=Bal. Account No.;
                                                              ENG=Bal. Account No.] }
    { 17  ;   ;Open                ;Boolean       ;CaptionML=[ENU=Open;
                                                              ENG=Open] }
    { 18  ;   ;Statement Status    ;Option        ;CaptionML=[ENU=Statement Status;
                                                              ENG=Statement Status];
                                                   OptionCaptionML=[ENU=Open,Bank Acc. Entry Applied,Check Entry Applied,Closed;
                                                                    ENG=Open,Bank Acc. Entry Applied,Cheque Entry Applied,Closed];
                                                   OptionString=Open,Bank Acc. Entry Applied,Check Entry Applied,Closed }
    { 19  ;   ;Statement No.       ;Code20        ;TableRelation="Bank Acc. Reconciliation Line"."Statement No." WHERE (Bank Account No.=FIELD(Bank Account No.));
                                                   TestTableRelation=No;
                                                   CaptionML=[ENU=Statement No.;
                                                              ENG=Statement No.] }
    { 20  ;   ;Statement Line No.  ;Integer       ;TableRelation="Bank Acc. Reconciliation Line"."Statement Line No." WHERE (Bank Account No.=FIELD(Bank Account No.),
                                                                                                                             Statement No.=FIELD(Statement No.));
                                                   TestTableRelation=No;
                                                   CaptionML=[ENU=Statement Line No.;
                                                              ENG=Statement Line No.] }
    { 21  ;   ;User ID             ;Code50        ;TableRelation=User."User Name";
                                                   OnLookup=VAR
                                                              UserMgt@1000 : Codeunit 418;
                                                            BEGIN
                                                              UserMgt.LookupUserID("User ID");
                                                            END;

                                                   TestTableRelation=No;
                                                   DataClassification=EndUserIdentifiableInformation;
                                                   CaptionML=[ENU=User ID;
                                                              ENG=User ID] }
    { 22  ;   ;External Document No.;Code35       ;CaptionML=[ENU=External Document No.;
                                                              ENG=External Document No.] }
    { 23  ;   ;Data Exch. Entry No.;Integer       ;TableRelation="Data Exch.";
                                                   CaptionML=[ENU=Data Exch. Entry No.;
                                                              ENG=Data Exch. Entry No.];
                                                   Editable=No }
    { 24  ;   ;Data Exch. Voided Entry No.;Integer;TableRelation="Data Exch.";
                                                   CaptionML=[ENU=Data Exch. Voided Entry No.;
                                                              ENG=Data Exch. Voided Entry No.];
                                                   Editable=No }
    { 25  ;   ;Positive Pay Exported;Boolean      ;CaptionML=[ENU=Positive Pay Exported;
                                                              ENG=Positive Pay Exported] }
    { 26  ;   ;Record ID to Print  ;RecordID      ;DataClassification=SystemMetadata;
                                                   CaptionML=[ENU=Record ID to Print;
                                                              ENG=Record ID to Print] }
  }
  KEYS
  {
    {    ;Entry No.                               ;Clustered=Yes }
    {    ;Bank Account No.,Check Date              }
    {    ;Bank Account No.,Entry Status,Check No.  }
    {    ;Bank Account Ledger Entry No.            }
    {    ;Bank Account No.,Open                    }
    {    ;Document No.,Posting Date                }
  }
  FIELDGROUPS
  {
  }
  CODE
  {
    VAR
      NothingToExportErr@1000 : TextConst 'ENU=There is nothing to export.;ENG=There is nothing to export.';

    [External]
    PROCEDURE GetCurrencyCodeFromBank@1() : Code[10];
    VAR
      BankAcc@1000 : Record 270;
    BEGIN
      IF "Bank Account No." = BankAcc."No." THEN
        EXIT(BankAcc."Currency Code");

      IF BankAcc.GET("Bank Account No.") THEN
        EXIT(BankAcc."Currency Code");

      EXIT('');
    END;

    [External]
    PROCEDURE CopyFromBankAccLedgEntry@2(BankAccLedgEntry@1000 : Record 271);
    BEGIN
      "Bank Account No." := BankAccLedgEntry."Bank Account No.";
      "Bank Account Ledger Entry No." := BankAccLedgEntry."Entry No.";
      "Posting Date" := BankAccLedgEntry."Posting Date";
      "Document Type" := BankAccLedgEntry."Document Type";
      "Document No." := BankAccLedgEntry."Document No.";
      "External Document No." := BankAccLedgEntry."External Document No.";
      Description := BankAccLedgEntry.Description;
      "Bank Payment Type" := "Bank Payment Type";
      "Bal. Account Type" := BankAccLedgEntry."Bal. Account Type";
      "Bal. Account No." := BankAccLedgEntry."Bal. Account No.";
      "Entry Status" := "Entry Status"::Posted;
      Open := TRUE;
      "User ID" := USERID;
      "Check Date" := BankAccLedgEntry."Posting Date";
      "Check No." := BankAccLedgEntry."Document No.";

      OnAfterCopyFromBankAccLedgEntry(Rec,BankAccLedgEntry);
    END;

    [External]
    PROCEDURE ExportCheckFile@3();
    VAR
      BankAcc@1000 : Record 270;
    BEGIN
      IF NOT FINDSET THEN
        ERROR(NothingToExportErr);

      BankAcc.GET("Bank Account No.");
      IF BankAcc.GetPosPayExportCodeunitID > 0 THEN
        CODEUNIT.RUN(BankAcc.GetPosPayExportCodeunitID,Rec)
      ELSE
        CODEUNIT.RUN(CODEUNIT::"Exp. Launcher Pos. Pay",Rec);
    END;

    [External]
    PROCEDURE GetPayee@4() Payee : Text[50];
    VAR
      Vendor@1003 : Record 23;
      Customer@1002 : Record 18;
      GLAccount@1001 : Record 15;
      BankAccount@1000 : Record 270;
    BEGIN
      CASE "Bal. Account Type" OF
        "Bal. Account Type"::"G/L Account":
          IF "Bal. Account No." <> '' THEN BEGIN
            GLAccount.GET("Bal. Account No.");
            Payee := GLAccount.Name;
          END;
        "Bal. Account Type"::Customer:
          IF "Bal. Account No." <> '' THEN BEGIN
            Customer.GET("Bal. Account No.");
            Payee := Customer.Name;
          END;
        "Bal. Account Type"::Vendor:
          IF "Bal. Account No." <> '' THEN BEGIN
            Vendor.GET("Bal. Account No.");
            Payee := Vendor.Name;
          END;
        "Bal. Account Type"::"Bank Account":
          IF "Bal. Account No." <> '' THEN BEGIN
            BankAccount.GET("Bal. Account No.");
            Payee := BankAccount.Name;
          END;
        "Bal. Account Type"::"Fixed Asset":
          Payee := "Bal. Account No.";
      END;
    END;

    [External]
    PROCEDURE SetFilterBankAccNoOpen@6(BankAccNo@1000 : Code[20]);
    BEGIN
      RESET;
      SETCURRENTKEY("Bank Account No.",Open);
      SETRANGE("Bank Account No.",BankAccNo);
      SETRANGE(Open,TRUE);
    END;

    [Integration]
    [External]
    PROCEDURE OnAfterCopyFromBankAccLedgEntry@7(VAR CheckLedgerEntry@1000 : Record 272;BankAccountLedgerEntry@1001 : Record 271);
    BEGIN
    END;

    BEGIN
    END.
  }
}

