OBJECT Table 2000000163 NAV App Object Prerequisites
{
  OBJECT-PROPERTIES
  {
    Date=27/04/18;
    Time=12:00:00;
    Version List=;
  }
  PROPERTIES
  {
    DataPerCompany=No;
    CaptionML=[ENU=NAV App Object Prerequisites;
               ENG=NAV App Object Prerequisites];
  }
  FIELDS
  {
    { 1   ;   ;Package ID          ;GUID          ;CaptionML=[ENU=Package ID;
                                                              ENG=Package ID] }
    { 2   ;   ;Type                ;Option        ;CaptionML=[ENU=Type;
                                                              ENG=Type];
                                                   OptionCaptionML=[ENU=TableData,Table,,Report,,Codeunit,XMLport,MenuSuite,Page,Query;
                                                                    ENG=TableData,Table,,Report,,Codeunit,XMLport,MenuSuite,Page,Query];
                                                   OptionString=TableData,Table,,Report,,Codeunit,XMLport,MenuSuite,Page,Query }
    { 3   ;   ;ID                  ;Integer       ;CaptionML=[ENU=ID;
                                                              ENG=ID] }
  }
  KEYS
  {
    {    ;Package ID,Type,ID                      ;Clustered=Yes }
  }
  FIELDGROUPS
  {
  }
  CODE
  {

    BEGIN
    END.
  }
}

