OBJECT Table 202 Resource Cost
{
  OBJECT-PROPERTIES
  {
    Date=05/11/08;
    Time=12:00:00;
    Version List=NAVW16.00;
  }
  PROPERTIES
  {
    CaptionML=[ENU=Resource Cost;
               ENG=Resource Cost];
  }
  FIELDS
  {
    { 1   ;   ;Type                ;Option        ;CaptionML=[ENU=Type;
                                                              ENG=Type];
                                                   OptionCaptionML=[ENU=Resource,Group(Resource),All;
                                                                    ENG=Resource,Group(Resource),All];
                                                   OptionString=Resource,Group(Resource),All }
    { 2   ;   ;Code                ;Code20        ;TableRelation=IF (Type=CONST(Resource)) Resource
                                                                 ELSE IF (Type=CONST("Group(Resource)")) "Resource Group";
                                                   OnValidate=BEGIN
                                                                IF (Code <> '') AND (Type = Type::All) THEN
                                                                  FIELDERROR(Code,STRSUBSTNO(Text000,FIELDCAPTION(Type),FORMAT(Type)));
                                                              END;

                                                   CaptionML=[ENU=Code;
                                                              ENG=Code] }
    { 3   ;   ;Work Type Code      ;Code10        ;TableRelation="Work Type";
                                                   CaptionML=[ENU=Work Type Code;
                                                              ENG=Work Type Code] }
    { 4   ;   ;Cost Type           ;Option        ;OnValidate=BEGIN
                                                                IF "Work Type Code" = '' THEN
                                                                  TESTFIELD("Cost Type","Cost Type"::Fixed);
                                                              END;

                                                   CaptionML=[ENU=Cost Type;
                                                              ENG=Cost Type];
                                                   OptionCaptionML=[ENU=Fixed,% Extra,LCY Extra;
                                                                    ENG=Fixed,% Extra,LCY Extra];
                                                   OptionString=Fixed,% Extra,LCY Extra }
    { 5   ;   ;Direct Unit Cost    ;Decimal       ;CaptionML=[ENU=Direct Unit Cost;
                                                              ENG=Direct Unit Cost];
                                                   AutoFormatType=2 }
    { 6   ;   ;Unit Cost           ;Decimal       ;CaptionML=[ENU=Unit Cost;
                                                              ENG=Unit Cost];
                                                   AutoFormatType=2 }
  }
  KEYS
  {
    {    ;Type,Code,Work Type Code                ;Clustered=Yes }
    {    ;Cost Type,Code,Work Type Code            }
  }
  FIELDGROUPS
  {
  }
  CODE
  {
    VAR
      Text000@1000 : TextConst 'ENU=cannot be specified when %1 is %2;ENG=cannot be specified when %1 is %2';

    BEGIN
    END.
  }
}

