OBJECT Table 2000000104 Debugger Watch
{
  OBJECT-PROPERTIES
  {
    Date=27/04/18;
    Time=12:00:00;
    Version List=;
  }
  PROPERTIES
  {
    DataPerCompany=No;
    CaptionML=[ENU=Debugger Watch;
               ENG=Debugger Watch];
  }
  FIELDS
  {
    { 1   ;   ;ID                  ;Integer       ;AutoIncrement=Yes;
                                                   CaptionML=[ENU=ID;
                                                              ENG=ID] }
    { 7   ;   ;Path                ;Text124       ;CaptionML=[ENU=Path;
                                                              ENG=Path] }
  }
  KEYS
  {
    {    ;ID                                      ;Clustered=Yes }
    {    ;Path                                     }
  }
  FIELDGROUPS
  {
  }
  CODE
  {

    BEGIN
    END.
  }
}

