OBJECT Table 2000000121 User Property
{
  OBJECT-PROPERTIES
  {
    Date=27/04/18;
    Time=12:00:00;
    Version List=;
  }
  PROPERTIES
  {
    DataPerCompany=No;
    CaptionML=[ENU=User Property;
               ENG=User Property];
  }
  FIELDS
  {
    { 1   ;   ;User Security ID    ;GUID          ;TableRelation=User."User Security ID";
                                                   TestTableRelation=No;
                                                   CaptionML=[ENU=User Security ID;
                                                              ENG=User Security ID] }
    { 2   ;   ;Password            ;Text80        ;CaptionML=[ENU=Password;
                                                              ENG=Password] }
    { 3   ;   ;Name Identifier     ;Text250       ;CaptionML=[ENU=Name Identifier;
                                                              ENG=Name Identifier] }
    { 4   ;   ;Authentication Key  ;Text80        ;CaptionML=[ENU=Authentication Key;
                                                              ENG=Authentication Key] }
    { 5   ;   ;WebServices Key     ;Text80        ;CaptionML=[ENU=WebServices Key;
                                                              ENG=WebServices Key] }
    { 6   ;   ;WebServices Key Expiry Date;DateTime;
                                                   CaptionML=[ENU=WebServices Key Expiry Date;
                                                              ENG=WebServices Key Expiry Date] }
    { 7   ;   ;Authentication Object ID;Text80    ;CaptionML=[ENU=Authentication Object ID;
                                                              ENG=Authentication Object ID] }
    { 8   ;   ;Directory Role ID   ;Text80        ;CaptionML=[ENU=Directory Role ID;
                                                              ENG=Directory Role ID] }
  }
  KEYS
  {
    {    ;User Security ID                        ;Clustered=Yes }
  }
  FIELDGROUPS
  {
  }
  CODE
  {

    BEGIN
    END.
  }
}

