OBJECT Table 2000000111 Session Event
{
  OBJECT-PROPERTIES
  {
    Date=27/04/18;
    Time=12:00:00;
    Version List=;
  }
  PROPERTIES
  {
    DataPerCompany=No;
    CaptionML=[ENU=Session Event;
               ENG=Session Event];
  }
  FIELDS
  {
    { 1   ;   ;User SID            ;GUID          ;TableRelation=User."User Security ID";
                                                   ValidateTableRelation=No;
                                                   TestTableRelation=No;
                                                   CaptionML=[ENU=User SID;
                                                              ENG=User SID] }
    { 2   ;   ;Server Instance ID  ;Integer       ;TableRelation="Server Instance"."Server Instance ID";
                                                   ValidateTableRelation=No;
                                                   TestTableRelation=No;
                                                   CaptionML=[ENU=Server Instance ID;
                                                              ENG=Server Instance ID] }
    { 3   ;   ;Session ID          ;Integer       ;CaptionML=[ENU=Session ID;
                                                              ENG=Session ID] }
    { 4   ;   ;Event Type          ;Option        ;CaptionML=[ENU=Event Type;
                                                              ENG=Event Type];
                                                   OptionCaptionML=[ENU=Logon,Logoff,Start,Stop,Close;
                                                                    ENG=Logon,Logoff,Start,Stop,Close];
                                                   OptionString=Logon,Logoff,Start,Stop,Close }
    { 5   ;   ;Event Datetime      ;DateTime      ;CaptionML=[ENU=Event Datetime;
                                                              ENG=Event Datetime] }
    { 6   ;   ;Client Type         ;Option        ;CaptionML=[ENU=Client Type;
                                                              ENG=Client Type];
                                                   OptionCaptionML=[ENU=Windows Client,SharePoint Client,Web Service,Client Service,NAS,Background,Management Client,Web Client,Unknown,Tablet,Phone,Desktop;
                                                                    ENG=Windows Client,SharePoint Client,Web Service,Client Service,NAS,Background,Management Client,Web Client,Unknown,Tablet,Phone,Desktop];
                                                   OptionString=Windows Client,SharePoint Client,Web Service,Client Service,NAS,Background,Management Client,Web Client,Unknown,Tablet,Phone,Desktop }
    { 7   ;   ;Database Name       ;Text250       ;CaptionML=[ENU=Database Name;
                                                              ENG=Database Name] }
    { 8   ;   ;Client Computer Name;Text250       ;CaptionML=[ENU=Client Computer Name;
                                                              ENG=Client Computer Name] }
    { 9   ;   ;User ID             ;Text132       ;CaptionML=[ENU=User ID;
                                                              ENG=User ID] }
    { 10  ;   ;Comment             ;Text132       ;CaptionML=[ENU=Comment;
                                                              ENG=Comment] }
    { 11  ;   ;Session Unique ID   ;GUID          ;CaptionML=[ENU=Session Unique ID;
                                                              ENG=Session Unique ID] }
  }
  KEYS
  {
    {    ;User SID,Server Instance ID,Session ID,Event Datetime,Event Type;
                                                   Clustered=Yes }
    {    ;Session Unique ID                        }
    {    ;Event Datetime                           }
  }
  FIELDGROUPS
  {
  }
  CODE
  {

    BEGIN
    END.
  }
}

