OBJECT Table 2000000114 Document Service
{
  OBJECT-PROPERTIES
  {
    Date=27/04/18;
    Time=12:00:00;
    Version List=;
  }
  PROPERTIES
  {
    DataPerCompany=No;
    CaptionML=[ENU=Document Service;
               ENG=Document Service];
  }
  FIELDS
  {
    { 1   ;   ;Service ID          ;Code30        ;CaptionML=[ENU=Service ID;
                                                              ENG=Service ID] }
    { 3   ;   ;Description         ;Text80        ;CaptionML=[ENU=Description;
                                                              ENG=Description] }
    { 5   ;   ;Location            ;Text250       ;CaptionML=[ENU=Location;
                                                              ENG=Location] }
    { 7   ;   ;User Name           ;Text128       ;CaptionML=[ENU=User Name;
                                                              ENG=User Name] }
    { 9   ;   ;Password            ;Text128       ;CaptionML=[ENU=Password;
                                                              ENG=Password] }
    { 11  ;   ;Document Repository ;Text250       ;CaptionML=[ENU=Document Repository;
                                                              ENG=Document Repository] }
    { 13  ;   ;Folder              ;Text250       ;CaptionML=[ENU=Folder;
                                                              ENG=Folder] }
  }
  KEYS
  {
    {    ;Service ID                              ;Clustered=Yes }
  }
  FIELDGROUPS
  {
    { 1   ;DropDown            ;Service ID,Description                   }
  }
  CODE
  {

    BEGIN
    END.
  }
}

