OBJECT Table 284 Area
{
  OBJECT-PROPERTIES
  {
    Date=07/09/12;
    Time=12:00:00;
    Version List=NAVW17.00;
  }
  PROPERTIES
  {
    CaptionML=[ENU=Area;
               ENG=Area];
    LookupPageID=Page405;
  }
  FIELDS
  {
    { 1   ;   ;Code                ;Code10        ;CaptionML=[ENU=Code;
                                                              ENG=Code];
                                                   NotBlank=Yes }
    { 2   ;   ;Text                ;Text50        ;CaptionML=[ENU=Text;
                                                              ENG=Text] }
  }
  KEYS
  {
    {    ;Code                                    ;Clustered=Yes }
  }
  FIELDGROUPS
  {
    { 1   ;DropDown            ;Code,Text                                }
  }
  CODE
  {

    BEGIN
    END.
  }
}

