OBJECT Table 343 Item Application Entry History
{
  OBJECT-PROPERTIES
  {
    Date=22/02/18;
    Time=12:00:00;
    Version List=NAVW111.00.00.20783;
  }
  PROPERTIES
  {
    CaptionML=[ENU=Item Application Entry History;
               ENG=Item Application Entry History];
    LookupPageID=Page523;
    DrillDownPageID=Page523;
  }
  FIELDS
  {
    { 1   ;   ;Entry No.           ;Integer       ;CaptionML=[ENU=Entry No.;
                                                              ENG=Entry No.] }
    { 2   ;   ;Item Ledger Entry No.;Integer      ;TableRelation="Item Ledger Entry";
                                                   CaptionML=[ENU=Item Ledger Entry No.;
                                                              ENG=Item Ledger Entry No.] }
    { 3   ;   ;Inbound Item Entry No.;Integer     ;TableRelation="Item Ledger Entry";
                                                   CaptionML=[ENU=Inbound Item Entry No.;
                                                              ENG=Inbound Item Entry No.] }
    { 4   ;   ;Outbound Item Entry No.;Integer    ;TableRelation="Item Ledger Entry";
                                                   CaptionML=[ENU=Outbound Item Entry No.;
                                                              ENG=Outbound Item Entry No.] }
    { 9   ;   ;Primary Entry No.   ;Integer       ;CaptionML=[ENU=Primary Entry No.;
                                                              ENG=Primary Entry No.] }
    { 11  ;   ;Quantity            ;Decimal       ;CaptionML=[ENU=Quantity;
                                                              ENG=Quantity];
                                                   DecimalPlaces=0:5 }
    { 21  ;   ;Posting Date        ;Date          ;CaptionML=[ENU=Posting Date;
                                                              ENG=Posting/Tax Point Date] }
    { 23  ;   ;Transferred-from Entry No.;Integer ;TableRelation="Item Ledger Entry";
                                                   CaptionML=[ENU=Transferred-from Entry No.;
                                                              ENG=Transferred-from Entry No.] }
    { 25  ;   ;Creation Date       ;DateTime      ;CaptionML=[ENU=Creation Date;
                                                              ENG=Creation Date] }
    { 26  ;   ;Created By User     ;Code50        ;TableRelation=User."User Name";
                                                   OnLookup=VAR
                                                              UserMgt@1000 : Codeunit 418;
                                                            BEGIN
                                                              UserMgt.LookupUserID("Created By User");
                                                            END;

                                                   TestTableRelation=No;
                                                   DataClassification=EndUserIdentifiableInformation;
                                                   CaptionML=[ENU=Created By User;
                                                              ENG=Created By User] }
    { 27  ;   ;Last Modified Date  ;DateTime      ;CaptionML=[ENU=Last Modified Date;
                                                              ENG=Last Modified Date] }
    { 28  ;   ;Last Modified By User;Code50       ;TableRelation=User."User Name";
                                                   OnLookup=VAR
                                                              UserMgt@1000 : Codeunit 418;
                                                            BEGIN
                                                              UserMgt.LookupUserID("Last Modified By User");
                                                            END;

                                                   TestTableRelation=No;
                                                   DataClassification=EndUserIdentifiableInformation;
                                                   CaptionML=[ENU=Last Modified By User;
                                                              ENG=Last Modified By User] }
    { 29  ;   ;Deleted Date        ;DateTime      ;CaptionML=[ENU=Deleted Date;
                                                              ENG=Deleted Date] }
    { 30  ;   ;Deleted By User     ;Code50        ;TableRelation=User."User Name";
                                                   OnLookup=VAR
                                                              UserMgt@1000 : Codeunit 418;
                                                            BEGIN
                                                              UserMgt.LookupUserID("Deleted By User");
                                                            END;

                                                   TestTableRelation=No;
                                                   DataClassification=EndUserIdentifiableInformation;
                                                   CaptionML=[ENU=Deleted By User;
                                                              ENG=Deleted By User] }
    { 5800;   ;Cost Application    ;Boolean       ;CaptionML=[ENU=Cost Application;
                                                              ENG=Cost Application] }
    { 5804;   ;Output Completely Invd. Date;Date  ;CaptionML=[ENU=Output Completely Invd. Date;
                                                              ENG=Output Completely Invd. Date] }
  }
  KEYS
  {
    {    ;Primary Entry No.                       ;Clustered=Yes }
    {    ;Entry No.                                }
  }
  FIELDGROUPS
  {
  }
  CODE
  {

    BEGIN
    END.
  }
}

