OBJECT Table 377 Object Translation
{
  OBJECT-PROPERTIES
  {
    Date=22/11/17;
    Time=12:00:00;
    Version List=NAVW111.00;
  }
  PROPERTIES
  {
    DataPerCompany=No;
    CaptionML=[ENU=Object Translation;
               ENG=Object Translation];
  }
  FIELDS
  {
    { 1   ;   ;Object Type         ;Option        ;CaptionML=[ENU=Object Type;
                                                              ENG=Object Type];
                                                   OptionCaptionML=[ENU=" ,Table,Form,Report,,Codeunit,XMLPort,MenuSuite,Page";
                                                                    ENG=" ,Table,Form,Report,,Codeunit,XMLPort,MenuSuite,Page"];
                                                   OptionString=[ ,Table,Form,Report,,Codeunit,XMLPort,MenuSuite,Page] }
    { 2   ;   ;Object ID           ;Integer       ;TableRelation=IF (Object Type=FILTER(>' ')) AllObj."Object ID" WHERE (Object Type=FIELD(Object Type));
                                                   CaptionML=[ENU=Object ID;
                                                              ENG=Object ID];
                                                   NotBlank=Yes }
    { 3   ;   ;Language ID         ;Integer       ;TableRelation="Windows Language";
                                                   OnValidate=BEGIN
                                                                CALCFIELDS("Language Name");
                                                              END;

                                                   CaptionML=[ENU=Language ID;
                                                              ENG=Language ID];
                                                   NotBlank=Yes;
                                                   BlankZero=Yes }
    { 4   ;   ;Language Name       ;Text80        ;FieldClass=FlowField;
                                                   CalcFormula=Lookup("Windows Language".Name WHERE (Language ID=FIELD(Language ID)));
                                                   CaptionML=[ENU=Language Name;
                                                              ENG=Language Name];
                                                   Editable=No }
    { 5   ;   ;Description         ;Text250       ;CaptionML=[ENU=Description;
                                                              ENG=Description] }
    { 6   ;   ;Object Name         ;Text30        ;FieldClass=FlowField;
                                                   CalcFormula=Lookup(Object.Name WHERE (Type=FIELD(Object Type),
                                                                                         ID=FIELD(Object ID)));
                                                   CaptionML=[ENU=Object Name;
                                                              ENG=Object Name];
                                                   Editable=No }
  }
  KEYS
  {
    {    ;Object Type,Object ID,Language ID       ;Clustered=Yes }
  }
  FIELDGROUPS
  {
  }
  CODE
  {

    [External]
    PROCEDURE TranslateObject@2(ObjectType@1000 : ' ,Table,Form,Report,,Codeunit,XMLPort,MenuSuite,Page';ObjectID@1001 : Integer) : Text[250];
    VAR
      Object@1002 : Record 2000000058;
    BEGIN
      IF Object.GET(ObjectType,ObjectID) THEN
        EXIT(Object."Object Caption");
    END;

    BEGIN
    END.
  }
}

