OBJECT Table 396 XBRL Comment Line
{
  OBJECT-PROPERTIES
  {
    Date=05/11/08;
    Time=12:00:00;
    Version List=NAVW16.00;
  }
  PROPERTIES
  {
    CaptionML=[ENU=XBRL Comment Line;
               ENG=XBRL Comment Line];
  }
  FIELDS
  {
    { 1   ;   ;XBRL Taxonomy Name  ;Code20        ;TableRelation="XBRL Taxonomy";
                                                   CaptionML=[ENU=XBRL Taxonomy Name;
                                                              ENG=XBRL Taxonomy Name] }
    { 2   ;   ;XBRL Taxonomy Line No.;Integer     ;TableRelation="XBRL Taxonomy Line"."Line No." WHERE (XBRL Taxonomy Name=FIELD(XBRL Taxonomy Name));
                                                   CaptionML=[ENU=XBRL Taxonomy Line No.;
                                                              ENG=XBRL Taxonomy Line No.] }
    { 3   ;   ;Comment Type        ;Option        ;CaptionML=[ENU=Comment Type;
                                                              ENG=Comment Type];
                                                   OptionCaptionML=[ENU=Information,Notes,Reference;
                                                                    ENG=Information,Notes,Reference];
                                                   OptionString=Information,Notes,Reference }
    { 4   ;   ;Line No.            ;Integer       ;CaptionML=[ENU=Line No.;
                                                              ENG=Line No.] }
    { 5   ;   ;Comment             ;Text80        ;CaptionML=[ENU=Comment;
                                                              ENG=Comment] }
    { 6   ;   ;Label Language Filter;Text10       ;FieldClass=FlowFilter;
                                                   CaptionML=[ENU=Label Language Filter;
                                                              ENG=Label Language Filter] }
    { 7   ;   ;Date                ;Date          ;CaptionML=[ENU=Date;
                                                              ENG=Date] }
  }
  KEYS
  {
    {    ;XBRL Taxonomy Name,XBRL Taxonomy Line No.,Comment Type,Line No.;
                                                   Clustered=Yes }
  }
  FIELDGROUPS
  {
  }
  CODE
  {

    BEGIN
    END.
  }
}

