OBJECT Table 338 Entry Summary
{
  OBJECT-PROPERTIES
  {
    Date=22/11/17;
    Time=12:00:00;
    Version List=NAVW111.00;
  }
  PROPERTIES
  {
    CaptionML=[ENU=Entry Summary;
               ENG=Entry Summary];
  }
  FIELDS
  {
    { 1   ;   ;Entry No.           ;Integer       ;CaptionML=[ENU=Entry No.;
                                                              ENG=Entry No.] }
    { 2   ;   ;Table ID            ;Integer       ;CaptionML=[ENU=Table ID;
                                                              ENG=Table ID] }
    { 3   ;   ;Summary Type        ;Text80        ;CaptionML=[ENU=Summary Type;
                                                              ENG=Summary Type] }
    { 4   ;   ;Total Quantity      ;Decimal       ;CaptionML=[ENU=Total Quantity;
                                                              ENG=Total Quantity];
                                                   DecimalPlaces=0:5 }
    { 5   ;   ;Total Reserved Quantity;Decimal    ;CaptionML=[ENU=Total Reserved Quantity;
                                                              ENG=Total Reserved Quantity];
                                                   DecimalPlaces=0:5 }
    { 6   ;   ;Total Available Quantity;Decimal   ;CaptionML=[ENU=Total Available Quantity;
                                                              ENG=Total Available Quantity];
                                                   DecimalPlaces=0:5 }
    { 7   ;   ;Current Reserved Quantity;Decimal  ;CaptionML=[ENU=Current Reserved Quantity;
                                                              ENG=Current Reserved Quantity];
                                                   DecimalPlaces=0:5 }
    { 8   ;   ;Source Subtype      ;Integer       ;CaptionML=[ENU=Source Subtype;
                                                              ENG=Source Subtype] }
    { 15  ;   ;Qty. Alloc. in Warehouse;Decimal   ;CaptionML=[ENU=Qty. Alloc. in Warehouse;
                                                              ENG=Qty. Alloc. in Warehouse];
                                                   DecimalPlaces=0:5 }
    { 16  ;   ;Res. Qty. on Picks & Shipmts.;Decimal;
                                                   CaptionML=[ENU=Res. Qty. on Picks & Shipmts.;
                                                              ENG=Res. Qty. on Picks & Shipmts.];
                                                   DecimalPlaces=0:5 }
    { 6500;   ;Serial No.          ;Code20        ;CaptionML=[ENU=Serial No.;
                                                              ENG=Serial No.];
                                                   Editable=No }
    { 6501;   ;Lot No.             ;Code20        ;CaptionML=[ENU=Lot No.;
                                                              ENG=Lot No.];
                                                   Editable=No }
    { 6502;   ;Warranty Date       ;Date          ;CaptionML=[ENU=Warranty Date;
                                                              ENG=Warranty Date];
                                                   Editable=No }
    { 6503;   ;Expiration Date     ;Date          ;CaptionML=[ENU=Expiration Date;
                                                              ENG=Expiration Date];
                                                   Editable=No }
    { 6504;   ;Total Requested Quantity;Decimal   ;CaptionML=[ENU=Total Requested Quantity;
                                                              ENG=Total Requested Quantity];
                                                   DecimalPlaces=0:5 }
    { 6505;   ;Selected Quantity   ;Decimal       ;OnValidate=BEGIN
                                                                IF "Bin Active" AND ("Total Available Quantity" > "Bin Content") THEN BEGIN
                                                                  IF "Selected Quantity" > "Bin Content" THEN
                                                                    ERROR(Text001,"Bin Content");
                                                                END ELSE
                                                                  IF "Selected Quantity" > "Total Available Quantity" THEN
                                                                    ERROR(Text001,"Total Available Quantity");
                                                              END;

                                                   CaptionML=[ENU=Selected Quantity;
                                                              ENG=Selected Quantity];
                                                   DecimalPlaces=0:5;
                                                   MinValue=0;
                                                   BlankZero=Yes }
    { 6506;   ;Current Pending Quantity;Decimal   ;CaptionML=[ENU=Current Pending Quantity;
                                                              ENG=Current Pending Quantity];
                                                   DecimalPlaces=0:5 }
    { 6507;   ;Current Requested Quantity;Decimal ;CaptionML=[ENU=Current Requested Quantity;
                                                              ENG=Current Requested Quantity] }
    { 6508;   ;Bin Content         ;Decimal       ;AccessByPermission=TableData 5771=R;
                                                   CaptionML=[ENU=Bin Content;
                                                              ENG=Bin Content];
                                                   DecimalPlaces=0:5;
                                                   Editable=No }
    { 6509;   ;Bin Active          ;Boolean       ;CaptionML=[ENU=Bin Active;
                                                              ENG=Bin Active];
                                                   Editable=No }
    { 6510;   ;Non-specific Reserved Qty.;Decimal ;CaptionML=[ENU=Non-specific Reserved Qty.;
                                                              ENG=Non-specific Reserved Qty.];
                                                   Editable=No }
    { 6511;   ;Double-entry Adjustment;Decimal    ;CaptionML=[ENU=Double-entry Adjustment;
                                                              ENG=Double-entry Adjustment];
                                                   Editable=No }
  }
  KEYS
  {
    {    ;Entry No.                               ;Clustered=Yes }
    {    ;Lot No.,Serial No.                       }
    {    ;Expiration Date                          }
  }
  FIELDGROUPS
  {
  }
  CODE
  {
    VAR
      Text001@1000 : TextConst 'ENU=You cannot select more than %1 units.;ENG=You cannot select more than %1 units.';

    [External]
    PROCEDURE UpdateAvailable@1();
    BEGIN
      "Total Available Quantity" :=
        "Total Quantity" -
        "Total Requested Quantity" -
        "Current Pending Quantity" +
        "Double-entry Adjustment";
    END;

    [External]
    PROCEDURE HasQuantity@2() : Boolean;
    BEGIN
      EXIT(("Total Quantity" <> 0) OR
        ("Qty. Alloc. in Warehouse" <> 0) OR
        ("Total Requested Quantity" <> 0) OR
        ("Current Pending Quantity" <> 0) OR
        ("Double-entry Adjustment" <> 0));
    END;

    [External]
    PROCEDURE SetTrackingFilter@3(SerialNo@1000 : Code[20];LotNo@1001 : Code[20]);
    BEGIN
      SETRANGE("Serial No.",SerialNo);
      SETRANGE("Lot No.",LotNo);
    END;

    [External]
    PROCEDURE SetTrackingFilterFromEntrySummary@6(EntrySummary@1000 : Record 338);
    BEGIN
      SETRANGE("Serial No.",EntrySummary."Serial No.");
      SETRANGE("Lot No.",EntrySummary."Lot No.");
    END;

    [External]
    PROCEDURE SetTrackingFilterFromReservEntry@5(ReservationEntry@1000 : Record 337);
    BEGIN
      SETRANGE("Serial No.",ReservationEntry."Serial No.");
      SETRANGE("Lot No.",ReservationEntry."Lot No.");
    END;

    [External]
    PROCEDURE SetTrackingFilterFromSpec@4(TrackingSpecification@1000 : Record 336);
    BEGIN
      SETRANGE("Serial No.",TrackingSpecification."Serial No.");
      SETRANGE("Lot No.",TrackingSpecification."Lot No.");
    END;

    BEGIN
    END.
  }
}

