OBJECT Table 395 XBRL Taxonomy Line
{
  OBJECT-PROPERTIES
  {
    Date=22/11/17;
    Time=12:00:00;
    Version List=NAVW111.00;
  }
  PROPERTIES
  {
    OnDelete=BEGIN
               WITH XBRLCommentLine DO BEGIN
                 RESET;
                 SETRANGE("XBRL Taxonomy Name",Rec."XBRL Taxonomy Name");
                 SETRANGE("XBRL Taxonomy Line No.",Rec."Line No.");
                 DELETEALL;
               END;
               WITH XBRLGLMapLine DO BEGIN
                 RESET;
                 SETRANGE("XBRL Taxonomy Name",Rec."XBRL Taxonomy Name");
                 SETRANGE("XBRL Taxonomy Line No.",Rec."Line No.");
                 DELETEALL;
               END;
               WITH XBRLRollupLine DO BEGIN
                 RESET;
                 SETRANGE("XBRL Taxonomy Name",Rec."XBRL Taxonomy Name");
                 SETRANGE("XBRL Taxonomy Line No.",Rec."Line No.");
                 DELETEALL;
               END;
               WITH XBRLTaxonomyLabel DO BEGIN
                 RESET;
                 SETRANGE("XBRL Taxonomy Name",Rec."XBRL Taxonomy Name");
                 SETRANGE("XBRL Taxonomy Line No.",Rec."Line No.");
                 DELETEALL;
               END;
             END;

    CaptionML=[ENU=XBRL Taxonomy Line;
               ENG=XBRL Taxonomy Line];
    LookupPageID=Page583;
  }
  FIELDS
  {
    { 1   ;   ;XBRL Taxonomy Name  ;Code20        ;TableRelation="XBRL Taxonomy";
                                                   CaptionML=[ENU=XBRL Taxonomy Name;
                                                              ENG=XBRL Taxonomy Name];
                                                   NotBlank=Yes }
    { 2   ;   ;Line No.            ;Integer       ;CaptionML=[ENU=Line No.;
                                                              ENG=Line No.];
                                                   Editable=No }
    { 3   ;   ;Name                ;Text220       ;CaptionML=[ENU=Name;
                                                              ENG=Name];
                                                   Editable=No }
    { 4   ;   ;Level               ;Integer       ;CaptionML=[ENU=Level;
                                                              ENG=Level];
                                                   Editable=No }
    { 5   ;   ;Label               ;Text250       ;FieldClass=FlowField;
                                                   CalcFormula=Lookup("XBRL Taxonomy Label".Label WHERE (XBRL Taxonomy Name=FIELD(XBRL Taxonomy Name),
                                                                                                         XBRL Taxonomy Line No.=FIELD(Line No.),
                                                                                                         XML Language Identifier=FIELD(Label Language Filter)));
                                                   CaptionML=[ENU=Label;
                                                              ENG=Label];
                                                   Editable=No }
    { 6   ;   ;Source Type         ;Option        ;CaptionML=[ENU=Source Type;
                                                              ENG=Source Type];
                                                   OptionCaptionML=[ENU=Not Applicable,Rollup,Constant,General Ledger,Notes,Description,Tuple;
                                                                    ENG=Not Applicable,Rollup,Constant,General Ledger,Notes,Description,Tuple];
                                                   OptionString=Not Applicable,Rollup,Constant,General Ledger,Notes,Description,Tuple }
    { 7   ;   ;Constant Amount     ;Decimal       ;CaptionML=[ENU=Constant Amount;
                                                              ENG=Constant Amount];
                                                   DecimalPlaces=0:5 }
    { 8   ;   ;Description         ;Text250       ;CaptionML=[ENU=Description;
                                                              ENG=Description] }
    { 9   ;   ;XBRL Item Type      ;Text250       ;CaptionML=[ENU=XBRL Item Type;
                                                              ENG=XBRL Item Type] }
    { 10  ;   ;Parent Line No.     ;Integer       ;CaptionML=[ENU=Parent Line No.;
                                                              ENG=Parent Line No.] }
    { 11  ;   ;Information         ;Boolean       ;FieldClass=FlowField;
                                                   CalcFormula=Exist("XBRL Comment Line" WHERE (XBRL Taxonomy Name=FIELD(XBRL Taxonomy Name),
                                                                                                XBRL Taxonomy Line No.=FIELD(Line No.),
                                                                                                Comment Type=CONST(Information)));
                                                   CaptionML=[ENU=Information;
                                                              ENG=Information];
                                                   Editable=No }
    { 12  ;   ;Rollup              ;Boolean       ;FieldClass=FlowField;
                                                   CalcFormula=Exist("XBRL Rollup Line" WHERE (XBRL Taxonomy Name=FIELD(XBRL Taxonomy Name),
                                                                                               XBRL Taxonomy Line No.=FIELD(Line No.)));
                                                   CaptionML=[ENU=Rollup;
                                                              ENG=Rollup];
                                                   Editable=No }
    { 13  ;   ;G/L Map Lines       ;Boolean       ;FieldClass=FlowField;
                                                   CalcFormula=Exist("XBRL G/L Map Line" WHERE (XBRL Taxonomy Name=FIELD(XBRL Taxonomy Name),
                                                                                                XBRL Taxonomy Line No.=FIELD(Line No.)));
                                                   CaptionML=[ENU=G/L Map Lines;
                                                              ENG=G/L Map Lines];
                                                   Editable=No }
    { 14  ;   ;Notes               ;Boolean       ;FieldClass=FlowField;
                                                   CalcFormula=Exist("XBRL Comment Line" WHERE (XBRL Taxonomy Name=FIELD(XBRL Taxonomy Name),
                                                                                                XBRL Taxonomy Line No.=FIELD(Line No.),
                                                                                                Comment Type=CONST(Notes)));
                                                   CaptionML=[ENU=Notes;
                                                              ENG=Notes];
                                                   Editable=No }
    { 15  ;   ;Business Unit Filter;Code20        ;FieldClass=FlowFilter;
                                                   TableRelation="Business Unit";
                                                   CaptionML=[ENU=Business Unit Filter;
                                                              ENG=Business Unit Filter] }
    { 16  ;   ;Global Dimension 1 Filter;Code20   ;FieldClass=FlowFilter;
                                                   TableRelation="Dimension Value".Code WHERE (Global Dimension No.=CONST(1));
                                                   CaptionML=[ENU=Global Dimension 1 Filter;
                                                              ENG=Global Dimension 1 Filter];
                                                   CaptionClass='1,3,1' }
    { 17  ;   ;Global Dimension 2 Filter;Code20   ;FieldClass=FlowFilter;
                                                   TableRelation="Dimension Value".Code WHERE (Global Dimension No.=CONST(2));
                                                   CaptionML=[ENU=Global Dimension 2 Filter;
                                                              ENG=Global Dimension 2 Filter];
                                                   CaptionClass='1,3,2' }
    { 18  ;   ;Date Filter         ;Date          ;FieldClass=FlowFilter;
                                                   CaptionML=[ENU=Date Filter;
                                                              ENG=Date Filter] }
    { 19  ;   ;XBRL Schema Line No.;Integer       ;TableRelation="XBRL Schema"."Line No." WHERE (XBRL Taxonomy Name=FIELD(XBRL Taxonomy Name));
                                                   CaptionML=[ENU=XBRL Schema Line No.;
                                                              ENG=XBRL Schema Line No.] }
    { 20  ;   ;Label Language Filter;Text10       ;FieldClass=FlowFilter;
                                                   CaptionML=[ENU=Label Language Filter;
                                                              ENG=Label Language Filter] }
    { 21  ;   ;Presentation Order  ;Text100       ;CaptionML=[ENU=Presentation Order;
                                                              ENG=Presentation Order] }
    { 22  ;   ;Presentation Order No.;Integer     ;CaptionML=[ENU=Presentation Order No.;
                                                              ENG=Presentation Order No.] }
    { 23  ;   ;Reference           ;Boolean       ;FieldClass=FlowField;
                                                   CalcFormula=Exist("XBRL Comment Line" WHERE (XBRL Taxonomy Name=FIELD(XBRL Taxonomy Name),
                                                                                                XBRL Taxonomy Line No.=FIELD(Line No.),
                                                                                                Comment Type=CONST(Reference)));
                                                   CaptionML=[ENU=Reference;
                                                              ENG=Reference];
                                                   Editable=No }
    { 24  ;   ;Element ID          ;Text220       ;CaptionML=[ENU=Element ID;
                                                              ENG=Element ID] }
    { 25  ;   ;Numeric Context Period Type;Option ;CaptionML=[ENU=Numeric Context Period Type;
                                                              ENG=Numeric Context Period Type];
                                                   OptionCaptionML=[ENU=,Instant,Duration;
                                                                    ENG=,Instant,Duration];
                                                   OptionString=,Instant,Duration }
    { 26  ;   ;Presentation Linkbase Line No.;Integer;
                                                   CaptionML=[ENU=Presentation Linkbase Line No.;
                                                              ENG=Presentation Linkbase Line No.] }
    { 27  ;   ;Type Description Element;Boolean   ;CaptionML=[ENU=Type Description Element;
                                                              ENG=Type Description Element] }
  }
  KEYS
  {
    {    ;XBRL Taxonomy Name,Line No.             ;Clustered=Yes }
    {    ;Name                                     }
    {    ;XBRL Taxonomy Name,Presentation Order    }
    {    ;Parent Line No.                          }
    {    ;XBRL Taxonomy Name,Element ID            }
  }
  FIELDGROUPS
  {
  }
  CODE
  {
    VAR
      XBRLCommentLine@1020000 : Record 396;
      XBRLGLMapLine@1020001 : Record 397;
      XBRLRollupLine@1020002 : Record 398;
      XBRLTaxonomyLabel@1000 : Record 401;

    BEGIN
    END.
  }
}

