OBJECT Table 380 Detailed Vendor Ledg. Entry
{
  OBJECT-PROPERTIES
  {
    Date=22/02/18;
    Time=12:00:00;
    Version List=NAVW111.00.00.20783;
  }
  PROPERTIES
  {
    Permissions=TableData 380=m;
    DataCaptionFields=Vendor No.;
    OnInsert=BEGIN
               SetLedgerEntryAmount;
             END;

    CaptionML=[ENU=Detailed Vendor Ledg. Entry;
               ENG=Detailed Vendor Ledg. Entry];
    LookupPageID=Page574;
    DrillDownPageID=Page574;
  }
  FIELDS
  {
    { 1   ;   ;Entry No.           ;Integer       ;CaptionML=[ENU=Entry No.;
                                                              ENG=Entry No.] }
    { 2   ;   ;Vendor Ledger Entry No.;Integer    ;TableRelation="Vendor Ledger Entry";
                                                   CaptionML=[ENU=Vendor Ledger Entry No.;
                                                              ENG=Vendor Ledger Entry No.] }
    { 3   ;   ;Entry Type          ;Option        ;CaptionML=[ENU=Entry Type;
                                                              ENG=Entry Type];
                                                   OptionCaptionML=[ENU=,Initial Entry,Application,Unrealized Loss,Unrealized Gain,Realized Loss,Realized Gain,Payment Discount,Payment Discount (VAT Excl.),Payment Discount (VAT Adjustment),Appln. Rounding,Correction of Remaining Amount,Payment Tolerance,Payment Discount Tolerance,Payment Tolerance (VAT Excl.),Payment Tolerance (VAT Adjustment),Payment Discount Tolerance (VAT Excl.),Payment Discount Tolerance (VAT Adjustment);
                                                                    ENG=,Initial Entry,Application,Unrealised Loss,Unrealised Gain,Realised Loss,Realised Gain,Payment Discount,Payment Discount (VAT Excl.),Payment Discount (VAT Adjustment),Appln. Rounding,Correction of Remaining Amount,Payment Tolerance,Payment Discount Tolerance,Payment Tolerance (VAT Excl.),Payment Tolerance (VAT Adjustment),Payment Discount Tolerance (VAT Excl.),Payment Discount Tolerance (VAT Adjustment)];
                                                   OptionString=,Initial Entry,Application,Unrealized Loss,Unrealized Gain,Realized Loss,Realized Gain,Payment Discount,Payment Discount (VAT Excl.),Payment Discount (VAT Adjustment),Appln. Rounding,Correction of Remaining Amount,Payment Tolerance,Payment Discount Tolerance,Payment Tolerance (VAT Excl.),Payment Tolerance (VAT Adjustment),Payment Discount Tolerance (VAT Excl.),Payment Discount Tolerance (VAT Adjustment) }
    { 4   ;   ;Posting Date        ;Date          ;CaptionML=[ENU=Posting Date;
                                                              ENG=Posting Date] }
    { 5   ;   ;Document Type       ;Option        ;CaptionML=[ENU=Document Type;
                                                              ENG=Document Type];
                                                   OptionCaptionML=[ENU=" ,Payment,Invoice,Credit Memo,Finance Charge Memo,Reminder,Refund";
                                                                    ENG=" ,Payment,Invoice,Credit Memo,Finance Charge Memo,Reminder,Refund"];
                                                   OptionString=[ ,Payment,Invoice,Credit Memo,Finance Charge Memo,Reminder,Refund] }
    { 6   ;   ;Document No.        ;Code20        ;CaptionML=[ENU=Document No.;
                                                              ENG=Document No.] }
    { 7   ;   ;Amount              ;Decimal       ;CaptionML=[ENU=Amount;
                                                              ENG=Amount];
                                                   AutoFormatType=1;
                                                   AutoFormatExpr="Currency Code" }
    { 8   ;   ;Amount (LCY)        ;Decimal       ;CaptionML=[ENU=Amount (LCY);
                                                              ENG=Amount (LCY)];
                                                   AutoFormatType=1 }
    { 9   ;   ;Vendor No.          ;Code20        ;TableRelation=Vendor;
                                                   CaptionML=[ENU=Vendor No.;
                                                              ENG=Vendor No.] }
    { 10  ;   ;Currency Code       ;Code10        ;TableRelation=Currency;
                                                   CaptionML=[ENU=Currency Code;
                                                              ENG=Currency Code] }
    { 11  ;   ;User ID             ;Code50        ;TableRelation=User."User Name";
                                                   OnLookup=VAR
                                                              UserMgt@1000 : Codeunit 418;
                                                            BEGIN
                                                              UserMgt.LookupUserID("User ID");
                                                            END;

                                                   TestTableRelation=No;
                                                   DataClassification=EndUserIdentifiableInformation;
                                                   CaptionML=[ENU=User ID;
                                                              ENG=User ID] }
    { 12  ;   ;Source Code         ;Code10        ;TableRelation="Source Code";
                                                   CaptionML=[ENU=Source Code;
                                                              ENG=Source Code] }
    { 13  ;   ;Transaction No.     ;Integer       ;CaptionML=[ENU=Transaction No.;
                                                              ENG=Transaction No.] }
    { 14  ;   ;Journal Batch Name  ;Code10        ;TestTableRelation=No;
                                                   CaptionML=[ENU=Journal Batch Name;
                                                              ENG=Journal Batch Name] }
    { 15  ;   ;Reason Code         ;Code10        ;TableRelation="Reason Code";
                                                   CaptionML=[ENU=Reason Code;
                                                              ENG=Reason Code] }
    { 16  ;   ;Debit Amount        ;Decimal       ;CaptionML=[ENU=Debit Amount;
                                                              ENG=Debit Amount];
                                                   BlankZero=Yes;
                                                   AutoFormatType=1;
                                                   AutoFormatExpr="Currency Code" }
    { 17  ;   ;Credit Amount       ;Decimal       ;CaptionML=[ENU=Credit Amount;
                                                              ENG=Credit Amount];
                                                   BlankZero=Yes;
                                                   AutoFormatType=1;
                                                   AutoFormatExpr="Currency Code" }
    { 18  ;   ;Debit Amount (LCY)  ;Decimal       ;CaptionML=[ENU=Debit Amount (LCY);
                                                              ENG=Debit Amount (LCY)];
                                                   BlankZero=Yes;
                                                   AutoFormatType=1 }
    { 19  ;   ;Credit Amount (LCY) ;Decimal       ;CaptionML=[ENU=Credit Amount (LCY);
                                                              ENG=Credit Amount (LCY)];
                                                   BlankZero=Yes;
                                                   AutoFormatType=1 }
    { 20  ;   ;Initial Entry Due Date;Date        ;CaptionML=[ENU=Initial Entry Due Date;
                                                              ENG=Initial Entry Due Date] }
    { 21  ;   ;Initial Entry Global Dim. 1;Code20 ;TableRelation="Dimension Value".Code WHERE (Global Dimension No.=CONST(1));
                                                   CaptionML=[ENU=Initial Entry Global Dim. 1;
                                                              ENG=Initial Entry Global Dim. 1] }
    { 22  ;   ;Initial Entry Global Dim. 2;Code20 ;TableRelation="Dimension Value".Code WHERE (Global Dimension No.=CONST(2));
                                                   CaptionML=[ENU=Initial Entry Global Dim. 2;
                                                              ENG=Initial Entry Global Dim. 2] }
    { 24  ;   ;Gen. Bus. Posting Group;Code20     ;TableRelation="Gen. Business Posting Group";
                                                   CaptionML=[ENU=Gen. Bus. Posting Group;
                                                              ENG=Gen. Bus. Posting Group] }
    { 25  ;   ;Gen. Prod. Posting Group;Code20    ;TableRelation="Gen. Product Posting Group";
                                                   CaptionML=[ENU=Gen. Prod. Posting Group;
                                                              ENG=Gen. Prod. Posting Group] }
    { 29  ;   ;Use Tax             ;Boolean       ;CaptionML=[ENU=Use Tax;
                                                              ENG=Use Tax] }
    { 30  ;   ;VAT Bus. Posting Group;Code20      ;TableRelation="VAT Business Posting Group";
                                                   CaptionML=[ENU=VAT Bus. Posting Group;
                                                              ENG=VAT Bus. Posting Group] }
    { 31  ;   ;VAT Prod. Posting Group;Code20     ;TableRelation="VAT Product Posting Group";
                                                   CaptionML=[ENU=VAT Prod. Posting Group;
                                                              ENG=VAT Prod. Posting Group] }
    { 35  ;   ;Initial Document Type;Option       ;CaptionML=[ENU=Initial Document Type;
                                                              ENG=Initial Document Type];
                                                   OptionCaptionML=[ENU=" ,Payment,Invoice,Credit Memo,Finance Charge Memo,Reminder,Refund";
                                                                    ENG=" ,Payment,Invoice,Credit Memo,Finance Charge Memo,Reminder,Refund"];
                                                   OptionString=[ ,Payment,Invoice,Credit Memo,Finance Charge Memo,Reminder,Refund] }
    { 36  ;   ;Applied Vend. Ledger Entry No.;Integer;
                                                   CaptionML=[ENU=Applied Vend. Ledger Entry No.;
                                                              ENG=Applied Vend. Ledger Entry No.] }
    { 37  ;   ;Unapplied           ;Boolean       ;CaptionML=[ENU=Unapplied;
                                                              ENG=Unapplied] }
    { 38  ;   ;Unapplied by Entry No.;Integer     ;TableRelation="Detailed Vendor Ledg. Entry";
                                                   CaptionML=[ENU=Unapplied by Entry No.;
                                                              ENG=Unapplied by Entry No.] }
    { 39  ;   ;Remaining Pmt. Disc. Possible;Decimal;
                                                   CaptionML=[ENU=Remaining Pmt. Disc. Possible;
                                                              ENG=Remaining Pmt. Disc. Possible];
                                                   AutoFormatType=1;
                                                   AutoFormatExpr="Currency Code" }
    { 40  ;   ;Max. Payment Tolerance;Decimal     ;CaptionML=[ENU=Max. Payment Tolerance;
                                                              ENG=Max. Payment Tolerance];
                                                   AutoFormatType=1;
                                                   AutoFormatExpr="Currency Code" }
    { 41  ;   ;Tax Jurisdiction Code;Code10       ;TableRelation="Tax Jurisdiction";
                                                   CaptionML=[ENU=Tax Jurisdiction Code;
                                                              ENG=VAT Jurisdiction Code];
                                                   Editable=No }
    { 42  ;   ;Application No.     ;Integer       ;CaptionML=[ENU=Application No.;
                                                              ENG=Application No.];
                                                   Editable=No }
    { 43  ;   ;Ledger Entry Amount ;Boolean       ;CaptionML=[ENU=Ledger Entry Amount;
                                                              ENG=Ledger Entry Amount];
                                                   Editable=No }
  }
  KEYS
  {
    {    ;Entry No.                               ;Clustered=Yes }
    {    ;Vendor Ledger Entry No.,Posting Date     }
    {    ;Vendor Ledger Entry No.,Entry Type,Posting Date;
                                                   SumIndexFields=Amount (LCY);
                                                   MaintainSQLIndex=No }
    {    ;Ledger Entry Amount,Vendor Ledger Entry No.,Posting Date;
                                                   SumIndexFields=Amount,Amount (LCY),Debit Amount,Credit Amount,Debit Amount (LCY),Credit Amount (LCY);
                                                   MaintainSQLIndex=No;
                                                   MaintainSIFTIndex=No }
    {    ;Initial Document Type,Entry Type,Vendor No.,Currency Code,Initial Entry Global Dim. 1,Initial Entry Global Dim. 2,Posting Date;
                                                   SumIndexFields=Amount,Amount (LCY);
                                                   MaintainSIFTIndex=No }
    {    ;Vendor No.,Currency Code,Initial Entry Global Dim. 1,Initial Entry Global Dim. 2,Initial Entry Due Date,Posting Date;
                                                   SumIndexFields=Amount,Amount (LCY) }
    {    ;Document No.,Document Type,Posting Date  }
    {    ;Applied Vend. Ledger Entry No.,Entry Type }
    {    ;Transaction No.,Vendor No.,Entry Type    }
    {    ;Application No.,Vendor No.,Entry Type    }
  }
  FIELDGROUPS
  {
    { 1   ;DropDown            ;Entry No.,Vendor Ledger Entry No.,Vendor No.,Posting Date,Document Type,Document No. }
  }
  CODE
  {

    [External]
    PROCEDURE UpdateDebitCredit@47(Correction@1000 : Boolean);
    BEGIN
      IF ((Amount > 0) OR ("Amount (LCY)" > 0)) AND NOT Correction OR
         ((Amount < 0) OR ("Amount (LCY)" < 0)) AND Correction
      THEN BEGIN
        "Debit Amount" := Amount;
        "Credit Amount" := 0;
        "Debit Amount (LCY)" := "Amount (LCY)";
        "Credit Amount (LCY)" := 0;
      END ELSE BEGIN
        "Debit Amount" := 0;
        "Credit Amount" := -Amount;
        "Debit Amount (LCY)" := 0;
        "Credit Amount (LCY)" := -"Amount (LCY)";
      END;
    END;

    [External]
    PROCEDURE SetZeroTransNo@3(TransactionNo@1000 : Integer);
    VAR
      DtldVendLedgEntry@1001 : Record 380;
      ApplicationNo@1002 : Integer;
    BEGIN
      DtldVendLedgEntry.SETCURRENTKEY("Transaction No.");
      DtldVendLedgEntry.SETRANGE("Transaction No.",TransactionNo);
      IF DtldVendLedgEntry.FINDSET(TRUE) THEN BEGIN
        ApplicationNo := DtldVendLedgEntry."Entry No.";
        REPEAT
          DtldVendLedgEntry."Transaction No." := 0;
          DtldVendLedgEntry."Application No." := ApplicationNo;
          DtldVendLedgEntry.MODIFY;
        UNTIL DtldVendLedgEntry.NEXT = 0;
      END;
    END;

    LOCAL PROCEDURE SetLedgerEntryAmount@1();
    BEGIN
      "Ledger Entry Amount" :=
        NOT (("Entry Type" = "Entry Type"::Application) OR ("Entry Type" = "Entry Type"::"Appln. Rounding"));
    END;

    [External]
    PROCEDURE GetUnrealizedGainLossAmount@2(EntryNo@1000 : Integer) : Decimal;
    BEGIN
      SETCURRENTKEY("Vendor Ledger Entry No.","Entry Type");
      SETRANGE("Vendor Ledger Entry No.",EntryNo);
      SETRANGE("Entry Type","Entry Type"::"Unrealized Loss","Entry Type"::"Unrealized Gain");
      CALCSUMS("Amount (LCY)");
      EXIT("Amount (LCY)");
    END;

    BEGIN
    END.
  }
}

