OBJECT Table 369 Selected Dimension
{
  OBJECT-PROPERTIES
  {
    Date=22/02/18;
    Time=12:00:00;
    Version List=NAVW111.00.00.20783;
  }
  PROPERTIES
  {
    CaptionML=[ENU=Selected Dimension;
               ENG=Selected Dimension];
  }
  FIELDS
  {
    { 1   ;   ;User ID             ;Code50        ;TableRelation=User."User Name";
                                                   OnLookup=VAR
                                                              UserMgt@1000 : Codeunit 418;
                                                            BEGIN
                                                              UserMgt.LookupUserID("User ID");
                                                            END;

                                                   TestTableRelation=No;
                                                   DataClassification=EndUserIdentifiableInformation;
                                                   CaptionML=[ENU=User ID;
                                                              ENG=User ID] }
    { 2   ;   ;Object Type         ;Integer       ;CaptionML=[ENU=Object Type;
                                                              ENG=Object Type] }
    { 3   ;   ;Object ID           ;Integer       ;CaptionML=[ENU=Object ID;
                                                              ENG=Object ID] }
    { 4   ;   ;Dimension Code      ;Text30        ;CaptionML=[ENU=Dimension Code;
                                                              ENG=Dimension Code] }
    { 5   ;   ;New Dimension Value Code;Code20    ;CaptionML=[ENU=New Dimension Value Code;
                                                              ENG=New Dimension Value Code] }
    { 6   ;   ;Dimension Value Filter;Code250     ;CaptionML=[ENU=Dimension Value Filter;
                                                              ENG=Dimension Value Filter] }
    { 7   ;   ;Level               ;Option        ;CaptionML=[ENU=Level;
                                                              ENG=Level];
                                                   OptionCaptionML=[ENU=" ,Level 1,Level 2,Level 3,Level 4";
                                                                    ENG=" ,Level 1,Level 2,Level 3,Level 4"];
                                                   OptionString=[ ,Level 1,Level 2,Level 3,Level 4] }
    { 8   ;   ;Analysis View Code  ;Code10        ;TableRelation="Analysis View";
                                                   CaptionML=[ENU=Analysis View Code;
                                                              ENG=Analysis View Code] }
  }
  KEYS
  {
    {    ;User ID,Object Type,Object ID,Analysis View Code,Dimension Code;
                                                   Clustered=Yes }
    {    ;User ID,Object Type,Object ID,Analysis View Code,Level,Dimension Code }
  }
  FIELDGROUPS
  {
  }
  CODE
  {

    [External]
    PROCEDURE GetSelectedDim@9(UserID2@1000 : Code[50];ObjectType@1001 : Integer;ObjectID@1002 : Integer;AnalysisViewCode@1003 : Code[10];VAR TempSelectedDim@1004 : TEMPORARY Record 369);
    BEGIN
      SETRANGE("User ID",UserID2);
      SETRANGE("Object Type",ObjectType);
      SETRANGE("Object ID",ObjectID);
      SETRANGE("Analysis View Code",AnalysisViewCode);
      IF FIND('-') THEN
        REPEAT
          TempSelectedDim := Rec;
          TempSelectedDim.INSERT;
        UNTIL NEXT = 0;
    END;

    BEGIN
    END.
  }
}

