OBJECT Table 352 Default Dimension
{
  OBJECT-PROPERTIES
  {
    Date=22/11/17;
    Time=12:00:00;
    Version List=NAVW111.00;
  }
  PROPERTIES
  {
    OnInsert=BEGIN
               GLSetup.GET;
               IF "Dimension Code" = GLSetup."Global Dimension 1 Code" THEN
                 UpdateGlobalDimCode(1,"Table ID","No.","Dimension Value Code");
               IF "Dimension Code" = GLSetup."Global Dimension 2 Code" THEN
                 UpdateGlobalDimCode(2,"Table ID","No.","Dimension Value Code");
               DimMgt.DefaultDimOnInsert(Rec);
             END;

    OnModify=BEGIN
               GLSetup.GET;
               IF "Dimension Code" = GLSetup."Global Dimension 1 Code" THEN
                 UpdateGlobalDimCode(1,"Table ID","No.","Dimension Value Code");
               IF "Dimension Code" = GLSetup."Global Dimension 2 Code" THEN
                 UpdateGlobalDimCode(2,"Table ID","No.","Dimension Value Code");
               DimMgt.DefaultDimOnModify(Rec);
             END;

    OnDelete=BEGIN
               GLSetup.GET;
               IF "Dimension Code" = GLSetup."Global Dimension 1 Code" THEN
                 UpdateGlobalDimCode(1,"Table ID","No.",'');
               IF "Dimension Code" = GLSetup."Global Dimension 2 Code" THEN
                 UpdateGlobalDimCode(2,"Table ID","No.",'');
               DimMgt.DefaultDimOnDelete(Rec);
             END;

    OnRename=BEGIN
               ERROR(Text000,TABLECAPTION);
             END;

    CaptionML=[ENU=Default Dimension;
               ENG=Default Dimension];
  }
  FIELDS
  {
    { 1   ;   ;Table ID            ;Integer       ;TableRelation=AllObjWithCaption."Object ID" WHERE (Object Type=CONST(Table));
                                                   OnValidate=VAR
                                                                TempAllObjWithCaption@1000 : TEMPORARY Record 2000000058;
                                                              BEGIN
                                                                CALCFIELDS("Table Caption");
                                                                DimMgt.DefaultDimObjectNoList(TempAllObjWithCaption);
                                                                TempAllObjWithCaption."Object Type" := TempAllObjWithCaption."Object Type"::Table;
                                                                TempAllObjWithCaption."Object ID" := "Table ID";
                                                                IF NOT TempAllObjWithCaption.FIND THEN
                                                                  FIELDERROR("Table ID");
                                                              END;

                                                   OnLookup=VAR
                                                              TempAllObjWithCaption@1000 : TEMPORARY Record 2000000058;
                                                            BEGIN
                                                              CLEAR(TempAllObjWithCaption);
                                                              DimMgt.DefaultDimObjectNoList(TempAllObjWithCaption);
                                                              IF PAGE.RUNMODAL(PAGE::Objects,TempAllObjWithCaption) = ACTION::LookupOK THEN BEGIN
                                                                "Table ID" := TempAllObjWithCaption."Object ID";
                                                                VALIDATE("Table ID");
                                                              END;
                                                            END;

                                                   CaptionML=[ENU=Table ID;
                                                              ENG=Table ID];
                                                   NotBlank=Yes }
    { 2   ;   ;No.                 ;Code20        ;TableRelation=IF (Table ID=CONST(13)) Salesperson/Purchaser
                                                                 ELSE IF (Table ID=CONST(15)) "G/L Account"
                                                                 ELSE IF (Table ID=CONST(18)) Customer
                                                                 ELSE IF (Table ID=CONST(23)) Vendor
                                                                 ELSE IF (Table ID=CONST(27)) Item
                                                                 ELSE IF (Table ID=CONST(152)) "Resource Group"
                                                                 ELSE IF (Table ID=CONST(156)) Resource
                                                                 ELSE IF (Table ID=CONST(167)) Job
                                                                 ELSE IF (Table ID=CONST(270)) "Bank Account"
                                                                 ELSE IF (Table ID=CONST(413)) "IC Partner"
                                                                 ELSE IF (Table ID=CONST(5071)) Campaign
                                                                 ELSE IF (Table ID=CONST(5200)) Employee
                                                                 ELSE IF (Table ID=CONST(5600)) "Fixed Asset"
                                                                 ELSE IF (Table ID=CONST(5628)) Insurance
                                                                 ELSE IF (Table ID=CONST(5903)) "Service Order Type"
                                                                 ELSE IF (Table ID=CONST(5904)) "Service Item Group"
                                                                 ELSE IF (Table ID=CONST(5940)) "Service Item"
                                                                 ELSE IF (Table ID=CONST(5714)) "Responsibility Center"
                                                                 ELSE IF (Table ID=CONST(5800)) "Item Charge"
                                                                 ELSE IF (Table ID=CONST(99000754)) "Work Center"
                                                                 ELSE IF (Table ID=CONST(5105)) "Customer Template"
                                                                 ELSE IF (Table ID=CONST(849)) "Cash Flow Manual Revenue"
                                                                 ELSE IF (Table ID=CONST(850)) "Cash Flow Manual Expense";
                                                   CaptionML=[ENU=No.;
                                                              ENG=No.] }
    { 3   ;   ;Dimension Code      ;Code20        ;TableRelation=Dimension;
                                                   OnValidate=BEGIN
                                                                IF NOT DimMgt.CheckDim("Dimension Code") THEN
                                                                  ERROR(DimMgt.GetDimErr);
                                                              END;

                                                   CaptionML=[ENU=Dimension Code;
                                                              ENG=Dimension Code];
                                                   NotBlank=Yes }
    { 4   ;   ;Dimension Value Code;Code20        ;TableRelation="Dimension Value".Code WHERE (Dimension Code=FIELD(Dimension Code));
                                                   OnValidate=BEGIN
                                                                IF NOT DimMgt.CheckDimValue("Dimension Code","Dimension Value Code") THEN
                                                                  ERROR(DimMgt.GetDimErr);
                                                                IF "Value Posting" = "Value Posting"::"No Code" THEN
                                                                  TESTFIELD("Dimension Value Code",'');
                                                              END;

                                                   CaptionML=[ENU=Dimension Value Code;
                                                              ENG=Dimension Value Code] }
    { 5   ;   ;Value Posting       ;Option        ;OnValidate=BEGIN
                                                                IF "Value Posting" = "Value Posting"::"No Code" THEN
                                                                  TESTFIELD("Dimension Value Code",'');
                                                              END;

                                                   CaptionML=[ENU=Value Posting;
                                                              ENG=Value Posting];
                                                   OptionCaptionML=[ENU=" ,Code Mandatory,Same Code,No Code";
                                                                    ENG=" ,Code Mandatory,Same Code,No Code"];
                                                   OptionString=[ ,Code Mandatory,Same Code,No Code] }
    { 6   ;   ;Table Caption       ;Text250       ;FieldClass=FlowField;
                                                   CalcFormula=Lookup(AllObjWithCaption."Object Caption" WHERE (Object Type=CONST(Table),
                                                                                                                Object ID=FIELD(Table ID)));
                                                   CaptionML=[ENU=Table Caption;
                                                              ENG=Table Caption];
                                                   Editable=No }
    { 7   ;   ;Multi Selection Action;Option      ;CaptionML=[ENU=Multi Selection Action;
                                                              ENG=Multi Selection Action];
                                                   OptionCaptionML=[ENU=" ,Change,Delete";
                                                                    ENG=" ,Change,Delete"];
                                                   OptionString=[ ,Change,Delete] }
  }
  KEYS
  {
    {    ;Table ID,No.,Dimension Code             ;Clustered=Yes }
    {    ;Dimension Code                           }
  }
  FIELDGROUPS
  {
  }
  CODE
  {
    VAR
      Text000@1000 : TextConst 'ENU=You can''t rename a %1.;ENG=You can''t rename a %1.';
      GLSetup@1001 : Record 98;
      DimMgt@1002 : Codeunit 408;

    [External]
    PROCEDURE GetCaption@3() : Text[250];
    VAR
      ObjTransl@1000 : Record 377;
      CurrTableID@1001 : Integer;
      NewTableID@1002 : Integer;
      NewNo@1003 : Code[20];
      SourceTableName@1004 : Text[100];
    BEGIN
      IF NOT EVALUATE(NewTableID,GETFILTER("Table ID")) THEN
        EXIT('');

      IF NewTableID = 0 THEN
        IF GETRANGEMIN("Table ID") = GETRANGEMAX("Table ID") THEN
          NewTableID := GETRANGEMIN("Table ID")
        ELSE
          NewTableID := 0;

      IF NewTableID <> CurrTableID THEN
        SourceTableName := ObjTransl.TranslateObject(ObjTransl."Object Type"::Table,NewTableID);
      CurrTableID := NewTableID;

      IF GETFILTER("No.") <> '' THEN
        IF GETRANGEMIN("No.") = GETRANGEMAX("No.") THEN
          NewNo := GETRANGEMIN("No.")
        ELSE
          NewNo := '';

      IF NewTableID <> 0 THEN
        EXIT(STRSUBSTNO('%1 %2',SourceTableName,NewNo));

      EXIT('');
    END;

    LOCAL PROCEDURE UpdateGlobalDimCode@25(GlobalDimCodeNo@1000 : Integer;TableID@1001 : Integer;AccNo@1002 : Code[20];NewDimValue@1003 : Code[20]);
    BEGIN
      CASE TableID OF
        DATABASE::"G/L Account":
          UpdateGLAccGlobalDimCode(GlobalDimCodeNo,AccNo,NewDimValue);
        DATABASE::Customer:
          UpdateCustGlobalDimCode(GlobalDimCodeNo,AccNo,NewDimValue);
        DATABASE::Vendor:
          UpdateVendGlobalDimCode(GlobalDimCodeNo,AccNo,NewDimValue);
        DATABASE::Item:
          UpdateItemGlobalDimCode(GlobalDimCodeNo,AccNo,NewDimValue);
        DATABASE::"Resource Group":
          UpdateResGrGlobalDimCode(GlobalDimCodeNo,AccNo,NewDimValue);
        DATABASE::Resource:
          UpdateResGlobalDimCode(GlobalDimCodeNo,AccNo,NewDimValue);
        DATABASE::Job:
          UpdateJobGlobalDimCode(GlobalDimCodeNo,AccNo,NewDimValue);
        DATABASE::"Bank Account":
          UpdateBankGlobalDimCode(GlobalDimCodeNo,AccNo,NewDimValue);
        DATABASE::Employee:
          UpdateEmpoyeeGlobalDimCode(GlobalDimCodeNo,AccNo,NewDimValue);
        DATABASE::"Fixed Asset":
          UpdateFAGlobalDimCode(GlobalDimCodeNo,AccNo,NewDimValue);
        DATABASE::Insurance:
          UpdateInsuranceGlobalDimCode(GlobalDimCodeNo,AccNo,NewDimValue);
        DATABASE::"Responsibility Center":
          UpdateRespCenterGlobalDimCode(GlobalDimCodeNo,AccNo,NewDimValue);
        DATABASE::"Work Center":
          UpdateWorkCenterGlobalDimCode(GlobalDimCodeNo,AccNo,NewDimValue);
        DATABASE::"Salesperson/Purchaser":
          UpdateSalesPurchGlobalDimCode(GlobalDimCodeNo,AccNo,NewDimValue);
        DATABASE::Campaign:
          UpdateCampaignGlobalDimCode(GlobalDimCodeNo,AccNo,NewDimValue);
        DATABASE::"Customer Template":
          UpdateCustTempGlobalDimCode(GlobalDimCodeNo,AccNo,NewDimValue);
        DATABASE::"Cash Flow Manual Expense":
          UpdateNeutrPayGlobalDimCode(GlobalDimCodeNo,AccNo,NewDimValue);
        DATABASE::"Cash Flow Manual Revenue":
          UpdateNeutrRevGlobalDimCode(GlobalDimCodeNo,AccNo,NewDimValue);
        ELSE
          OnAfterUpdateGlobalDimCode(GlobalDimCodeNo,TableID,AccNo,NewDimValue);
      END;
    END;

    LOCAL PROCEDURE UpdateGLAccGlobalDimCode@26(GlobalDimCodeNo@1003 : Integer;GLAccNo@1001 : Code[20];NewDimValue@1000 : Code[20]);
    VAR
      GLAcc@1004 : Record 15;
    BEGIN
      IF GLAcc.GET(GLAccNo) THEN BEGIN
        CASE GlobalDimCodeNo OF
          1:
            GLAcc."Global Dimension 1 Code" := NewDimValue;
          2:
            GLAcc."Global Dimension 2 Code" := NewDimValue;
        END;
        GLAcc.MODIFY(TRUE);
      END;
    END;

    LOCAL PROCEDURE UpdateCustGlobalDimCode@27(GlobalDimCodeNo@1003 : Integer;CustNo@1001 : Code[20];NewDimValue@1000 : Code[20]);
    VAR
      Cust@1004 : Record 18;
    BEGIN
      IF Cust.GET(CustNo) THEN BEGIN
        CASE GlobalDimCodeNo OF
          1:
            Cust."Global Dimension 1 Code" := NewDimValue;
          2:
            Cust."Global Dimension 2 Code" := NewDimValue;
        END;
        Cust.MODIFY(TRUE);
      END;
    END;

    LOCAL PROCEDURE UpdateVendGlobalDimCode@28(GlobalDimCodeNo@1003 : Integer;VendNo@1001 : Code[20];NewDimValue@1000 : Code[20]);
    VAR
      Vend@1004 : Record 23;
    BEGIN
      IF Vend.GET(VendNo) THEN BEGIN
        CASE GlobalDimCodeNo OF
          1:
            Vend."Global Dimension 1 Code" := NewDimValue;
          2:
            Vend."Global Dimension 2 Code" := NewDimValue;
        END;
        Vend.MODIFY(TRUE);
      END;
    END;

    LOCAL PROCEDURE UpdateItemGlobalDimCode@29(GlobalDimCodeNo@1003 : Integer;ItemNo@1001 : Code[20];NewDimValue@1000 : Code[20]);
    VAR
      Item@1004 : Record 27;
    BEGIN
      IF Item.GET(ItemNo) THEN BEGIN
        CASE GlobalDimCodeNo OF
          1:
            Item."Global Dimension 1 Code" := NewDimValue;
          2:
            Item."Global Dimension 2 Code" := NewDimValue;
        END;
        Item.MODIFY(TRUE);
      END;
    END;

    LOCAL PROCEDURE UpdateResGrGlobalDimCode@30(GlobalDimCodeNo@1003 : Integer;ResGrNo@1001 : Code[20];NewDimValue@1000 : Code[20]);
    VAR
      ResGr@1004 : Record 152;
    BEGIN
      IF ResGr.GET(ResGrNo) THEN BEGIN
        CASE GlobalDimCodeNo OF
          1:
            ResGr."Global Dimension 1 Code" := NewDimValue;
          2:
            ResGr."Global Dimension 2 Code" := NewDimValue;
        END;
        ResGr.MODIFY(TRUE);
      END;
    END;

    LOCAL PROCEDURE UpdateResGlobalDimCode@31(GlobalDimCodeNo@1003 : Integer;ResNo@1001 : Code[20];NewDimValue@1000 : Code[20]);
    VAR
      Res@1004 : Record 156;
    BEGIN
      IF Res.GET(ResNo) THEN BEGIN
        CASE GlobalDimCodeNo OF
          1:
            Res."Global Dimension 1 Code" := NewDimValue;
          2:
            Res."Global Dimension 2 Code" := NewDimValue;
        END;
        Res.MODIFY(TRUE);
      END;
    END;

    LOCAL PROCEDURE UpdateJobGlobalDimCode@32(GlobalDimCodeNo@1003 : Integer;JobNo@1001 : Code[20];NewDimValue@1000 : Code[20]);
    VAR
      Job@1004 : Record 167;
    BEGIN
      IF Job.GET(JobNo) THEN BEGIN
        CASE GlobalDimCodeNo OF
          1:
            Job."Global Dimension 1 Code" := NewDimValue;
          2:
            Job."Global Dimension 2 Code" := NewDimValue;
        END;
        Job.MODIFY(TRUE);
      END;
    END;

    LOCAL PROCEDURE UpdateBankGlobalDimCode@33(GlobalDimCodeNo@1003 : Integer;BankAccNo@1001 : Code[20];NewDimValue@1000 : Code[20]);
    VAR
      BankAcc@1004 : Record 270;
    BEGIN
      IF BankAcc.GET(BankAccNo) THEN BEGIN
        CASE GlobalDimCodeNo OF
          1:
            BankAcc."Global Dimension 1 Code" := NewDimValue;
          2:
            BankAcc."Global Dimension 2 Code" := NewDimValue;
        END;
        BankAcc.MODIFY(TRUE);
      END;
    END;

    LOCAL PROCEDURE UpdateEmpoyeeGlobalDimCode@34(GlobalDimCodeNo@1003 : Integer;EmployeeNo@1001 : Code[20];NewDimValue@1000 : Code[20]);
    VAR
      Employee@1004 : Record 5200;
    BEGIN
      IF Employee.GET(EmployeeNo) THEN BEGIN
        CASE GlobalDimCodeNo OF
          1:
            Employee."Global Dimension 1 Code" := NewDimValue;
          2:
            Employee."Global Dimension 2 Code" := NewDimValue;
        END;
        Employee.MODIFY(TRUE);
      END;
    END;

    LOCAL PROCEDURE UpdateFAGlobalDimCode@35(GlobalDimCodeNo@1003 : Integer;FANo@1001 : Code[20];NewDimValue@1000 : Code[20]);
    VAR
      FA@1004 : Record 5600;
    BEGIN
      IF FA.GET(FANo) THEN BEGIN
        CASE GlobalDimCodeNo OF
          1:
            FA."Global Dimension 1 Code" := NewDimValue;
          2:
            FA."Global Dimension 2 Code" := NewDimValue;
        END;
        FA.MODIFY(TRUE);
      END;
    END;

    LOCAL PROCEDURE UpdateInsuranceGlobalDimCode@36(GlobalDimCodeNo@1003 : Integer;InsuranceNo@1001 : Code[20];NewDimValue@1000 : Code[20]);
    VAR
      Insurance@1004 : Record 5628;
    BEGIN
      IF Insurance.GET(InsuranceNo) THEN BEGIN
        CASE GlobalDimCodeNo OF
          1:
            Insurance."Global Dimension 1 Code" := NewDimValue;
          2:
            Insurance."Global Dimension 2 Code" := NewDimValue;
        END;
        Insurance.MODIFY(TRUE);
      END;
    END;

    LOCAL PROCEDURE UpdateRespCenterGlobalDimCode@37(GlobalDimCodeNo@1003 : Integer;RespCenterNo@1001 : Code[20];NewDimValue@1000 : Code[20]);
    VAR
      RespCenter@1004 : Record 5714;
    BEGIN
      IF RespCenter.GET(RespCenterNo) THEN BEGIN
        CASE GlobalDimCodeNo OF
          1:
            RespCenter."Global Dimension 1 Code" := NewDimValue;
          2:
            RespCenter."Global Dimension 2 Code" := NewDimValue;
        END;
        RespCenter.MODIFY(TRUE);
      END;
    END;

    LOCAL PROCEDURE UpdateWorkCenterGlobalDimCode@38(GlobalDimCodeNo@1003 : Integer;WorkCenterNo@1001 : Code[20];NewDimValue@1000 : Code[20]);
    VAR
      WorkCenter@1004 : Record 99000754;
    BEGIN
      IF WorkCenter.GET(WorkCenterNo) THEN BEGIN
        CASE GlobalDimCodeNo OF
          1:
            WorkCenter."Global Dimension 1 Code" := NewDimValue;
          2:
            WorkCenter."Global Dimension 2 Code" := NewDimValue;
        END;
        WorkCenter.MODIFY(TRUE);
      END;
    END;

    LOCAL PROCEDURE UpdateSalesPurchGlobalDimCode@39(GlobalDimCodeNo@1003 : Integer;SalespersonPurchaserNo@1001 : Code[20];NewDimValue@1000 : Code[20]);
    VAR
      SalespersonPurchaser@1004 : Record 13;
    BEGIN
      IF SalespersonPurchaser.GET(SalespersonPurchaserNo) THEN BEGIN
        CASE GlobalDimCodeNo OF
          1:
            SalespersonPurchaser."Global Dimension 1 Code" := NewDimValue;
          2:
            SalespersonPurchaser."Global Dimension 2 Code" := NewDimValue;
        END;
        SalespersonPurchaser.MODIFY(TRUE);
      END;
    END;

    LOCAL PROCEDURE UpdateCampaignGlobalDimCode@40(GlobalDimCodeNo@1003 : Integer;CampaignNo@1001 : Code[20];NewDimValue@1000 : Code[20]);
    VAR
      Campaign@1004 : Record 5071;
    BEGIN
      IF Campaign.GET(CampaignNo) THEN BEGIN
        CASE GlobalDimCodeNo OF
          1:
            Campaign."Global Dimension 1 Code" := NewDimValue;
          2:
            Campaign."Global Dimension 2 Code" := NewDimValue;
        END;
        Campaign.MODIFY(TRUE);
      END;
    END;

    LOCAL PROCEDURE UpdateCustTempGlobalDimCode@41(GlobalDimCodeNo@1003 : Integer;CustTemplateNo@1001 : Code[20];NewDimValue@1000 : Code[20]);
    VAR
      CustTemplate@1004 : Record 5105;
    BEGIN
      IF CustTemplate.GET(CustTemplateNo) THEN BEGIN
        CASE GlobalDimCodeNo OF
          1:
            CustTemplate."Global Dimension 1 Code" := NewDimValue;
          2:
            CustTemplate."Global Dimension 2 Code" := NewDimValue;
        END;
        CustTemplate.MODIFY(TRUE);
      END;
    END;

    LOCAL PROCEDURE UpdateNeutrPayGlobalDimCode@42(GlobalDimCodeNo@1003 : Integer;CFManualExpenseNo@1001 : Code[20];NewDimValue@1000 : Code[20]);
    VAR
      CFManualExpense@1004 : Record 850;
    BEGIN
      IF CFManualExpense.GET(CFManualExpenseNo) THEN BEGIN
        CASE GlobalDimCodeNo OF
          1:
            CFManualExpense."Global Dimension 1 Code" := NewDimValue;
          2:
            CFManualExpense."Global Dimension 2 Code" := NewDimValue;
        END;
        CFManualExpense.MODIFY(TRUE);
      END;
    END;

    LOCAL PROCEDURE UpdateNeutrRevGlobalDimCode@43(GlobalDimCodeNo@1003 : Integer;CFManualRevenueNo@1001 : Code[20];NewDimValue@1000 : Code[20]);
    VAR
      CFManualRevenue@1004 : Record 849;
    BEGIN
      IF CFManualRevenue.GET(CFManualRevenueNo) THEN BEGIN
        CASE GlobalDimCodeNo OF
          1:
            CFManualRevenue."Global Dimension 1 Code" := NewDimValue;
          2:
            CFManualRevenue."Global Dimension 2 Code" := NewDimValue;
        END;
        CFManualRevenue.MODIFY(TRUE);
      END;
    END;

    [Integration]
    LOCAL PROCEDURE OnAfterUpdateGlobalDimCode@1(GlobalDimCodeNo@1003 : Integer;TableID@1002 : Integer;AccNo@1001 : Code[20];NewDimValue@1000 : Code[20]);
    BEGIN
    END;

    BEGIN
    END.
  }
}

