OBJECT Table 399 XBRL Schema
{
  OBJECT-PROPERTIES
  {
    Date=05/11/08;
    Time=12:00:00;
    Version List=NAVW16.00;
  }
  PROPERTIES
  {
    OnDelete=VAR
               XBRLTaxonomyLine@1006 : Record 395;
               XBRLLinkbase@1001 : Record 400;
             BEGIN
               WITH XBRLTaxonomyLine DO BEGIN
                 SETRANGE("XBRL Taxonomy Name",Rec."XBRL Taxonomy Name");
                 SETRANGE("XBRL Schema Line No.",Rec."Line No.");
                 DELETEALL(TRUE);
               END;
               WITH XBRLLinkbase DO BEGIN
                 SETRANGE("XBRL Taxonomy Name",Rec."XBRL Taxonomy Name");
                 SETRANGE("XBRL Schema Line No.",Rec."Line No.");
                 DELETEALL(TRUE);
               END;
             END;

    CaptionML=[ENU=XBRL Schema;
               ENG=XBRL Schema];
  }
  FIELDS
  {
    { 1   ;   ;XBRL Taxonomy Name  ;Code20        ;TableRelation="XBRL Taxonomy";
                                                   CaptionML=[ENU=XBRL Taxonomy Name;
                                                              ENG=XBRL Taxonomy Name];
                                                   NotBlank=Yes }
    { 2   ;   ;Line No.            ;Integer       ;CaptionML=[ENU=Line No.;
                                                              ENG=Line No.] }
    { 3   ;   ;Description         ;Text50        ;CaptionML=[ENU=Description;
                                                              ENG=Description] }
    { 4   ;   ;targetNamespace     ;Text250       ;CaptionML=[ENU=targetNamespace;
                                                              ENG=targetNamespace] }
    { 5   ;   ;XSD                 ;BLOB          ;CaptionML=[ENU=XSD;
                                                              ENG=XSD];
                                                   SubType=Memo }
    { 6   ;   ;xmlns:xbrli         ;Text250       ;CaptionML=[ENU=xmlns:xbrli;
                                                              ENG=xmlns:xbrli] }
    { 7   ;   ;schemaLocation      ;Text250       ;CaptionML=[ENU=schemaLocation;
                                                              ENG=schemaLocation] }
    { 8   ;   ;Folder Name         ;Text250       ;CaptionML=[ENU=Folder Name;
                                                              ENG=Folder Name] }
  }
  KEYS
  {
    {    ;XBRL Taxonomy Name,Line No.             ;Clustered=Yes }
  }
  FIELDGROUPS
  {
  }
  CODE
  {

    BEGIN
    END.
  }
}

