OBJECT Table 456 Posted Approval Entry
{
  OBJECT-PROPERTIES
  {
    Date=22/02/18;
    Time=12:00:00;
    Version List=NAVW111.00.00.20783;
  }
  PROPERTIES
  {
    OnDelete=VAR
               PostedApprovalCommentLine@1000 : Record 457;
             BEGIN
               PostedApprovalCommentLine.SETRANGE("Posted Record ID","Posted Record ID");
               PostedApprovalCommentLine.DELETEALL;
             END;

    CaptionML=[ENU=Posted Approval Entry;
               ENG=Posted Approval Entry];
  }
  FIELDS
  {
    { 1   ;   ;Table ID            ;Integer       ;CaptionML=[ENU=Table ID;
                                                              ENG=Table ID] }
    { 3   ;   ;Document No.        ;Code20        ;CaptionML=[ENU=Document No.;
                                                              ENG=Document No.] }
    { 4   ;   ;Sequence No.        ;Integer       ;CaptionML=[ENU=Sequence No.;
                                                              ENG=Sequence No.] }
    { 5   ;   ;Approval Code       ;Code20        ;CaptionML=[ENU=Approval Code;
                                                              ENG=Approval Code] }
    { 6   ;   ;Sender ID           ;Code50        ;TableRelation=User."User Name";
                                                   OnLookup=BEGIN
                                                              UserMgt.LookupUserID("Sender ID");
                                                            END;

                                                   TestTableRelation=No;
                                                   CaptionML=[ENU=Sender ID;
                                                              ENG=Sender ID] }
    { 7   ;   ;Salespers./Purch. Code;Code20      ;CaptionML=[ENU=Salespers./Purch. Code;
                                                              ENG=Salespers./Purch. Code] }
    { 8   ;   ;Approver ID         ;Code50        ;TableRelation=User."User Name";
                                                   OnLookup=BEGIN
                                                              UserMgt.LookupUserID("Approver ID");
                                                            END;

                                                   TestTableRelation=No;
                                                   DataClassification=EndUserIdentifiableInformation;
                                                   CaptionML=[ENU=Approver ID;
                                                              ENG=Approver ID] }
    { 9   ;   ;Status              ;Option        ;CaptionML=[ENU=Status;
                                                              ENG=Status];
                                                   OptionCaptionML=[ENU=Created,Open,Canceled,Rejected,Approved;
                                                                    ENG=Created,Open,Cancelled,Rejected,Approved];
                                                   OptionString=Created,Open,Canceled,Rejected,Approved }
    { 10  ;   ;Date-Time Sent for Approval;DateTime;
                                                   CaptionML=[ENU=Date-Time Sent for Approval;
                                                              ENG=Date-Time Sent for Approval] }
    { 11  ;   ;Last Date-Time Modified;DateTime   ;CaptionML=[ENU=Last Date-Time Modified;
                                                              ENG=Last Date-Time Modified] }
    { 12  ;   ;Last Modified By ID ;Code50        ;TableRelation=User."User Name";
                                                   OnLookup=BEGIN
                                                              UserMgt.LookupUserID("Last Modified By ID");
                                                            END;

                                                   TestTableRelation=No;
                                                   CaptionML=[ENU=Last Modified By ID;
                                                              ENG=Last Modified By ID] }
    { 13  ;   ;Comment             ;Boolean       ;FieldClass=FlowField;
                                                   CalcFormula=Exist("Posted Approval Comment Line" WHERE (Table ID=FIELD(Table ID),
                                                                                                           Document No.=FIELD(Document No.)));
                                                   CaptionML=[ENU=Comment;
                                                              ENG=Comment];
                                                   Editable=No }
    { 14  ;   ;Due Date            ;Date          ;CaptionML=[ENU=Due Date;
                                                              ENG=Due Date] }
    { 15  ;   ;Amount              ;Decimal       ;CaptionML=[ENU=Amount;
                                                              ENG=Amount];
                                                   AutoFormatType=1;
                                                   AutoFormatExpr="Currency Code" }
    { 16  ;   ;Amount (LCY)        ;Decimal       ;CaptionML=[ENU=Amount (LCY);
                                                              ENG=Amount (LCY)];
                                                   AutoFormatType=1 }
    { 17  ;   ;Currency Code       ;Code10        ;TableRelation=Currency;
                                                   CaptionML=[ENU=Currency Code;
                                                              ENG=Currency Code] }
    { 18  ;   ;Approval Type       ;Option        ;CaptionML=[ENU=Approval Type;
                                                              ENG=Approval Type];
                                                   OptionCaptionML=[ENU=Workflow User Group,Sales Pers./Purchaser,Approver;
                                                                    ENG=Workflow User Group,Sales Pers./Purchaser,Approver];
                                                   OptionString=Workflow User Group,Sales Pers./Purchaser,Approver }
    { 19  ;   ;Limit Type          ;Option        ;CaptionML=[ENU=Limit Type;
                                                              ENG=Limit Type];
                                                   OptionCaptionML=[ENU=Approval Limits,Credit Limits,Request Limits,No Limits;
                                                                    ENG=Approval Limits,Credit Limits,Request Limits,No Limits];
                                                   OptionString=Approval Limits,Credit Limits,Request Limits,No Limits }
    { 20  ;   ;Available Credit Limit (LCY);Decimal;
                                                   CaptionML=[ENU=Available Credit Limit (LCY);
                                                              ENG=Available Credit Limit (LCY)] }
    { 22  ;   ;Posted Record ID    ;RecordID      ;DataClassification=SystemMetadata;
                                                   CaptionML=[ENU=Posted Record ID;
                                                              ENG=Posted Record ID] }
    { 23  ;   ;Delegation Date Formula;DateFormula;CaptionML=[ENU=Delegation Date Formula;
                                                              ENG=Delegation Date Formula] }
    { 26  ;   ;Number of Approved Requests;Integer;CaptionML=[ENU=Number of Approved Requests;
                                                              ENG=Number of Approved Requests] }
    { 27  ;   ;Number of Rejected Requests;Integer;CaptionML=[ENU=Number of Rejected Requests;
                                                              ENG=Number of Rejected Requests] }
    { 28  ;   ;Iteration No.       ;Integer       ;CaptionML=[ENU=Iteration No.;
                                                              ENG=Iteration No.] }
    { 29  ;   ;Entry No.           ;Integer       ;AutoIncrement=Yes;
                                                   CaptionML=[ENU=Entry No.;
                                                              ENG=Entry No.] }
  }
  KEYS
  {
    {    ;Entry No.                               ;Clustered=Yes }
  }
  FIELDGROUPS
  {
  }
  CODE
  {
    VAR
      UserMgt@1000 : Codeunit 418;

    [Internal]
    PROCEDURE ShowRecord@1();
    VAR
      PageManagement@1001 : Codeunit 700;
      RecRef@1000 : RecordRef;
    BEGIN
      IF NOT RecRef.GET("Posted Record ID") THEN
        EXIT;
      RecRef.SETRECFILTER;
      PageManagement.PageRun(RecRef);
    END;

    BEGIN
    END.
  }
}

