OBJECT Table 426 IC Outbox Sales Header
{
  OBJECT-PROPERTIES
  {
    Date=22/02/18;
    Time=12:00:00;
    Version List=NAVW111.00.00.20783;
  }
  PROPERTIES
  {
    OnDelete=VAR
               ICOutboxSalesLine@1000 : Record 427;
               DimMgt@1002 : Codeunit 408;
             BEGIN
               ICOutboxSalesLine.SETRANGE("IC Partner Code","IC Partner Code");
               ICOutboxSalesLine.SETRANGE("IC Transaction No.","IC Transaction No.");
               ICOutboxSalesLine.SETRANGE("Transaction Source","Transaction Source");
               IF ICOutboxSalesLine.FINDFIRST THEN
                 ICOutboxSalesLine.DELETEALL(TRUE);
               DimMgt.DeleteICDocDim(
                 DATABASE::"IC Outbox Sales Header","IC Transaction No.","IC Partner Code","Transaction Source",0);
             END;

    CaptionML=[ENU=IC Outbox Sales Header;
               ENG=IC Outbox Sales Header];
  }
  FIELDS
  {
    { 1   ;   ;Document Type       ;Option        ;CaptionML=[ENU=Document Type;
                                                              ENG=Document Type];
                                                   OptionCaptionML=[ENU=" ,Order,Invoice,Credit Memo,,Return Order";
                                                                    ENG=" ,Order,Invoice,Credit Memo,,Return Order"];
                                                   OptionString=[ ,Order,Invoice,Credit Memo,,Return Order];
                                                   Editable=No }
    { 2   ;   ;Sell-to Customer No.;Code20        ;TableRelation=Customer;
                                                   CaptionML=[ENU=Sell-to Customer No.;
                                                              ENG=Sell-to Customer No.];
                                                   Editable=No }
    { 3   ;   ;No.                 ;Code20        ;CaptionML=[ENU=No.;
                                                              ENG=No.];
                                                   Editable=No }
    { 4   ;   ;Bill-to Customer No.;Code20        ;TableRelation=Customer;
                                                   CaptionML=[ENU=Bill-to Customer No.;
                                                              ENG=Bill-to Customer No.];
                                                   Editable=No }
    { 13  ;   ;Ship-to Name        ;Text50        ;CaptionML=[ENU=Ship-to Name;
                                                              ENG=Ship-to Name];
                                                   Editable=No }
    { 15  ;   ;Ship-to Address     ;Text50        ;CaptionML=[ENU=Ship-to Address;
                                                              ENG=Ship-to Address];
                                                   Editable=No }
    { 16  ;   ;Ship-to Address 2   ;Text50        ;CaptionML=[ENU=Ship-to Address 2;
                                                              ENG=Ship-to Address 2];
                                                   Editable=No }
    { 17  ;   ;Ship-to City        ;Text30        ;CaptionML=[ENU=Ship-to City;
                                                              ENG=Ship-to City];
                                                   Editable=No }
    { 20  ;   ;Posting Date        ;Date          ;CaptionML=[ENU=Posting Date;
                                                              ENG=Posting Date] }
    { 24  ;   ;Due Date            ;Date          ;CaptionML=[ENU=Due Date;
                                                              ENG=Due Date] }
    { 25  ;   ;Payment Discount %  ;Decimal       ;CaptionML=[ENU=Payment Discount %;
                                                              ENG=Payment Discount %];
                                                   Editable=No }
    { 26  ;   ;Pmt. Discount Date  ;Date          ;CaptionML=[ENU=Pmt. Discount Date;
                                                              ENG=Pmt. Discount Date];
                                                   Editable=No }
    { 32  ;   ;Currency Code       ;Code10        ;TableRelation=Currency;
                                                   TestTableRelation=No;
                                                   CaptionML=[ENU=Currency Code;
                                                              ENG=Currency Code];
                                                   Editable=No }
    { 35  ;   ;Prices Including VAT;Boolean       ;CaptionML=[ENU=Prices Including VAT;
                                                              ENG=Prices Including VAT] }
    { 44  ;   ;Order No.           ;Code20        ;CaptionML=[ENU=Order No.;
                                                              ENG=Order No.] }
    { 91  ;   ;Ship-to Post Code   ;Code20        ;CaptionML=[ENU=Ship-to Post Code;
                                                              ENG=Ship-to Postcode];
                                                   Editable=No }
    { 92  ;   ;Ship-to County      ;Text30        ;CaptionML=[ENU=Ship-to County;
                                                              ENG=Ship-to County] }
    { 93  ;   ;Ship-to Country/Region Code;Code10 ;TableRelation=Country/Region;
                                                   CaptionML=[ENU=Ship-to Country/Region Code;
                                                              ENG=Ship-to Country/Region Code] }
    { 99  ;   ;Document Date       ;Date          ;CaptionML=[ENU=Document Date;
                                                              ENG=Document Date] }
    { 100 ;   ;External Document No.;Code35       ;CaptionML=[ENU=External Document No.;
                                                              ENG=External Document No.] }
    { 125 ;   ;IC Partner Code     ;Code20        ;TableRelation="IC Partner";
                                                   CaptionML=[ENU=IC Partner Code;
                                                              ENG=IC Partner Code];
                                                   Editable=No }
    { 201 ;   ;IC Transaction No.  ;Integer       ;CaptionML=[ENU=IC Transaction No.;
                                                              ENG=IC Transaction No.];
                                                   Editable=No }
    { 202 ;   ;Transaction Source  ;Option        ;CaptionML=[ENU=Transaction Source;
                                                              ENG=Transaction Source];
                                                   OptionCaptionML=[ENU=Rejected by Current Company,Created by Current Company;
                                                                    ENG=Rejected by Current Company,Created by Current Company];
                                                   OptionString=Rejected by Current Company,Created by Current Company;
                                                   Editable=No }
    { 5790;   ;Requested Delivery Date;Date       ;AccessByPermission=TableData 99000880=R;
                                                   CaptionML=[ENU=Requested Delivery Date;
                                                              ENG=Requested Delivery Date];
                                                   Editable=No }
    { 5791;   ;Promised Delivery Date;Date        ;CaptionML=[ENU=Promised Delivery Date;
                                                              ENG=Promised Delivery Date];
                                                   Editable=No }
  }
  KEYS
  {
    {    ;IC Transaction No.,IC Partner Code,Transaction Source;
                                                   Clustered=Yes }
  }
  FIELDGROUPS
  {
  }
  CODE
  {

    BEGIN
    END.
  }
}

