OBJECT Table 435 IC Inbox Sales Line
{
  OBJECT-PROPERTIES
  {
    Date=22/11/17;
    Time=12:00:00;
    Version List=NAVW111.00;
  }
  PROPERTIES
  {
    OnDelete=VAR
               DimMgt@1000 : Codeunit 408;
             BEGIN
               DimMgt.DeleteICDocDim(
                 DATABASE::"IC Inbox Sales Line","IC Transaction No.","IC Partner Code","Transaction Source","Line No.");
             END;

    CaptionML=[ENU=IC Inbox Sales Line;
               ENG=IC Inbox Sales Line];
  }
  FIELDS
  {
    { 1   ;   ;Document Type       ;Option        ;CaptionML=[ENU=Document Type;
                                                              ENG=Document Type];
                                                   OptionCaptionML=[ENU=Order,Invoice,Credit Memo,Return Order;
                                                                    ENG=Order,Invoice,Credit Memo,Return Order];
                                                   OptionString=Order,Invoice,Credit Memo,Return Order;
                                                   Editable=No }
    { 3   ;   ;Document No.        ;Code20        ;CaptionML=[ENU=Document No.;
                                                              ENG=Document No.];
                                                   Editable=No }
    { 4   ;   ;Line No.            ;Integer       ;CaptionML=[ENU=Line No.;
                                                              ENG=Line No.];
                                                   Editable=No }
    { 11  ;   ;Description         ;Text50        ;CaptionML=[ENU=Description;
                                                              ENG=Description] }
    { 15  ;   ;Quantity            ;Decimal       ;CaptionML=[ENU=Quantity;
                                                              ENG=Quantity];
                                                   DecimalPlaces=0:5;
                                                   Editable=No }
    { 22  ;   ;Unit Price          ;Decimal       ;CaptionML=[ENU=Unit Price;
                                                              ENG=Unit Price];
                                                   Editable=No;
                                                   AutoFormatType=2;
                                                   AutoFormatExpr="Currency Code" }
    { 27  ;   ;Line Discount %     ;Decimal       ;CaptionML=[ENU=Line Discount %;
                                                              ENG=Line Discount %];
                                                   DecimalPlaces=0:5;
                                                   MinValue=0;
                                                   MaxValue=100 }
    { 28  ;   ;Line Discount Amount;Decimal       ;CaptionML=[ENU=Line Discount Amount;
                                                              ENG=Line Discount Amount];
                                                   AutoFormatType=1;
                                                   AutoFormatExpr="Currency Code" }
    { 30  ;   ;Amount Including VAT;Decimal       ;CaptionML=[ENU=Amount Including VAT;
                                                              ENG=Amount Including VAT];
                                                   Editable=No;
                                                   AutoFormatType=1;
                                                   AutoFormatExpr="Currency Code" }
    { 45  ;   ;Job No.             ;Code20        ;AccessByPermission=TableData 167=R;
                                                   CaptionML=[ENU=Job No.;
                                                              ENG=Job No.];
                                                   Editable=No }
    { 73  ;   ;Drop Shipment       ;Boolean       ;AccessByPermission=TableData 223=R;
                                                   CaptionML=[ENU=Drop Shipment;
                                                              ENG=Drop Shipment];
                                                   Editable=No }
    { 91  ;   ;Currency Code       ;Code10        ;TableRelation=Currency;
                                                   TestTableRelation=No;
                                                   CaptionML=[ENU=Currency Code;
                                                              ENG=Currency Code];
                                                   Editable=No }
    { 99  ;   ;VAT Base Amount     ;Decimal       ;CaptionML=[ENU=VAT Base Amount;
                                                              ENG=VAT Base Amount];
                                                   Editable=No;
                                                   AutoFormatType=1;
                                                   AutoFormatExpr="Currency Code" }
    { 103 ;   ;Line Amount         ;Decimal       ;CaptionML=[ENU=Line Amount;
                                                              ENG=Line Amount];
                                                   Editable=No;
                                                   AutoFormatType=1;
                                                   AutoFormatExpr="Currency Code" }
    { 107 ;   ;IC Partner Ref. Type;Option        ;CaptionML=[ENU=IC Partner Ref. Type;
                                                              ENG=IC Partner Ref. Type];
                                                   OptionCaptionML=[ENU=" ,G/L Account,Item,,,Charge (Item),Cross reference,Common Item No.,Vendor Item No.";
                                                                    ENG=" ,G/L Account,Item,,,Charge (Item),Cross reference,Common Item No.,Vendor Item No."];
                                                   OptionString=[ ,G/L Account,Item,,,Charge (Item),Cross reference,Common Item No.,Vendor Item No.];
                                                   Editable=No }
    { 108 ;   ;IC Partner Reference;Code20        ;TableRelation=IF (IC Partner Ref. Type=CONST(" ")) "Standard Text"
                                                                 ELSE IF (IC Partner Ref. Type=CONST(G/L Account)) "IC G/L Account"
                                                                 ELSE IF (IC Partner Ref. Type=CONST(Item)) Item
                                                                 ELSE IF (IC Partner Ref. Type=CONST("Charge (Item)")) "Item Charge"
                                                                 ELSE IF (IC Partner Ref. Type=CONST(Cross reference)) "Item Cross Reference";
                                                   CaptionML=[ENU=IC Partner Reference;
                                                              ENG=IC Partner Reference] }
    { 125 ;   ;IC Partner Code     ;Code20        ;TableRelation="IC Partner";
                                                   CaptionML=[ENU=IC Partner Code;
                                                              ENG=IC Partner Code];
                                                   Editable=No }
    { 126 ;   ;IC Transaction No.  ;Integer       ;CaptionML=[ENU=IC Transaction No.;
                                                              ENG=IC Transaction No.];
                                                   Editable=No }
    { 127 ;   ;Transaction Source  ;Option        ;CaptionML=[ENU=Transaction Source;
                                                              ENG=Transaction Source];
                                                   OptionCaptionML=[ENU=Returned by Partner,Created by Partner;
                                                                    ENG=Returned by Partner,Created by Partner];
                                                   OptionString=Returned by Partner,Created by Partner;
                                                   Editable=No }
    { 128 ;   ;Item Ref.           ;Option        ;CaptionML=[ENU=Item Ref.;
                                                              ENG=Item Ref.];
                                                   OptionCaptionML=[ENU=Local Item No.,Cross Reference,Vendor Item No.;
                                                                    ENG=Local Item No.,Cross Reference,Vendor Item No.];
                                                   OptionString=Local Item No.,Cross Reference,Vendor Item No.;
                                                   Editable=No }
    { 5407;   ;Unit of Measure Code;Code10        ;CaptionML=[ENU=Unit of Measure Code;
                                                              ENG=Unit of Measure Code];
                                                   Editable=No }
    { 5790;   ;Requested Delivery Date;Date       ;CaptionML=[ENU=Requested Delivery Date;
                                                              ENG=Requested Delivery Date];
                                                   Editable=No }
    { 5791;   ;Promised Delivery Date;Date        ;CaptionML=[ENU=Promised Delivery Date;
                                                              ENG=Promised Delivery Date];
                                                   Editable=No }
  }
  KEYS
  {
    {    ;IC Transaction No.,IC Partner Code,Transaction Source,Line No.;
                                                   Clustered=Yes }
  }
  FIELDGROUPS
  {
  }
  CODE
  {

    [External]
    PROCEDURE ShowDimensions@1();
    VAR
      ICDocDim@1001 : Record 442;
    BEGIN
      TESTFIELD("IC Transaction No.");
      TESTFIELD("Line No.");
      ICDocDim.ShowDimensions(
        DATABASE::"IC Inbox Sales Line","IC Transaction No.","IC Partner Code","Transaction Source","Line No.");
    END;

    BEGIN
    END.
  }
}

