OBJECT Table 460 Purchase Prepayment %
{
  OBJECT-PROPERTIES
  {
    Date=05/11/08;
    Time=12:00:00;
    Version List=NAVW16.00;
  }
  PROPERTIES
  {
    OnInsert=BEGIN
               TESTFIELD("Vendor No.");
               TESTFIELD("Item No.");
             END;

    CaptionML=[ENU=Purchase Prepayment %;
               ENG=Purchase Prepayment %];
  }
  FIELDS
  {
    { 1   ;   ;Item No.            ;Code20        ;TableRelation=Item;
                                                   CaptionML=[ENU=Item No.;
                                                              ENG=Item No.];
                                                   NotBlank=Yes }
    { 2   ;   ;Vendor No.          ;Code20        ;TableRelation=Vendor;
                                                   CaptionML=[ENU=Vendor No.;
                                                              ENG=Vendor No.] }
    { 3   ;   ;Starting Date       ;Date          ;OnValidate=BEGIN
                                                                CheckDate;
                                                              END;

                                                   CaptionML=[ENU=Starting Date;
                                                              ENG=Starting Date] }
    { 4   ;   ;Ending Date         ;Date          ;OnValidate=BEGIN
                                                                CheckDate;
                                                              END;

                                                   CaptionML=[ENU=Ending Date;
                                                              ENG=Ending Date] }
    { 5   ;   ;Prepayment %        ;Decimal       ;CaptionML=[ENU=Prepayment %;
                                                              ENG=Prepayment %];
                                                   DecimalPlaces=0:5;
                                                   MinValue=0;
                                                   MaxValue=100 }
  }
  KEYS
  {
    {    ;Item No.,Vendor No.,Starting Date       ;Clustered=Yes }
    {    ;Vendor No.                               }
  }
  FIELDGROUPS
  {
  }
  CODE
  {
    VAR
      Text000@1001 : TextConst 'ENU=%1 cannot be after %2.;ENG=%1 cannot be after %2.';

    LOCAL PROCEDURE CheckDate@5();
    BEGIN
      IF ("Starting Date" > "Ending Date") AND ("Ending Date" <> 0D) THEN
        ERROR(Text000,FIELDCAPTION("Starting Date"),FIELDCAPTION("Ending Date"));
    END;

    BEGIN
    END.
  }
}

