OBJECT Table 5903 Service Order Type
{
  OBJECT-PROPERTIES
  {
    Date=07/09/12;
    Time=12:00:00;
    Version List=NAVW17.00;
  }
  PROPERTIES
  {
    OnDelete=VAR
               DimMgt@1000 : Codeunit 408;
             BEGIN
               DimMgt.DeleteDefaultDim(DATABASE::"Service Order Type",Code);
             END;

    CaptionML=[ENU=Service Order Type;
               ENG=Service Order Type];
    LookupPageID=Page5908;
  }
  FIELDS
  {
    { 1   ;   ;Code                ;Code10        ;CaptionML=[ENU=Code;
                                                              ENG=Code];
                                                   NotBlank=Yes }
    { 2   ;   ;Description         ;Text50        ;CaptionML=[ENU=Description;
                                                              ENG=Description] }
  }
  KEYS
  {
    {    ;Code                                    ;Clustered=Yes }
  }
  FIELDGROUPS
  {
  }
  CODE
  {

    BEGIN
    END.
  }
}

