OBJECT Table 5214 Misc. Article Information
{
  OBJECT-PROPERTIES
  {
    Date=07/09/12;
    Time=12:00:00;
    Version List=NAVW17.00;
  }
  PROPERTIES
  {
    DataCaptionFields=Employee No.;
    OnInsert=VAR
               MiscArticleInfo@1000 : Record 5214;
             BEGIN
               MiscArticleInfo.SETCURRENTKEY("Line No.");
               IF MiscArticleInfo.FINDLAST THEN
                 "Line No." := MiscArticleInfo."Line No." + 1
               ELSE
                 "Line No." := 1;
             END;

    OnDelete=BEGIN
               IF Comment THEN
                 ERROR(Text000);
             END;

    CaptionML=[ENU=Misc. Article Information;
               ENG=Misc. Article Information];
    LookupPageID=Page5219;
    DrillDownPageID=Page5219;
  }
  FIELDS
  {
    { 1   ;   ;Employee No.        ;Code20        ;TableRelation=Employee;
                                                   CaptionML=[ENU=Employee No.;
                                                              ENG=Employee No.];
                                                   NotBlank=Yes }
    { 2   ;   ;Misc. Article Code  ;Code10        ;TableRelation="Misc. Article";
                                                   OnValidate=BEGIN
                                                                MiscArticle.GET("Misc. Article Code");
                                                                Description := MiscArticle.Description;
                                                              END;

                                                   CaptionML=[ENU=Misc. Article Code;
                                                              ENG=Misc. Article Code];
                                                   NotBlank=Yes }
    { 3   ;   ;Line No.            ;Integer       ;CaptionML=[ENU=Line No.;
                                                              ENG=Line No.] }
    { 4   ;   ;Description         ;Text50        ;CaptionML=[ENU=Description;
                                                              ENG=Description] }
    { 5   ;   ;From Date           ;Date          ;CaptionML=[ENU=From Date;
                                                              ENG=From Date] }
    { 6   ;   ;To Date             ;Date          ;CaptionML=[ENU=To Date;
                                                              ENG=To Date] }
    { 7   ;   ;In Use              ;Boolean       ;CaptionML=[ENU=In Use;
                                                              ENG=In Use] }
    { 8   ;   ;Comment             ;Boolean       ;FieldClass=FlowField;
                                                   CalcFormula=Exist("Human Resource Comment Line" WHERE (Table Name=CONST(Misc. Article Information),
                                                                                                          No.=FIELD(Employee No.),
                                                                                                          Alternative Address Code=FIELD(Misc. Article Code),
                                                                                                          Table Line No.=FIELD(Line No.)));
                                                   CaptionML=[ENU=Comment;
                                                              ENG=Comment];
                                                   Editable=No }
    { 9   ;   ;Serial No.          ;Text30        ;CaptionML=[ENU=Serial No.;
                                                              ENG=Serial No.] }
  }
  KEYS
  {
    {    ;Employee No.,Misc. Article Code,Line No.;Clustered=Yes }
    {    ;Line No.                                 }
  }
  FIELDGROUPS
  {
  }
  CODE
  {
    VAR
      Text000@1000 : TextConst 'ENU=You cannot delete information if there are comments associated with it.;ENG=You cannot delete information if there are comments associated with it.';
      MiscArticle@1001 : Record 5213;

    BEGIN
    END.
  }
}

