OBJECT Table 5339 Integration Synch. Job Errors
{
  OBJECT-PROPERTIES
  {
    Date=22/02/18;
    Time=12:00:00;
    Version List=NAVW111.00.00.20783;
  }
  PROPERTIES
  {
    CaptionML=[ENU=Integration Synch. Job Errors;
               ENG=Integration Synch. Job Errors];
  }
  FIELDS
  {
    { 1   ;   ;No.                 ;Integer       ;AutoIncrement=Yes;
                                                   CaptionML=[ENU=No.;
                                                              ENG=No.] }
    { 2   ;   ;Integration Synch. Job ID;GUID     ;TableRelation="Integration Synch. Job".ID;
                                                   CaptionML=[ENU=Integration Synch. Job ID;
                                                              ENG=Integration Synch. Job ID] }
    { 3   ;   ;Source Record ID    ;RecordID      ;DataClassification=SystemMetadata;
                                                   CaptionML=[ENU=Source Record ID;
                                                              ENG=Source Record ID] }
    { 4   ;   ;Destination Record ID;RecordID     ;DataClassification=SystemMetadata;
                                                   CaptionML=[ENU=Destination Record ID;
                                                              ENG=Destination Record ID] }
    { 5   ;   ;Message             ;Text250       ;CaptionML=[ENU=Message;
                                                              ENG=Message] }
    { 6   ;   ;Date/Time           ;DateTime      ;CaptionML=[ENU=Date/Time;
                                                              ENG=Date/Time] }
    { 7   ;   ;Exception Detail    ;BLOB          ;CaptionML=[ENU=Exception Detail;
                                                              ENG=Exception Detail] }
  }
  KEYS
  {
    {    ;No.                                     ;Clustered=Yes }
    {    ;Integration Synch. Job ID,Date/Time      }
    {    ;Date/Time,Integration Synch. Job ID      }
  }
  FIELDGROUPS
  {
  }
  CODE
  {
    VAR
      DeleteEntriesQst@1000 : TextConst '@@@="%1 = Integration Synch. Job Errors caption";ENU=Are you sure that you want to delete the %1 entries?;ENG=Are you sure that you want to delete the %1 entries?';

    [External]
    PROCEDURE DeleteEntries@2(DaysOld@1000 : Integer);
    BEGIN
      IF NOT CONFIRM(STRSUBSTNO(DeleteEntriesQst,TABLECAPTION)) THEN
        EXIT;

      SETFILTER("Date/Time",'<=%1',CREATEDATETIME(TODAY - DaysOld,TIME));
      DELETEALL;
      SETRANGE("Date/Time");
    END;

    [Internal]
    PROCEDURE LogSynchError@1(IntegrationSynchJobId@1006 : GUID;SourceRecordId@1000 : RecordID;DestinationRecordId@1001 : RecordID;ErrorMessage@1002 : Text);
    VAR
      IntegrationSynchJobErrors@1003 : Record 5339;
      StackTraceOutStream@1004 : OutStream;
    BEGIN
      WITH IntegrationSynchJobErrors DO BEGIN
        INIT;
        "Integration Synch. Job ID" := IntegrationSynchJobId;
        "Source Record ID" := SourceRecordId;
        "Destination Record ID" := DestinationRecordId;
        "Date/Time" := CURRENTDATETIME;
        Message := COPYSTR(ErrorMessage,1,MAXSTRLEN(Message));
        "Exception Detail".CREATEOUTSTREAM(StackTraceOutStream);
        StackTraceOutStream.WRITE(GETLASTERRORCALLSTACK);
        INSERT(TRUE);
      END;
    END;

    BEGIN
    END.
  }
}

