OBJECT Table 5611 Depreciation Book
{
  OBJECT-PROPERTIES
  {
    Date=22/11/17;
    Time=12:00:00;
    Version List=NAVW111.00,NAVGB11.00;
  }
  PROPERTIES
  {
    Permissions=TableData 5604=rimd,
                TableData 5612=rm;
    DataCaptionFields=Code,Description;
    OnInsert=BEGIN
               WITH FAPostingTypeSetup DO BEGIN
                 "Depreciation Book Code" := Code;
                 "FA Posting Type" := "FA Posting Type"::Appreciation;
                 "Part of Book Value" := TRUE;
                 "Part of Depreciable Basis" := TRUE;
                 "Include in Depr. Calculation" := TRUE;
                 "Include in Gain/Loss Calc." := FALSE;
                 "Depreciation Type" := FALSE;
                 "Acquisition Type" := TRUE;
                 Sign := Sign::Debit;
                 INSERT;
                 "FA Posting Type" := "FA Posting Type"::"Write-Down";
                 "Part of Depreciable Basis" := FALSE;
                 "Include in Gain/Loss Calc." := TRUE;
                 "Depreciation Type" := TRUE;
                 "Acquisition Type" := FALSE;
                 Sign := Sign::Credit;
                 INSERT;
                 "FA Posting Type" := "FA Posting Type"::"Custom 1";
                 INSERT;
                 "FA Posting Type" := "FA Posting Type"::"Custom 2";
                 INSERT;
               END;
             END;

    OnModify=BEGIN
               "Last Date Modified" := TODAY;
             END;

    OnDelete=VAR
               InsCoverageLedgEntry@1000 : Record 5629;
               FADeprBook@1001 : Record 5612;
             BEGIN
               FASetup.GET;
               FADeprBook.SETCURRENTKEY("Depreciation Book Code");
               FADeprBook.SETRANGE("Depreciation Book Code",Code);
               IF NOT FADeprBook.ISEMPTY THEN
                 ERROR(Text000);

               IF NOT InsCoverageLedgEntry.ISEMPTY AND (FASetup."Insurance Depr. Book" = Code) THEN
                 ERROR(
                   Text001,
                   FASetup.TABLECAPTION,FASetup.FIELDCAPTION("Insurance Depr. Book"),Code);

               FAPostingTypeSetup.SETRANGE("Depreciation Book Code",Code);
               FAPostingTypeSetup.DELETEALL;

               FAJnlSetup.SETRANGE("Depreciation Book Code",Code);
               FAJnlSetup.DELETEALL;
             END;

    OnRename=BEGIN
               "Last Date Modified" := TODAY;
             END;

    CaptionML=[ENU=Depreciation Book;
               ENG=Depreciation Book];
    LookupPageID=Page5611;
    DrillDownPageID=Page5611;
  }
  FIELDS
  {
    { 1   ;   ;Code                ;Code10        ;CaptionML=[ENU=Code;
                                                              ENG=Code];
                                                   NotBlank=Yes }
    { 2   ;   ;Description         ;Text50        ;CaptionML=[ENU=Description;
                                                              ENG=Description] }
    { 3   ;   ;G/L Integration - Acq. Cost;Boolean;CaptionML=[ENU=G/L Integration - Acq. Cost;
                                                              ENG=G/L Integration - Acq. Cost] }
    { 4   ;   ;G/L Integration - Depreciation;Boolean;
                                                   CaptionML=[ENU=G/L Integration - Depreciation;
                                                              ENG=G/L Integration - Depreciation] }
    { 5   ;   ;G/L Integration - Write-Down;Boolean;
                                                   CaptionML=[ENU=G/L Integration - Write-Down;
                                                              ENG=G/L Integration - Write-Down] }
    { 6   ;   ;G/L Integration - Appreciation;Boolean;
                                                   CaptionML=[ENU=G/L Integration - Appreciation;
                                                              ENG=G/L Integration - Appreciation] }
    { 7   ;   ;G/L Integration - Custom 1;Boolean ;CaptionML=[ENU=G/L Integration - Custom 1;
                                                              ENG=G/L Integration - Custom 1] }
    { 8   ;   ;G/L Integration - Custom 2;Boolean ;CaptionML=[ENU=G/L Integration - Custom 2;
                                                              ENG=G/L Integration - Custom 2] }
    { 9   ;   ;G/L Integration - Disposal;Boolean ;CaptionML=[ENU=G/L Integration - Disposal;
                                                              ENG=G/L Integration - Disposal] }
    { 10  ;   ;G/L Integration - Maintenance;Boolean;
                                                   CaptionML=[ENU=G/L Integration - Maintenance;
                                                              ENG=G/L Integration - Maintenance] }
    { 11  ;   ;Disposal Calculation Method;Option ;CaptionML=[ENU=Disposal Calculation Method;
                                                              ENG=Disposal Calculation Method];
                                                   OptionCaptionML=[ENU=Net,Gross;
                                                                    ENG=Net,Gross];
                                                   OptionString=Net,Gross }
    { 12  ;   ;Use Custom 1 Depreciation;Boolean  ;OnValidate=BEGIN
                                                                IF "Use Custom 1 Depreciation" THEN
                                                                  TESTFIELD("Fiscal Year 365 Days",FALSE);
                                                              END;

                                                   CaptionML=[ENU=Use Custom 1 Depreciation;
                                                              ENG=Use Custom 1 Depreciation] }
    { 13  ;   ;Allow Depr. below Zero;Boolean     ;CaptionML=[ENU=Allow Depr. below Zero;
                                                              ENG=Allow Depr. below Zero] }
    { 14  ;   ;Use FA Exch. Rate in Duplic.;Boolean;
                                                   OnValidate=BEGIN
                                                                IF NOT "Use FA Exch. Rate in Duplic." THEN
                                                                  "Default Exchange Rate" := 0;
                                                              END;

                                                   CaptionML=[ENU=Use FA Exch. Rate in Duplic.;
                                                              ENG=Use FA Exch. Rate in Duplic.] }
    { 15  ;   ;Part of Duplication List;Boolean   ;CaptionML=[ENU=Part of Duplication List;
                                                              ENG=Part of Duplication List] }
    { 17  ;   ;Last Date Modified  ;Date          ;CaptionML=[ENU=Last Date Modified;
                                                              ENG=Last Date Modified];
                                                   Editable=No }
    { 18  ;   ;Allow Indexation    ;Boolean       ;CaptionML=[ENU=Allow Indexation;
                                                              ENG=Allow Indexation] }
    { 19  ;   ;Use Same FA+G/L Posting Dates;Boolean;
                                                   InitValue=Yes;
                                                   CaptionML=[ENU=Use Same FA+G/L Posting Dates;
                                                              ENG=Use Same FA+G/L Posting/Tax Point Dates] }
    { 20  ;   ;Default Exchange Rate;Decimal      ;OnValidate=BEGIN
                                                                IF "Default Exchange Rate" > 0 THEN
                                                                  TESTFIELD("Use FA Exch. Rate in Duplic.",TRUE);
                                                              END;

                                                   CaptionML=[ENU=Default Exchange Rate;
                                                              ENG=Default Exchange Rate];
                                                   DecimalPlaces=4:4;
                                                   MinValue=0 }
    { 23  ;   ;Use FA Ledger Check ;Boolean       ;InitValue=Yes;
                                                   CaptionML=[ENU=Use FA Ledger Check;
                                                              ENG=Use FA Ledger Check] }
    { 24  ;   ;Use Rounding in Periodic Depr.;Boolean;
                                                   CaptionML=[ENU=Use Rounding in Periodic Depr.;
                                                              ENG=Use Rounding in Periodic Depr.] }
    { 25  ;   ;New Fiscal Year Starting Date;Date ;CaptionML=[ENU=New Fiscal Year Starting Date;
                                                              ENG=New Fiscal Year Starting Date] }
    { 26  ;   ;No. of Days in Fiscal Year;Integer ;CaptionML=[ENU=No. of Days in Fiscal Year;
                                                              ENG=No. of Days in Fiscal Year];
                                                   MinValue=10;
                                                   MaxValue=1080 }
    { 27  ;   ;Allow Changes in Depr. Fields;Boolean;
                                                   CaptionML=[ENU=Allow Changes in Depr. Fields;
                                                              ENG=Allow Changes in Depr. Fields] }
    { 28  ;   ;Default Final Rounding Amount;Decimal;
                                                   CaptionML=[ENU=Default Final Rounding Amount;
                                                              ENG=Default Final Rounding Amount];
                                                   MinValue=0;
                                                   AutoFormatType=1 }
    { 29  ;   ;Default Ending Book Value;Decimal  ;CaptionML=[ENU=Default Ending Book Value;
                                                              ENG=Default Ending Book Value];
                                                   MinValue=0;
                                                   AutoFormatType=1 }
    { 32  ;   ;Periodic Depr. Date Calc.;Option   ;OnValidate=BEGIN
                                                                IF "Periodic Depr. Date Calc." <> "Periodic Depr. Date Calc."::"Last Entry" THEN
                                                                  TESTFIELD("Fiscal Year 365 Days",FALSE);
                                                              END;

                                                   CaptionML=[ENU=Periodic Depr. Date Calc.;
                                                              ENG=Periodic Depr. Date Calc.];
                                                   OptionCaptionML=[ENU=Last Entry,Last Depr. Entry;
                                                                    ENG=Last Entry,Last Depr. Entry];
                                                   OptionString=Last Entry,Last Depr. Entry }
    { 33  ;   ;Mark Errors as Corrections;Boolean ;CaptionML=[ENU=Mark Errors as Corrections;
                                                              ENG=Mark Errors as Corrections] }
    { 34  ;   ;Add-Curr Exch Rate - Acq. Cost;Boolean;
                                                   AccessByPermission=TableData 4=R;
                                                   CaptionML=[ENU=Add-Curr Exch Rate - Acq. Cost;
                                                              ENG=Add-Curr Exch Rate - Acq. Cost] }
    { 35  ;   ;Add.-Curr. Exch. Rate - Depr.;Boolean;
                                                   AccessByPermission=TableData 4=R;
                                                   CaptionML=[ENU=Add.-Curr. Exch. Rate - Depr.;
                                                              ENG=Add.-Curr. Exch. Rate - Depr.] }
    { 36  ;   ;Add-Curr Exch Rate -Write-Down;Boolean;
                                                   AccessByPermission=TableData 4=R;
                                                   CaptionML=[ENU=Add-Curr Exch Rate -Write-Down;
                                                              ENG=Add-Curr Exch Rate -Write-Down] }
    { 37  ;   ;Add-Curr. Exch. Rate - Apprec.;Boolean;
                                                   AccessByPermission=TableData 4=R;
                                                   CaptionML=[ENU=Add-Curr. Exch. Rate - Apprec.;
                                                              ENG=Add-Curr. Exch. Rate - Apprec.] }
    { 38  ;   ;Add-Curr. Exch Rate - Custom 1;Boolean;
                                                   AccessByPermission=TableData 4=R;
                                                   CaptionML=[ENU=Add-Curr. Exch Rate - Custom 1;
                                                              ENG=Add-Curr. Exch Rate - Custom 1] }
    { 39  ;   ;Add-Curr. Exch Rate - Custom 2;Boolean;
                                                   AccessByPermission=TableData 4=R;
                                                   CaptionML=[ENU=Add-Curr. Exch Rate - Custom 2;
                                                              ENG=Add-Curr. Exch Rate - Custom 2] }
    { 40  ;   ;Add.-Curr. Exch. Rate - Disp.;Boolean;
                                                   AccessByPermission=TableData 4=R;
                                                   CaptionML=[ENU=Add.-Curr. Exch. Rate - Disp.;
                                                              ENG=Add.-Curr. Exch. Rate - Disp.] }
    { 41  ;   ;Add.-Curr. Exch. Rate - Maint.;Boolean;
                                                   AccessByPermission=TableData 4=R;
                                                   CaptionML=[ENU=Add.-Curr. Exch. Rate - Maint.;
                                                              ENG=Add.-Curr. Exch. Rate - Maint.] }
    { 42  ;   ;Use Default Dimension;Boolean      ;CaptionML=[ENU=Use Default Dimension;
                                                              ENG=Use Default Dimension] }
    { 43  ;   ;Subtract Disc. in Purch. Inv.;Boolean;
                                                   CaptionML=[ENU=Subtract Disc. in Purch. Inv.;
                                                              ENG=Subtract Disc. in Purch. Inv.] }
    { 44  ;   ;Allow Correction of Disposal;Boolean;
                                                   CaptionML=[ENU=Allow Correction of Disposal;
                                                              ENG=Allow Correction of Disposal] }
    { 45  ;   ;Allow more than 360/365 Days;Boolean;
                                                   CaptionML=[ENU=Allow more than 360/365 Days;
                                                              ENG=Allow more than 360/365 Days] }
    { 46  ;   ;VAT on Net Disposal Entries;Boolean;CaptionML=[ENU=VAT on Net Disposal Entries;
                                                              ENG=VAT on Net Disposal Entries] }
    { 47  ;   ;Allow Acq. Cost below Zero;Boolean ;CaptionML=[ENU=Allow Acq. Cost below Zero;
                                                              ENG=Allow Acq. Cost below Zero] }
    { 48  ;   ;Allow Identical Document No.;Boolean;
                                                   CaptionML=[ENU=Allow Identical Document No.;
                                                              ENG=Allow Identical Document No.] }
    { 49  ;   ;Fiscal Year 365 Days;Boolean       ;OnValidate=VAR
                                                                FADeprBook@1000 : Record 5612;
                                                              BEGIN
                                                                IF "Fiscal Year 365 Days" THEN BEGIN
                                                                  TESTFIELD("Use Custom 1 Depreciation",FALSE);
                                                                  TESTFIELD("Periodic Depr. Date Calc.","Periodic Depr. Date Calc."::"Last Entry");
                                                                END;
                                                                FADeprBook.LOCKTABLE;
                                                                MODIFY;
                                                                FADeprBook.SETCURRENTKEY("Depreciation Book Code","FA No.");
                                                                FADeprBook.SETRANGE("Depreciation Book Code",Code);
                                                                IF FADeprBook.FINDSET(TRUE) THEN
                                                                  REPEAT
                                                                    FADeprBook.CalcDeprPeriod;
                                                                    FADeprBook.MODIFY;
                                                                  UNTIL FADeprBook.NEXT = 0;
                                                              END;

                                                   CaptionML=[ENU=Fiscal Year 365 Days;
                                                              ENG=Fiscal Year 365 Days] }
    { 10500;  ;Use Accounting Period;Boolean      ;OnValidate=VAR
                                                                FADeprBook@1040000 : Record 5612;
                                                              BEGIN
                                                                IF "Use Accounting Period" THEN BEGIN
                                                                  FADeprBook.SETRANGE("Depreciation Book Code",Code);
                                                                  FADeprBook.SETFILTER("Depreciation Method",'<> %1',FADeprBook."Depreciation Method"::"Straight-Line");
                                                                  IF NOT FADeprBook.ISEMPTY THEN
                                                                    ERROR(Text10500,FIELDCAPTION("Use Accounting Period"),TRUE);
                                                                END;
                                                              END;

                                                   CaptionML=[ENU=Use Accounting Period;
                                                              ENG=Use Accounting Period] }
  }
  KEYS
  {
    {    ;Code                                    ;Clustered=Yes }
  }
  FIELDGROUPS
  {
  }
  CODE
  {
    VAR
      Text000@1000 : TextConst 'ENU=The book cannot be deleted because it is in use.;ENG=The book cannot be deleted because it is in use.';
      Text001@1001 : TextConst 'ENU="The book cannot be deleted because %1 %2 = %3.";ENG="The book cannot be deleted because %1 %2 = %3."';
      FASetup@1002 : Record 5603;
      FAPostingTypeSetup@1004 : Record 5604;
      FAJnlSetup@1005 : Record 5605;
      Text10500@1040000 : TextConst 'ENU=You cannot set %1 to %2 because some Fixed Assets associated with this book\exists where Depreciation Method is other than Straight-Line.;ENG=You cannot set %1 to %2 because some Fixed Assets associated with this book\exists where Depreciation Method is other than Straight-Line.';

    [External]
    PROCEDURE IndexGLIntegration@1(VAR GLIntegration@1000 : ARRAY [9] OF Boolean);
    BEGIN
      GLIntegration[1] := "G/L Integration - Acq. Cost";
      GLIntegration[2] := "G/L Integration - Depreciation";
      GLIntegration[3] := "G/L Integration - Write-Down";
      GLIntegration[4] := "G/L Integration - Appreciation";
      GLIntegration[5] := "G/L Integration - Custom 1";
      GLIntegration[6] := "G/L Integration - Custom 2";
      GLIntegration[7] := "G/L Integration - Disposal";
      GLIntegration[8] := "G/L Integration - Maintenance";
      GLIntegration[9] := FALSE; // Salvage Value
    END;

    BEGIN
    END.
  }
}

