OBJECT Table 5623 FA Reclass. Journal Batch
{
  OBJECT-PROPERTIES
  {
    Date=07/09/12;
    Time=12:00:00;
    Version List=NAVW17.00;
  }
  PROPERTIES
  {
    DataCaptionFields=Name,Description;
    OnDelete=BEGIN
               FAReclassJnlLine.SETRANGE("Journal Template Name","Journal Template Name");
               FAReclassJnlLine.SETRANGE("Journal Batch Name",Name);
               FAReclassJnlLine.DELETEALL(TRUE);
             END;

    OnRename=BEGIN
               FAReclassJnlLine.SETRANGE("Journal Template Name",xRec."Journal Template Name");
               FAReclassJnlLine.SETRANGE("Journal Batch Name",xRec.Name);
               WHILE FAReclassJnlLine.FINDFIRST DO
                 FAReclassJnlLine.RENAME("Journal Template Name",Name,FAReclassJnlLine."Line No.");
             END;

    CaptionML=[ENU=FA Reclass. Journal Batch;
               ENG=FA Reclass. Journal Batch];
    LookupPageID=Page5640;
  }
  FIELDS
  {
    { 1   ;   ;Journal Template Name;Code10       ;TableRelation="FA Reclass. Journal Template";
                                                   CaptionML=[ENU=Journal Template Name;
                                                              ENG=Journal Template Name];
                                                   NotBlank=Yes }
    { 2   ;   ;Name                ;Code10        ;CaptionML=[ENU=Name;
                                                              ENG=Name];
                                                   NotBlank=Yes }
    { 3   ;   ;Description         ;Text50        ;CaptionML=[ENU=Description;
                                                              ENG=Description] }
  }
  KEYS
  {
    {    ;Journal Template Name,Name              ;Clustered=Yes }
  }
  FIELDGROUPS
  {
  }
  CODE
  {
    VAR
      FAReclassJnlLine@1000 : Record 5624;

    BEGIN
    END.
  }
}

