OBJECT Table 5219 HR Confidential Comment Line
{
  OBJECT-PROPERTIES
  {
    Date=22/11/17;
    Time=12:00:00;
    Version List=NAVW111.00;
  }
  PROPERTIES
  {
    DataCaptionFields=No.;
    CaptionML=[ENU=HR Confidential Comment Line;
               ENG=HR Confidential Comment Line];
    LookupPageID=Page5235;
    DrillDownPageID=Page5235;
  }
  FIELDS
  {
    { 1   ;   ;Table Name          ;Option        ;CaptionML=[ENU=Table Name;
                                                              ENG=Table Name];
                                                   OptionCaptionML=[ENU=Confidential Information;
                                                                    ENG=Confidential Information];
                                                   OptionString=Confidential Information }
    { 2   ;   ;No.                 ;Code20        ;TableRelation=Employee;
                                                   CaptionML=[ENU=No.;
                                                              ENG=No.] }
    { 3   ;   ;Code                ;Code10        ;TableRelation=Confidential.Code;
                                                   CaptionML=[ENU=Code;
                                                              ENG=Code] }
    { 4   ;   ;Table Line No.      ;Integer       ;CaptionML=[ENU=Table Line No.;
                                                              ENG=Table Line No.] }
    { 6   ;   ;Line No.            ;Integer       ;CaptionML=[ENU=Line No.;
                                                              ENG=Line No.] }
    { 7   ;   ;Date                ;Date          ;CaptionML=[ENU=Date;
                                                              ENG=Date] }
    { 9   ;   ;Comment             ;Text80        ;CaptionML=[ENU=Comment;
                                                              ENG=Comment] }
  }
  KEYS
  {
    {    ;Table Name,No.,Code,Table Line No.,Line No.;
                                                   Clustered=Yes }
  }
  FIELDGROUPS
  {
  }
  CODE
  {

    [External]
    PROCEDURE SetUpNewLine@1();
    VAR
      HRConfCommentLine@1000 : Record 5219;
    BEGIN
      HRConfCommentLine := Rec;
      HRConfCommentLine.SETRECFILTER;
      HRConfCommentLine.SETRANGE("Line No.");
      HRConfCommentLine.SETRANGE(Date,WORKDATE);
      IF NOT HRConfCommentLine.FINDFIRST THEN
        Date := WORKDATE;
    END;

    BEGIN
    END.
  }
}

