OBJECT Table 5809 Item Charge Assignment (Sales)
{
  OBJECT-PROPERTIES
  {
    Date=22/11/17;
    Time=12:00:00;
    Version List=NAVW111.00;
  }
  PROPERTIES
  {
    OnDelete=BEGIN
               TESTFIELD("Qty. Assigned",0);
             END;

    CaptionML=[ENU=Item Charge Assignment (Sales);
               ENG=Item Charge Assignment (Sales)];
  }
  FIELDS
  {
    { 1   ;   ;Document Type       ;Option        ;CaptionML=[ENU=Document Type;
                                                              ENG=Document Type];
                                                   OptionCaptionML=[ENU=Quote,Order,Invoice,Credit Memo,Blanket Order,Return Order;
                                                                    ENG=Quote,Order,Invoice,Credit Memo,Blanket Order,Return Order];
                                                   OptionString=Quote,Order,Invoice,Credit Memo,Blanket Order,Return Order }
    { 2   ;   ;Document No.        ;Code20        ;TableRelation="Sales Header".No. WHERE (Document Type=FIELD(Document Type));
                                                   CaptionML=[ENU=Document No.;
                                                              ENG=Document No.] }
    { 3   ;   ;Document Line No.   ;Integer       ;TableRelation="Sales Line"."Line No." WHERE (Document Type=FIELD(Document Type),
                                                                                                Document No.=FIELD(Document No.));
                                                   CaptionML=[ENU=Document Line No.;
                                                              ENG=Document Line No.] }
    { 4   ;   ;Line No.            ;Integer       ;CaptionML=[ENU=Line No.;
                                                              ENG=Line No.] }
    { 5   ;   ;Item Charge No.     ;Code20        ;TableRelation="Item Charge";
                                                   CaptionML=[ENU=Item Charge No.;
                                                              ENG=Item Charge No.];
                                                   NotBlank=Yes }
    { 6   ;   ;Item No.            ;Code20        ;TableRelation=Item;
                                                   CaptionML=[ENU=Item No.;
                                                              ENG=Item No.] }
    { 7   ;   ;Description         ;Text50        ;CaptionML=[ENU=Description;
                                                              ENG=Description] }
    { 8   ;   ;Qty. to Assign      ;Decimal       ;OnValidate=BEGIN
                                                                SalesLine.GET("Document Type","Document No.","Document Line No.");
                                                                SalesLine.TESTFIELD("Qty. to Invoice");
                                                                TESTFIELD("Applies-to Doc. Line No.");
                                                                IF ("Qty. to Assign" <> 0) AND ("Applies-to Doc. Type" = "Document Type") THEN
                                                                  IF SalesLineInvoiced THEN
                                                                    ERROR(Text000,SalesLine.TABLECAPTION);
                                                                VALIDATE("Amount to Assign");
                                                              END;

                                                   CaptionML=[ENU=Qty. to Assign;
                                                              ENG=Qty. to Assign];
                                                   DecimalPlaces=0:5;
                                                   BlankZero=Yes }
    { 9   ;   ;Qty. Assigned       ;Decimal       ;CaptionML=[ENU=Qty. Assigned;
                                                              ENG=Qty. Assigned];
                                                   DecimalPlaces=0:5;
                                                   BlankZero=Yes;
                                                   Editable=No }
    { 10  ;   ;Unit Cost           ;Decimal       ;OnValidate=BEGIN
                                                                VALIDATE("Amount to Assign");
                                                              END;

                                                   CaptionML=[ENU=Unit Cost;
                                                              ENG=Unit Cost];
                                                   AutoFormatType=2 }
    { 11  ;   ;Amount to Assign    ;Decimal       ;OnValidate=VAR
                                                                ItemChargeAssgntSales@1000 : Codeunit 5807;
                                                              BEGIN
                                                                SalesLine.GET("Document Type","Document No.","Document Line No.");
                                                                IF NOT Currency.GET(SalesLine."Currency Code") THEN
                                                                  Currency.InitRoundingPrecision;
                                                                "Amount to Assign" := ROUND("Qty. to Assign" * "Unit Cost",Currency."Amount Rounding Precision");
                                                                ItemChargeAssgntSales.SuggestAssignmentFromLine(Rec);
                                                              END;

                                                   CaptionML=[ENU=Amount to Assign;
                                                              ENG=Amount to Assign];
                                                   AutoFormatType=1 }
    { 12  ;   ;Applies-to Doc. Type;Option        ;CaptionML=[ENU=Applies-to Doc. Type;
                                                              ENG=Applies-to Doc. Type];
                                                   OptionCaptionML=[ENU=Quote,Order,Invoice,Credit Memo,Blanket Order,Return Order,Shipment,Return Receipt;
                                                                    ENG=Quote,Order,Invoice,Credit Memo,Blanket Order,Return Order,Shipment,Return Receipt];
                                                   OptionString=Quote,Order,Invoice,Credit Memo,Blanket Order,Return Order,Shipment,Return Receipt }
    { 13  ;   ;Applies-to Doc. No. ;Code20        ;TableRelation=IF (Applies-to Doc. Type=CONST(Order)) "Sales Header".No. WHERE (Document Type=CONST(Order))
                                                                 ELSE IF (Applies-to Doc. Type=CONST(Invoice)) "Sales Header".No. WHERE (Document Type=CONST(Invoice))
                                                                 ELSE IF (Applies-to Doc. Type=CONST(Return Order)) "Sales Header".No. WHERE (Document Type=CONST(Return Order))
                                                                 ELSE IF (Applies-to Doc. Type=CONST(Credit Memo)) "Sales Header".No. WHERE (Document Type=CONST(Credit Memo))
                                                                 ELSE IF (Applies-to Doc. Type=CONST(Shipment)) "Sales Shipment Header".No.
                                                                 ELSE IF (Applies-to Doc. Type=CONST(Return Receipt)) "Return Receipt Header".No.;
                                                   CaptionML=[ENU=Applies-to Doc. No.;
                                                              ENG=Applies-to Doc. No.] }
    { 14  ;   ;Applies-to Doc. Line No.;Integer   ;TableRelation=IF (Applies-to Doc. Type=CONST(Order)) "Sales Line"."Line No." WHERE (Document Type=CONST(Order),
                                                                                                                                       Document No.=FIELD(Applies-to Doc. No.))
                                                                                                                                       ELSE IF (Applies-to Doc. Type=CONST(Invoice)) "Sales Line"."Line No." WHERE (Document Type=CONST(Invoice),
                                                                                                                                                                                                                    Document No.=FIELD(Applies-to Doc. No.))
                                                                                                                                                                                                                    ELSE IF (Applies-to Doc. Type=CONST(Return Order)) "Sales Line"."Line No." WHERE (Document Type=CONST(Return Order),
                                                                                                                                                                                                                                                                                                      Document No.=FIELD(Applies-to Doc. No.))
                                                                                                                                                                                                                                                                                                      ELSE IF (Applies-to Doc. Type=CONST(Credit Memo)) "Sales Line"."Line No." WHERE (Document Type=CONST(Credit Memo),
                                                                                                                                                                                                                                                                                                                                                                                       Document No.=FIELD(Applies-to Doc. No.))
                                                                                                                                                                                                                                                                                                                                                                                       ELSE IF (Applies-to Doc. Type=CONST(Shipment)) "Sales Shipment Line"."Line No." WHERE (Document No.=FIELD(Applies-to Doc. No.))
                                                                                                                                                                                                                                                                                                                                                                                       ELSE IF (Applies-to Doc. Type=CONST(Return Receipt)) "Return Receipt Line"."Line No." WHERE (Document No.=FIELD(Applies-to Doc. No.));
                                                   CaptionML=[ENU=Applies-to Doc. Line No.;
                                                              ENG=Applies-to Doc. Line No.] }
    { 15  ;   ;Applies-to Doc. Line Amount;Decimal;CaptionML=[ENU=Applies-to Doc. Line Amount;
                                                              ENG=Applies-to Doc. Line Amount];
                                                   AutoFormatType=1 }
  }
  KEYS
  {
    {    ;Document Type,Document No.,Document Line No.,Line No.;
                                                   SumIndexFields=Qty. to Assign,Qty. Assigned,Amount to Assign;
                                                   MaintainSIFTIndex=No;
                                                   Clustered=Yes }
    {    ;Applies-to Doc. Type,Applies-to Doc. No.,Applies-to Doc. Line No. }
    {    ;Applies-to Doc. Type                     }
  }
  FIELDGROUPS
  {
  }
  CODE
  {
    VAR
      Text000@1000 : TextConst 'ENU=You cannot assign item charges to the %1 because it has been invoiced. Instead you can get the posted document line and then assign the item charge to that line.;ENG=You cannot assign item charges to the %1 because it has been invoiced. Instead you can get the posted document line and then assign the item charge to that line.';
      SalesLine@1001 : Record 37;
      Currency@1002 : Record 4;

    [External]
    PROCEDURE SalesLineInvoiced@1() : Boolean;
    BEGIN
      IF "Applies-to Doc. Type" <> "Document Type" THEN
        EXIT(FALSE);
      SalesLine.GET("Applies-to Doc. Type","Applies-to Doc. No.","Applies-to Doc. Line No.");
      EXIT(SalesLine.Quantity = SalesLine."Quantity Invoiced");
    END;

    BEGIN
    END.
  }
}

