OBJECT Table 5078 Segment History
{
  OBJECT-PROPERTIES
  {
    Date=05/11/08;
    Time=12:00:00;
    Version List=NAVW16.00;
  }
  PROPERTIES
  {
    CaptionML=[ENU=Segment History;
               ENG=Segment History];
  }
  FIELDS
  {
    { 1   ;   ;Segment No.         ;Code20        ;TableRelation="Segment Header";
                                                   CaptionML=[ENU=Segment No.;
                                                              ENG=Segment No.] }
    { 2   ;   ;Segment Action No.  ;Integer       ;CaptionML=[ENU=Segment Action No.;
                                                              ENG=Segment Action No.] }
    { 3   ;   ;Segment Line No.    ;Integer       ;CaptionML=[ENU=Segment Line No.;
                                                              ENG=Segment Line No.] }
    { 4   ;   ;Contact No.         ;Code20        ;TableRelation=Contact;
                                                   CaptionML=[ENU=Contact No.;
                                                              ENG=Contact No.] }
    { 5   ;   ;Action Taken        ;Option        ;CaptionML=[ENU=Action Taken;
                                                              ENG=Action Taken];
                                                   OptionCaptionML=[ENU=Insertion,Deletion;
                                                                    ENG=Insertion,Deletion];
                                                   OptionString=Insertion,Deletion }
  }
  KEYS
  {
    {    ;Segment No.,Segment Action No.,Segment Line No.;
                                                   Clustered=Yes }
  }
  FIELDGROUPS
  {
  }
  CODE
  {

    BEGIN
    END.
  }
}

