OBJECT Table 5368 CRM NAV Connection
{
  OBJECT-PROPERTIES
  {
    Date=22/11/17;
    Time=12:00:00;
    Version List=NAVW111.00;
  }
  PROPERTIES
  {
    TableType=CRM;
    ExternalName=nav_connection;
    CaptionML=[ENU=CRM NAV Connection;
               ENG=CRM NAV Connection];
    Description=An entity for storing the link to connect to Microsoft Dynamics NAV.;
  }
  FIELDS
  {
    { 1   ;   ;NAVConnectionId     ;GUID          ;ExternalName=nav_connectionid;
                                                   ExternalType=Uniqueidentifier;
                                                   ExternalAccess=Insert;
                                                   CaptionML=[ENU=Dynamics NAV Connection;
                                                              ENG=Dynamics NAV Connection];
                                                   Description=Unique identifier for entity instances }
    { 2   ;   ;CreatedOn           ;DateTime      ;ExternalName=createdon;
                                                   ExternalType=DateTime;
                                                   ExternalAccess=Read;
                                                   CaptionML=[ENU=Created On;
                                                              ENG=Created On];
                                                   Description=Date and time when the record was created. }
    { 3   ;   ;CreatedBy           ;GUID          ;TableRelation="CRM Systemuser".SystemUserId;
                                                   ExternalName=createdby;
                                                   ExternalType=Lookup;
                                                   ExternalAccess=Read;
                                                   CaptionML=[ENU=Created By;
                                                              ENG=Created By];
                                                   Description=Unique identifier of the user who created the record. }
    { 4   ;   ;ModifiedOn          ;DateTime      ;ExternalName=modifiedon;
                                                   ExternalType=DateTime;
                                                   ExternalAccess=Read;
                                                   CaptionML=[ENU=Modified On;
                                                              ENG=Modified On];
                                                   Description=Date and time when the record was modified. }
    { 5   ;   ;ModifiedBy          ;GUID          ;TableRelation="CRM Systemuser".SystemUserId;
                                                   ExternalName=modifiedby;
                                                   ExternalType=Lookup;
                                                   ExternalAccess=Read;
                                                   CaptionML=[ENU=Modified By;
                                                              ENG=Modified By];
                                                   Description=Unique identifier of the user who modified the record. }
    { 6   ;   ;CreatedOnBehalfBy   ;GUID          ;TableRelation="CRM Systemuser".SystemUserId;
                                                   ExternalName=createdonbehalfby;
                                                   ExternalType=Lookup;
                                                   ExternalAccess=Read;
                                                   CaptionML=[ENU=Created By (Delegate);
                                                              ENG=Created By (Delegate)];
                                                   Description=Unique identifier of the delegate user who created the record. }
    { 7   ;   ;ModifiedOnBehalfBy  ;GUID          ;TableRelation="CRM Systemuser".SystemUserId;
                                                   ExternalName=modifiedonbehalfby;
                                                   ExternalType=Lookup;
                                                   ExternalAccess=Read;
                                                   CaptionML=[ENU=Modified By (Delegate);
                                                              ENG=Modified By (Delegate)];
                                                   Description=Unique identifier of the delegate user who modified the record. }
    { 8   ;   ;CreatedByName       ;Text200       ;FieldClass=FlowField;
                                                   CalcFormula=Lookup("CRM Systemuser".FullName WHERE (SystemUserId=FIELD(CreatedBy)));
                                                   ExternalName=createdbyname;
                                                   ExternalType=String;
                                                   ExternalAccess=Read;
                                                   CaptionML=[ENU=CreatedByName;
                                                              ENG=CreatedByName] }
    { 9   ;   ;CreatedOnBehalfByName;Text200      ;FieldClass=FlowField;
                                                   CalcFormula=Lookup("CRM Systemuser".FullName WHERE (SystemUserId=FIELD(CreatedOnBehalfBy)));
                                                   ExternalName=createdonbehalfbyname;
                                                   ExternalType=String;
                                                   ExternalAccess=Read;
                                                   CaptionML=[ENU=CreatedOnBehalfByName;
                                                              ENG=CreatedOnBehalfByName] }
    { 10  ;   ;ModifiedByName      ;Text200       ;FieldClass=FlowField;
                                                   CalcFormula=Lookup("CRM Systemuser".FullName WHERE (SystemUserId=FIELD(ModifiedBy)));
                                                   ExternalName=modifiedbyname;
                                                   ExternalType=String;
                                                   ExternalAccess=Read;
                                                   CaptionML=[ENU=ModifiedByName;
                                                              ENG=ModifiedByName] }
    { 11  ;   ;ModifiedOnBehalfByName;Text200     ;FieldClass=FlowField;
                                                   CalcFormula=Lookup("CRM Systemuser".FullName WHERE (SystemUserId=FIELD(ModifiedOnBehalfBy)));
                                                   ExternalName=modifiedonbehalfbyname;
                                                   ExternalType=String;
                                                   ExternalAccess=Read;
                                                   CaptionML=[ENU=ModifiedOnBehalfByName;
                                                              ENG=ModifiedOnBehalfByName] }
    { 12  ;   ;OrganizationId      ;GUID          ;TableRelation="CRM Organization".OrganizationId;
                                                   ExternalName=organizationid;
                                                   ExternalType=Lookup;
                                                   ExternalAccess=Read;
                                                   CaptionML=[ENU=Organization Id;
                                                              ENG=Organization Id];
                                                   Description=Unique identifier for the organization }
    { 13  ;   ;OrganizationIdName  ;Text160       ;FieldClass=FlowField;
                                                   CalcFormula=Lookup("CRM Organization".Name WHERE (OrganizationId=FIELD(OrganizationId)));
                                                   ExternalName=organizationidname;
                                                   ExternalType=String;
                                                   ExternalAccess=Read;
                                                   CaptionML=[ENU=OrganizationIdName;
                                                              ENG=OrganizationIdName] }
    { 14  ;   ;statecode           ;Option        ;InitValue=[ ];
                                                   ExternalName=statecode;
                                                   ExternalType=State;
                                                   ExternalAccess=Modify;
                                                   OptionOrdinalValues=[-1;0;1];
                                                   CaptionML=[ENU=Status;
                                                              ENG=Status];
                                                   OptionCaptionML=[ENU=" ,Active,Inactive";
                                                                    ENG=" ,Active,Inactive"];
                                                   OptionString=[ ,Active,Inactive];
                                                   Description=Status of the Dynamics NAV Connection }
    { 15  ;   ;statuscode          ;Option        ;InitValue=[ ];
                                                   ExternalName=statuscode;
                                                   ExternalType=Status;
                                                   OptionOrdinalValues=[-1;1;2];
                                                   CaptionML=[ENU=Status Reason;
                                                              ENG=Status Reason];
                                                   OptionCaptionML=[ENU=" ,Active,Inactive";
                                                                    ENG=" ,Active,Inactive"];
                                                   OptionString=[ ,Active,Inactive];
                                                   Description=Reason for the status of the Dynamics NAV Connection }
    { 16  ;   ;VersionNumber       ;BigInteger    ;ExternalName=versionnumber;
                                                   ExternalType=BigInt;
                                                   ExternalAccess=Read;
                                                   CaptionML=[ENU=VersionNumber;
                                                              ENG=VersionNumber] }
    { 17  ;   ;ImportSequenceNumber;Integer       ;ExternalName=importsequencenumber;
                                                   ExternalType=Integer;
                                                   ExternalAccess=Insert;
                                                   CaptionML=[ENU=Import Sequence Number;
                                                              ENG=Import Sequence Number];
                                                   Description=Sequence number of the import that created this record. }
    { 18  ;   ;OverriddenCreatedOn ;Date          ;ExternalName=overriddencreatedon;
                                                   ExternalType=DateTime;
                                                   ExternalAccess=Insert;
                                                   CaptionML=[ENU=Record Created On;
                                                              ENG=Record Created On];
                                                   Description=Date and time that the record was migrated. }
    { 19  ;   ;TimeZoneRuleVersionNumber;Integer  ;ExternalName=timezoneruleversionnumber;
                                                   ExternalType=Integer;
                                                   CaptionML=[ENU=Time Zone Rule Version Number;
                                                              ENG=Time Zone Rule Version Number];
                                                   MinValue=-1;
                                                   Description=For internal use only. }
    { 20  ;   ;UTCConversionTimeZoneCode;Integer  ;ExternalName=utcconversiontimezonecode;
                                                   ExternalType=Integer;
                                                   CaptionML=[ENU=UTC Conversion Time Zone Code;
                                                              ENG=UTC Conversion Time Zone Code];
                                                   MinValue=-1;
                                                   Description=Time zone code that was in use when the record was created. }
    { 21  ;   ;Name                ;Text100       ;ExternalName=nav_name;
                                                   ExternalType=String;
                                                   CaptionML=[ENU=Name;
                                                              ENG=Name] }
    { 22  ;   ;Dynamics NAV URL    ;Text250       ;ExternalName=nav_dynamicsnavurl;
                                                   ExternalType=String;
                                                   CaptionML=[ENU=Dynamics NAV URL;
                                                              ENG=Dynamics NAV URL];
                                                   Description=The CRM API URL to a Dynamics NAV instance. }
    { 23  ;   ;Dynamics NAV OData URL;Text250     ;ExternalName=nav_dynamicsnavodataurl;
                                                   ExternalType=String;
                                                   CaptionML=[ENU=Dynamics NAV OData URL;
                                                              ENG=Dynamics NAV OData URL];
                                                   Description=The CRM API URL to a Dynamics NAV instance OData web services. }
    { 24  ;   ;Dynamics NAV OData Username;Text250;ExternalName=nav_dynamicsnavodatausername;
                                                   ExternalType=String;
                                                   CaptionML=[ENU=Dynamics NAV OData Username;
                                                              ENG=Dynamics NAV OData Username];
                                                   Description=The username to access Dynamics NAV instance OData web services. }
    { 25  ;   ;Dynamics NAV OData Accesskey;Text250;
                                                   ExternalName=nav_dynamicsnavodataaccesskey;
                                                   ExternalType=String;
                                                   CaptionML=[ENU=Dynamics NAV OData Accesskey;
                                                              ENG=Dynamics NAV OData Accesskey];
                                                   Description=The accesskey for Dynamics NAV instance OData web services. }
  }
  KEYS
  {
    {    ;NAVConnectionId                         ;Clustered=Yes }
    {    ;Name                                     }
  }
  FIELDGROUPS
  {
    { 1   ;DropDown            ;Name                                     }
  }
  CODE
  {

    BEGIN
    END.
  }
}

