OBJECT Table 5643 Depreciation Table Line
{
  OBJECT-PROPERTIES
  {
    Date=22/11/17;
    Time=12:00:00;
    Version List=NAVW111.00;
  }
  PROPERTIES
  {
    OnInsert=VAR
               DeprTableHeader@1000 : Record 5642;
             BEGIN
               LOCKTABLE;
               DeprTableHeader.GET("Depreciation Table Code");
             END;

    OnRename=BEGIN
               ERROR(Text000,TABLECAPTION);
             END;

    CaptionML=[ENU=Depreciation Table Line;
               ENG=Depreciation Table Line];
  }
  FIELDS
  {
    { 1   ;   ;Depreciation Table Code;Code10     ;TableRelation="Depreciation Table Header";
                                                   CaptionML=[ENU=Depreciation Table Code;
                                                              ENG=Depreciation Table Code];
                                                   NotBlank=Yes }
    { 2   ;   ;Period No.          ;Integer       ;CaptionML=[ENU=Period No.;
                                                              ENG=Period No.];
                                                   MinValue=1;
                                                   NotBlank=Yes }
    { 3   ;   ;Period Depreciation %;Decimal      ;OnValidate=BEGIN
                                                                DeprTableHeader.GET("Depreciation Table Code");
                                                                IF DeprTableHeader."Total No. of Units" <> 0 THEN
                                                                  "No. of Units in Period" :=
                                                                    ROUND(DeprTableHeader."Total No. of Units" * "Period Depreciation %" / 100,0.00001);
                                                              END;

                                                   CaptionML=[ENU=Period Depreciation %;
                                                              ENG=Period Depreciation %];
                                                   DecimalPlaces=2:8;
                                                   MinValue=0 }
    { 4   ;   ;No. of Units in Period;Decimal     ;OnValidate=BEGIN
                                                                DeprTableHeader.GET("Depreciation Table Code");
                                                                IF DeprTableHeader."Total No. of Units" <> 0 THEN
                                                                  "Period Depreciation %" :=
                                                                    ROUND("No. of Units in Period" / DeprTableHeader."Total No. of Units" * 100,0.00000001);
                                                              END;

                                                   CaptionML=[ENU=No. of Units in Period;
                                                              ENG=No. of Units in Period];
                                                   DecimalPlaces=0:5;
                                                   MinValue=0 }
  }
  KEYS
  {
    {    ;Depreciation Table Code,Period No.      ;Clustered=Yes }
  }
  FIELDGROUPS
  {
  }
  CODE
  {
    VAR
      Text000@1000 : TextConst 'ENU=You cannot rename a %1.;ENG=You cannot rename a %1.';
      DeprTableHeader@1001 : Record 5642;

    [External]
    PROCEDURE NewRecord@1();
    VAR
      DeprTableLine@1000 : Record 5643;
    BEGIN
      DeprTableLine.SETRANGE("Depreciation Table Code","Depreciation Table Code");
      IF DeprTableLine.FINDLAST THEN;
      "Period No." := DeprTableLine."Period No." + 1;
    END;

    BEGIN
    END.
  }
}

