OBJECT Table 5466 API Entities Setup
{
  OBJECT-PROPERTIES
  {
    Date=22/11/17;
    Time=12:00:00;
    Version List=NAVW111.00;
  }
  PROPERTIES
  {
    OnInsert=BEGIN
               "Customer Payments Batch Name" := DefaultCustomerPaymentsBatchNameTxt;
             END;

    CaptionML=[ENU=API Entities Setup;
               ENG=API Entities Setup];
  }
  FIELDS
  {
    { 1   ;   ;PrimaryKey          ;Code20        ;CaptionML=[@@@={Locked};
                                                              ENU=PrimaryKey;
                                                              ENG=PrimaryKey] }
    { 3   ;   ;Customer Payments Batch Name;Code10;TableRelation="Gen. Journal Batch".Name WHERE (Journal Template Name=CONST(CASHRCPT));
                                                   CaptionML=[ENU=Customer Payments Batch Name;
                                                              ENG=Customer Payments Batch Name] }
    { 4   ;   ;Demo Company API Initialized;Boolean;
                                                   CaptionML=[ENU=Demo Company API Initialized;
                                                              ENG=Demo Company API Initialised] }
  }
  KEYS
  {
    {    ;PrimaryKey                              ;Clustered=Yes }
  }
  FIELDGROUPS
  {
  }
  CODE
  {
    VAR
      DefaultCustomerPaymentsBatchNameTxt@1001 : TextConst '@@@=It should be translated the same way as Default Journal Batch Name;ENU=GENERAL;ENG=GENERAL';

    PROCEDURE SafeGet@2();
    BEGIN
      IF NOT GET THEN
        INSERT(TRUE);
    END;

    BEGIN
    END.
  }
}

