OBJECT Table 5540 Timeline Event
{
  OBJECT-PROPERTIES
  {
    Date=22/02/18;
    Time=12:00:00;
    Version List=NAVW111.00.00.20783;
  }
  PROPERTIES
  {
    CaptionML=[ENU=Timeline Event;
               ENG=Timeline Event];
  }
  FIELDS
  {
    { 1   ;   ;Transaction Type    ;Option        ;CaptionML=[ENU=Transaction Type;
                                                              ENG=Transaction Nature Code];
                                                   OptionCaptionML=[ENU=None,Initial,Fixed Supply,Adjustable Supply,New Supply,Fixed Demand,Expected Demand;
                                                                    ENG=None,Initial,Fixed Supply,Adjustable Supply,New Supply,Fixed Demand,Expected Demand];
                                                   OptionString=None,Initial,Fixed Supply,Adjustable Supply,New Supply,Fixed Demand,Expected Demand }
    { 3   ;   ;Description         ;Text250       ;CaptionML=[ENU=Description;
                                                              ENG=Description] }
    { 4   ;   ;Original Date       ;Date          ;CaptionML=[ENU=Original Date;
                                                              ENG=Original Date] }
    { 5   ;   ;New Date            ;Date          ;CaptionML=[ENU=New Date;
                                                              ENG=New Date] }
    { 6   ;   ;ChangeRefNo         ;Text250       ;CaptionML=[ENU=ChangeRefNo;
                                                              ENG=ChangeRefNo] }
    { 9   ;   ;Source Line ID      ;RecordID      ;DataClassification=SystemMetadata;
                                                   CaptionML=[ENU=Source Line ID;
                                                              ENG=Source Line ID];
                                                   Editable=No }
    { 10  ;   ;Source Document ID  ;RecordID      ;DataClassification=SystemMetadata;
                                                   CaptionML=[ENU=Source Document ID;
                                                              ENG=Source Document ID];
                                                   Editable=No }
    { 20  ;   ;Original Quantity   ;Decimal       ;CaptionML=[ENU=Original Quantity;
                                                              ENG=Original Quantity];
                                                   DecimalPlaces=0:5 }
    { 21  ;   ;New Quantity        ;Decimal       ;CaptionML=[ENU=New Quantity;
                                                              ENG=New Quantity];
                                                   DecimalPlaces=0:5 }
    { 1000;   ;ID                  ;Integer       ;AutoIncrement=No;
                                                   CaptionML=[ENU=ID;
                                                              ENG=ID];
                                                   MinValue=0;
                                                   NotBlank=Yes }
  }
  KEYS
  {
    {    ;ID                                      ;Clustered=Yes }
    {    ;New Date,ID                              }
  }
  FIELDGROUPS
  {
  }
  CODE
  {

    [Internal]
    PROCEDURE TransferToTransactionTable@19(VAR TimelineEvent@1003 : Record 5540;VAR transactionTable@1002 : DotNet "'Microsoft.Dynamics.Framework.UI.WinForms.DataVisualization.Timeline, Version=11.0.0.0, Culture=neutral, PublicKeyToken=31bf3856ad364e35'.Microsoft.Dynamics.Framework.UI.WinForms.DataVisualization.TimelineVisualization.DataModel+TransactionDataTable");
    VAR
      transactionRow@1001 : DotNet "'Microsoft.Dynamics.Framework.UI.WinForms.DataVisualization.Timeline, Version=11.0.0.0, Culture=neutral, PublicKeyToken=31bf3856ad364e35'.Microsoft.Dynamics.Framework.UI.WinForms.DataVisualization.TimelineVisualization.DataModel+TransactionRow";
    BEGIN
      transactionTable := transactionTable.TransactionDataTable;
      TimelineEvent.RESET;
      IF TimelineEvent.FIND('-') THEN
        REPEAT
          transactionRow := transactionTable.NewRow;
          transactionRow.RefNo := FORMAT(TimelineEvent.ID);
          transactionRow.ChangeRefNo := TimelineEvent.ChangeRefNo;
          transactionRow.TransactionType := TimelineEvent."Transaction Type";
          transactionRow.Description := TimelineEvent.Description;
          transactionRow.OriginalDate := CREATEDATETIME(TimelineEvent."Original Date",DefaultTime);
          transactionRow.NewDate := CREATEDATETIME(TimelineEvent."New Date",DefaultTime);
          transactionRow.OriginalQuantity := TimelineEvent."Original Quantity";
          transactionRow.NewQuantity := TimelineEvent."New Quantity";
          transactionTable.Rows.Add(transactionRow);
        UNTIL (TimelineEvent.NEXT = 0);
    END;

    [External]
    PROCEDURE DefaultTime@1() : Time;
    BEGIN
      EXIT(0T);
    END;

    BEGIN
    END.
  }
}

