OBJECT Table 5642 Depreciation Table Header
{
  OBJECT-PROPERTIES
  {
    Date=07/09/12;
    Time=12:00:00;
    Version List=NAVW17.00;
  }
  PROPERTIES
  {
    DataCaptionFields=Code,Description;
    OnDelete=BEGIN
               DeprTableLine.LOCKTABLE;
               DeprTableLine.SETRANGE("Depreciation Table Code",Code);
               DeprTableLine.DELETEALL(TRUE);
             END;

    CaptionML=[ENU=Depreciation Table Header;
               ENG=Depreciation Table Header];
    LookupPageID=Page5663;
  }
  FIELDS
  {
    { 1   ;   ;Code                ;Code10        ;CaptionML=[ENU=Code;
                                                              ENG=Code];
                                                   NotBlank=Yes }
    { 2   ;   ;Description         ;Text50        ;CaptionML=[ENU=Description;
                                                              ENG=Description] }
    { 3   ;   ;Period Length       ;Option        ;CaptionML=[ENU=Period Length;
                                                              ENG=Period Length];
                                                   OptionCaptionML=[ENU=Month,Period,Quarter,Year;
                                                                    ENG=Month,Period,Quarter,Year];
                                                   OptionString=Month,Period,Quarter,Year }
    { 4   ;   ;Total No. of Units  ;Decimal       ;CaptionML=[ENU=Total No. of Units;
                                                              ENG=Total No. of Units];
                                                   DecimalPlaces=0:5;
                                                   MinValue=0 }
  }
  KEYS
  {
    {    ;Code                                    ;Clustered=Yes }
  }
  FIELDGROUPS
  {
  }
  CODE
  {
    VAR
      DeprTableLine@1000 : Record 5643;

    BEGIN
    END.
  }
}

