OBJECT Table 5079 Marketing Setup
{
  OBJECT-PROPERTIES
  {
    Date=22/02/18;
    Time=12:00:00;
    Version List=NAVW111.00.00.20783;
  }
  PROPERTIES
  {
    Permissions=TableData 1261=rimd;
    CaptionML=[ENU=Marketing Setup;
               ENG=Marketing Setup];
  }
  FIELDS
  {
    { 1   ;   ;Primary Key         ;Code10        ;CaptionML=[ENU=Primary Key;
                                                              ENG=Primary Key] }
    { 2   ;   ;Contact Nos.        ;Code20        ;TableRelation="No. Series";
                                                   CaptionML=[ENU=Contact Nos.;
                                                              ENG=Contact Nos.] }
    { 3   ;   ;Campaign Nos.       ;Code20        ;TableRelation="No. Series";
                                                   AccessByPermission=TableData 5071=R;
                                                   CaptionML=[ENU=Campaign Nos.;
                                                              ENG=Campaign Nos.] }
    { 4   ;   ;Segment Nos.        ;Code20        ;TableRelation="No. Series";
                                                   CaptionML=[ENU=Segment Nos.;
                                                              ENG=Segment Nos.] }
    { 5   ;   ;To-do Nos.          ;Code20        ;TableRelation="No. Series";
                                                   CaptionML=[ENU=Task Nos.;
                                                              ENG=Task Nos.] }
    { 6   ;   ;Opportunity Nos.    ;Code20        ;TableRelation="No. Series";
                                                   AccessByPermission=TableData 5090=R;
                                                   CaptionML=[ENU=Opportunity Nos.;
                                                              ENG=Opportunity Nos.] }
    { 7   ;   ;Bus. Rel. Code for Customers;Code10;TableRelation="Business Relation";
                                                   CaptionML=[ENU=Bus. Rel. Code for Customers;
                                                              ENG=Bus. Rel. Code for Customers] }
    { 8   ;   ;Bus. Rel. Code for Vendors;Code10  ;TableRelation="Business Relation";
                                                   CaptionML=[ENU=Bus. Rel. Code for Vendors;
                                                              ENG=Bus. Rel. Code for Vendors] }
    { 9   ;   ;Bus. Rel. Code for Bank Accs.;Code10;
                                                   TableRelation="Business Relation";
                                                   CaptionML=[ENU=Bus. Rel. Code for Bank Accs.;
                                                              ENG=Bus. Rel. Code for Bank Accs.] }
    { 22  ;   ;Inherit Salesperson Code;Boolean   ;InitValue=Yes;
                                                   CaptionML=[ENU=Inherit Salesperson Code;
                                                              ENG=Inherit Salesperson Code] }
    { 23  ;   ;Inherit Territory Code;Boolean     ;InitValue=Yes;
                                                   CaptionML=[ENU=Inherit Territory Code;
                                                              ENG=Inherit Territory Code] }
    { 24  ;   ;Inherit Country/Region Code;Boolean;InitValue=Yes;
                                                   CaptionML=[ENU=Inherit Country/Region Code;
                                                              ENG=Inherit Country/Region Code] }
    { 25  ;   ;Inherit Language Code;Boolean      ;InitValue=Yes;
                                                   CaptionML=[ENU=Inherit Language Code;
                                                              ENG=Inherit Language Code] }
    { 26  ;   ;Inherit Address Details;Boolean    ;InitValue=Yes;
                                                   CaptionML=[ENU=Inherit Address Details;
                                                              ENG=Inherit Address Details] }
    { 27  ;   ;Inherit Communication Details;Boolean;
                                                   InitValue=Yes;
                                                   CaptionML=[ENU=Inherit Communication Details;
                                                              ENG=Inherit Communication Details] }
    { 28  ;   ;Default Salesperson Code;Code20    ;TableRelation=Salesperson/Purchaser;
                                                   CaptionML=[ENU=Default Salesperson Code;
                                                              ENG=Default Salesperson Code] }
    { 29  ;   ;Default Territory Code;Code10      ;TableRelation=Territory;
                                                   CaptionML=[ENU=Default Territory Code;
                                                              ENG=Default Territory Code] }
    { 30  ;   ;Default Country/Region Code;Code10 ;TableRelation=Country/Region;
                                                   CaptionML=[ENU=Default Country/Region Code;
                                                              ENG=Default Country/Region Code] }
    { 31  ;   ;Default Language Code;Code10       ;TableRelation=Language;
                                                   CaptionML=[ENU=Default Language Code;
                                                              ENG=Default Language Code] }
    { 33  ;   ;Default Sales Cycle Code;Code10    ;TableRelation="Sales Cycle";
                                                   CaptionML=[ENU=Default Sales Cycle Code;
                                                              ENG=Default Sales Cycle Code] }
    { 35  ;   ;Attachment Storage Type;Option     ;CaptionML=[ENU=Attachment Storage Type;
                                                              ENG=Attachment Storage Type];
                                                   OptionCaptionML=[ENU=Embedded,Disk File;
                                                                    ENG=Embedded,Disk File];
                                                   OptionString=Embedded,Disk File }
    { 36  ;   ;Attachment Storage Location;Text250;CaptionML=[ENU=Attachment Storage Location;
                                                              ENG=Attachment Storage Location] }
    { 37  ;   ;Autosearch for Duplicates;Boolean  ;InitValue=Yes;
                                                   OnValidate=BEGIN
                                                                IF "Autosearch for Duplicates" THEN
                                                                  VALIDATE("Maintain Dupl. Search Strings",TRUE);
                                                              END;

                                                   CaptionML=[ENU=Autosearch for Duplicates;
                                                              ENG=Autosearch for Duplicates] }
    { 38  ;   ;Search Hit %        ;Integer       ;InitValue=60;
                                                   CaptionML=[ENU=Search Hit %;
                                                              ENG=Search Hit %];
                                                   MinValue=1;
                                                   MaxValue=100;
                                                   NotBlank=Yes }
    { 39  ;   ;Maintain Dupl. Search Strings;Boolean;
                                                   InitValue=Yes;
                                                   OnValidate=BEGIN
                                                                "Autosearch for Duplicates" := "Maintain Dupl. Search Strings";
                                                                IF "Maintain Dupl. Search Strings" AND NOT xRec."Maintain Dupl. Search Strings" THEN
                                                                  IF CONFIRM(DuplicateSearchQst) THEN
                                                                    REPORT.RUN(REPORT::"Generate Dupl. Search String");
                                                              END;

                                                   CaptionML=[ENU=Maintain Dupl. Search Strings;
                                                              ENG=Maintain Dupl. Search Strings];
                                                   NotBlank=Yes }
    { 50  ;   ;Mergefield Language ID;Integer     ;TableRelation="Windows Language";
                                                   CaptionML=[ENU=Mergefield Language ID;
                                                              ENG=Mergefield Language ID];
                                                   BlankZero=Yes }
    { 51  ;   ;Def. Company Salutation Code;Code10;TableRelation=Salutation;
                                                   CaptionML=[ENU=Def. Company Salutation Code;
                                                              ENG=Def. Company Salutation Code] }
    { 52  ;   ;Default Person Salutation Code;Code10;
                                                   TableRelation=Salutation;
                                                   CaptionML=[ENU=Default Person Salutation Code;
                                                              ENG=Default Person Salutation Code] }
    { 53  ;   ;Default Correspondence Type;Option ;CaptionML=[ENU=Default Correspondence Type;
                                                              ENG=Default Correspondence Type];
                                                   OptionCaptionML=[ENU=" ,Hard Copy,Email,Fax";
                                                                    ENG=" ,Hard Copy,Email,Fax"];
                                                   OptionString=[ ,Hard Copy,Email,Fax] }
    { 56  ;   ;Queue Folder Path   ;Text250       ;CaptionML=[ENU=Queue Folder Path;
                                                              ENG=Queue Folder Path];
                                                   Editable=No }
    { 57  ;   ;Queue Folder UID    ;BLOB          ;CaptionML=[ENU=Queue Folder UID;
                                                              ENG=Queue Folder UID] }
    { 59  ;   ;Storage Folder Path ;Text250       ;CaptionML=[ENU=Storage Folder Path;
                                                              ENG=Storage Folder Path];
                                                   Editable=No }
    { 60  ;   ;Storage Folder UID  ;BLOB          ;CaptionML=[ENU=Storage Folder UID;
                                                              ENG=Storage Folder UID] }
    { 67  ;   ;Default To-do Date Calculation;DateFormula;
                                                   CaptionML=[ENU=Default Task Date Calculation;
                                                              ENG=Default Task Date Calculation] }
    { 69  ;   ;Autodiscovery E-Mail Address;Text250;
                                                   CaptionML=[ENU=Autodiscovery Email Address;
                                                              ENG=Autodiscovery Email Address] }
    { 70  ;   ;Email Batch Size    ;Integer       ;CaptionML=[ENU=Email Batch Size;
                                                              ENG=Email Batch Size];
                                                   MinValue=0 }
    { 71  ;   ;Exchange Service URL;Text250       ;CaptionML=[ENU=Exchange Service URL;
                                                              ENG=Exchange Service URL] }
    { 72  ;   ;Exchange Account User Name;Text250 ;DataClassification=EndUserIdentifiableInformation;
                                                   CaptionML=[ENU=Exchange Account User Name;
                                                              ENG=Exchange Account User Name] }
    { 73  ;   ;Exchange Account Password Key;GUID ;CaptionML=[ENU=Exchange Account Password Key;
                                                              ENG=Exchange Account Password Key] }
    { 74  ;   ;Sync with Microsoft Graph;Boolean  ;OnValidate=VAR
                                                                WebhookManagement@1002 : Codeunit 5377;
                                                              BEGIN
                                                                IF WebhookManagement.IsSyncAllowed AND "Sync with Microsoft Graph" THEN BEGIN
                                                                  CODEUNIT.RUN(CODEUNIT::"Graph Data Setup");
                                                                  "WebHook Run Notification As" := GetWebhookSubscriptionUser;
                                                                  IF UserIsNotValidForWebhookSubscription("WebHook Run Notification As") THEN
                                                                    IF CurrentUserHasPermissionsForWebhookSubscription THEN
                                                                      TrySetWebhookSubscriptionUser(USERSECURITYID);
                                                                END ELSE
                                                                  "Sync with Microsoft Graph" := FALSE;
                                                              END;

                                                   CaptionML=[ENU=Sync with Microsoft Graph;
                                                              ENG=Sync with Microsoft Graph];
                                                   Editable=No }
    { 75  ;   ;WebHook Run Notification As;GUID   ;CaptionML=[ENU=WebHook Run Notification As;
                                                              ENG=WebHook Run Notification As] }
    { 76  ;   ;Cust. Template Company Code;Code10 ;CaptionML=[ENU=Cust. Template Company Code;
                                                              ENG=Cust. Template Company Code] }
    { 77  ;   ;Cust. Template Person Code;Code10  ;CaptionML=[ENU=Cust. Template Person Code;
                                                              ENG=Cust. Template Person Code] }
  }
  KEYS
  {
    {    ;Primary Key                             ;Clustered=Yes }
  }
  FIELDGROUPS
  {
  }
  CODE
  {
    VAR
      Text010@1000 : TextConst 'ENU=The queue and storage folders cannot be the same. Choose a different folder.;ENG=The queue and storage folders cannot be the same. Choose a different folder.';
      ExchangeAccountNotConfiguredErr@1001 : TextConst 'ENU=You must set up an Exchange account for email logging.;ENG=You must set up an Exchange account for email logging.';
      DuplicateSearchQst@1002 : TextConst 'ENU=Do you want to generate duplicate search strings?;ENG=Do you want to generate duplicate search strings?';

    [Internal]
    PROCEDURE SetQueueFolder@2(ExchangeFolder@1000 : Record 5320);
    VAR
      InStream@1001 : InStream;
      OutStream@1002 : OutStream;
    BEGIN
      IF (ExchangeFolder.FullPath = "Storage Folder Path") AND (ExchangeFolder.FullPath <> '') THEN
        ERROR(Text010);
      IF (ExchangeFolder.ReadUniqueID = GetStorageFolderUID) AND ExchangeFolder."Unique ID".HASVALUE THEN
        ERROR(Text010);

      "Queue Folder Path" := ExchangeFolder.FullPath;

      ExchangeFolder."Unique ID".CREATEINSTREAM(InStream);
      "Queue Folder UID".CREATEOUTSTREAM(OutStream);
      COPYSTREAM(OutStream,InStream);
      MODIFY;
    END;

    [Internal]
    PROCEDURE SetStorageFolder@3(ExchangeFolder@1000 : Record 5320);
    VAR
      InStream@1001 : InStream;
      OutStream@1002 : OutStream;
    BEGIN
      IF (ExchangeFolder.FullPath = "Queue Folder Path") AND (ExchangeFolder.FullPath <> '') THEN
        ERROR(Text010);
      IF (ExchangeFolder.ReadUniqueID = GetQueueFolderUID) AND ExchangeFolder."Unique ID".HASVALUE THEN
        ERROR(Text010);

      "Storage Folder Path" := ExchangeFolder.FullPath;

      ExchangeFolder."Unique ID".CREATEINSTREAM(InStream);
      "Storage Folder UID".CREATEOUTSTREAM(OutStream);
      COPYSTREAM(OutStream,InStream);
      MODIFY;
    END;

    [External]
    PROCEDURE GetQueueFolderUID@7() Return : Text;
    VAR
      Stream@1000 : InStream;
    BEGIN
      CALCFIELDS("Queue Folder UID");
      "Queue Folder UID".CREATEINSTREAM(Stream);
      Stream.READTEXT(Return);
    END;

    [External]
    PROCEDURE GetStorageFolderUID@8() Return : Text;
    VAR
      Stream@1000 : InStream;
    BEGIN
      CALCFIELDS("Storage Folder UID");
      "Storage Folder UID".CREATEINSTREAM(Stream);
      Stream.READTEXT(Return);
    END;

    [External]
    PROCEDURE SetExchangeAccountPassword@4(PasswordText@1001 : Text);
    VAR
      ServicePassword@1000 : Record 1261;
    BEGIN
      IF ISNULLGUID("Exchange Account Password Key") OR NOT ServicePassword.GET("Exchange Account Password Key") THEN BEGIN
        ServicePassword.SavePassword(PasswordText);
        ServicePassword.INSERT(TRUE);
        "Exchange Account Password Key" := ServicePassword.Key;
      END ELSE BEGIN
        ServicePassword.SavePassword(PasswordText);
        ServicePassword.MODIFY;
      END;
    END;

    [External]
    PROCEDURE CreateExchangeAccountCredentials@5(VAR WebCredentials@1000 : DotNet "'Microsoft.Exchange.WebServices, Version=15.0.0.0, Culture=neutral, PublicKeyToken=31bf3856ad364e35'.Microsoft.Exchange.WebServices.Data.WebCredentials");
    VAR
      ServicePassword@1001 : Record 1261;
    BEGIN
      IF "Exchange Account User Name" = '' THEN
        ERROR(ExchangeAccountNotConfiguredErr);
      IF ISNULLGUID("Exchange Account Password Key") OR NOT ServicePassword.GET("Exchange Account Password Key") THEN
        ERROR(ExchangeAccountNotConfiguredErr);

      WebCredentials := WebCredentials.WebCredentials("Exchange Account User Name",ServicePassword.GetPassword);
    END;

    [External]
    PROCEDURE TrySetWebhookSubscriptionUser@24(UserSecurityID@1000 : GUID) : Boolean;
    VAR
      WebhookManagement@1002 : Codeunit 5377;
    BEGIN
      IF "WebHook Run Notification As" <> UserSecurityID THEN
        IF WebhookManagement.IsValidNotificationRunAsUser(UserSecurityID) THEN BEGIN
          "WebHook Run Notification As" := UserSecurityID;
          EXIT(TRUE);
        END;

      EXIT(FALSE);
    END;

    [External]
    PROCEDURE GetWebhookSubscriptionUser@23() : GUID;
    VAR
      MarketingSetup@1000 : Record 5079;
    BEGIN
      IF MarketingSetup.GET THEN
        EXIT(MarketingSetup."WebHook Run Notification As");
    END;

    LOCAL PROCEDURE UserIsNotValidForWebhookSubscription@36(UserSecurityID@1000 : GUID) : Boolean;
    VAR
      WebhookManagement@1002 : Codeunit 5377;
    BEGIN
      EXIT(NOT WebhookManagement.IsValidNotificationRunAsUser(UserSecurityID));
    END;

    LOCAL PROCEDURE CurrentUserHasPermissionsForWebhookSubscription@6() : Boolean;
    VAR
      Contact@1004 : Record 5050;
      Customer@1003 : Record 18;
    BEGIN
      EXIT(Customer.WRITEPERMISSION AND Contact.WRITEPERMISSION)
    END;

    [External]
    PROCEDURE TrySetWebhookSubscriptionUserAsCurrentUser@32() : GUID;
    VAR
      MarketingSetup@1005 : Record 5079;
    BEGIN
      IF NOT MarketingSetup.GET THEN
        MarketingSetup.INSERT(TRUE);

      IF UserIsNotValidForWebhookSubscription(MarketingSetup."WebHook Run Notification As") THEN
        IF CurrentUserHasPermissionsForWebhookSubscription THEN
          IF MarketingSetup.TrySetWebhookSubscriptionUser(USERSECURITYID) THEN
            MarketingSetup.MODIFY(TRUE);

      EXIT(MarketingSetup."WebHook Run Notification As");
    END;

    [External]
    PROCEDURE GetCustomerTemplate@1(ContactType@1000 : 'Company,Person') : Code[10];
    VAR
      MarketingSetup@1001 : Record 5079;
    BEGIN
      MarketingSetup.GET;

      CASE ContactType OF
        ContactType::Company:
          EXIT(MarketingSetup."Cust. Template Company Code");
        ContactType::Person:
          EXIT(MarketingSetup."Cust. Template Person Code");
      END
    END;

    BEGIN
    END.
  }
}

