OBJECT Table 5624 FA Reclass. Journal Line
{
  OBJECT-PROPERTIES
  {
    Date=22/11/17;
    Time=12:00:00;
    Version List=NAVW111.00;
  }
  PROPERTIES
  {
    OnInsert=BEGIN
               LOCKTABLE;
               FAReclassJnlTempl.GET("Journal Template Name");
               FAReclassJnlBatch.GET("Journal Template Name","Journal Batch Name");
             END;

    CaptionML=[ENU=FA Reclass. Journal Line;
               ENG=FA Reclass. Journal Line];
  }
  FIELDS
  {
    { 1   ;   ;Journal Template Name;Code10       ;TableRelation="FA Reclass. Journal Template";
                                                   CaptionML=[ENU=Journal Template Name;
                                                              ENG=Journal Template Name] }
    { 2   ;   ;Journal Batch Name  ;Code10        ;TableRelation="FA Reclass. Journal Batch".Name WHERE (Journal Template Name=FIELD(Journal Template Name));
                                                   CaptionML=[ENU=Journal Batch Name;
                                                              ENG=Journal Batch Name] }
    { 3   ;   ;Line No.            ;Integer       ;CaptionML=[ENU=Line No.;
                                                              ENG=Line No.] }
    { 4   ;   ;FA No.              ;Code20        ;TableRelation="Fixed Asset";
                                                   OnValidate=BEGIN
                                                                IF "FA No." = '' THEN
                                                                  EXIT;
                                                                FA.GET("FA No.");
                                                                FA.TESTFIELD(Blocked,FALSE);
                                                                FA.TESTFIELD(Inactive,FALSE);
                                                                Description := FA.Description;
                                                                IF "Depreciation Book Code" = '' THEN BEGIN
                                                                  FASetup.GET;
                                                                  "Depreciation Book Code" := FASetup."Default Depr. Book";
                                                                END;
                                                              END;

                                                   CaptionML=[ENU=FA No.;
                                                              ENG=FA No.] }
    { 5   ;   ;New FA No.          ;Code20        ;TableRelation="Fixed Asset";
                                                   OnValidate=BEGIN
                                                                IF "New FA No." = '' THEN
                                                                  EXIT;
                                                                FA.GET("New FA No.");
                                                                FA.TESTFIELD(Blocked,FALSE);
                                                                FA.TESTFIELD(Inactive,FALSE);
                                                              END;

                                                   CaptionML=[ENU=New FA No.;
                                                              ENG=New FA No.] }
    { 6   ;   ;FA Posting Date     ;Date          ;CaptionML=[ENU=FA Posting Date;
                                                              ENG=FA Posting Date] }
    { 7   ;   ;Posting Date        ;Date          ;CaptionML=[ENU=Posting Date;
                                                              ENG=Posting Date] }
    { 8   ;   ;Depreciation Book Code;Code10      ;TableRelation="Depreciation Book";
                                                   CaptionML=[ENU=Depreciation Book Code;
                                                              ENG=Depreciation Book Code] }
    { 9   ;   ;Reclassify Acq. Cost Amount;Decimal;OnValidate=BEGIN
                                                                "Reclassify Acq. Cost %" := 0;
                                                              END;

                                                   CaptionML=[ENU=Reclassify Acq. Cost Amount;
                                                              ENG=Reclassify Acq. Cost Amount];
                                                   MinValue=0;
                                                   AutoFormatType=1 }
    { 10  ;   ;Reclassify Acq. Cost %;Decimal     ;OnValidate=BEGIN
                                                                "Reclassify Acq. Cost Amount" := 0;
                                                              END;

                                                   CaptionML=[ENU=Reclassify Acq. Cost %;
                                                              ENG=Reclassify Acq. Cost %];
                                                   DecimalPlaces=0:8;
                                                   MinValue=0;
                                                   MaxValue=100 }
    { 11  ;   ;Reclassify Acquisition Cost;Boolean;CaptionML=[ENU=Reclassify Acquisition Cost;
                                                              ENG=Reclassify Acquisition Cost] }
    { 12  ;   ;Reclassify Depreciation;Boolean    ;CaptionML=[ENU=Reclassify Depreciation;
                                                              ENG=Reclassify Depreciation] }
    { 13  ;   ;Reclassify Write-Down;Boolean      ;CaptionML=[ENU=Reclassify Write-Down;
                                                              ENG=Reclassify Write-Down] }
    { 14  ;   ;Reclassify Appreciation;Boolean    ;CaptionML=[ENU=Reclassify Appreciation;
                                                              ENG=Reclassify Appreciation] }
    { 15  ;   ;Reclassify Custom 1 ;Boolean       ;CaptionML=[ENU=Reclassify Custom 1;
                                                              ENG=Reclassify Custom 1] }
    { 16  ;   ;Reclassify Custom 2 ;Boolean       ;CaptionML=[ENU=Reclassify Custom 2;
                                                              ENG=Reclassify Custom 2] }
    { 17  ;   ;Reclassify Salvage Value;Boolean   ;CaptionML=[ENU=Reclassify Salvage Value;
                                                              ENG=Reclassify Salvage Value] }
    { 18  ;   ;Insert Bal. Account ;Boolean       ;CaptionML=[ENU=Insert Bal. Account;
                                                              ENG=Insert Bal. Account] }
    { 19  ;   ;Description         ;Text50        ;CaptionML=[ENU=Description;
                                                              ENG=Description] }
    { 20  ;   ;Document No.        ;Code20        ;CaptionML=[ENU=Document No.;
                                                              ENG=Document No.] }
    { 22  ;   ;Calc. DB1 Depr. Amount;Boolean     ;CaptionML=[ENU=Calc. DB1 Depr. Amount;
                                                              ENG=Calc. DB1 Depr. Amount] }
  }
  KEYS
  {
    {    ;Journal Template Name,Journal Batch Name,Line No.;
                                                   Clustered=Yes }
    {    ;Journal Template Name,Journal Batch Name,FA Posting Date }
  }
  FIELDGROUPS
  {
  }
  CODE
  {
    VAR
      FA@1000 : Record 5600;
      FASetup@1001 : Record 5603;
      FAReclassJnlTempl@1002 : Record 5622;
      FAReclassJnlBatch@1003 : Record 5623;

    [External]
    PROCEDURE SetUpNewLine@5(LastFAReclassJnlLine@1000 : Record 5624);
    BEGIN
      "FA Posting Date" := LastFAReclassJnlLine."FA Posting Date";
    END;

    [External]
    PROCEDURE IsOpenedFromBatch@42() : Boolean;
    VAR
      FAReclassJournalBatch@1002 : Record 5623;
      TemplateFilter@1001 : Text;
      BatchFilter@1000 : Text;
    BEGIN
      BatchFilter := GETFILTER("Journal Batch Name");
      IF BatchFilter <> '' THEN BEGIN
        TemplateFilter := GETFILTER("Journal Template Name");
        IF TemplateFilter <> '' THEN
          FAReclassJournalBatch.SETFILTER("Journal Template Name",TemplateFilter);
        FAReclassJournalBatch.SETFILTER(Name,BatchFilter);
        FAReclassJournalBatch.FINDFIRST;
      END;

      EXIT((("Journal Batch Name" <> '') AND ("Journal Template Name" = '')) OR (BatchFilter <> ''));
    END;

    BEGIN
    END.
  }
}

