OBJECT Table 7700 Miniform Header
{
  OBJECT-PROPERTIES
  {
    Date=22/11/17;
    Time=12:00:00;
    Version List=NAVW111.00;
  }
  PROPERTIES
  {
    OnDelete=VAR
               MiniFormLine@1000 : Record 7701;
               MiniFormFunc@1001 : Record 7703;
             BEGIN
               MiniFormLine.RESET;
               MiniFormLine.SETRANGE("Miniform Code",Code);
               MiniFormLine.DELETEALL;

               MiniFormFunc.RESET;
               MiniFormFunc.SETRANGE("Miniform Code",Code);
               MiniFormFunc.DELETEALL;
             END;

    CaptionML=[ENU=Miniform Header;
               ENG=Miniform Header];
    LookupPageID=Page7703;
  }
  FIELDS
  {
    { 1   ;   ;Code                ;Code20        ;CaptionML=[ENU=Code;
                                                              ENG=Code];
                                                   NotBlank=Yes }
    { 11  ;   ;Description         ;Text30        ;CaptionML=[ENU=Description;
                                                              ENG=Description] }
    { 12  ;   ;No. of Records in List;Integer     ;CaptionML=[ENU=No. of Records in List;
                                                              ENG=No. of Records in List] }
    { 13  ;   ;Form Type           ;Option        ;CaptionML=[ENU=Form Type;
                                                              ENG=Form Type];
                                                   OptionCaptionML=[@@@={Locked};
                                                                    ENU=Card,Selection List,Data List,Data List Input;
                                                                    ENG=Card,Selection List,Data List,Data List Input];
                                                   OptionString=Card,Selection List,Data List,Data List Input }
    { 15  ;   ;Start Miniform      ;Boolean       ;OnValidate=VAR
                                                                MiniformHeader@1000 : Record 7700;
                                                              BEGIN
                                                                MiniformHeader.SETFILTER(Code,'<>%1',Code);
                                                                MiniformHeader.SETRANGE("Start Miniform",TRUE);
                                                                IF NOT MiniformHeader.ISEMPTY THEN
                                                                  ERROR(Text002);
                                                              END;

                                                   CaptionML=[ENU=Start Miniform;
                                                              ENG=Start Miniform] }
    { 20  ;   ;Handling Codeunit   ;Integer       ;TableRelation=AllObjWithCaption."Object ID" WHERE (Object Type=CONST(Codeunit));
                                                   CaptionML=[ENU=Handling Codeunit;
                                                              ENG=Handling Codeunit] }
    { 21  ;   ;Next Miniform       ;Code20        ;TableRelation="Miniform Header";
                                                   OnValidate=BEGIN
                                                                IF "Next Miniform" = Code THEN
                                                                  ERROR(Text000);

                                                                IF "Form Type" IN ["Form Type"::"Selection List","Form Type"::"Data List Input"] THEN
                                                                  ERROR(Text001,FIELDCAPTION("Form Type"),"Form Type");
                                                              END;

                                                   CaptionML=[ENU=Next Miniform;
                                                              ENG=Next Miniform] }
    { 25  ;   ;XMLin               ;BLOB          ;CaptionML=[ENU=XMLin;
                                                              ENG=XMLin] }
  }
  KEYS
  {
    {    ;Code                                    ;Clustered=Yes }
  }
  FIELDGROUPS
  {
  }
  CODE
  {
    VAR
      Text000@1001 : TextConst 'ENU=Recursion is not allowed.;ENG=Recursion is not allowed.';
      Text001@1000 : TextConst 'ENU=%1 must not be %2.;ENG=%1 must not be %2.';
      Text002@1002 : TextConst 'ENU=There can only be one login form.;ENG=There can only be one login form.';

    [External]
    PROCEDURE SaveXMLin@1(DOMxmlin@1001 : DotNet "'System.Xml, Version=4.0.0.0, Culture=neutral, PublicKeyToken=b77a5c561934e089'.System.Xml.XmlDocument");
    VAR
      InStrm@1000 : InStream;
    BEGIN
      XMLin.CREATEINSTREAM(InStrm);
      DOMxmlin.Save(InStrm);
    END;

    [External]
    PROCEDURE LoadXMLin@2(VAR DOMxmlin@1001 : DotNet "'System.Xml, Version=4.0.0.0, Culture=neutral, PublicKeyToken=b77a5c561934e089'.System.Xml.XmlDocument");
    VAR
      XMLDOMManagement@1002 : Codeunit 6224;
      OutStrm@1000 : OutStream;
    BEGIN
      XMLin.CREATEOUTSTREAM(OutStrm);
      XMLDOMManagement.LoadXMLDocumentFromOutStream(OutStrm,DOMxmlin);
    END;

    BEGIN
    END.
  }
}

