OBJECT Table 750 Standard General Journal
{
  OBJECT-PROPERTIES
  {
    Date=22/11/17;
    Time=12:00:00;
    Version List=NAVW111.00;
  }
  PROPERTIES
  {
    OnDelete=VAR
               StdGenJnlLine@1000 : Record 751;
             BEGIN
               StdGenJnlLine.SETRANGE("Journal Template Name","Journal Template Name");
               StdGenJnlLine.SETRANGE("Standard Journal Code",Code);

               StdGenJnlLine.DELETEALL(TRUE);
             END;

    CaptionML=[ENU=Standard General Journal;
               ENG=Standard General Journal];
    LookupPageID=Page750;
  }
  FIELDS
  {
    { 1   ;   ;Journal Template Name;Code10       ;TableRelation="Gen. Journal Template";
                                                   CaptionML=[ENU=Journal Template Name;
                                                              ENG=Journal Template Name];
                                                   NotBlank=Yes }
    { 2   ;   ;Code                ;Code10        ;CaptionML=[ENU=Code;
                                                              ENG=Code];
                                                   NotBlank=Yes }
    { 3   ;   ;Description         ;Text50        ;CaptionML=[ENU=Description;
                                                              ENG=Description] }
  }
  KEYS
  {
    {    ;Journal Template Name,Code              ;Clustered=Yes }
  }
  FIELDGROUPS
  {
  }
  CODE
  {
    VAR
      GenJnlBatch@1008 : Record 232;
      LastGenJnlLine@1007 : Record 81;
      GenJnlLine@1006 : Record 81;
      Window@1003 : Dialog;
      WindowUpdateDateTime@1002 : DateTime;
      NoOfJournalsToBeCreated@1001 : Integer;
      Text000@1004 : TextConst 'ENU=Getting Standard General Journal Lines @1@@@@@@@;ENG=Getting Standard General Journal Lines @1@@@@@@@';
      NoOfJournalsCreated@1005 : Integer;

    [External]
    PROCEDURE CreateGenJnlFromStdJnl@1(StdGenJnl@1005 : Record 750;JnlBatchName@1003 : Code[10]);
    VAR
      StdGenJnlLine@1000 : Record 751;
    BEGIN
      Initialize(StdGenJnl,JnlBatchName);

      StdGenJnlLine.SETRANGE("Journal Template Name",StdGenJnl."Journal Template Name");
      StdGenJnlLine.SETRANGE("Standard Journal Code",StdGenJnl.Code);
      OpenWindow(Text000,StdGenJnlLine.COUNT);
      IF StdGenJnlLine.FIND('-') THEN
        REPEAT
          UpdateWindow;
          CopyGenJnlFromStdJnl(StdGenJnlLine);
        UNTIL StdGenJnlLine.NEXT = 0;
    END;

    [External]
    PROCEDURE Initialize@15(VAR StdGenJnl@1001 : Record 750;JnlBatchName@1000 : Code[10]);
    BEGIN
      GenJnlLine."Journal Template Name" := StdGenJnl."Journal Template Name";
      GenJnlLine."Journal Batch Name" := JnlBatchName;
      GenJnlLine.SETRANGE("Journal Template Name",StdGenJnl."Journal Template Name");
      GenJnlLine.SETRANGE("Journal Batch Name",JnlBatchName);

      LastGenJnlLine.SETRANGE("Journal Template Name",StdGenJnl."Journal Template Name");
      LastGenJnlLine.SETRANGE("Journal Batch Name",JnlBatchName);

      IF LastGenJnlLine.FINDLAST THEN;

      GenJnlBatch.SETRANGE("Journal Template Name",StdGenJnl."Journal Template Name");
      GenJnlBatch.SETRANGE(Name,JnlBatchName);

      IF GenJnlBatch.FINDFIRST THEN;
    END;

    LOCAL PROCEDURE CopyGenJnlFromStdJnl@3(StdGenJnlLine@1001 : Record 751);
    VAR
      GenJnlManagement@1000 : Codeunit 230;
      Balance@1007 : Decimal;
      TotalBalance@1006 : Decimal;
      ShowBalance@1005 : Boolean;
      ShowTotalBalance@1004 : Boolean;
    BEGIN
      GenJnlLine.INIT;
      GenJnlLine."Line No." := 0;
      GenJnlManagement.CalcBalance(GenJnlLine,LastGenJnlLine,Balance,TotalBalance,ShowBalance,ShowTotalBalance);
      GenJnlLine.SetUpNewLine(LastGenJnlLine,Balance,TRUE);
      IF LastGenJnlLine."Line No." <> 0 THEN
        GenJnlLine."Line No." := LastGenJnlLine."Line No." + 10000
      ELSE
        GenJnlLine."Line No." := 10000;

      GenJnlLine.TRANSFERFIELDS(StdGenJnlLine,FALSE);
      GenJnlLine.UpdateLineBalance;
      GenJnlLine."Currency Factor" := 0;
      GenJnlLine.VALIDATE("Currency Code");

      IF GenJnlLine."VAT Prod. Posting Group" <> '' THEN
        GenJnlLine.VALIDATE("VAT Prod. Posting Group");
      IF (GenJnlLine."VAT %" <> 0) AND GenJnlBatch."Allow VAT Difference" THEN
        GenJnlLine.VALIDATE("VAT Amount",StdGenJnlLine."VAT Amount");
      GenJnlLine.VALIDATE("Bal. VAT Prod. Posting Group");
      GenJnlLine."Dimension Set ID" := StdGenJnlLine."Dimension Set ID";
      IF GenJnlBatch."Allow VAT Difference" THEN
        GenJnlLine.VALIDATE("Bal. VAT Amount",StdGenJnlLine."Bal. VAT Amount");
      GenJnlLine.INSERT(TRUE);

      LastGenJnlLine := GenJnlLine;
    END;

    LOCAL PROCEDURE OpenWindow@12(DisplayText@1001 : Text[250];NoOfJournalsToBeCreated2@1000 : Integer);
    BEGIN
      NoOfJournalsCreated := 0;
      NoOfJournalsToBeCreated := NoOfJournalsToBeCreated2;
      WindowUpdateDateTime := CURRENTDATETIME;
      Window.OPEN(DisplayText);
    END;

    LOCAL PROCEDURE UpdateWindow@4();
    BEGIN
      NoOfJournalsCreated := NoOfJournalsCreated + 1;
      IF CURRENTDATETIME - WindowUpdateDateTime >= 300 THEN BEGIN
        WindowUpdateDateTime := CURRENTDATETIME;
        Window.UPDATE(1,ROUND(NoOfJournalsCreated / NoOfJournalsToBeCreated * 10000,1));
      END;
    END;

    BEGIN
    END.
  }
}

