OBJECT Table 7012 Purchase Price
{
  OBJECT-PROPERTIES
  {
    Date=22/11/17;
    Time=12:00:00;
    Version List=NAVW111.00;
  }
  PROPERTIES
  {
    OnInsert=BEGIN
               TESTFIELD("Vendor No.");
               TESTFIELD("Item No.");
             END;

    OnRename=BEGIN
               TESTFIELD("Vendor No.");
               TESTFIELD("Item No.");
             END;

    CaptionML=[ENU=Purchase Price;
               ENG=Purchase Price];
    LookupPageID=Page7012;
  }
  FIELDS
  {
    { 1   ;   ;Item No.            ;Code20        ;TableRelation=Item;
                                                   OnValidate=BEGIN
                                                                IF "Item No." <> xRec."Item No." THEN BEGIN
                                                                  "Unit of Measure Code" := '';
                                                                  "Variant Code" := '';
                                                                END;
                                                              END;

                                                   CaptionML=[ENU=Item No.;
                                                              ENG=Item No.];
                                                   NotBlank=Yes }
    { 2   ;   ;Vendor No.          ;Code20        ;TableRelation=Vendor;
                                                   OnValidate=BEGIN
                                                                IF Vend.GET("Vendor No.") THEN
                                                                  "Currency Code" := Vend."Currency Code";
                                                              END;

                                                   CaptionML=[ENU=Vendor No.;
                                                              ENG=Vendor No.];
                                                   NotBlank=Yes }
    { 3   ;   ;Currency Code       ;Code10        ;TableRelation=Currency;
                                                   CaptionML=[ENU=Currency Code;
                                                              ENG=Currency Code] }
    { 4   ;   ;Starting Date       ;Date          ;OnValidate=BEGIN
                                                                IF ("Starting Date" > "Ending Date") AND ("Ending Date" <> 0D) THEN
                                                                  ERROR(Text000,FIELDCAPTION("Starting Date"),FIELDCAPTION("Ending Date"));
                                                              END;

                                                   CaptionML=[ENU=Starting Date;
                                                              ENG=Starting Date] }
    { 5   ;   ;Direct Unit Cost    ;Decimal       ;CaptionML=[ENU=Direct Unit Cost;
                                                              ENG=Direct Unit Cost];
                                                   MinValue=0;
                                                   AutoFormatType=2;
                                                   AutoFormatExpr="Currency Code" }
    { 14  ;   ;Minimum Quantity    ;Decimal       ;CaptionML=[ENU=Minimum Quantity;
                                                              ENG=Minimum Quantity];
                                                   DecimalPlaces=0:5;
                                                   MinValue=0 }
    { 15  ;   ;Ending Date         ;Date          ;OnValidate=BEGIN
                                                                VALIDATE("Starting Date");
                                                              END;

                                                   CaptionML=[ENU=Ending Date;
                                                              ENG=Ending Date] }
    { 5400;   ;Unit of Measure Code;Code10        ;TableRelation="Item Unit of Measure".Code WHERE (Item No.=FIELD(Item No.));
                                                   CaptionML=[ENU=Unit of Measure Code;
                                                              ENG=Unit of Measure Code] }
    { 5700;   ;Variant Code        ;Code10        ;TableRelation="Item Variant".Code WHERE (Item No.=FIELD(Item No.));
                                                   CaptionML=[ENU=Variant Code;
                                                              ENG=Variant Code] }
  }
  KEYS
  {
    {    ;Item No.,Vendor No.,Starting Date,Currency Code,Variant Code,Unit of Measure Code,Minimum Quantity;
                                                   Clustered=Yes }
    {    ;Vendor No.,Item No.,Starting Date,Currency Code,Variant Code,Unit of Measure Code,Minimum Quantity }
  }
  FIELDGROUPS
  {
  }
  CODE
  {
    VAR
      Vend@1000 : Record 23;
      Text000@1004 : TextConst 'ENU=%1 cannot be after %2;ENG=%1 cannot be after %2';

    PROCEDURE CopyPurchPriceToVendorsPurchPrice@3(VAR PurchPrice@1000 : Record 7012;VendNo@1002 : Code[20]);
    VAR
      NewPurchasePrice@1001 : Record 7012;
    BEGIN
      IF PurchPrice.FINDSET THEN
        REPEAT
          NewPurchasePrice := PurchPrice;
          NewPurchasePrice."Vendor No." := VendNo;
          IF NewPurchasePrice.INSERT THEN;
        UNTIL PurchPrice.NEXT = 0;
    END;

    BEGIN
    END.
  }
}

