OBJECT Table 7154 Item Analysis View Entry
{
  OBJECT-PROPERTIES
  {
    Date=22/11/17;
    Time=12:00:00;
    Version List=NAVW111.00;
  }
  PROPERTIES
  {
    CaptionML=[ENU=Item Analysis View Entry;
               ENG=Item Analysis View Entry];
    LookupPageID=Page7153;
    DrillDownPageID=Page7153;
  }
  FIELDS
  {
    { 1   ;   ;Analysis Area       ;Option        ;CaptionML=[ENU=Analysis Area;
                                                              ENG=Analysis Area];
                                                   OptionCaptionML=[ENU=Sales,Purchase,Inventory;
                                                                    ENG=Sales,Purchase,Inventory];
                                                   OptionString=Sales,Purchase,Inventory }
    { 2   ;   ;Analysis View Code  ;Code10        ;TableRelation="Item Analysis View".Code WHERE (Analysis Area=FIELD(Analysis Area),
                                                                                                  Code=FIELD(Analysis View Code));
                                                   CaptionML=[ENU=Analysis View Code;
                                                              ENG=Analysis View Code];
                                                   NotBlank=Yes }
    { 3   ;   ;Item No.            ;Code20        ;TableRelation=Item;
                                                   CaptionML=[ENU=Item No.;
                                                              ENG=Item No.] }
    { 4   ;   ;Source Type         ;Option        ;CaptionML=[ENU=Source Type;
                                                              ENG=Source Type];
                                                   OptionCaptionML=[ENU=" ,Customer,Vendor,Item";
                                                                    ENG=" ,Customer,Vendor,Item"];
                                                   OptionString=[ ,Customer,Vendor,Item] }
    { 5   ;   ;Source No.          ;Code20        ;TableRelation=IF (Source Type=CONST(Customer)) Customer
                                                                 ELSE IF (Source Type=CONST(Vendor)) Vendor
                                                                 ELSE IF (Source Type=CONST(Item)) Item;
                                                   CaptionML=[ENU=Source No.;
                                                              ENG=Source No.] }
    { 8   ;   ;Location Code       ;Code10        ;TableRelation=Location;
                                                   CaptionML=[ENU=Location Code;
                                                              ENG=Location Code] }
    { 9   ;   ;Dimension 1 Value Code;Code20      ;AccessByPermission=TableData 348=R;
                                                   CaptionML=[ENU=Dimension 1 Value Code;
                                                              ENG=Dimension 1 Value Code];
                                                   CaptionClass=GetCaptionClass(1) }
    { 10  ;   ;Dimension 2 Value Code;Code20      ;AccessByPermission=TableData 348=R;
                                                   CaptionML=[ENU=Dimension 2 Value Code;
                                                              ENG=Dimension 2 Value Code];
                                                   CaptionClass=GetCaptionClass(2) }
    { 11  ;   ;Dimension 3 Value Code;Code20      ;AccessByPermission=TableData 350=R;
                                                   CaptionML=[ENU=Dimension 3 Value Code;
                                                              ENG=Dimension 3 Value Code];
                                                   CaptionClass=GetCaptionClass(3) }
    { 12  ;   ;Posting Date        ;Date          ;CaptionML=[ENU=Posting Date;
                                                              ENG=Posting Date] }
    { 13  ;   ;Entry No.           ;Integer       ;CaptionML=[ENU=Entry No.;
                                                              ENG=Entry No.] }
    { 14  ;   ;Item Ledger Entry Type;Option      ;CaptionML=[ENU=Item Ledger Entry Type;
                                                              ENG=Item Ledger Entry Type];
                                                   OptionCaptionML=[ENU=Purchase,Sale,Positive Adjmt.,Negative Adjmt.,Transfer,Consumption,Output, ,Assembly Consumption,Assembly Output;
                                                                    ENG=Purchase,Sale,Positive Adjmt.,Negative Adjmt.,Transfer,Consumption,Output, ,Assembly Consumption,Assembly Output];
                                                   OptionString=Purchase,Sale,Positive Adjmt.,Negative Adjmt.,Transfer,Consumption,Output, ,Assembly Consumption,Assembly Output }
    { 15  ;   ;Entry Type          ;Option        ;CaptionML=[ENU=Entry Type;
                                                              ENG=Entry Type];
                                                   OptionCaptionML=[ENU=Direct Cost,Revaluation,Rounding,Indirect Cost,Variance;
                                                                    ENG=Direct Cost,Revaluation,Rounding,Indirect Cost,Variance];
                                                   OptionString=Direct Cost,Revaluation,Rounding,Indirect Cost,Variance }
    { 21  ;   ;Invoiced Quantity   ;Decimal       ;CaptionML=[ENU=Invoiced Quantity;
                                                              ENG=Invoiced Quantity];
                                                   AutoFormatType=2 }
    { 22  ;   ;Sales Amount (Actual);Decimal      ;CaptionML=[ENU=Sales Amount (Actual);
                                                              ENG=Sales Amount (Actual)];
                                                   AutoFormatType=1 }
    { 23  ;   ;Cost Amount (Actual);Decimal       ;CaptionML=[ENU=Cost Amount (Actual);
                                                              ENG=Cost Amount (Actual)];
                                                   AutoFormatType=1 }
    { 24  ;   ;Cost Amount (Non-Invtbl.);Decimal  ;AccessByPermission=TableData 5800=R;
                                                   CaptionML=[ENU=Cost Amount (Non-Invtbl.);
                                                              ENG=Cost Amount (Non-Invtbl.)];
                                                   AutoFormatType=1 }
    { 31  ;   ;Quantity            ;Decimal       ;CaptionML=[ENU=Quantity;
                                                              ENG=Quantity];
                                                   AutoFormatType=2 }
    { 32  ;   ;Sales Amount (Expected);Decimal    ;AccessByPermission=TableData 110=R;
                                                   CaptionML=[ENU=Sales Amount (Expected);
                                                              ENG=Sales Amount (Expected)];
                                                   AutoFormatType=1 }
    { 33  ;   ;Cost Amount (Expected);Decimal     ;CaptionML=[ENU=Cost Amount (Expected);
                                                              ENG=Cost Amount (Expected)];
                                                   AutoFormatType=1 }
  }
  KEYS
  {
    {    ;Analysis Area,Analysis View Code,Item No.,Item Ledger Entry Type,Entry Type,Source Type,Source No.,Dimension 1 Value Code,Dimension 2 Value Code,Dimension 3 Value Code,Location Code,Posting Date,Entry No.;
                                                   SumIndexFields=Sales Amount (Actual),Sales Amount (Expected),Cost Amount (Actual),Cost Amount (Expected),Quantity,Invoiced Quantity,Cost Amount (Non-Invtbl.);
                                                   Clustered=Yes }
  }
  FIELDGROUPS
  {
  }
  CODE
  {
    VAR
      Text000@1000 : TextConst 'ENU=1,5,,Dimension 1 Value Code;ENG=1,5,,Dimension 1 Value Code';
      Text001@1001 : TextConst 'ENU=1,5,,Dimension 2 Value Code;ENG=1,5,,Dimension 2 Value Code';
      Text002@1002 : TextConst 'ENU=1,5,,Dimension 3 Value Code;ENG=1,5,,Dimension 3 Value Code';
      ItemAnalysisView@1004 : Record 7152;

    [External]
    PROCEDURE GetCaptionClass@7(AnalysisViewDimType@1000 : Integer) : Text[250];
    BEGIN
      IF (ItemAnalysisView."Analysis Area" <> "Analysis Area") OR
         (ItemAnalysisView.Code <> "Analysis View Code")
      THEN
        ItemAnalysisView.GET("Analysis Area","Analysis View Code");
      CASE AnalysisViewDimType OF
        1:
          BEGIN
            IF ItemAnalysisView."Dimension 1 Code" <> '' THEN
              EXIT('1,5,' + ItemAnalysisView."Dimension 1 Code");
            EXIT(Text000);
          END;
        2:
          BEGIN
            IF ItemAnalysisView."Dimension 2 Code" <> '' THEN
              EXIT('1,5,' + ItemAnalysisView."Dimension 2 Code");
            EXIT(Text001);
          END;
        3:
          BEGIN
            IF ItemAnalysisView."Dimension 3 Code" <> '' THEN
              EXIT('1,5,' + ItemAnalysisView."Dimension 3 Code");
            EXIT(Text002);
          END;
      END;
    END;

    BEGIN
    END.
  }
}

