OBJECT Table 99000784 Standard Task Quality Measure
{
  OBJECT-PROPERTIES
  {
    Date=05/11/08;
    Time=12:00:00;
    Version List=NAVW16.00;
  }
  PROPERTIES
  {
    CaptionML=[ENU=Standard Task Quality Measure;
               ENG=Standard Task Quality Measure];
  }
  FIELDS
  {
    { 1   ;   ;Standard Task Code  ;Code10        ;TableRelation="Standard Task";
                                                   CaptionML=[ENU=Standard Task Code;
                                                              ENG=Standard Task Code];
                                                   NotBlank=Yes }
    { 2   ;   ;Line No.            ;Integer       ;CaptionML=[ENU=Line No.;
                                                              ENG=Line No.] }
    { 9   ;   ;Qlty Measure Code   ;Code10        ;TableRelation="Quality Measure";
                                                   OnValidate=BEGIN
                                                                IF "Qlty Measure Code" = '' THEN
                                                                  EXIT;

                                                                QltyMeasure.GET("Qlty Measure Code");
                                                                Description := QltyMeasure.Description;
                                                              END;

                                                   CaptionML=[ENU=Qlty Measure Code;
                                                              ENG=Qlty Measure Code] }
    { 10  ;   ;Description         ;Text50        ;CaptionML=[ENU=Description;
                                                              ENG=Description] }
    { 11  ;   ;Min. Value          ;Decimal       ;CaptionML=[ENU=Min. Value;
                                                              ENG=Min. Value];
                                                   DecimalPlaces=0:5 }
    { 12  ;   ;Max. Value          ;Decimal       ;CaptionML=[ENU=Max. Value;
                                                              ENG=Max. Value];
                                                   DecimalPlaces=0:5 }
    { 13  ;   ;Mean Tolerance      ;Decimal       ;CaptionML=[ENU=Mean Tolerance;
                                                              ENG=Mean Tolerance];
                                                   DecimalPlaces=0:5 }
  }
  KEYS
  {
    {    ;Standard Task Code,Line No.             ;Clustered=Yes }
  }
  FIELDGROUPS
  {
  }
  CODE
  {
    VAR
      QltyMeasure@1000 : Record 99000785;

    BEGIN
    END.
  }
}

