OBJECT Table 905 Assembly Setup
{
  OBJECT-PROPERTIES
  {
    Date=22/11/17;
    Time=12:00:00;
    Version List=NAVW111.00;
  }
  PROPERTIES
  {
    CaptionML=[ENU=Assembly Setup;
               ENG=Assembly Setup];
  }
  FIELDS
  {
    { 1   ;   ;Primary Key         ;Code10        ;CaptionML=[ENU=Primary Key;
                                                              ENG=Primary Key] }
    { 5   ;   ;Stockout Warning    ;Boolean       ;InitValue=Yes;
                                                   CaptionML=[ENU=Stockout Warning;
                                                              ENG=Stockout Warning] }
    { 10  ;   ;Assembly Order Nos. ;Code20        ;TableRelation="No. Series";
                                                   AccessByPermission=TableData 110=R;
                                                   CaptionML=[ENU=Assembly Order Nos.;
                                                              ENG=Assembly Order Nos.] }
    { 20  ;   ;Assembly Quote Nos. ;Code20        ;TableRelation="No. Series";
                                                   CaptionML=[ENU=Assembly Quote Nos.;
                                                              ENG=Assembly Quote Nos.] }
    { 30  ;   ;Blanket Assembly Order Nos.;Code20 ;TableRelation="No. Series";
                                                   AccessByPermission=TableData 110=R;
                                                   CaptionML=[ENU=Blanket Assembly Order Nos.;
                                                              ENG=Blanket Assembly Order Nos.] }
    { 50  ;   ;Posted Assembly Order Nos.;Code20  ;TableRelation="No. Series";
                                                   CaptionML=[ENU=Posted Assembly Order Nos.;
                                                              ENG=Posted Assembly Order Nos.] }
    { 100 ;   ;Copy Component Dimensions from;Option;
                                                   AccessByPermission=TableData 348=R;
                                                   CaptionML=[ENU=Copy Component Dimensions from;
                                                              ENG=Copy Component Dimensions from];
                                                   OptionCaptionML=[ENU=Item/Resource Card,Order Header;
                                                                    ENG=Item/Resource Card,Order Header];
                                                   OptionString=Item/Resource Card,Order Header }
    { 110 ;   ;Default Location for Orders;Code10 ;TableRelation=Location;
                                                   CaptionML=[ENU=Default Location for Orders;
                                                              ENG=Default Location for Orders] }
    { 120 ;   ;Copy Comments when Posting;Boolean ;InitValue=Yes;
                                                   CaptionML=[ENU=Copy Comments when Posting;
                                                              ENG=Copy Comments when Posting] }
    { 130 ;   ;Create Movements Automatically;Boolean;
                                                   CaptionML=[ENU=Create Movements Automatically;
                                                              ENG=Create Movements Automatically] }
  }
  KEYS
  {
    {    ;Primary Key                             ;Clustered=Yes }
  }
  FIELDGROUPS
  {
  }
  CODE
  {

    BEGIN
    END.
  }
}

