OBJECT Table 99000756 Work Center Group
{
  OBJECT-PROPERTIES
  {
    Date=07/09/12;
    Time=12:00:00;
    Version List=NAVW17.00;
  }
  PROPERTIES
  {
    DataCaptionFields=Code,Name;
    CaptionML=[ENU=Work Center Group;
               ENG=Work Centre Group];
    LookupPageID=Page99000758;
    DrillDownPageID=Page99000758;
  }
  FIELDS
  {
    { 1   ;   ;Code                ;Code10        ;CaptionML=[ENU=Code;
                                                              ENG=Code];
                                                   NotBlank=Yes }
    { 2   ;   ;Name                ;Text50        ;CaptionML=[ENU=Name;
                                                              ENG=Name] }
    { 20  ;   ;Date Filter         ;Date          ;FieldClass=FlowFilter;
                                                   CaptionML=[ENU=Date Filter;
                                                              ENG=Date Filter] }
    { 21  ;   ;Work Shift Filter   ;Code10        ;FieldClass=FlowFilter;
                                                   TableRelation="Work Shift";
                                                   CaptionML=[ENU=Work Shift Filter;
                                                              ENG=Work Shift Filter] }
    { 22  ;   ;Capacity (Total)    ;Decimal       ;FieldClass=FlowField;
                                                   CalcFormula=Sum("Calendar Entry"."Capacity (Total)" WHERE (Capacity Type=CONST(Work Center),
                                                                                                              Work Center Group Code=FIELD(Code),
                                                                                                              Work Shift Code=FIELD(Work Shift Filter),
                                                                                                              Date=FIELD(Date Filter)));
                                                   CaptionML=[ENU=Capacity (Total);
                                                              ENG=Capacity (Total)];
                                                   DecimalPlaces=0:5;
                                                   Editable=No }
    { 23  ;   ;Capacity (Effective);Decimal       ;FieldClass=FlowField;
                                                   CalcFormula=Sum("Calendar Entry"."Capacity (Effective)" WHERE (Capacity Type=CONST(Work Center),
                                                                                                                  Work Center Group Code=FIELD(Code),
                                                                                                                  Work Shift Code=FIELD(Work Shift Filter),
                                                                                                                  Date=FIELD(Date Filter)));
                                                   CaptionML=[ENU=Capacity (Effective);
                                                              ENG=Capacity (Effective)];
                                                   DecimalPlaces=0:5;
                                                   Editable=No }
    { 24  ;   ;Prod. Order Need (Qty.);Decimal    ;FieldClass=FlowField;
                                                   CalcFormula=Sum("Prod. Order Capacity Need"."Allocated Time" WHERE (Status=FIELD(Prod. Order Status Filter),
                                                                                                                       Work Center Group Code=FIELD(Code),
                                                                                                                       Date=FIELD(Date Filter),
                                                                                                                       Requested Only=CONST(No)));
                                                   CaptionML=[ENU=Prod. Order Need (Qty.);
                                                              ENG=Prod. Order Need (Qty.)];
                                                   DecimalPlaces=0:5;
                                                   Editable=No }
    { 47  ;   ;Prod. Order Status Filter;Option   ;FieldClass=FlowFilter;
                                                   CaptionML=[ENU=Prod. Order Status Filter;
                                                              ENG=Prod. Order Status Filter];
                                                   OptionCaptionML=[ENU=Simulated,Planned,Firm Planned,Released,Finished;
                                                                    ENG=Simulated,Planned,Firm Planned,Released,Finished];
                                                   OptionString=Simulated,Planned,Firm Planned,Released,Finished }
  }
  KEYS
  {
    {    ;Code                                    ;Clustered=Yes }
  }
  FIELDGROUPS
  {
  }
  CODE
  {

    BEGIN
    END.
  }
}

